[INFO -- 2018-11-25 15:03:42]
sending 5 signals using command: 'killall -2 lreg' after 5.10082681387s
[INFO -- 2018-11-25 15:03:42]
Starting GDB script
[INFO -- 2018-11-25 15:03:42]
initSignal:0.0
[INFO -- 2018-11-25 15:03:42]
endSignal:6.0
[INFO -- 2018-11-25 15:03:42]
sending 5 signals using command: 'killall -2 lreg' after 0.305564538121s
[INFO -- 2018-11-25 15:03:45]
Execution finished before waitTime
