[INFO -- 2018-11-27 19:47:11]
Starting GDB script
[INFO -- 2018-11-27 19:47:11]
initSignal:0.0
[INFO -- 2018-11-27 19:47:11]
endSignal:3.0
[INFO -- 2018-11-27 19:47:12]
sending 5 signals using command: 'killall -2 lreg' after 0.692473105377s
[INFO -- 2018-11-27 19:47:12]
sending 5 signals using command: 'killall -2 lreg' after 1.0372034399s
[INFO -- 2018-11-27 19:47:14]
sending 5 signals using command: 'killall -2 lreg' after 2.09289128204s
[INFO -- 2018-11-27 19:47:18]
Execution finished before waitTime
