[INFO -- 2018-11-24 16:07:23]
sending 5 signals using command: 'killall -2 lreg' after 4.8954116147s
[INFO -- 2018-11-24 16:07:23]
Starting GDB script
[INFO -- 2018-11-24 16:07:23]
initSignal:0.0
[INFO -- 2018-11-24 16:07:23]
endSignal:6.0
[INFO -- 2018-11-24 16:07:23]
sending 5 signals using command: 'killall -2 lreg' after 0.599552454859s
[INFO -- 2018-11-24 16:07:27]
Execution finished before waitTime
