[INFO -- 2018-11-25 11:42:43]
Starting flip_value script
version: 1.1
[INFO -- 2018-11-25 11:42:43]
Initialization strings:
[INFO -- 2018-11-25 11:42:43]
(1) file /tmp/lreg/lreg
[INFO -- 2018-11-25 11:42:43]
(2) set args /tmp/lreg/randInput /tmp/lreg/output /tmp/lreg/detected.log
[INFO -- 2018-11-25 11:42:43]
initSignal:0
[INFO -- 2018-11-25 11:42:43]
endSignal:6
[INFO -- 2018-11-25 11:42:43]
faultModel:0
[INFO -- 2018-11-25 11:42:45]
event type: exit
[INFO -- 2018-11-25 11:42:45]
exit code: 0
