[INFO -- 2018-11-23 19:55:17]
sending 5 signals using command: 'killall -2 lreg' after 2.32830418561s
[INFO -- 2018-11-23 19:55:17]
sending 5 signals using command: 'killall -2 lreg' after 2.39825464671s
[INFO -- 2018-11-23 19:55:17]
Starting GDB script
[INFO -- 2018-11-23 19:55:17]
initSignal:0.0
[INFO -- 2018-11-23 19:55:17]
endSignal:3.0
[INFO -- 2018-11-23 19:55:18]
sending 5 signals using command: 'killall -2 lreg' after 0.816347506142s
[INFO -- 2018-11-23 19:55:18]
sending 5 signals using command: 'killall -2 lreg' after 1.37977019238s
[INFO -- 2018-11-23 19:55:19]
sending 5 signals using command: 'killall -2 lreg' after 1.94340086336s
[INFO -- 2018-11-23 19:55:20]
Execution finished before waitTime
