[INFO -- 2018-11-25 16:35:16]
Starting GDB script
[INFO -- 2018-11-25 16:35:16]
initSignal:0.0
[INFO -- 2018-11-25 16:35:16]
endSignal:6.0
[INFO -- 2018-11-25 16:35:16]
sending 5 signals using command: 'killall -2 lreg' after 0.585076420681s
[INFO -- 2018-11-25 16:35:20]
sending 5 signals using command: 'killall -2 lreg' after 4.33866309089s
[INFO -- 2018-11-25 16:35:21]
sending 5 signals using command: 'killall -2 lreg' after 5.16092455451s
[INFO -- 2018-11-25 16:35:23]
Execution finished before waitTime
