[INFO -- 2018-11-22 17:07:28]
Starting GDB script
[INFO -- 2018-11-22 17:07:28]
initSignal:0.0
[INFO -- 2018-11-22 17:07:28]
endSignal:3.0
[INFO -- 2018-11-22 17:07:28]
sending 5 signals using command: 'killall -2 lreg' after 0.276917249785s
[INFO -- 2018-11-22 17:07:34]
sending 5 signals using command: 'killall -2 lreg' after 2.9539499018s
[INFO -- 2018-11-22 17:07:34]
sending 5 signals using command: 'killall -2 lreg' after 1.69822285072s
[INFO -- 2018-11-22 17:07:34]
Execution finished before waitTime
