[INFO -- 2018-11-26 18:18:14]
Starting flip_value script
version: 1.1
[INFO -- 2018-11-26 18:18:14]
Initialization strings:
[INFO -- 2018-11-26 18:18:14]
(1) file /tmp/lreg/lreg
[INFO -- 2018-11-26 18:18:14]
(2) set args /tmp/lreg/randInput /tmp/lreg/output
[INFO -- 2018-11-26 18:18:14]
initSignal:0
[INFO -- 2018-11-26 18:18:14]
endSignal:3
[INFO -- 2018-11-26 18:18:14]
faultModel:2
[INFO -- 2018-11-26 18:18:15]
Backtrace BEGIN:
#0  dl_main (phdr=<optimized out>, phnum=<optimized out>, user_entry=<optimized out>, auxv=<optimized out>) at rtld.c:2289
#1  0x00007ffff7defdd0 in _dl_sysdep_start (start_argptr=start_argptr@entry=0x7fffffffde50, dl_main=dl_main@entry=0x7ffff7dd7660 <dl_main>) at ../elf/dl-sysdep.c:253
#2  0x00007ffff7dd7128 in _dl_start_final (arg=0x7fffffffde50) at rtld.c:414
#3  _dl_start (arg=0x7fffffffde50) at rtld.c:521
#4  0x00007ffff7dd6098 in _start () from /lib64/ld-linux-x86-64.so.2
#5  0x0000000000000003 in ?? ()
#6  0x00007fffffffe1ff in ?? ()
#7  0x00007fffffffe20e in ?? ()
#8  0x00007fffffffe222 in ?? ()
#9  0x0000000000000000 in ?? ()

2284	rtld.c: No such file or directory.

Backtrace END
Memory content before bitflip:0xba0xd30x9f0xd40x080x390x000x00
Fault Model: Random bit-flip
base address to flip value: 0x7ffff7ffc720 
address max offset: 8
Memory content after  bitflip:0x430x2a0x3c0x370x4c0x6f0x860xc2
frame name: dl_main
symbol name: start_time
symbol filename: rtld.c
symbol line: 308
value: 14017013263372134979
value address: 0x7ffff7ffc720 <start_time>
Type: The type is an integer type.
Type sizeof: 8

[INFO -- 2018-11-26 18:18:15]
Fault Injection Successful after 1.6248972415924072s
[INFO -- 2018-11-26 18:18:18]
event type: exit
[INFO -- 2018-11-26 18:18:18]
exit code: 0
