[INFO -- 2018-11-25 12:35:10]
sending 5 signals using command: 'killall -2 lreg' after 5.32782193156s
[INFO -- 2018-11-25 12:35:10]
Starting GDB script
[INFO -- 2018-11-25 12:35:10]
initSignal:0.0
[INFO -- 2018-11-25 12:35:10]
endSignal:6.0
[INFO -- 2018-11-25 12:35:13]
Execution finished before waitTime
