[INFO -- 2018-11-25 21:04:21]
Starting flip_value script
version: 1.1
[INFO -- 2018-11-25 21:04:21]
Initialization strings:
[INFO -- 2018-11-25 21:04:21]
(1) file /tmp/lreg/lreg
[INFO -- 2018-11-25 21:04:21]
(2) set args /tmp/lreg/randInput /tmp/lreg/output /tmp/lreg/detected.log
[INFO -- 2018-11-25 21:04:21]
initSignal:0
[INFO -- 2018-11-25 21:04:21]
endSignal:6
[INFO -- 2018-11-25 21:04:21]
faultModel:2
[INFO -- 2018-11-25 21:04:23]
Backtrace BEGIN:
#0  __ieee754_pow_sse2 (x=7, y=3) at ../sysdeps/ieee754/dbl-64/e_pow.c:101
#1  0x00007ffff76bcb14 in __pow (x=7, y=3) at w_pow_compat.c:30
#2  0x000055555555621b in std::pow<double, int> (__x=7, __y=3) at /usr/include/c++/7/cmath:418
#3  0x0000555555555237 in predict (v=7) at lreg.cpp:50
#4  0x00005555555553fc in partialDerivate (pos=3) at lreg.cpp:74
#5  0x0000555555555503 in adjust (alpha=2.2222199999999999e-05) at lreg.cpp:87
#6  0x00005555555556ac in train (iterations=30000, alpha=2.2222199999999999e-05, N=4, stopsWhenStable=true) at lreg.cpp:120
#7  0x0000555555555a1c in execute (input=0x7fffffffe1f1 "/tmp/lreg/randInput") at lreg.cpp:157
#8  0x0000555555555c78 in main (argc=4, argv=0x7fffffffde48) at lreg.cpp:193

96	../sysdeps/ieee754/dbl-64/e_pow.c: No such file or directory.

Backtrace END
Fliping value of field: std::_Vector_base<double, std::allocator<double> >
Fliping value of field: _M_impl
Fliping value of field: _M_finish
Fliping a bit of the value pointed by a pointer
Memory content before bitflip:0x000x000x000x000x000x000x000x00
Fault Model: Random bit-flip
base address to flip value: 0x555555772680
address max offset: 8
Memory content after  bitflip:0x3f0x100x500x800x3e0xf40xa10x59
frame name: train
symbol name: prevT
symbol filename: lreg.cpp
symbol line: 114
value: std::vector of length 4, capacity 4 = {0.21803285562924321, -1.0377592549367933, -1.9461780766248842, -3.97013809032509}
value address: 0x7fffffffd590
Type: The type is a structure.
Type sizeof: 24
Field name: std::_Vector_base<double, std::allocator<double> >
Field Type: The type is a structure.
Field Type sizeof: 24

[INFO -- 2018-11-25 21:04:23]
Fault Injection Successful after 2.2437527179718018s
[INFO -- 2018-11-25 21:04:24]
event type: exit
[INFO -- 2018-11-25 21:04:24]
exit code: 0
