[INFO -- 2018-11-27 19:19:38]
Starting GDB script
[INFO -- 2018-11-27 19:19:38]
initSignal:0.0
[INFO -- 2018-11-27 19:19:38]
endSignal:3.0
[INFO -- 2018-11-27 19:19:39]
sending 5 signals using command: 'killall -2 lreg' after 1.05413416898s
[INFO -- 2018-11-27 19:19:39]
sending 5 signals using command: 'killall -2 lreg' after 1.20755221389s
[INFO -- 2018-11-27 19:19:41]
sending 5 signals using command: 'killall -2 lreg' after 2.89470759783s
[INFO -- 2018-11-27 19:19:45]
Execution finished before waitTime
