[INFO -- 2018-11-24 19:21:42]
Starting flip_value script
version: 1.1
[INFO -- 2018-11-24 19:21:42]
Initialization strings:
[INFO -- 2018-11-24 19:21:42]
(1) file /tmp/lreg/lreg
[INFO -- 2018-11-24 19:21:42]
(2) set args /tmp/lreg/randInput /tmp/lreg/output /tmp/lreg/detected.log
[INFO -- 2018-11-24 19:21:42]
initSignal:0
[INFO -- 2018-11-24 19:21:42]
endSignal:6
[INFO -- 2018-11-24 19:21:42]
faultModel:2
[INFO -- 2018-11-24 19:21:42]
Backtrace BEGIN:
#0  0x000055555555525a in predict (v=-7) at lreg.cpp:54
#1  0x00005555555553fc in partialDerivate (pos=2) at lreg.cpp:74
#2  0x0000555555555503 in adjust (alpha=5.0000000000000002e-05) at lreg.cpp:87
#3  0x00005555555556ac in train (iterations=20000, alpha=5.0000000000000002e-05, N=3, stopsWhenStable=true) at lreg.cpp:120
#4  0x0000555555555a1c in execute (input=0x7fffffffe1f2 "/tmp/lreg/randInput") at lreg.cpp:157
#5  0x0000555555555c78 in main (argc=4, argv=0x7fffffffde48) at lreg.cpp:193

49		for(int i = 0; i<T.size(); i++){
50			val+= (T[i] * pow(v, i));
51		}
52		return val;
53		
54	}
55	/**
56		Calculates the mean squared error of T
57	*/
58	double meanSquaredError(){

Backtrace END
Memory content before bitflip:0x200x4e0x000x00
Fault Model: Random bit-flip
base address to flip value: 0x7fffffffd668
address max offset: 4
Memory content after  bitflip:0x8a0xf60xe90x7c
frame name: execute
symbol name: iterations
symbol filename: lreg.cpp
symbol line: 144
value: 2095707786
value address: 0x7fffffffd668
Type: The type is an integer type.
Type sizeof: 4

[INFO -- 2018-11-24 19:21:42]
Fault Injection Successful after 0.6938436031341553s
[INFO -- 2018-11-24 19:21:44]
event type: exit
[INFO -- 2018-11-24 19:21:44]
exit code: 0
