[INFO -- 2018-11-27 21:06:14]
Starting GDB script
[INFO -- 2018-11-27 21:06:14]
initSignal:0.0
[INFO -- 2018-11-27 21:06:14]
endSignal:3.0
[INFO -- 2018-11-27 21:06:14]
sending 5 signals using command: 'killall -2 lreg' after 0.170268778494s
[INFO -- 2018-11-27 21:06:15]
sending 5 signals using command: 'killall -2 lreg' after 1.0858036919s
[INFO -- 2018-11-27 21:06:16]
sending 5 signals using command: 'killall -2 lreg' after 1.44125043797s
[INFO -- 2018-11-27 21:06:18]
Execution finished before waitTime
