[INFO -- 2018-11-23 19:40:57]
Starting GDB script
[INFO -- 2018-11-23 19:40:57]
initSignal:0.0
[INFO -- 2018-11-23 19:40:57]
endSignal:3.0
[INFO -- 2018-11-23 19:40:58]
sending 5 signals using command: 'killall -2 lreg' after 0.335090876057s
[INFO -- 2018-11-23 19:41:00]
Execution finished before waitTime
