[INFO -- 2018-11-22 20:27:46]
Starting GDB script
[INFO -- 2018-11-22 20:27:46]
initSignal:0.0
[INFO -- 2018-11-22 20:27:46]
endSignal:3.0
[INFO -- 2018-11-22 20:27:47]
sending 5 signals using command: 'killall -2 lreg' after 1.11473436134s
[INFO -- 2018-11-22 20:27:48]
sending 5 signals using command: 'killall -2 lreg' after 1.81502241392s
[INFO -- 2018-11-22 20:27:48]
sending 5 signals using command: 'killall -2 lreg' after 2.56611913829s
[INFO -- 2018-11-22 20:27:51]
Execution finished before waitTime
