[INFO -- 2018-11-27 17:02:55]
Starting GDB script
[INFO -- 2018-11-27 17:02:55]
initSignal:0.0
[INFO -- 2018-11-27 17:02:55]
endSignal:3.0
[INFO -- 2018-11-27 17:02:57]
sending 5 signals using command: 'killall -2 lreg' after 2.25425296855s
[INFO -- 2018-11-27 17:02:57]
sending 5 signals using command: 'killall -2 lreg' after 2.85629738936s
[INFO -- 2018-11-27 17:02:58]
sending 5 signals using command: 'killall -2 lreg' after 1.27877363658s
[INFO -- 2018-11-27 17:02:58]
Execution finished before waitTime
