[INFO -- 2018-11-22 15:41:30]
Starting GDB script
[INFO -- 2018-11-22 15:41:30]
initSignal:0.0
[INFO -- 2018-11-22 15:41:30]
endSignal:3.0
[INFO -- 2018-11-22 15:41:32]
sending 5 signals using command: 'killall -2 lreg' after 2.34164597324s
[INFO -- 2018-11-22 15:41:32]
sending 5 signals using command: 'killall -2 lreg' after 2.34741174712s
[INFO -- 2018-11-22 15:41:33]
sending 5 signals using command: 'killall -2 lreg' after 2.524372893s
[INFO -- 2018-11-22 15:41:36]
Execution finished before waitTime
