[INFO -- 2018-11-26 18:17:54]
sending 5 signals using command: 'killall -2 lreg' after 2.48380712378s
[INFO -- 2018-11-26 18:17:54]
Starting GDB script
[INFO -- 2018-11-26 18:17:54]
initSignal:0.0
[INFO -- 2018-11-26 18:17:54]
endSignal:3.0
[INFO -- 2018-11-26 18:17:56]
sending 5 signals using command: 'killall -2 lreg' after 1.89279612224s
[INFO -- 2018-11-26 18:17:56]
sending 5 signals using command: 'killall -2 lreg' after 1.92703640316s
[INFO -- 2018-11-26 18:17:57]
sending 5 signals using command: 'killall -2 lreg' after 2.64285048499s
[INFO -- 2018-11-26 18:17:57]
Execution finished before waitTime
