[INFO -- 2018-11-25 11:34:34]
Starting flip_value script
version: 1.1
[INFO -- 2018-11-25 11:34:34]
Initialization strings:
[INFO -- 2018-11-25 11:34:34]
(1) file /tmp/lreg/lreg
[INFO -- 2018-11-25 11:34:34]
(2) set args /tmp/lreg/randInput /tmp/lreg/output /tmp/lreg/detected.log
[INFO -- 2018-11-25 11:34:34]
initSignal:0
[INFO -- 2018-11-25 11:34:34]
endSignal:6
[INFO -- 2018-11-25 11:34:34]
faultModel:1
[INFO -- 2018-11-25 11:34:35]
Backtrace BEGIN:
#0  0x0000555555555241 in predict (v=13) at lreg.cpp:50
#1  0x000055555555530a in meanSquaredError () at lreg.cpp:61
#2  0x00005555555556b1 in train (iterations=20000, alpha=5.0000000000000002e-05, N=3, stopsWhenStable=true) at lreg.cpp:121
#3  0x0000555555555a1c in execute (input=0x7fffffffe1f1 "/tmp/lreg/randInput") at lreg.cpp:157
#4  0x0000555555555c78 in main (argc=4, argv=0x7fffffffde48) at lreg.cpp:193

45		Predicts the value related to v using the Ts variables
46	*/
47	double predict(double v){
48		double val = 0;
49		for(int i = 0; i<T.size(); i++){
50			val+= (T[i] * pow(v, i));
51		}
52		return val;
53		
54	}

Backtrace END
Fliping value of field: std::_Vector_base<double, std::allocator<double> >
Fliping value of field: _M_impl
Fliping value of field: _M_finish
Fliping a bit of the value pointed by a pointer
Memory content before bitflip:0x210x000x000x000x000x000x000x00
Fault Model: Double bit-flip
base address to flip value: 0x555555772468
address max offset: 8
Memory content after  bitflip:0x210x000x000x000x090x000x000x00
frame name: main
symbol name: T
symbol filename: lreg.cpp
symbol line: 34
value: std::vector of length 3, capacity 3 = {0.020850512938385083, -0.034127369360528882, -2.9898957696106256}
value address: 0x55555575b180 <T>
Type: The type is a structure.
Type sizeof: 24
Field name: std::_Vector_base<double, std::allocator<double> >
Field Type: The type is a structure.
Field Type sizeof: 24

[INFO -- 2018-11-25 11:34:35]
Fault Injection Successful after 1.378939151763916s
[INFO -- 2018-11-25 11:34:35]
event type: exit
[EXCEPTION -- 2018-11-25 11:34:35]
exit code: no exit code available
