[INFO -- 2018-11-27 18:26:21]
Starting GDB script
[INFO -- 2018-11-27 18:26:21]
initSignal:0.0
[INFO -- 2018-11-27 18:26:21]
endSignal:3.0
[INFO -- 2018-11-27 18:26:23]
sending 5 signals using command: 'killall -2 lreg' after 2.72378010944s
[INFO -- 2018-11-27 18:26:24]
sending 5 signals using command: 'killall -2 lreg' after 2.27566531389s
[INFO -- 2018-11-27 18:26:24]
sending 5 signals using command: 'killall -2 lreg' after 1.62510707405s
[INFO -- 2018-11-27 18:26:25]
Execution finished before waitTime
