[INFO -- 2018-11-25 14:01:18]
Starting flip_value script
version: 1.1
[INFO -- 2018-11-25 14:01:18]
Initialization strings:
[INFO -- 2018-11-25 14:01:18]
(1) file /tmp/lreg/lreg
[INFO -- 2018-11-25 14:01:18]
(2) set args /tmp/lreg/randInput /tmp/lreg/output /tmp/lreg/detected.log
[INFO -- 2018-11-25 14:01:18]
initSignal:0
[INFO -- 2018-11-25 14:01:18]
endSignal:6
[INFO -- 2018-11-25 14:01:18]
faultModel:1
[INFO -- 2018-11-25 14:01:21]
event type: exit
[INFO -- 2018-11-25 14:01:21]
exit code: 0
