[INFO -- 2018-11-27 18:24:27]
Starting flip_value script
version: 1.1
[INFO -- 2018-11-27 18:24:27]
Initialization strings:
[INFO -- 2018-11-27 18:24:27]
(1) file /tmp/lreg/lreg
[INFO -- 2018-11-27 18:24:27]
(2) set args /tmp/lreg/randInput /tmp/lreg/output
[INFO -- 2018-11-27 18:24:27]
initSignal:0
[INFO -- 2018-11-27 18:24:27]
endSignal:3
[INFO -- 2018-11-27 18:24:27]
faultModel:1
[INFO -- 2018-11-27 18:24:28]
Backtrace BEGIN:
#0  0x00007ffff76da519 in __ieee754_pow_sse2 (x=-3, y=0) at ../sysdeps/ieee754/dbl-64/e_pow.c:65
#1  0x00007ffff76bcb14 in __pow (x=-3, y=0) at w_pow_compat.c:30
#2  0x0000555555556826 in std::pow<double, unsigned int> (__x=-3, __y=0) at /usr/include/c++/7/cmath:418
#3  0x0000555555555814 in predict (v=-3) at lreg.cpp:116
#4  0x0000555555555a53 in partialDerivate (pos1=1, pos2=1) at lreg.cpp:142
#5  0x0000555555555bbe in adjust (alpha1=5.0000000000000002e-05, alpha2=5.0000000000000002e-05) at lreg.cpp:156
#6  0x0000555555555ee0 in train (iter1=20000, iter2=20000, N=3, alpha1=5.0000000000000002e-05, alpha2=5.0000000000000002e-05, stopsWhenStable=true) at lreg.cpp:193
#7  0x0000555555556467 in main (argc=3, argv=0x7fffffffde58) at lreg.cpp:253

60	../sysdeps/ieee754/dbl-64/e_pow.c: No such file or directory.

Backtrace END
Memory content before bitflip:0x2d0x430x1c0xeb0xe20x360x0a0x3f
Fault Model: Double bit-flip
base address to flip value: 0x7fffffffd7c0
address max offset: 8
Memory content after  bitflip:0x2d0x430x1c0xeb0xc00x360x0a0x3f
frame name: train
symbol name: alpha2
symbol filename: lreg.cpp
symbol line: 177
value: 4.9999010469764473e-05
value address: 0x7fffffffd7c0
Type: A floating point type.
Type sizeof: 8

[INFO -- 2018-11-27 18:24:28]
Fault Injection Successful after 1.533562421798706s
[INFO -- 2018-11-27 18:24:30]
event type: exit
[INFO -- 2018-11-27 18:24:30]
exit code: 0
