[INFO -- 2018-11-24 18:28:43]
Starting flip_value script
version: 1.1
[INFO -- 2018-11-24 18:28:43]
Initialization strings:
[INFO -- 2018-11-24 18:28:43]
(1) file /tmp/lreg/lreg
[INFO -- 2018-11-24 18:28:43]
(2) set args /tmp/lreg/randInput /tmp/lreg/output /tmp/lreg/detected.log
[INFO -- 2018-11-24 18:28:43]
initSignal:0
[INFO -- 2018-11-24 18:28:43]
endSignal:6
[INFO -- 2018-11-24 18:28:43]
faultModel:1
[EXCEPTION -- 2018-11-24 18:28:46]
gdbException: Cannot access memory at address 0x8400555555772380
[INFO -- 2018-11-24 18:28:46]
Backtrace BEGIN:
#0  0x00007ffff76da906 in __ieee754_pow_sse2 (x=7, y=3) at ../sysdeps/ieee754/dbl-64/e_pow.c:116
#1  0x00007ffff76bcb14 in __pow (x=7, y=3) at w_pow_compat.c:30
#2  0x0000555555556149 in std::pow<double, int> (__x=7, __y=3) at /usr/include/c++/7/cmath:418
#3  0x0000555555555237 in predict (v=7) at lreg.cpp:50
#4  0x000055555555530a in meanSquaredError () at lreg.cpp:61
#5  0x00005555555556b1 in train (iterations=30000, alpha=2.2222199999999999e-05, N=4, stopsWhenStable=true) at lreg.cpp:121
#6  0x0000555555555a1c in execute (input=0x7fffffffe1f2 "/tmp/lreg/randInput") at lreg.cpp:157
#7  0x0000555555555c78 in main (argc=4, argv=0x7fffffffde48) at lreg.cpp:193

111	in ../sysdeps/ieee754/dbl-64/e_pow.c

Backtrace END
Memory content before bitflip:0x000x000x000x000x000x000x080x40
Fault Model: Double bit-flip
base address to flip value: 0x7fffffffd478
address max offset: 8
Memory content after  bitflip:0x000x000x000xc00x000x000x080x40
frame name: __pow
symbol name: y
symbol filename: w_pow_compat.c
symbol line: 28
value: 3.0000014305114746
value address: 0x7fffffffd478
Type: A floating point type.
Type sizeof: 8

[INFO -- 2018-11-24 18:28:46]
Fault Injection Successful after 3.7532882690429688s
[INFO -- 2018-11-24 18:28:47]
event type: exit
[EXCEPTION -- 2018-11-24 18:28:47]
exit code: no exit code available
