[INFO -- 2018-11-24 18:43:06]
Starting GDB script
[INFO -- 2018-11-24 18:43:06]
initSignal:0.0
[INFO -- 2018-11-24 18:43:06]
endSignal:6.0
[INFO -- 2018-11-24 18:43:08]
sending 5 signals using command: 'killall -2 lreg' after 1.74255235438s
[INFO -- 2018-11-24 18:43:09]
sending 5 signals using command: 'killall -2 lreg' after 2.86768551436s
[INFO -- 2018-11-24 18:43:10]
Execution finished before waitTime
