[INFO -- 2018-11-23 21:37:50]
sending 5 signals using command: 'killall -2 lreg' after 2.56347168824s
[INFO -- 2018-11-23 21:37:50]
Starting GDB script
[INFO -- 2018-11-23 21:37:50]
initSignal:0.0
[INFO -- 2018-11-23 21:37:50]
endSignal:3.0
[INFO -- 2018-11-23 21:37:50]
sending 5 signals using command: 'killall -2 lreg' after 0.126535595029s
[INFO -- 2018-11-23 21:37:51]
sending 5 signals using command: 'killall -2 lreg' after 1.26964883387s
[INFO -- 2018-11-23 21:37:53]
sending 5 signals using command: 'killall -2 lreg' after 2.58744851718s
[INFO -- 2018-11-23 21:37:53]
Execution finished before waitTime
