[INFO -- 2018-11-24 09:54:31]
Starting GDB script
[INFO -- 2018-11-24 09:54:31]
initSignal:0.0
[INFO -- 2018-11-24 09:54:31]
endSignal:2.0
[INFO -- 2018-11-24 09:54:32]
sending 5 signals using command: 'killall -2 lreg' after 0.838541232508s
[INFO -- 2018-11-24 09:54:32]
sending 5 signals using command: 'killall -2 lreg' after 0.908906350807s
[INFO -- 2018-11-24 09:54:33]
sending 5 signals using command: 'killall -2 lreg' after 1.3833189755s
[INFO -- 2018-11-24 09:54:35]
Execution finished before waitTime
