[INFO -- 2018-11-22 20:13:46]
Starting GDB script
[INFO -- 2018-11-22 20:13:46]
initSignal:0.0
[INFO -- 2018-11-22 20:13:46]
endSignal:3.0
[INFO -- 2018-11-22 20:13:47]
sending 5 signals using command: 'killall -2 lreg' after 0.235068308787s
[INFO -- 2018-11-22 20:13:48]
sending 5 signals using command: 'killall -2 lreg' after 1.94022053392s
[INFO -- 2018-11-22 20:13:49]
sending 5 signals using command: 'killall -2 lreg' after 2.29112778665s
[INFO -- 2018-11-22 20:13:50]
Execution finished before waitTime
