[INFO -- 2018-11-24 15:01:45]
Starting GDB script
[INFO -- 2018-11-24 15:01:45]
initSignal:0.0
[INFO -- 2018-11-24 15:01:45]
endSignal:6.0
[INFO -- 2018-11-24 15:01:46]
sending 5 signals using command: 'killall -2 lreg' after 0.997842201385s
[INFO -- 2018-11-24 15:01:49]
Execution finished before waitTime
