[INFO -- 2018-11-25 17:01:39]
Starting flip_value script
version: 1.1
[INFO -- 2018-11-25 17:01:39]
Initialization strings:
[INFO -- 2018-11-25 17:01:39]
(1) file /tmp/lreg/lreg
[INFO -- 2018-11-25 17:01:39]
(2) set args /tmp/lreg/randInput /tmp/lreg/output /tmp/lreg/detected.log
[INFO -- 2018-11-25 17:01:39]
initSignal:0
[INFO -- 2018-11-25 17:01:39]
endSignal:6
[INFO -- 2018-11-25 17:01:39]
faultModel:1
[EXCEPTION -- 2018-11-25 17:01:43]
pythonException: empty range for randrange() (0,0, 0)
[EXCEPTION -- 2018-11-25 17:01:44]
pythonException: Unable to exit loop in struct fields; Exiting wihtout making a bit flip
[INFO -- 2018-11-25 17:01:44]
Backtrace BEGIN:
#0  0x0000555555555217 in predict (v=-14) at lreg.cpp:50
#1  0x00005555555553fc in partialDerivate (pos=3) at lreg.cpp:74
#2  0x0000555555555503 in adjust (alpha=2.2222199999999999e-05) at lreg.cpp:87
#3  0x00005555555556ac in train (iterations=30000, alpha=2.2222199999999999e-05, N=4, stopsWhenStable=true) at lreg.cpp:120
#4  0x0000555555555a1c in execute (input=0x7fffffffe1f1 "/tmp/lreg/randInput") at lreg.cpp:157
#5  0x0000555555555c78 in main (argc=4, argv=0x7fffffffde48) at lreg.cpp:193

45		Predicts the value related to v using the Ts variables
46	*/
47	double predict(double v){
48		double val = 0;
49		for(int i = 0; i<T.size(); i++){
50			val+= (T[i] * pow(v, i));
51		}
52		return val;
53		
54	}

Backtrace END
Fliping a bit of the value pointed by a pointer
Fliping a bit of the value pointed by a pointer
Memory content before bitflip:0x2f
Fault Model: Double bit-flip
base address to flip value: 0x7fffffffe1e2 
address max offset: 1
Memory content after  bitflip:0x07
frame name: main
symbol name: argv
symbol filename: lreg.cpp
symbol line: 181
value: 0x7fffffffde48
value address: 0x7fffffffd8e0
Type: The type is a pointer.
Type sizeof: 8

[INFO -- 2018-11-25 17:01:44]
Fault Injection Successful after 5.3095316886901855s
[INFO -- 2018-11-25 17:01:44]
event type: exit
[EXCEPTION -- 2018-11-25 17:01:44]
exit code: no exit code available
