[INFO -- 2018-11-23 17:52:10]
Starting flip_value script
version: 1.1
[INFO -- 2018-11-23 17:52:10]
Initialization strings:
[INFO -- 2018-11-23 17:52:10]
(1) file /tmp/lreg/lreg
[INFO -- 2018-11-23 17:52:10]
(2) set args /tmp/lreg/randInput /tmp/lreg/output
[INFO -- 2018-11-23 17:52:10]
initSignal:0
[INFO -- 2018-11-23 17:52:10]
endSignal:3
[INFO -- 2018-11-23 17:52:10]
faultModel:0
[INFO -- 2018-11-23 17:52:10]
Backtrace BEGIN:
#0  _dl_setup_hash (map=map@entry=0x7ffff7fdeee0) at dl-lookup.c:947
#1  0x00007ffff7ddc366 in _dl_map_object_from_fd (name=name@entry=0x5555555548f4 "libpthread.so.0", origname=origname@entry=0x0, fd=-1, fbp=fbp@entry=0x7fffffffd4c0, realname=<optimized out>, loader=loader@entry=0x7ffff7ffe170, l_type=<optimized out>, mode=<optimized out>, stack_endp=<optimized out>, nsid=<optimized out>) at dl-load.c:1271
#2  0x00007ffff7dddffc in _dl_map_object (loader=0x7ffff7ffe170, name=0x5555555548f4 "libpthread.so.0", type=1, trace_mode=0, mode=<optimized out>, nsid=<optimized out>) at dl-load.c:2389
#3  0x00007ffff7de3312 in openaux (a=a@entry=0x7fffffffdae0) at dl-deps.c:63
#4  0x00007ffff7df0c6b in _dl_catch_exception (exception=exception@entry=0x7fffffffdac0, operate=operate@entry=0x7ffff7de32e0 <openaux>, args=args@entry=0x7fffffffdae0) at dl-error-skeleton.c:196
#5  0x00007ffff7de3618 in _dl_map_object_deps (map=map@entry=0x7ffff7ffe170, preloads=<optimized out>, npreloads=npreloads@entry=0, trace_mode=trace_mode@entry=0, open_mode=open_mode@entry=0) at dl-deps.c:249
#6  0x00007ffff7dd8ea6 in dl_main (phdr=<optimized out>, phnum=<optimized out>, user_entry=<optimized out>, auxv=<optimized out>) at rtld.c:1726
#7  0x00007ffff7defdd0 in _dl_sysdep_start (start_argptr=start_argptr@entry=0x7fffffffde50, dl_main=dl_main@entry=0x7ffff7dd7660 <dl_main>) at ../elf/dl-sysdep.c:253
#8  0x00007ffff7dd7128 in _dl_start_final (arg=0x7fffffffde50) at rtld.c:414
#9  _dl_start (arg=0x7fffffffde50) at rtld.c:521
#10 0x00007ffff7dd6098 in _start () from /lib64/ld-linux-x86-64.so.2
#11 0x0000000000000003 in ?? ()
#12 0x00007fffffffe1fc in ?? ()
#13 0x00007fffffffe20b in ?? ()
#14 0x00007fffffffe21f in ?? ()
#15 0x0000000000000000 in ?? ()

942	dl-lookup.c: No such file or directory.

Backtrace END
Memory content before bitflip:0x780xde0xff0xff0xff0x7f0x000x00
Fault Model: Single bit-flip
base address to flip value: 0x7fffffffdbd0
address max offset: 8
Memory content after  bitflip:0x780xde0xff0xff0xfd0x7f0x000x00
frame name: dl_main
symbol name: file_size
symbol filename: rtld.c
symbol line: 874
value: 140728898412152
value address: 0x7fffffffdbd0
Type: The type is an integer type.
Type sizeof: 8

[INFO -- 2018-11-23 17:52:10]
Fault Injection Successful after 0.8238375186920166s
[INFO -- 2018-11-23 17:52:12]
event type: exit
[INFO -- 2018-11-23 17:52:12]
exit code: 0
