[INFO -- 2018-11-27 19:37:19]
Starting GDB script
[INFO -- 2018-11-27 19:37:19]
initSignal:0.0
[INFO -- 2018-11-27 19:37:19]
endSignal:3.0
[INFO -- 2018-11-27 19:37:19]
sending 5 signals using command: 'killall -2 lreg' after 0.342579604709s
[INFO -- 2018-11-27 19:37:19]
sending 5 signals using command: 'killall -2 lreg' after 0.384237203422s
[INFO -- 2018-11-27 19:37:20]
sending 5 signals using command: 'killall -2 lreg' after 0.540491089427s
[INFO -- 2018-11-27 19:37:26]
Execution finished before waitTime
