[INFO -- 2018-11-26 15:36:19]
Starting flip_value script
version: 1.1
[INFO -- 2018-11-26 15:36:19]
Initialization strings:
[INFO -- 2018-11-26 15:36:19]
(1) file /tmp/lreg/lreg
[INFO -- 2018-11-26 15:36:19]
(2) set args /tmp/lreg/randInput /tmp/lreg/output
[INFO -- 2018-11-26 15:36:19]
initSignal:0
[INFO -- 2018-11-26 15:36:19]
endSignal:3
[INFO -- 2018-11-26 15:36:19]
faultModel:2
[EXCEPTION -- 2018-11-26 15:36:19]
gdbException: Cannot access memory at address 0xe333791e56d61406
[INFO -- 2018-11-26 15:36:20]
Backtrace BEGIN:
#0  0x000055555555581e in predict (v=-1) at lreg.cpp:116
#1  0x0000555555555a53 in partialDerivate (pos1=2, pos2=2) at lreg.cpp:142
#2  0x0000555555555bbe in adjust (alpha1=5.0000000000000002e-05, alpha2=5.0000000000000002e-05) at lreg.cpp:156
#3  0x0000555555555ee0 in train (iter1=20000, iter2=20000, N=3, alpha1=5.0000000000000002e-05, alpha2=5.0000000000000002e-05, stopsWhenStable=true) at lreg.cpp:193
#4  0x0000555555556467 in main (argc=3, argv=0x7fffffffde58) at lreg.cpp:253

111	*/
112	double predict(double v){
113		double val = 0;
114		
115		for(UINT i1 = 0, i2 = 0; verifyUintDup(i1, i2)<T1.size(); i1++, i2++){
116			val+= (verifyDoubleDup(T1[verifyUintDup(i1, i2)], T2[verifyUintDup(i1, i2)]) * pow(v, verifyUintDup(i1, i2)));
117		}
118		return val;
119		
120	}

Backtrace END
Memory content before bitflip:0x200x4e0x000x00
Fault Model: Random bit-flip
base address to flip value: 0x7fffffffd8dc
address max offset: 4
Memory content after  bitflip:0xee0xab0x000x62
frame name: main
symbol name: iterations
symbol filename: lreg.cpp
symbol line: 236
value: 1644211182
value address: 0x7fffffffd8dc
Type: The type is an integer type.
Type sizeof: 4

[INFO -- 2018-11-26 15:36:20]
Fault Injection Successful after 1.1127963066101074s
[INFO -- 2018-11-26 15:36:20]
event type: exit
[EXCEPTION -- 2018-11-26 15:36:20]
exit code: no exit code available
