[INFO -- 2018-11-26 18:39:03]
Starting flip_value script
version: 1.1
[INFO -- 2018-11-26 18:39:03]
Initialization strings:
[INFO -- 2018-11-26 18:39:03]
(1) file /tmp/lreg/lreg
[INFO -- 2018-11-26 18:39:03]
(2) set args /tmp/lreg/randInput /tmp/lreg/output
[INFO -- 2018-11-26 18:39:03]
initSignal:0
[INFO -- 2018-11-26 18:39:03]
endSignal:3
[INFO -- 2018-11-26 18:39:03]
faultModel:1
[INFO -- 2018-11-26 18:39:04]
Backtrace BEGIN:
#0  std::vector<double, std::allocator<double> >::operator[] (this=0x55555575b180 <T1>, __n=0) at /usr/include/c++/7/bits/stl_vector.h:798
#1  0x00005555555557d4 in predict (v=-21) at lreg.cpp:116
#2  0x00005555555558c0 in meanSquaredError () at lreg.cpp:128
#3  0x0000555555555ee5 in train (iter1=20000, iter2=20000, N=3, alpha1=5.0000000000000002e-05, alpha2=5.0000000000000002e-05, stopsWhenStable=true) at lreg.cpp:194
#4  0x0000555555556467 in main (argc=3, argv=0x7fffffffde58) at lreg.cpp:253

793	       */
794	      reference
795	      operator[](size_type __n) _GLIBCXX_NOEXCEPT
796	      {
797		__glibcxx_requires_subscript(__n);
798		return *(this->_M_impl._M_start + __n);
799	      }
800	
801	      /**
802	       *  @brief  Subscript access to the data contained in the %vector.

Backtrace END
Memory content before bitflip:0x2d0x430x1c0xeb0xe20x360x0a0x3f
Fault Model: Double bit-flip
base address to flip value: 0x7fffffffd7c8
address max offset: 8
Memory content after  bitflip:0x2d0x430x1c0xeb0xe20x360x0a0xbe
frame name: train
symbol name: alpha1
symbol filename: lreg.cpp
symbol line: 177
value: -7.6293945312500004e-10
value address: 0x7fffffffd7c8
Type: A floating point type.
Type sizeof: 8

[INFO -- 2018-11-26 18:39:04]
Fault Injection Successful after 1.081329584121704s
[INFO -- 2018-11-26 18:39:05]
event type: exit
[INFO -- 2018-11-26 18:39:05]
exit code: 0
