[INFO -- 2018-11-27 20:25:42]
Starting GDB script
[INFO -- 2018-11-27 20:25:42]
initSignal:0.0
[INFO -- 2018-11-27 20:25:42]
endSignal:3.0
[INFO -- 2018-11-27 20:25:43]
sending 5 signals using command: 'killall -2 lreg' after 1.6480265052s
[INFO -- 2018-11-27 20:25:44]
sending 5 signals using command: 'killall -2 lreg' after 2.64237538518s
[INFO -- 2018-11-27 20:25:44]
sending 5 signals using command: 'killall -2 lreg' after 2.73359634353s
[INFO -- 2018-11-27 20:25:45]
Execution finished before waitTime
