[INFO -- 2018-11-26 20:33:26]
Starting GDB script
[INFO -- 2018-11-26 20:33:26]
initSignal:0.0
[INFO -- 2018-11-26 20:33:26]
endSignal:3.0
[INFO -- 2018-11-26 20:33:28]
sending 5 signals using command: 'killall -2 lreg' after 1.56426601933s
[INFO -- 2018-11-26 20:33:28]
sending 5 signals using command: 'killall -2 lreg' after 1.63839174278s
[INFO -- 2018-11-26 20:33:29]
sending 5 signals using command: 'killall -2 lreg' after 2.64062260552s
[INFO -- 2018-11-26 20:33:30]
Execution finished before waitTime
