[INFO -- 2018-11-26 19:35:37]
Starting GDB script
[INFO -- 2018-11-26 19:35:37]
initSignal:0.0
[INFO -- 2018-11-26 19:35:37]
endSignal:3.0
[INFO -- 2018-11-26 19:35:38]
sending 5 signals using command: 'killall -2 lreg' after 0.45906418411s
[INFO -- 2018-11-26 19:35:40]
sending 5 signals using command: 'killall -2 lreg' after 1.79468615297s
[INFO -- 2018-11-26 19:35:40]
sending 5 signals using command: 'killall -2 lreg' after 2.76417738239s
[INFO -- 2018-11-26 19:35:41]
Execution finished before waitTime
