[INFO -- 2018-11-25 22:12:15]
sending 5 signals using command: 'killall -2 lreg' after 3.61217395807s
[INFO -- 2018-11-25 22:12:16]
sending 5 signals using command: 'killall -2 lreg' after 4.32459426195s
[INFO -- 2018-11-25 22:12:17]
sending 5 signals using command: 'killall -2 lreg' after 4.91136535734s
[INFO -- 2018-11-25 22:12:17]
Starting GDB script
[INFO -- 2018-11-25 22:12:17]
initSignal:0.0
[INFO -- 2018-11-25 22:12:17]
endSignal:6.0
[INFO -- 2018-11-25 22:12:18]
sending 5 signals using command: 'killall -2 lreg' after 0.991823680958s
[INFO -- 2018-11-25 22:12:19]
sending 5 signals using command: 'killall -2 lreg' after 2.53488270002s
[INFO -- 2018-11-25 22:12:20]
Execution finished before waitTime
