[INFO -- 2018-11-22 20:10:23]
Starting flip_value script
version: 1.1
[INFO -- 2018-11-22 20:10:23]
Initialization strings:
[INFO -- 2018-11-22 20:10:23]
(1) file /tmp/lreg/lreg
[INFO -- 2018-11-22 20:10:23]
(2) set args /tmp/lreg/randInput /tmp/lreg/output
[INFO -- 2018-11-22 20:10:23]
initSignal:0
[INFO -- 2018-11-22 20:10:23]
endSignal:3
[INFO -- 2018-11-22 20:10:23]
faultModel:0
[EXCEPTION -- 2018-11-22 20:10:26]
pythonException: empty range for randrange() (0,0, 0)
[INFO -- 2018-11-22 20:10:26]
Backtrace BEGIN:
#0  std::pow<double, int> (__x=-16, __y=1) at /usr/include/c++/7/cmath:419
#1  0x00005555555551e7 in predict (v=-16) at lreg.cpp:50
#2  0x00005555555553ac in partialDerivate (pos=1) at lreg.cpp:74
#3  0x00005555555554b3 in adjust (alpha=2.2222199999999999e-05) at lreg.cpp:87
#4  0x000055555555565c in train (iterations=30000, alpha=2.2222199999999999e-05, N=4, stopsWhenStable=true) at lreg.cpp:120
#5  0x0000555555555ab7 in main (argc=3, argv=0x7fffffffde58) at lreg.cpp:174

414	    typename __gnu_cxx::__promote_2<_Tp, _Up>::__type
415	    pow(_Tp __x, _Up __y)
416	    {
417	      typedef typename __gnu_cxx::__promote_2<_Tp, _Up>::__type __type;
418	      return pow(__type(__x), __type(__y));
419	    }
420	
421	  using ::sin;
422	
423	#ifndef __CORRECT_ISO_CPP_MATH_H_PROTO

Backtrace END
Fliping value of field: std::_Vector_base<double, std::allocator<double> >
Fliping value of field: _M_impl
Fliping value of field: _M_start
Fliping a bit of the value pointed by a pointer
Memory content before bitflip:0xee0x900x5f0x060xa70x3f0x670x28
Fault Model: Single bit-flip
base address to flip value: 0x555555771382
address max offset: 8
Memory content after  bitflip:0xee0x900x570x060xa70x3f0x670x28
frame name: partialDerivate
symbol name: T
symbol filename: lreg.cpp
symbol line: 34
value: std::vector of length 3, capacity 3 = {4.7202961656133693e-114, -3.9728246137271916e-146, -4.2948551202337317e-249, 1.0433379486934672e-309, 3.7826255594622424e-307, 1.8130221999122236e-217, 4.4501491316782967e-308, -nan(0xf000000000000), 3.6160937168896292e-62, 1.2522445825712207e-76, 3.4732827106545763e-310, 3.4732827106519577e-310, 1.0461568558577304e-309, 1.0441704688602815e-309, 3.7826255594622424e-307, 0, 4.4501477170144028e-308, -nan(0xf000000000000), 8.2067091652525958e-72, 1.7161197285319654e-317, 0, 0, 0, 0, 4.7282819493278029e-308, 3.0417465060722557e-210, 2.305843742221463e+18, 1.1015159016523218e-262, 4.9369163871910585e-308, 1.2166986024289023e-209, -2.980835368938605e+233, -4.6275811753407164e-242, 4.9369163916911299e-308, 0, 2.305843009213694e+18, 1.1015159016523218e-262, 6.3192529756045548e-306, 0, 1.0439794892390947e-309, 1.0437248497441788e-309, 1.0426638518486962e-309, 3.4896220782423903e-310, 3.4809218954994327e-310, 1.0440643690707333e-309, 3.4900464774005834e-310, 1.044021929154914e-309, 1.0440643690707333e-309, 1.0442765686498298e-309, 3.4887732799260042e-310, 1.0439370493232754e-309, 3.4826194921322049e-310, 1.0430033711752506e-309, 1.0440431491128236e-309, 3.4879244816096181e-310, 6.0522008951395878e-306, 0, 3.5194730053604125e-310, 3.5118980606198906e-310, 3.4855902862395563e-310, 1.0482716349979711e-309, 1.0457613025798208e-309, 3.5221435287742963e-310, 1.0483848840897448e-309, 3.5206450764730785e-310, 3.5221435287742963e-310, 3.5286873679916839e-310, 1.0480791581678399e-309, 3.5184484792675871e-310, 1.0462191894840901e-309, 3.4912135750856143e-310, 3.5213950279152175e-310, 1.0478113390896911e-309, 9.4565638986556059e-308, -1.2718727585707154e-167, 4.7202965605231678e-114, -3.9728246137271916e-146, -4.2948551202337317e-249, 1.0433379486934672e-309, 9.4565638986556059e-308, -1.087770609288739e+187, -2.4130677792628765e-185, -6.0691987505830917e-103, -1.3432652244931627e+126, 1.0433467533555245e-309, 9.4565638986556059e-308, 6.5321008831513019e-201, -2.3902102947296741e-185, -6.0691987505830917e-103, -1.3432652244931627e+126, 1.0433467533555245e-309, 9.4565638986556059e-308, 0, 4.6698129806607946e-114, -3.9728246137271916e-146, -4.2948551202337317e-249, 1.0433379486934672e-309, -9.0481646600173203e-109, 0, 0, 0, 0, 0, 0, 0, 0, 0, 0, 0, 0, 0, 0, 0, 0, 0, 0, 0, 0, 0, 0, 0, 0, 0, 0, 0, 0, 0, 0, 0, 0, 0, 0, 0, 0, 0, 0, 0, 0, 0, 0, 0, 0, 0, 0, 0, 0, 0, 0, 0, 0, 0, 0, 0, 0, 0, 0, 0, 0, 0, 0, 0, 0, 0, 0, 0, 0, 0, 0, 0, 0, 0, 0, 0, 0, 0, 0, 0, 0, 0, 0, 0, 0, 0, 0, 0, 0, 0, 0, 0, 0, 0, 0, 0, 0, 0, 0, 0, 0, 0, 0, 0...}
value address: 0x55555575a180 <T>
Type: The type is a structure.
Type sizeof: 24
Field name: std::_Vector_base<double, std::allocator<double> >
Field Type: The type is a structure.
Field Type sizeof: 24

[INFO -- 2018-11-22 20:10:26]
Fault Injection Successful after 3.8686580657958984s
[INFO -- 2018-11-22 20:10:27]
event type: exit
[EXCEPTION -- 2018-11-22 20:10:27]
exit code: no exit code available
