[INFO -- 2018-11-27 19:20:12]
Starting GDB script
[INFO -- 2018-11-27 19:20:12]
initSignal:0.0
[INFO -- 2018-11-27 19:20:12]
endSignal:3.0
[INFO -- 2018-11-27 19:20:14]
sending 5 signals using command: 'killall -2 lreg' after 1.86020901586s
[INFO -- 2018-11-27 19:20:14]
sending 5 signals using command: 'killall -2 lreg' after 2.24938477191s
[INFO -- 2018-11-27 19:20:14]
sending 5 signals using command: 'killall -2 lreg' after 2.38968610126s
[INFO -- 2018-11-27 19:20:19]
Execution finished before waitTime
