[INFO -- 2018-11-22 15:27:43]
Starting GDB script
[INFO -- 2018-11-22 15:27:43]
initSignal:0.0
[INFO -- 2018-11-22 15:27:43]
endSignal:3.0
[INFO -- 2018-11-22 15:27:44]
sending 5 signals using command: 'killall -2 lreg' after 0.749243160768s
[INFO -- 2018-11-22 15:27:45]
sending 5 signals using command: 'killall -2 lreg' after 2.50657260987s
[INFO -- 2018-11-22 15:27:46]
sending 5 signals using command: 'killall -2 lreg' after 2.90469946723s
[INFO -- 2018-11-22 15:27:48]
Execution finished before waitTime
