[INFO -- 2018-11-24 12:58:16]
Starting GDB script
[INFO -- 2018-11-24 12:58:16]
initSignal:0.0
[INFO -- 2018-11-24 12:58:16]
endSignal:2.0
[INFO -- 2018-11-24 12:58:16]
sending 5 signals using command: 'killall -2 lreg' after 0.00497954648844s
[INFO -- 2018-11-24 12:58:16]
sending 5 signals using command: 'killall -2 lreg' after 0.194641754914s
[INFO -- 2018-11-24 12:58:18]
sending 5 signals using command: 'killall -2 lreg' after 1.48598888988s
[INFO -- 2018-11-24 12:58:21]
Execution finished before waitTime
