[INFO -- 2018-11-27 21:43:13]
Starting GDB script
[INFO -- 2018-11-27 21:43:13]
initSignal:0.0
[INFO -- 2018-11-27 21:43:13]
endSignal:3.0
[INFO -- 2018-11-27 21:43:14]
sending 5 signals using command: 'killall -2 lreg' after 0.363621106975s
[INFO -- 2018-11-27 21:43:14]
sending 5 signals using command: 'killall -2 lreg' after 1.20878227351s
[INFO -- 2018-11-27 21:43:14]
sending 5 signals using command: 'killall -2 lreg' after 1.17282739281s
[INFO -- 2018-11-27 21:43:16]
Execution finished before waitTime
