[INFO -- 2018-11-23 19:28:27]
Starting flip_value script
version: 1.1
[INFO -- 2018-11-23 19:28:27]
Initialization strings:
[INFO -- 2018-11-23 19:28:27]
(1) file /tmp/lreg/lreg
[INFO -- 2018-11-23 19:28:27]
(2) set args /tmp/lreg/randInput /tmp/lreg/output
[INFO -- 2018-11-23 19:28:27]
initSignal:0
[INFO -- 2018-11-23 19:28:27]
endSignal:3
[INFO -- 2018-11-23 19:28:27]
faultModel:2
[INFO -- 2018-11-23 19:28:28]
Backtrace BEGIN:
#0  log1 (error=<synthetic pointer>, delta=<synthetic pointer>, x=1) at ../sysdeps/ieee754/dbl-64/e_pow.c:296
#1  __ieee754_pow_sse2 (x=1, y=3) at ../sysdeps/ieee754/dbl-64/e_pow.c:103
#2  0x00007ffff76db6be in __ieee754_pow_sse2 (x=<optimized out>, y=<optimized out>) at ../sysdeps/ieee754/dbl-64/e_pow.c:184
#3  0x00007ffff76bcb14 in __pow (x=-1, y=3) at w_pow_compat.c:30
#4  0x0000555555555d5f in std::pow<double, int> (__x=-1, __y=3) at /usr/include/c++/7/cmath:418
#5  0x00005555555551e7 in predict (v=-1) at lreg.cpp:50
#6  0x00005555555553ac in partialDerivate (pos=3) at lreg.cpp:74
#7  0x00005555555554b3 in adjust (alpha=2.2222199999999999e-05) at lreg.cpp:87
#8  0x000055555555565c in train (iterations=30000, alpha=2.2222199999999999e-05, N=4, stopsWhenStable=true) at lreg.cpp:120
#9  0x0000555555555ab7 in main (argc=3, argv=0x7fffffffde58) at lreg.cpp:174

291	../sysdeps/ieee754/dbl-64/e_pow.c: No such file or directory.

Backtrace END
Fliping value of field: std::_Vector_base<double, std::allocator<double> >
Fliping value of field: _M_impl
Fliping value of field: _M_finish
Fliping a bit of the value pointed by a pointer
Memory content before bitflip:0x000x000x000x000x000x000x000x00
Fault Model: Random bit-flip
base address to flip value: 0x5555557715c0
address max offset: 8
Memory content after  bitflip:0x5b0xf20x100xdf0x100xaa0x980x4d
frame name: partialDerivate
symbol name: y
symbol filename: lreg.cpp
symbol line: 33
value: std::vector of length 16, capacity 16 = {13145, 2813, 13, -99407, -575, 22793, -121267, 15973, 22793, 86413, -63895, 10673, -1507, 41, 19181, -38047}
value address: 0x55555575a160 <y>
Type: The type is a structure.
Type sizeof: 24
Field name: std::_Vector_base<double, std::allocator<double> >
Field Type: The type is a structure.
Field Type sizeof: 24

[INFO -- 2018-11-23 19:28:28]
Fault Injection Successful after 1.8035099506378174s
[INFO -- 2018-11-23 19:28:29]
event type: exit
[INFO -- 2018-11-23 19:28:29]
exit code: 0
