[INFO -- 2018-11-22 18:40:16]
Starting GDB script
[INFO -- 2018-11-22 18:40:16]
initSignal:0.0
[INFO -- 2018-11-22 18:40:16]
endSignal:3.0
[INFO -- 2018-11-22 18:40:16]
sending 5 signals using command: 'killall -2 lreg' after 0.0602639467397s
[INFO -- 2018-11-22 18:40:17]
sending 5 signals using command: 'killall -2 lreg' after 0.925021688173s
[INFO -- 2018-11-22 18:40:19]
sending 5 signals using command: 'killall -2 lreg' after 2.77740803981s
[INFO -- 2018-11-22 18:40:21]
Execution finished before waitTime
