[INFO -- 2018-11-25 18:33:59]
sending 5 signals using command: 'killall -2 lreg' after 4.98010049361s
[INFO -- 2018-11-25 18:33:59]
Starting GDB script
[INFO -- 2018-11-25 18:33:59]
initSignal:0.0
[INFO -- 2018-11-25 18:33:59]
endSignal:6.0
[INFO -- 2018-11-25 18:34:00]
sending 5 signals using command: 'killall -2 lreg' after 0.976830137123s
[INFO -- 2018-11-25 18:34:01]
Execution finished before waitTime
