[INFO -- 2018-11-27 21:29:05]
Starting GDB script
[INFO -- 2018-11-27 21:29:05]
initSignal:0.0
[INFO -- 2018-11-27 21:29:05]
endSignal:3.0
[INFO -- 2018-11-27 21:29:05]
sending 5 signals using command: 'killall -2 lreg' after 0.0302256712397s
[INFO -- 2018-11-27 21:29:05]
sending 5 signals using command: 'killall -2 lreg' after 0.531644567189s
[INFO -- 2018-11-27 21:29:07]
sending 5 signals using command: 'killall -2 lreg' after 1.47779580494s
[INFO -- 2018-11-27 21:29:08]
Execution finished before waitTime
