[INFO -- 2018-11-25 21:45:06]
Starting flip_value script
version: 1.1
[INFO -- 2018-11-25 21:45:06]
Initialization strings:
[INFO -- 2018-11-25 21:45:06]
(1) file /tmp/lreg/lreg
[INFO -- 2018-11-25 21:45:06]
(2) set args /tmp/lreg/randInput /tmp/lreg/output /tmp/lreg/detected.log
[INFO -- 2018-11-25 21:45:06]
initSignal:0
[INFO -- 2018-11-25 21:45:06]
endSignal:6
[INFO -- 2018-11-25 21:45:06]
faultModel:2
[INFO -- 2018-11-25 21:45:08]
Backtrace BEGIN:
#0  log1 (error=<synthetic pointer>, delta=<synthetic pointer>, x=21) at ../sysdeps/ieee754/dbl-64/e_pow.c:332
#1  __ieee754_pow_sse2 (x=21, y=3) at ../sysdeps/ieee754/dbl-64/e_pow.c:103
#2  0x00007ffff76bcb14 in __pow (x=21, y=3) at w_pow_compat.c:30
#3  0x000055555555621b in std::pow<double, int> (__x=21, __y=3) at /usr/include/c++/7/cmath:418
#4  0x0000555555555237 in predict (v=21) at lreg.cpp:50
#5  0x00005555555553fc in partialDerivate (pos=3) at lreg.cpp:74
#6  0x0000555555555503 in adjust (alpha=2.2222199999999999e-05) at lreg.cpp:87
#7  0x00005555555556ac in train (iterations=30000, alpha=2.2222199999999999e-05, N=4, stopsWhenStable=true) at lreg.cpp:120
#8  0x0000555555555a1c in execute (input=0x7fffffffe1f1 "/tmp/lreg/randInput") at lreg.cpp:157
#9  0x0000555555555cb0 in main (argc=4, argv=0x7fffffffde48) at lreg.cpp:196

327	../sysdeps/ieee754/dbl-64/e_pow.c: No such file or directory.

Backtrace END
Fliping value of field: std::_Vector_base<double, std::allocator<double> >
Fliping value of field: _M_impl
Fliping value of field: _M_start
Fliping a bit of the value pointed by a pointer
Memory content before bitflip:0x000x000x000x000x800xac0xc90x40
Fault Model: Random bit-flip
base address to flip value: 0x555555772540
address max offset: 8
Memory content after  bitflip:0xf00xe00xf60x610x870x070x0e0x46
frame name: predict
symbol name: y
symbol filename: lreg.cpp
symbol line: 33
value: std::vector of length 16, capacity 16 = {2.9739686726324798e+29, 2813, 13, -99407, -575, 22793, -121267, 15973, 22793, 86413, -63895, 10673, -1507, 41, 19181, -38047}
value address: 0x55555575b160 <y>
Type: The type is a structure.
Type sizeof: 24
Field name: std::_Vector_base<double, std::allocator<double> >
Field Type: The type is a structure.
Field Type sizeof: 24

[INFO -- 2018-11-25 21:45:08]
Fault Injection Successful after 2.5152816772460938s
[INFO -- 2018-11-25 21:45:08]
event type: exit
[INFO -- 2018-11-25 21:45:08]
exit code: 0
