[INFO -- 2018-11-25 16:02:56]
sending 5 signals using command: 'killall -2 lreg' after 3.9234085398s
[INFO -- 2018-11-25 16:02:58]
sending 5 signals using command: 'killall -2 lreg' after 5.84191385344s
[INFO -- 2018-11-25 16:02:58]
Starting GDB script
[INFO -- 2018-11-25 16:02:58]
initSignal:0.0
[INFO -- 2018-11-25 16:02:58]
endSignal:6.0
[INFO -- 2018-11-25 16:02:59]
sending 5 signals using command: 'killall -2 lreg' after 1.2869158163s
[INFO -- 2018-11-25 16:03:00]
sending 5 signals using command: 'killall -2 lreg' after 2.21261943043s
[INFO -- 2018-11-25 16:03:01]
sending 5 signals using command: 'killall -2 lreg' after 3.25387538249s
[INFO -- 2018-11-25 16:03:23]
Execution did not finish before waitTime
