[INFO -- 2018-11-27 18:08:54]
Starting GDB script
[INFO -- 2018-11-27 18:08:54]
initSignal:0.0
[INFO -- 2018-11-27 18:08:54]
endSignal:3.0
[INFO -- 2018-11-27 18:08:55]
sending 5 signals using command: 'killall -2 lreg' after 0.675685440573s
[INFO -- 2018-11-27 18:08:55]
sending 5 signals using command: 'killall -2 lreg' after 1.13551913842s
[INFO -- 2018-11-27 18:08:56]
sending 5 signals using command: 'killall -2 lreg' after 2.03087540453s
[INFO -- 2018-11-27 18:08:58]
Execution finished before waitTime
