[INFO -- 2018-11-25 22:16:18]
Starting GDB script
[INFO -- 2018-11-25 22:16:18]
initSignal:0.0
[INFO -- 2018-11-25 22:16:18]
endSignal:6.0
[INFO -- 2018-11-25 22:16:18]
sending 5 signals using command: 'killall -2 lreg' after 0.140164029154s
[INFO -- 2018-11-25 22:16:20]
sending 5 signals using command: 'killall -2 lreg' after 2.14336630839s
[INFO -- 2018-11-25 22:16:20]
sending 5 signals using command: 'killall -2 lreg' after 2.19292283896s
[INFO -- 2018-11-25 22:16:23]
Execution finished before waitTime
