[INFO -- 2018-11-27 16:17:17]
Starting GDB script
[INFO -- 2018-11-27 16:17:17]
initSignal:0.0
[INFO -- 2018-11-27 16:17:17]
endSignal:3.0
[INFO -- 2018-11-27 16:17:17]
sending 5 signals using command: 'killall -2 lreg' after 0.0815778086024s
[INFO -- 2018-11-27 16:17:18]
sending 5 signals using command: 'killall -2 lreg' after 0.84512868232s
[INFO -- 2018-11-27 16:17:20]
sending 5 signals using command: 'killall -2 lreg' after 2.78835267181s
[INFO -- 2018-11-27 16:17:21]
Execution finished before waitTime
