[INFO -- 2018-11-24 16:10:09]
Starting GDB script
[INFO -- 2018-11-24 16:10:09]
initSignal:0.0
[INFO -- 2018-11-24 16:10:09]
endSignal:6.0
[INFO -- 2018-11-24 16:10:09]
sending 5 signals using command: 'killall -2 lreg' after 0.0462228098211s
[INFO -- 2018-11-24 16:10:12]
sending 5 signals using command: 'killall -2 lreg' after 2.31662548805s
[INFO -- 2018-11-24 16:10:12]
sending 5 signals using command: 'killall -2 lreg' after 3.27256868836s
[INFO -- 2018-11-24 16:10:13]
Execution finished before waitTime
