[INFO -- 2018-11-23 19:12:31]
Starting flip_value script
version: 1.1
[INFO -- 2018-11-23 19:12:31]
Initialization strings:
[INFO -- 2018-11-23 19:12:31]
(1) file /tmp/lreg/lreg
[INFO -- 2018-11-23 19:12:31]
(2) set args /tmp/lreg/randInput /tmp/lreg/output
[INFO -- 2018-11-23 19:12:31]
initSignal:0
[INFO -- 2018-11-23 19:12:31]
endSignal:3
[INFO -- 2018-11-23 19:12:31]
faultModel:2
[INFO -- 2018-11-23 19:12:33]
Backtrace BEGIN:
#0  0x00007ffff76dabbc in __ieee754_pow_sse2 (x=<optimized out>, y=2) at ../sysdeps/ieee754/dbl-64/e_pow.c:82
#1  0x00007ffff76bcb14 in __pow (x=-4, y=2) at w_pow_compat.c:30
#2  0x0000555555555d5f in std::pow<double, int> (__x=-4, __y=2) at /usr/include/c++/7/cmath:418
#3  0x00005555555551e7 in predict (v=-4) at lreg.cpp:50
#4  0x00005555555553ac in partialDerivate (pos=1) at lreg.cpp:74
#5  0x00005555555554b3 in adjust (alpha=5.0000000000000002e-05) at lreg.cpp:87
#6  0x000055555555565c in train (iterations=20000, alpha=5.0000000000000002e-05, N=3, stopsWhenStable=true) at lreg.cpp:120
#7  0x0000555555555ab7 in main (argc=3, argv=0x7fffffffde58) at lreg.cpp:174

77	../sysdeps/ieee754/dbl-64/e_pow.c: No such file or directory.

Backtrace END
Fliping value of field name: i
Fliping array at pos: 0
Memory content before bitflip:0x000x000x000x00
Fault Model: Random bit-flip
base address to flip value: 0x7ffff779f5e0 
address max offset: 4
Memory content after  bitflip:0x5c0x3a0xd90xd9
frame name: __ieee754_pow_sse2
symbol name: nZERO
symbol filename: ../sysdeps/ieee754/dbl-64/upow.h
symbol line: 47
value: {i = {-640075172, -2147483648}, x = -1.8057566377241453e-314}
value address: 0x7ffff779f5e0 <nZERO>
Type: The type is a union.
Type sizeof: 8
Field name: i
Field Type: The type is an array.
Field Type sizeof: 8
Field name: x
Field Type: A floating point type.
Field Type sizeof: 8

[INFO -- 2018-11-23 19:12:33]
Fault Injection Successful after 2.0449652671813965s
[INFO -- 2018-11-23 19:12:35]
event type: exit
[INFO -- 2018-11-23 19:12:35]
exit code: 0
