[INFO -- 2018-11-27 19:06:57]
Starting flip_value script
version: 1.1
[INFO -- 2018-11-27 19:06:57]
Initialization strings:
[INFO -- 2018-11-27 19:06:57]
(1) file /tmp/lreg/lreg
[INFO -- 2018-11-27 19:06:57]
(2) set args /tmp/lreg/randInput /tmp/lreg/output
[INFO -- 2018-11-27 19:06:57]
initSignal:0
[INFO -- 2018-11-27 19:06:57]
endSignal:3
[INFO -- 2018-11-27 19:06:57]
faultModel:0
[INFO -- 2018-11-27 19:06:58]
Backtrace BEGIN:
#0  dl_main (phdr=<optimized out>, phnum=<optimized out>, user_entry=<optimized out>, auxv=<optimized out>) at rtld.c:2289
#1  0x00007ffff7defdd0 in _dl_sysdep_start (start_argptr=start_argptr@entry=0x7fffffffde50, dl_main=dl_main@entry=0x7ffff7dd7660 <dl_main>) at ../elf/dl-sysdep.c:253
#2  0x00007ffff7dd7128 in _dl_start_final (arg=0x7fffffffde50) at rtld.c:414
#3  _dl_start (arg=0x7fffffffde50) at rtld.c:521
#4  0x00007ffff7dd6098 in _start () from /lib64/ld-linux-x86-64.so.2
#5  0x0000000000000003 in ?? ()
#6  0x00007fffffffe1fe in ?? ()
#7  0x00007fffffffe20d in ?? ()
#8  0x00007fffffffe221 in ?? ()
#9  0x0000000000000000 in ?? ()

2284	rtld.c: No such file or directory.

Backtrace END
Fliping value of field: dont_free
Memory content before bitflip:0x000x000x000x00
Fault Model: Single bit-flip
base address to flip value: 0x7ffff7ffe020 
address max offset: 4
Memory content after  bitflip:0x000x400x000x00
frame name: _dl_start
symbol name: _dl_rtld_libname2
symbol filename: rtld.c
symbol line: 302
value: {name = 0x0, next = 0x0, dont_free = 16384}
value address: 0x7ffff7ffe010 <_dl_rtld_libname2>
Type: The type is a structure.
Type sizeof: 24
Field name: name
Field Type: The type is a pointer.
Field Type sizeof: 8
Field name: next
Field Type: The type is a pointer.
Field Type sizeof: 8
Field name: dont_free
Field Type: The type is an integer type.
Field Type sizeof: 4

[INFO -- 2018-11-27 19:06:58]
Fault Injection Successful after 1.3402633666992188s
[INFO -- 2018-11-27 19:07:02]
event type: exit
[INFO -- 2018-11-27 19:07:02]
exit code: 0
