[INFO -- 2018-11-26 16:06:07]
sending 5 signals using command: 'killall -2 lreg' after 2.66023173499s
[INFO -- 2018-11-26 16:06:07]
Starting GDB script
[INFO -- 2018-11-26 16:06:07]
initSignal:0.0
[INFO -- 2018-11-26 16:06:07]
endSignal:3.0
[INFO -- 2018-11-26 16:06:10]
sending 5 signals using command: 'killall -2 lreg' after 2.7466558484s
[INFO -- 2018-11-26 16:06:11]
sending 5 signals using command: 'killall -2 lreg' after 2.41956445197s
[INFO -- 2018-11-26 16:06:11]
sending 5 signals using command: 'killall -2 lreg' after 2.20415019459s
[INFO -- 2018-11-26 16:06:11]
Execution finished before waitTime
