[INFO -- 2018-11-23 21:42:26]
Starting GDB script
[INFO -- 2018-11-23 21:42:26]
initSignal:0.0
[INFO -- 2018-11-23 21:42:26]
endSignal:3.0
[INFO -- 2018-11-23 21:42:26]
sending 5 signals using command: 'killall -2 lreg' after 0.661212780274s
[INFO -- 2018-11-23 21:42:28]
sending 5 signals using command: 'killall -2 lreg' after 2.41103502904s
[INFO -- 2018-11-23 21:42:28]
Execution finished before waitTime
