[INFO -- 2018-11-22 15:13:31]
Starting GDB script
[INFO -- 2018-11-22 15:13:31]
initSignal:0.0
[INFO -- 2018-11-22 15:13:31]
endSignal:3.0
[INFO -- 2018-11-22 15:13:32]
sending 5 signals using command: 'killall -2 lreg' after 1.11974222249s
[INFO -- 2018-11-22 15:13:32]
sending 5 signals using command: 'killall -2 lreg' after 1.67896707657s
[INFO -- 2018-11-22 15:13:33]
sending 5 signals using command: 'killall -2 lreg' after 2.75145089661s
[INFO -- 2018-11-22 15:13:37]
Execution finished before waitTime
