[INFO -- 2018-11-27 17:49:44]
Starting GDB script
[INFO -- 2018-11-27 17:49:44]
initSignal:0.0
[INFO -- 2018-11-27 17:49:44]
endSignal:3.0
[INFO -- 2018-11-27 17:49:45]
sending 5 signals using command: 'killall -2 lreg' after 0.155542834862s
[INFO -- 2018-11-27 17:49:45]
sending 5 signals using command: 'killall -2 lreg' after 0.706194281034s
[INFO -- 2018-11-27 17:49:47]
sending 5 signals using command: 'killall -2 lreg' after 2.20490465166s
[INFO -- 2018-11-27 17:49:48]
Execution finished before waitTime
