[INFO -- 2018-11-23 19:54:50]
Starting GDB script
[INFO -- 2018-11-23 19:54:50]
initSignal:0.0
[INFO -- 2018-11-23 19:54:50]
endSignal:3.0
[INFO -- 2018-11-23 19:54:51]
sending 5 signals using command: 'killall -2 lreg' after 0.716384439741s
[INFO -- 2018-11-23 19:54:51]
sending 5 signals using command: 'killall -2 lreg' after 1.0463867522s
[INFO -- 2018-11-23 19:54:52]
sending 5 signals using command: 'killall -2 lreg' after 1.95312726313s
[INFO -- 2018-11-23 19:54:53]
Execution finished before waitTime
