[INFO -- 2018-11-24 15:59:35]
sending 5 signals using command: 'killall -2 lreg' after 5.92622265394s
[INFO -- 2018-11-24 15:59:35]
Starting GDB script
[INFO -- 2018-11-24 15:59:35]
initSignal:0.0
[INFO -- 2018-11-24 15:59:35]
endSignal:6.0
[INFO -- 2018-11-24 15:59:38]
sending 5 signals using command: 'killall -2 lreg' after 2.99720704275s
[INFO -- 2018-11-24 15:59:39]
sending 5 signals using command: 'killall -2 lreg' after 4.45810259565s
[INFO -- 2018-11-24 15:59:39]
sending 5 signals using command: 'killall -2 lreg' after 4.74459455753s
[INFO -- 2018-11-24 15:59:41]
Execution finished before waitTime
