[INFO -- 2018-11-24 11:54:26]
Starting flip_value script
version: 1.1
[INFO -- 2018-11-24 11:54:26]
Initialization strings:
[INFO -- 2018-11-24 11:54:26]
(1) file /tmp/lreg/lreg
[INFO -- 2018-11-24 11:54:26]
(2) set args /tmp/lreg/randInput /tmp/lreg/output
[INFO -- 2018-11-24 11:54:26]
initSignal:0
[INFO -- 2018-11-24 11:54:26]
endSignal:2
[INFO -- 2018-11-24 11:54:26]
faultModel:0
[INFO -- 2018-11-24 11:54:28]
Backtrace BEGIN:
#0  dl_main (phdr=<optimized out>, phnum=<optimized out>, user_entry=<optimized out>, auxv=<optimized out>) at rtld.c:2289
#1  0x00007ffff7defdd0 in _dl_sysdep_start (start_argptr=start_argptr@entry=0x7fffffffde50, dl_main=dl_main@entry=0x7ffff7dd7660 <dl_main>) at ../elf/dl-sysdep.c:253
#2  0x00007ffff7dd7128 in _dl_start_final (arg=0x7fffffffde50) at rtld.c:414
#3  _dl_start (arg=0x7fffffffde50) at rtld.c:521
#4  0x00007ffff7dd6098 in _start () from /lib64/ld-linux-x86-64.so.2
#5  0x0000000000000003 in ?? ()
#6  0x00007fffffffe1fd in ?? ()
#7  0x00007fffffffe20c in ?? ()
#8  0x00007fffffffe220 in ?? ()
#9  0x0000000000000000 in ?? ()

2284	rtld.c: No such file or directory.

Backtrace END
Fliping a bit of the pointer
Memory content before bitflip:0x580xde0xff0xff0xff0x7f0x000x00
Fault Model: Single bit-flip
base address to flip value: 0x7ffff7ffc740 
address max offset: 8
Memory content after  bitflip:0x580xde0xfd0xff0xff0x7f0x000x00
frame name: _dl_start
symbol name: __GI__dl_argv
symbol filename: rtld.c
symbol line: 83
value: 0x7fffffffde58
value address: 0x7ffff7ffc740 <_dl_argv>
Type: The type is a pointer.
Type sizeof: 8

[INFO -- 2018-11-24 11:54:28]
Fault Injection Successful after 2.0249760150909424s
[INFO -- 2018-11-24 11:54:30]
event type: exit
[INFO -- 2018-11-24 11:54:30]
exit code: 0
