[INFO -- 2018-11-25 12:40:05]
Starting flip_value script
version: 1.1
[INFO -- 2018-11-25 12:40:05]
Initialization strings:
[INFO -- 2018-11-25 12:40:05]
(1) file /tmp/lreg/lreg
[INFO -- 2018-11-25 12:40:05]
(2) set args /tmp/lreg/randInput /tmp/lreg/output /tmp/lreg/detected.log
[INFO -- 2018-11-25 12:40:05]
initSignal:0
[INFO -- 2018-11-25 12:40:05]
endSignal:6
[INFO -- 2018-11-25 12:40:05]
faultModel:1
[INFO -- 2018-11-25 12:40:09]
Backtrace BEGIN:
#0  0x0000555555555241 in predict (v=7) at lreg.cpp:50
#1  0x00005555555553fc in partialDerivate (pos=2) at lreg.cpp:74
#2  0x0000555555555503 in adjust (alpha=2.2222199999999999e-05) at lreg.cpp:87
#3  0x00005555555556ac in train (iterations=30000, alpha=2.2222199999999999e-05, N=4, stopsWhenStable=true) at lreg.cpp:120
#4  0x0000555555555a1c in execute (input=0x7fffffffe1f1 "/tmp/lreg/randInput") at lreg.cpp:157
#5  0x0000555555555c78 in main (argc=4, argv=0x7fffffffde48) at lreg.cpp:193

45		Predicts the value related to v using the Ts variables
46	*/
47	double predict(double v){
48		double val = 0;
49		for(int i = 0; i<T.size(); i++){
50			val+= (T[i] * pow(v, i));
51		}
52		return val;
53		
54	}

Backtrace END
Fliping a bit of the pointer
Memory content before bitflip:0x480xde0xff0xff0xff0x7f0x000x00
Fault Model: Double bit-flip
base address to flip value: 0x7fffffffd8e0
address max offset: 8
Memory content after  bitflip:0x480xde0xff0xdd0xff0x7f0x000x00
frame name: main
symbol name: argv
symbol filename: lreg.cpp
symbol line: 181
value: 0x7fffffffde48
value address: 0x7fffffffd8e0
Type: The type is a pointer.
Type sizeof: 8

[INFO -- 2018-11-25 12:40:09]
Fault Injection Successful after 4.325610637664795s
[INFO -- 2018-11-25 12:40:10]
event type: exit
[EXCEPTION -- 2018-11-25 12:40:10]
exit code: no exit code available
