[INFO -- 2018-11-26 18:34:59]
Starting flip_value script
version: 1.1
[INFO -- 2018-11-26 18:34:59]
Initialization strings:
[INFO -- 2018-11-26 18:34:59]
(1) file /tmp/lreg/lreg
[INFO -- 2018-11-26 18:34:59]
(2) set args /tmp/lreg/randInput /tmp/lreg/output
[INFO -- 2018-11-26 18:34:59]
initSignal:0
[INFO -- 2018-11-26 18:34:59]
endSignal:3
[INFO -- 2018-11-26 18:34:59]
faultModel:2
[INFO -- 2018-11-26 18:35:01]
event type: exit
[INFO -- 2018-11-26 18:35:01]
exit code: 0
