[INFO -- 2018-11-27 18:44:09]
sending 5 signals using command: 'killall -2 lreg' after 2.7640128118s
[INFO -- 2018-11-27 18:44:09]
Starting GDB script
[INFO -- 2018-11-27 18:44:09]
initSignal:0.0
[INFO -- 2018-11-27 18:44:09]
endSignal:3.0
[INFO -- 2018-11-27 18:44:11]
sending 5 signals using command: 'killall -2 lreg' after 1.72237813531s
[INFO -- 2018-11-27 18:44:12]
sending 5 signals using command: 'killall -2 lreg' after 2.62027403003s
[INFO -- 2018-11-27 18:44:12]
sending 5 signals using command: 'killall -2 lreg' after 2.75906972701s
[INFO -- 2018-11-27 18:44:12]
Execution finished before waitTime
