[INFO -- 2018-11-24 18:05:45]
sending 5 signals using command: 'killall -2 lreg' after 5.72452974978s
[INFO -- 2018-11-24 18:05:45]
Starting GDB script
[INFO -- 2018-11-24 18:05:45]
initSignal:0.0
[INFO -- 2018-11-24 18:05:45]
endSignal:6.0
[INFO -- 2018-11-24 18:05:46]
sending 5 signals using command: 'killall -2 lreg' after 0.823195672301s
[INFO -- 2018-11-24 18:05:47]
sending 5 signals using command: 'killall -2 lreg' after 2.27629370583s
[INFO -- 2018-11-24 18:05:49]
Execution finished before waitTime
