[INFO -- 2018-11-25 19:46:58]
sending 5 signals using command: 'killall -2 lreg' after 4.69760246076s
[INFO -- 2018-11-25 19:46:58]
sending 5 signals using command: 'killall -2 lreg' after 4.78965402747s
[INFO -- 2018-11-25 19:46:59]
sending 5 signals using command: 'killall -2 lreg' after 5.02894098526s
[INFO -- 2018-11-25 19:46:59]
Starting GDB script
[INFO -- 2018-11-25 19:46:59]
initSignal:0.0
[INFO -- 2018-11-25 19:46:59]
endSignal:6.0
[INFO -- 2018-11-25 19:46:59]
sending 5 signals using command: 'killall -2 lreg' after 0.534393331769s
[INFO -- 2018-11-25 19:47:01]
sending 5 signals using command: 'killall -2 lreg' after 2.11708816521s
[INFO -- 2018-11-25 19:47:02]
sending 5 signals using command: 'killall -2 lreg' after 3.13286154209s
[INFO -- 2018-11-25 19:47:02]
Execution finished before waitTime
