[INFO -- 2018-11-25 17:43:44]
sending 5 signals using command: 'killall -2 lreg' after 4.78727580126s
[INFO -- 2018-11-25 17:43:44]
Starting GDB script
[INFO -- 2018-11-25 17:43:44]
initSignal:0.0
[INFO -- 2018-11-25 17:43:44]
endSignal:6.0
[INFO -- 2018-11-25 17:43:46]
sending 5 signals using command: 'killall -2 lreg' after 2.03600304417s
[INFO -- 2018-11-25 17:43:47]
Execution finished before waitTime
