[INFO -- 2018-11-22 17:17:39]
Starting GDB script
[INFO -- 2018-11-22 17:17:39]
initSignal:0.0
[INFO -- 2018-11-22 17:17:39]
endSignal:3.0
[INFO -- 2018-11-22 17:17:40]
sending 5 signals using command: 'killall -2 lreg' after 1.05728938935s
[INFO -- 2018-11-22 17:17:40]
sending 5 signals using command: 'killall -2 lreg' after 1.51215324225s
[INFO -- 2018-11-22 17:17:41]
sending 5 signals using command: 'killall -2 lreg' after 2.1645175971s
[INFO -- 2018-11-22 17:17:44]
Execution finished before waitTime
