[INFO -- 2018-11-23 21:50:24]
sending 5 signals using command: 'killall -2 lreg' after 2.53332248864s
[INFO -- 2018-11-23 21:50:24]
Starting GDB script
[INFO -- 2018-11-23 21:50:24]
initSignal:0.0
[INFO -- 2018-11-23 21:50:24]
endSignal:3.0
[INFO -- 2018-11-23 21:50:25]
sending 5 signals using command: 'killall -2 lreg' after 0.490659613248s
[INFO -- 2018-11-23 21:50:25]
sending 5 signals using command: 'killall -2 lreg' after 0.884489847051s
[INFO -- 2018-11-23 21:50:25]
Execution finished before waitTime
