[INFO -- 2018-11-26 17:15:01]
Starting flip_value script
version: 1.1
[INFO -- 2018-11-26 17:15:01]
Initialization strings:
[INFO -- 2018-11-26 17:15:01]
(1) file /tmp/lreg/lreg
[INFO -- 2018-11-26 17:15:01]
(2) set args /tmp/lreg/randInput /tmp/lreg/output
[INFO -- 2018-11-26 17:15:01]
initSignal:0
[INFO -- 2018-11-26 17:15:01]
endSignal:3
[INFO -- 2018-11-26 17:15:01]
faultModel:0
[INFO -- 2018-11-26 17:15:04]
event type: exit
[INFO -- 2018-11-26 17:15:04]
exit code: 0
