[INFO -- 2018-11-26 14:32:51]
Starting flip_value script
version: 1.1
[INFO -- 2018-11-26 14:32:51]
Initialization strings:
[INFO -- 2018-11-26 14:32:51]
(1) file /tmp/lreg/lreg
[INFO -- 2018-11-26 14:32:51]
(2) set args /tmp/lreg/randInput /tmp/lreg/output /tmp/lreg/detected.log
[INFO -- 2018-11-26 14:32:51]
initSignal:0
[INFO -- 2018-11-26 14:32:51]
endSignal:6
[INFO -- 2018-11-26 14:32:51]
faultModel:2
[EXCEPTION -- 2018-11-26 14:32:52]
pythonException: empty range for randrange() (0,0, 0)
[INFO -- 2018-11-26 14:32:53]
Backtrace BEGIN:
#0  0x0000555555556afa in __gnu_cxx::__alloc_traits<std::allocator<double> >::_S_select_on_copy (__a=...) at /usr/include/c++/7/ext/alloc_traits.h:94
#1  0x00005555555563d0 in std::vector<double, std::allocator<double> >::vector (this=0x7fffffffd5f0, __x=std::vector of length 3, capacity 3 = {...}) at /usr/include/c++/7/bits/stl_vector.h:328
#2  0x0000555555555713 in train (iterations=20000, alpha=5.0000000000000002e-05, N=3, stopsWhenStable=true) at lreg.cpp:126
#3  0x0000555555555a1c in execute (input=0x7fffffffe1f2 "/tmp/lreg/randInput") at lreg.cpp:157
#4  0x0000555555555cb0 in main (argc=4, argv=0x7fffffffde48) at lreg.cpp:196

89	    template<typename _Ptr>
90	      static typename std::enable_if<__is_custom_pointer<_Ptr>::value>::type
91	      destroy(_Alloc& __a, _Ptr __p)
92	      { _Base_type::destroy(__a, std::addressof(*__p)); }
93	
94	    static _Alloc _S_select_on_copy(const _Alloc& __a)
95	    { return _Base_type::select_on_container_copy_construction(__a); }
96	
97	    static void _S_on_swap(_Alloc& __a, _Alloc& __b)
98	    { std::__alloc_on_swap(__a, __b); }

Backtrace END
Memory content before bitflip:0x030x000x000x00
Fault Model: Random bit-flip
base address to flip value: 0x7fffffffd568
address max offset: 4
Memory content after  bitflip:0x4b0xbd0x9f0x26
frame name: train
symbol name: N
symbol filename: lreg.cpp
symbol line: 105
value: 648002891
value address: 0x7fffffffd568
Type: The type is an integer type.
Type sizeof: 4

[INFO -- 2018-11-26 14:32:53]
Fault Injection Successful after 2.0329275131225586s
[INFO -- 2018-11-26 14:32:53]
event type: exit
[EXCEPTION -- 2018-11-26 14:32:53]
exit code: no exit code available
