[INFO -- 2018-11-27 21:36:03]
Starting GDB script
[INFO -- 2018-11-27 21:36:03]
initSignal:0.0
[INFO -- 2018-11-27 21:36:03]
endSignal:3.0
[INFO -- 2018-11-27 21:36:05]
sending 5 signals using command: 'killall -2 lreg' after 1.7790409349s
[INFO -- 2018-11-27 21:36:05]
sending 5 signals using command: 'killall -2 lreg' after 2.18454354536s
[INFO -- 2018-11-27 21:36:06]
sending 5 signals using command: 'killall -2 lreg' after 2.93994707302s
[INFO -- 2018-11-27 21:36:10]
Execution finished before waitTime
