[INFO -- 2018-11-25 12:03:22]
sending 5 signals using command: 'killall -2 lreg' after 4.51539484803s
[INFO -- 2018-11-25 12:03:22]
sending 5 signals using command: 'killall -2 lreg' after 4.55631709214s
[INFO -- 2018-11-25 12:03:23]
sending 5 signals using command: 'killall -2 lreg' after 5.75683188496s
[INFO -- 2018-11-25 12:03:23]
Starting GDB script
[INFO -- 2018-11-25 12:03:23]
initSignal:0.0
[INFO -- 2018-11-25 12:03:23]
endSignal:6.0
[INFO -- 2018-11-25 12:03:25]
Execution finished before waitTime
