[INFO -- 2018-11-25 14:25:39]
Starting GDB script
[INFO -- 2018-11-25 14:25:39]
initSignal:0.0
[INFO -- 2018-11-25 14:25:39]
endSignal:6.0
[INFO -- 2018-11-25 14:25:43]
sending 5 signals using command: 'killall -2 lreg' after 2.17730745256s
[INFO -- 2018-11-25 14:25:43]
Execution finished before waitTime
