[INFO -- 2018-11-25 11:45:55]
Starting flip_value script
version: 1.1
[INFO -- 2018-11-25 11:45:55]
Initialization strings:
[INFO -- 2018-11-25 11:45:55]
(1) file /tmp/lreg/lreg
[INFO -- 2018-11-25 11:45:55]
(2) set args /tmp/lreg/randInput /tmp/lreg/output /tmp/lreg/detected.log
[INFO -- 2018-11-25 11:45:55]
initSignal:0
[INFO -- 2018-11-25 11:45:55]
endSignal:6
[INFO -- 2018-11-25 11:45:55]
faultModel:1
[INFO -- 2018-11-25 11:45:56]
Backtrace BEGIN:
#0  0x00007ffff76d598d in __exp1 (x=<optimized out>, xx=<optimized out>, error=<optimized out>) at ../sysdeps/ieee754/dbl-64/e_exp.c:280
#1  0x00007ffff76da8dc in __ieee754_pow_sse2 (x=7, y=3) at ../sysdeps/ieee754/dbl-64/e_pow.c:115
#2  0x00007ffff76bcb14 in __pow (x=7, y=3) at w_pow_compat.c:30
#3  0x000055555555621b in std::pow<double, int> (__x=7, __y=3) at /usr/include/c++/7/cmath:418
#4  0x0000555555555237 in predict (v=7) at lreg.cpp:50
#5  0x00005555555553fc in partialDerivate (pos=2) at lreg.cpp:74
#6  0x0000555555555503 in adjust (alpha=2.2222199999999999e-05) at lreg.cpp:87
#7  0x00005555555556ac in train (iterations=30000, alpha=2.2222199999999999e-05, N=4, stopsWhenStable=true) at lreg.cpp:120
#8  0x0000555555555a1c in execute (input=0x7fffffffe1f1 "/tmp/lreg/randInput") at lreg.cpp:157
#9  0x0000555555555c78 in main (argc=4, argv=0x7fffffffde48) at lreg.cpp:193

275	../sysdeps/ieee754/dbl-64/e_exp.c: No such file or directory.

Backtrace END
Fliping value of field: std::_Vector_base<double, std::allocator<double> >
Fliping value of field: _M_impl
Fliping value of field: _M_end_of_storage
Fliping a bit of the pointer
Memory content before bitflip:0x300x250x770x550x550x550x000x00
Fault Model: Double bit-flip
base address to flip value: 0x55555575b150 
address max offset: 8
Memory content after  bitflip:0x300x250x770x550x550x5f0x000x00
frame name: predict
symbol name: x
symbol filename: lreg.cpp
symbol line: 32
value: std::vector of length 16, capacity 1374389534736 = {-15, -9, -1, 29, 5, -18, 31, -16, -18, -28, 25, -14, 7, -2, -17, 21}
value address: 0x55555575b140 <x>
Type: The type is a structure.
Type sizeof: 24
Field name: std::_Vector_base<double, std::allocator<double> >
Field Type: The type is a structure.
Field Type sizeof: 24

[INFO -- 2018-11-25 11:45:56]
Fault Injection Successful after 1.6706738471984863s
[INFO -- 2018-11-25 11:45:57]
event type: exit
[INFO -- 2018-11-25 11:45:57]
exit code: 0
