[INFO -- 2018-11-23 21:03:55]
Starting GDB script
[INFO -- 2018-11-23 21:03:55]
initSignal:0.0
[INFO -- 2018-11-23 21:03:55]
endSignal:3.0
[INFO -- 2018-11-23 21:03:55]
sending 5 signals using command: 'killall -2 lreg' after 0.108150481884s
[INFO -- 2018-11-23 21:03:56]
sending 5 signals using command: 'killall -2 lreg' after 1.18291720496s
[INFO -- 2018-11-23 21:03:57]
Execution finished before waitTime
