[INFO -- 2018-11-24 11:23:51]
Starting GDB script
[INFO -- 2018-11-24 11:23:51]
initSignal:0.0
[INFO -- 2018-11-24 11:23:51]
endSignal:2.0
[INFO -- 2018-11-24 11:23:52]
sending 5 signals using command: 'killall -2 lreg' after 0.670728395113s
[INFO -- 2018-11-24 11:23:52]
sending 5 signals using command: 'killall -2 lreg' after 0.822974240779s
[INFO -- 2018-11-24 11:23:53]
sending 5 signals using command: 'killall -2 lreg' after 1.37924808943s
[INFO -- 2018-11-24 11:23:54]
Execution finished before waitTime
