[INFO -- 2018-11-24 12:11:47]
Starting GDB script
[INFO -- 2018-11-24 12:11:47]
initSignal:0.0
[INFO -- 2018-11-24 12:11:47]
endSignal:2.0
[INFO -- 2018-11-24 12:11:47]
sending 5 signals using command: 'killall -2 lreg' after 0.0486095890012s
[INFO -- 2018-11-24 12:11:48]
sending 5 signals using command: 'killall -2 lreg' after 0.967306833638s
[INFO -- 2018-11-24 12:11:49]
sending 5 signals using command: 'killall -2 lreg' after 1.98839288399s
[INFO -- 2018-11-24 12:11:50]
Execution finished before waitTime
