[INFO -- 2018-11-24 19:25:29]
Starting flip_value script
version: 1.1
[INFO -- 2018-11-24 19:25:29]
Initialization strings:
[INFO -- 2018-11-24 19:25:29]
(1) file /tmp/lreg/lreg
[INFO -- 2018-11-24 19:25:29]
(2) set args /tmp/lreg/randInput /tmp/lreg/output /tmp/lreg/detected.log
[INFO -- 2018-11-24 19:25:29]
initSignal:0
[INFO -- 2018-11-24 19:25:29]
endSignal:6
[INFO -- 2018-11-24 19:25:29]
faultModel:0
[INFO -- 2018-11-24 19:25:31]
Backtrace BEGIN:
#0  0x0000555555555241 in predict (v=-1) at lreg.cpp:50
#1  0x00005555555553fc in partialDerivate (pos=2) at lreg.cpp:74
#2  0x0000555555555503 in adjust (alpha=5.0000000000000002e-05) at lreg.cpp:87
#3  0x00005555555556ac in train (iterations=20000, alpha=5.0000000000000002e-05, N=3, stopsWhenStable=true) at lreg.cpp:120
#4  0x0000555555555a1c in execute (input=0x7fffffffe1f2 "/tmp/lreg/randInput") at lreg.cpp:157
#5  0x0000555555555cb0 in main (argc=4, argv=0x7fffffffde48) at lreg.cpp:196

45		Predicts the value related to v using the Ts variables
46	*/
47	double predict(double v){
48		double val = 0;
49		for(int i = 0; i<T.size(); i++){
50			val+= (T[i] * pow(v, i));
51		}
52		return val;
53		
54	}

Backtrace END
Memory content before bitflip:0x2d0x430x1c0xeb0xe20x360x0a0x3f
Fault Model: Single bit-flip
base address to flip value: 0x7fffffffd518
address max offset: 8
Memory content after  bitflip:0x2d0x430x1c0xeb0xe60x360x0a0x3f
frame name: adjust
symbol name: alpha
symbol filename: lreg.cpp
symbol line: 83
value: 5.0000116415321829e-05
value address: 0x7fffffffd518
Type: A floating point type.
Type sizeof: 8

[INFO -- 2018-11-24 19:25:31]
Fault Injection Successful after 2.112619638442993s
[INFO -- 2018-11-24 19:25:31]
event type: exit
[INFO -- 2018-11-24 19:25:31]
exit code: 0
