[INFO -- 2018-11-27 20:48:29]
Starting flip_value script
version: 1.1
[INFO -- 2018-11-27 20:48:29]
Initialization strings:
[INFO -- 2018-11-27 20:48:29]
(1) file /tmp/lreg/lreg
[INFO -- 2018-11-27 20:48:29]
(2) set args /tmp/lreg/randInput /tmp/lreg/output
[INFO -- 2018-11-27 20:48:29]
initSignal:0
[INFO -- 2018-11-27 20:48:29]
endSignal:3
[INFO -- 2018-11-27 20:48:29]
faultModel:1
[INFO -- 2018-11-27 20:48:30]
Backtrace BEGIN:
#0  0x000055555555681c in std::pow<double, unsigned int> (__x=12, __y=1) at /usr/include/c++/7/cmath:418
#1  0x0000555555555814 in predict (v=12) at lreg.cpp:116
#2  0x00005555555558c0 in meanSquaredError () at lreg.cpp:128
#3  0x0000555555555ee5 in train (iter1=10000, iter2=10000, N=2, alpha1=0.00020000000000000001, alpha2=0.00020000000000000001, stopsWhenStable=true) at lreg.cpp:194
#4  0x0000555555556467 in main (argc=3, argv=0x7fffffffde58) at lreg.cpp:253

413	    inline _GLIBCXX_CONSTEXPR
414	    typename __gnu_cxx::__promote_2<_Tp, _Up>::__type
415	    pow(_Tp __x, _Up __y)
416	    {
417	      typedef typename __gnu_cxx::__promote_2<_Tp, _Up>::__type __type;
418	      return pow(__type(__x), __type(__y));
419	    }
420	
421	  using ::sin;
422	

Backtrace END
Fliping value of field: std::_Vector_base<double, std::allocator<double> >
Fliping value of field: _M_impl
Fliping value of field: _M_finish
Fliping a bit of the value pointed by a pointer
Memory content before bitflip:0x000x000x000x000x000x000x000x00
Fault Model: Double bit-flip
base address to flip value: 0x555555772448
address max offset: 8
Memory content after  bitflip:0x480x000x000x000x000x000x000x00
frame name: predict
symbol name: x
symbol filename: lreg.cpp
symbol line: 34
value: std::vector of length 9, capacity 16 = {12, -6, -10, -3, 7, -12, 6, -10, -16}
value address: 0x55555575b140 <x>
Type: The type is a structure.
Type sizeof: 24
Field name: std::_Vector_base<double, std::allocator<double> >
Field Type: The type is a structure.
Field Type sizeof: 24

[INFO -- 2018-11-27 20:48:30]
Fault Injection Successful after 1.9853878021240234s
[INFO -- 2018-11-27 20:48:35]
event type: exit
[INFO -- 2018-11-27 20:48:35]
exit code: 0
