[INFO -- 2018-11-25 20:43:58]
sending 5 signals using command: 'killall -2 lreg' after 4.99188135986s
[INFO -- 2018-11-25 20:43:58]
Starting GDB script
[INFO -- 2018-11-25 20:43:58]
initSignal:0.0
[INFO -- 2018-11-25 20:43:58]
endSignal:6.0
[INFO -- 2018-11-25 20:44:00]
sending 5 signals using command: 'killall -2 lreg' after 1.61988152208s
[INFO -- 2018-11-25 20:44:01]
Execution finished before waitTime
