[INFO -- 2018-11-23 20:04:59]
Starting GDB script
[INFO -- 2018-11-23 20:04:59]
initSignal:0.0
[INFO -- 2018-11-23 20:04:59]
endSignal:3.0
[INFO -- 2018-11-23 20:05:00]
sending 5 signals using command: 'killall -2 lreg' after 1.20332953679s
[INFO -- 2018-11-23 20:05:00]
sending 5 signals using command: 'killall -2 lreg' after 1.27338644905s
[INFO -- 2018-11-23 20:05:01]
Execution finished before waitTime
