[INFO -- 2018-11-24 12:28:16]
Starting GDB script
[INFO -- 2018-11-24 12:28:16]
initSignal:0.0
[INFO -- 2018-11-24 12:28:16]
endSignal:2.0
[INFO -- 2018-11-24 12:28:17]
sending 5 signals using command: 'killall -2 lreg' after 0.446818562028s
[INFO -- 2018-11-24 12:28:17]
sending 5 signals using command: 'killall -2 lreg' after 0.887680947815s
[INFO -- 2018-11-24 12:28:18]
sending 5 signals using command: 'killall -2 lreg' after 1.72926171855s
[INFO -- 2018-11-24 12:28:22]
Execution finished before waitTime
