[INFO -- 2018-11-23 19:18:16]
Starting flip_value script
version: 1.1
[INFO -- 2018-11-23 19:18:16]
Initialization strings:
[INFO -- 2018-11-23 19:18:16]
(1) file /tmp/lreg/lreg
[INFO -- 2018-11-23 19:18:16]
(2) set args /tmp/lreg/randInput /tmp/lreg/output
[INFO -- 2018-11-23 19:18:16]
initSignal:0
[INFO -- 2018-11-23 19:18:16]
endSignal:3
[INFO -- 2018-11-23 19:18:16]
faultModel:2
[INFO -- 2018-11-23 19:18:18]
event type: exit
[INFO -- 2018-11-23 19:18:18]
exit code: 0
