[INFO -- 2018-11-23 18:20:24]
Starting GDB script
[INFO -- 2018-11-23 18:20:24]
initSignal:0.0
[INFO -- 2018-11-23 18:20:24]
endSignal:3.0
[INFO -- 2018-11-23 18:20:25]
sending 5 signals using command: 'killall -2 lreg' after 0.740006023675s
[INFO -- 2018-11-23 18:20:26]
sending 5 signals using command: 'killall -2 lreg' after 2.12539461512s
[INFO -- 2018-11-23 18:20:26]
Execution finished before waitTime
