[INFO -- 2018-11-27 20:50:55]
Starting GDB script
[INFO -- 2018-11-27 20:50:55]
initSignal:0.0
[INFO -- 2018-11-27 20:50:55]
endSignal:3.0
[INFO -- 2018-11-27 20:50:55]
sending 5 signals using command: 'killall -2 lreg' after 0.0829417448018s
[INFO -- 2018-11-27 20:50:57]
sending 5 signals using command: 'killall -2 lreg' after 1.71436839597s
[INFO -- 2018-11-27 20:50:58]
sending 5 signals using command: 'killall -2 lreg' after 2.75950287297s
[INFO -- 2018-11-27 20:50:58]
Execution finished before waitTime
