[INFO -- 2018-11-24 15:19:38]
Starting GDB script
[INFO -- 2018-11-24 15:19:38]
initSignal:0.0
[INFO -- 2018-11-24 15:19:38]
endSignal:6.0
[INFO -- 2018-11-24 15:19:40]
sending 5 signals using command: 'killall -2 lreg' after 1.94395003034s
[INFO -- 2018-11-24 15:19:42]
sending 5 signals using command: 'killall -2 lreg' after 4.49017112409s
[INFO -- 2018-11-24 15:19:42]
Execution finished before waitTime
