[INFO -- 2018-11-25 21:35:28]
Starting GDB script
[INFO -- 2018-11-25 21:35:28]
initSignal:0.0
[INFO -- 2018-11-25 21:35:28]
endSignal:6.0
[INFO -- 2018-11-25 21:35:29]
sending 5 signals using command: 'killall -2 lreg' after 1.31745441304s
[INFO -- 2018-11-25 21:35:30]
sending 5 signals using command: 'killall -2 lreg' after 2.02577911294s
[INFO -- 2018-11-25 21:35:30]
sending 5 signals using command: 'killall -2 lreg' after 2.59877918647s
[INFO -- 2018-11-25 21:35:31]
Execution finished before waitTime
