[INFO -- 2018-11-24 19:25:32]
sending 5 signals using command: 'killall -2 lreg' after 3.45261547788s
[INFO -- 2018-11-24 19:25:32]
Starting GDB script
[INFO -- 2018-11-24 19:25:32]
initSignal:0.0
[INFO -- 2018-11-24 19:25:32]
endSignal:6.0
[INFO -- 2018-11-24 19:25:34]
sending 5 signals using command: 'killall -2 lreg' after 0.967585564683s
[INFO -- 2018-11-24 19:25:35]
sending 5 signals using command: 'killall -2 lreg' after 2.67488961312s
[INFO -- 2018-11-24 19:25:36]
Execution finished before waitTime
