[INFO -- 2018-11-23 21:12:32]
Starting flip_value script
version: 1.1
[INFO -- 2018-11-23 21:12:32]
Initialization strings:
[INFO -- 2018-11-23 21:12:32]
(1) file /tmp/lreg/lreg
[INFO -- 2018-11-23 21:12:32]
(2) set args /tmp/lreg/randInput /tmp/lreg/output
[INFO -- 2018-11-23 21:12:32]
initSignal:0
[INFO -- 2018-11-23 21:12:32]
endSignal:3
[INFO -- 2018-11-23 21:12:32]
faultModel:2
[EXCEPTION -- 2018-11-23 21:12:32]
pythonException: Unable to exit loop in struct fields; Exiting wihtout making a bit flip
[INFO -- 2018-11-23 21:12:32]
Backtrace BEGIN:
#0  0x000055555555519a in predict (v=-10) at lreg.cpp:49
#1  0x000055555555526a in meanSquaredError () at lreg.cpp:61
#2  0x0000555555555661 in train (iterations=10000, alpha=0.00020000000000000001, N=2, stopsWhenStable=true) at lreg.cpp:121
#3  0x0000555555555ab7 in main (argc=3, argv=0x7fffffffde58) at lreg.cpp:174

44	/**
45		Predicts the value related to v using the Ts variables
46	*/
47	double predict(double v){
48		double val = 0;
49		for(int i = 0; i<T.size(); i++){
50			val+= (T[i] * pow(v, i));
51		}
52		return val;
53		

Backtrace END
Memory content before bitflip:0x030x000x000x00
Fault Model: Random bit-flip
base address to flip value: 0x7fffffffd90c
address max offset: 4
Memory content after  bitflip:0xca0x9c0x3c0xe0
frame name: main
symbol name: argc
symbol filename: lreg.cpp
symbol line: 144
value: -532898614
value address: 0x7fffffffd90c
Type: The type is an integer type.
Type sizeof: 4

[INFO -- 2018-11-23 21:12:32]
Fault Injection Successful after 0.8713109493255615s
[INFO -- 2018-11-23 21:12:34]
event type: exit
[INFO -- 2018-11-23 21:12:34]
exit code: 0
