[INFO -- 2018-11-24 17:41:46]
sending 5 signals using command: 'killall -2 lreg' after 5.79491438265s
[INFO -- 2018-11-24 17:41:46]
Starting GDB script
[INFO -- 2018-11-24 17:41:46]
initSignal:0.0
[INFO -- 2018-11-24 17:41:46]
endSignal:6.0
[INFO -- 2018-11-24 17:41:46]
sending 5 signals using command: 'killall -2 lreg' after 0.0197095072066s
[INFO -- 2018-11-24 17:41:47]
sending 5 signals using command: 'killall -2 lreg' after 0.893453815599s
[INFO -- 2018-11-24 17:41:49]
sending 5 signals using command: 'killall -2 lreg' after 3.24522000347s
[INFO -- 2018-11-24 17:41:50]
Execution finished before waitTime
