[INFO -- 2018-11-25 16:16:14]
Starting GDB script
[INFO -- 2018-11-25 16:16:14]
initSignal:0.0
[INFO -- 2018-11-25 16:16:14]
endSignal:6.0
[INFO -- 2018-11-25 16:16:16]
sending 5 signals using command: 'killall -2 lreg' after 1.56611525931s
[INFO -- 2018-11-25 16:16:18]
sending 5 signals using command: 'killall -2 lreg' after 4.10826181902s
[INFO -- 2018-11-25 16:16:20]
sending 5 signals using command: 'killall -2 lreg' after 5.67242888486s
[INFO -- 2018-11-25 16:16:23]
Execution finished before waitTime
