[INFO -- 2018-11-24 15:27:47]
Starting GDB script
[INFO -- 2018-11-24 15:27:47]
initSignal:0.0
[INFO -- 2018-11-24 15:27:47]
endSignal:6.0
[INFO -- 2018-11-24 15:27:49]
sending 5 signals using command: 'killall -2 lreg' after 1.59974278902s
[INFO -- 2018-11-24 15:27:50]
sending 5 signals using command: 'killall -2 lreg' after 2.65545321409s
[INFO -- 2018-11-24 15:27:50]
sending 5 signals using command: 'killall -2 lreg' after 2.77489896897s
[INFO -- 2018-11-24 15:27:51]
Execution finished before waitTime
