[INFO -- 2018-11-27 19:39:50]
Starting flip_value script
version: 1.1
[INFO -- 2018-11-27 19:39:50]
Initialization strings:
[INFO -- 2018-11-27 19:39:50]
(1) file /tmp/lreg/lreg
[INFO -- 2018-11-27 19:39:50]
(2) set args /tmp/lreg/randInput /tmp/lreg/output
[INFO -- 2018-11-27 19:39:50]
initSignal:0
[INFO -- 2018-11-27 19:39:50]
endSignal:3
[INFO -- 2018-11-27 19:39:50]
faultModel:0
[INFO -- 2018-11-27 19:39:51]
Backtrace BEGIN:
#0  0x00007ffff76da8d7 in __ieee754_pow_sse2 (x=21, y=3) at ../sysdeps/ieee754/dbl-64/e_pow.c:115
#1  0x00007ffff76bcb14 in __pow (x=21, y=3) at w_pow_compat.c:30
#2  0x0000555555556826 in std::pow<double, unsigned int> (__x=21, __y=3) at /usr/include/c++/7/cmath:418
#3  0x0000555555555814 in predict (v=21) at lreg.cpp:116
#4  0x0000555555555a53 in partialDerivate (pos1=3, pos2=3) at lreg.cpp:142
#5  0x0000555555555bbe in adjust (alpha1=2.2222199999999999e-05, alpha2=2.2222199999999999e-05) at lreg.cpp:156
#6  0x0000555555555ee0 in train (iter1=30000, iter2=30000, N=4, alpha1=2.2222199999999999e-05, alpha2=2.2222199999999999e-05, stopsWhenStable=true) at lreg.cpp:193
#7  0x0000555555556467 in main (argc=3, argv=0x7fffffffde58) at lreg.cpp:253

110	../sysdeps/ieee754/dbl-64/e_pow.c: No such file or directory.

Backtrace END
Fliping value of field name: x
Memory content before bitflip:0x000x000x000x000x000x000x300x43
Fault Model: Single bit-flip
base address to flip value: 0x7ffff779f5a8 
address max offset: 8
Memory content after  bitflip:0x000x000x000x000x000x000x300xc3
frame name: __ieee754_pow_sse2
symbol name: t52
symbol filename: ../sysdeps/ieee754/dbl-64/upow.h
symbol line: 54
value: {i = {0, -1020264448}, x = -4503599627370496}
value address: 0x7ffff779f5a8 <t52>
Type: The type is a union.
Type sizeof: 8
Field name: i
Field Type: The type is an array.
Field Type sizeof: 8
Field name: x
Field Type: A floating point type.
Field Type sizeof: 8

[INFO -- 2018-11-27 19:39:51]
Fault Injection Successful after 1.8263580799102783s
[INFO -- 2018-11-27 19:39:52]
event type: exit
[INFO -- 2018-11-27 19:39:52]
exit code: 0
