[INFO -- 2018-11-22 18:41:50]
Starting GDB script
[INFO -- 2018-11-22 18:41:50]
initSignal:0.0
[INFO -- 2018-11-22 18:41:50]
endSignal:3.0
[INFO -- 2018-11-22 18:41:50]
sending 5 signals using command: 'killall -2 lreg' after 0.0329127508162s
[INFO -- 2018-11-22 18:41:51]
sending 5 signals using command: 'killall -2 lreg' after 1.56000638709s
[INFO -- 2018-11-22 18:41:52]
sending 5 signals using command: 'killall -2 lreg' after 2.00175175397s
[INFO -- 2018-11-22 18:41:55]
Execution finished before waitTime
