[INFO -- 2018-11-29 13:32:32]
Starting GDB script
[INFO -- 2018-11-29 13:32:32]
initSignal:0.0
[INFO -- 2018-11-29 13:32:32]
endSignal:6.0
[INFO -- 2018-11-29 13:32:33]
sending 5 signals using command: 'killall -2 lreg' after 0.915168940691s
[INFO -- 2018-11-29 13:32:33]
sending 5 signals using command: 'killall -2 lreg' after 1.03657552741s
[INFO -- 2018-11-29 13:32:33]
sending 5 signals using command: 'killall -2 lreg' after 1.42588712443s
[INFO -- 2018-11-29 13:32:34]
Execution finished before waitTime
