[INFO -- 2018-11-22 16:18:24]
Starting GDB script
[INFO -- 2018-11-22 16:18:24]
initSignal:0.0
[INFO -- 2018-11-22 16:18:24]
endSignal:3.0
[INFO -- 2018-11-22 16:18:26]
sending 5 signals using command: 'killall -2 lreg' after 1.64619632594s
[INFO -- 2018-11-22 16:18:27]
sending 5 signals using command: 'killall -2 lreg' after 2.33587190212s
[INFO -- 2018-11-22 16:18:27]
sending 5 signals using command: 'killall -2 lreg' after 2.78847200772s
[INFO -- 2018-11-22 16:18:29]
Execution finished before waitTime
