[INFO -- 2018-11-29 15:48:20]
Starting flip_value script
version: 1.1
[INFO -- 2018-11-29 15:48:20]
Initialization strings:
[INFO -- 2018-11-29 15:48:20]
(1) file /tmp/lreg/lreg
[INFO -- 2018-11-29 15:48:20]
(2) set args /tmp/lreg/randInput /tmp/lreg/output /tmp/lreg/detected.log
[INFO -- 2018-11-29 15:48:20]
initSignal:0
[INFO -- 2018-11-29 15:48:20]
endSignal:6
[INFO -- 2018-11-29 15:48:20]
faultModel:1
[INFO -- 2018-11-29 15:48:21]
Backtrace BEGIN:
#0  dl_main (phdr=<optimized out>, phnum=<optimized out>, user_entry=<optimized out>, auxv=<optimized out>) at rtld.c:2289
#1  0x00007ffff7defdd0 in _dl_sysdep_start (start_argptr=start_argptr@entry=0x7fffffffde40, dl_main=dl_main@entry=0x7ffff7dd7660 <dl_main>) at ../elf/dl-sysdep.c:253
#2  0x00007ffff7dd7128 in _dl_start_final (arg=0x7fffffffde40) at rtld.c:414
#3  _dl_start (arg=0x7fffffffde40) at rtld.c:521
#4  0x00007ffff7dd6098 in _start () from /lib64/ld-linux-x86-64.so.2
#5  0x0000000000000004 in ?? ()
#6  0x00007fffffffe1e2 in ?? ()
#7  0x00007fffffffe1f1 in ?? ()
#8  0x00007fffffffe205 in ?? ()
#9  0x00007fffffffe216 in ?? ()
#10 0x0000000000000000 in ?? ()

2284	rtld.c: No such file or directory.

Backtrace END
Memory content before bitflip:0xf00x4f0x550x550x550x550x000x00
Fault Model: Double bit-flip
base address to flip value: 0x7fffffffdd70
address max offset: 8
Memory content after  bitflip:0xf00x4f0x550x5f0x550x550x000x00
frame name: _dl_sysdep_start
symbol name: user_entry
symbol filename: ../elf/dl-sysdep.c
symbol line: 91
value: 93825160007664
value address: 0x7fffffffdd70
Type: The type is an integer type.
Type sizeof: 8

[INFO -- 2018-11-29 15:48:21]
Fault Injection Successful after 1.2490875720977783s
[INFO -- 2018-11-29 15:48:21]
event type: exit
[EXCEPTION -- 2018-11-29 15:48:21]
exit code: no exit code available
