[INFO -- 2018-11-24 15:46:57]
sending 5 signals using command: 'killall -2 lreg' after 4.03700065232s
[INFO -- 2018-11-24 15:46:58]
sending 5 signals using command: 'killall -2 lreg' after 4.6067692991s
[INFO -- 2018-11-24 15:46:58]
Starting GDB script
[INFO -- 2018-11-24 15:46:58]
initSignal:0.0
[INFO -- 2018-11-24 15:46:58]
endSignal:6.0
[INFO -- 2018-11-24 15:47:00]
sending 5 signals using command: 'killall -2 lreg' after 2.21597914927s
[INFO -- 2018-11-24 15:47:01]
sending 5 signals using command: 'killall -2 lreg' after 3.42887796461s
[INFO -- 2018-11-24 15:47:02]
Execution finished before waitTime
