[INFO -- 2018-11-23 18:18:01]
Starting GDB script
[INFO -- 2018-11-23 18:18:01]
initSignal:0.0
[INFO -- 2018-11-23 18:18:01]
endSignal:3.0
[INFO -- 2018-11-23 18:18:01]
sending 5 signals using command: 'killall -2 lreg' after 0.0292227821088s
[INFO -- 2018-11-23 18:18:01]
sending 5 signals using command: 'killall -2 lreg' after 0.294204582908s
[INFO -- 2018-11-23 18:18:02]
sending 5 signals using command: 'killall -2 lreg' after 1.52265809951s
[INFO -- 2018-11-23 18:18:03]
Execution finished before waitTime
