[INFO -- 2018-11-24 15:40:20]
Starting flip_value script
version: 1.1
[INFO -- 2018-11-24 15:40:20]
Initialization strings:
[INFO -- 2018-11-24 15:40:20]
(1) file /tmp/lreg/lreg
[INFO -- 2018-11-24 15:40:20]
(2) set args /tmp/lreg/randInput /tmp/lreg/output /tmp/lreg/detected.log
[INFO -- 2018-11-24 15:40:20]
initSignal:0
[INFO -- 2018-11-24 15:40:20]
endSignal:6
[INFO -- 2018-11-24 15:40:20]
faultModel:0
[INFO -- 2018-11-24 15:40:21]
Backtrace BEGIN:
#0  0x00007ffff76daa15 in __ieee754_pow_sse2 (x=<optimized out>, y=<optimized out>) at ../sysdeps/ieee754/dbl-64/e_pow.c:215
#1  0x00007ffff76bcb14 in __pow (x=5, y=1) at w_pow_compat.c:30
#2  0x0000555555556149 in std::pow<double, int> (__x=5, __y=1) at /usr/include/c++/7/cmath:418
#3  0x0000555555555237 in predict (v=5) at lreg.cpp:50
#4  0x00005555555553fc in partialDerivate (pos=3) at lreg.cpp:74
#5  0x0000555555555503 in adjust (alpha=2.2222199999999999e-05) at lreg.cpp:87
#6  0x00005555555556ac in train (iterations=30000, alpha=2.2222199999999999e-05, N=4, stopsWhenStable=true) at lreg.cpp:120
#7  0x0000555555555a1c in execute (input=0x7fffffffe1f2 "/tmp/lreg/randInput") at lreg.cpp:157
#8  0x0000555555555c78 in main (argc=4, argv=0x7fffffffde48) at lreg.cpp:193

210	../sysdeps/ieee754/dbl-64/e_pow.c: No such file or directory.

Backtrace END
Fliping value of field: std::_Vector_base<double, std::allocator<double> >
Fliping value of field: _M_impl
Fliping value of field: _M_finish
Fliping a bit of the pointer
Memory content before bitflip:0xc00x250x770x550x550x550x000x00
Fault Model: Single bit-flip
base address to flip value: 0x55555575b168 
address max offset: 8
Memory content after  bitflip:0xc00x250x770x550x550x550x000x10
frame name: train
symbol name: y
symbol filename: lreg.cpp
symbol line: 33
value: std::vector of length 144115188075855888, capacity 16 = {13145, 2813, 13, -99407, -575, 22793, -121267, 15973, 22793, 86413, -63895, 10673, -1507, 41, 19181, -38047, 0, 7.1639518646980749e-322, 9.9997448205173409, 10.999751207252501, 12.999763980722822, -7.0003637539803849, -1078.8160145721722, -1078.8160145721722, -1722.5303976432911, -1319.1177772194476, -1582.6669839552355, -584.82432114594803, 0, 0, 0, 0, 0, 0, 0, 2.4209216646221081e-322, -0.075390078824831216, -0.1787884360968752, -1.9386381712469525, -3.9714191915271044, 0, 2.4209216646221081e-322, -0.075673289131343788, -0.18148907872869649, -1.9480673872785932, -4.0460394923233904, 0, 2.4209216646221081e-322, 4.6355706480587443e-310, -0.18148907872869649, -1.9480673872785932, -4.0460394923233904, 0, 2.4209216646221081e-322, 0, -0.1787884360968752, -1.9386381712469525, -3.9714191915271044, 0, 2.1367845116988072e-319, 0, 0, 0, 0, 0, 0, 0, 0, 0, 0, 0, 0, 0, 0, 0, 0, 0, 0, 0, 0, 0, 0, 0, 0, 0, 0, 0, 0, 0, 0, 0, 0, 0, 0, 0, 0, 0, 0, 0, 0, 0, 0, 0, 0, 0, 0, 0, 0, 0, 0, 0, 0, 0, 0, 0, 0, 0, 0, 0, 0, 0, 0, 0, 0, 0, 0, 0, 0, 0, 0, 0, 0, 0, 0, 0, 0, 0, 0, 0, 0, 0, 0, 0, 0, 0, 0, 0, 0, 0, 0, 0, 0, 0, 0, 0, 0, 0, 0, 0, 0, 0, 0, 0, 0, 0, 0, 0, 0, 0, 0, 0, 0, 0, 0, 0, 0, 0, 0, 0, 0, 0, 0, 0, 0, 0, 0, 0, 0, 0, 0, 0, 0, 0, 0, 0, 0, 0, 0, 0, 0...}
value address: 0x55555575b160 <y>
Type: The type is a structure.
Type sizeof: 24
Field name: std::_Vector_base<double, std::allocator<double> >
Field Type: The type is a structure.
Field Type sizeof: 24

[INFO -- 2018-11-24 15:40:21]
Fault Injection Successful after 1.558537483215332s
[INFO -- 2018-11-24 15:40:23]
event type: exit
[INFO -- 2018-11-24 15:40:23]
exit code: 0
