[INFO -- 2018-11-24 16:43:03]
sending 5 signals using command: 'killall -2 lreg' after 5.38046787952s
[INFO -- 2018-11-24 16:43:03]
Starting GDB script
[INFO -- 2018-11-24 16:43:03]
initSignal:0.0
[INFO -- 2018-11-24 16:43:03]
endSignal:6.0
[INFO -- 2018-11-24 16:43:03]
sending 5 signals using command: 'killall -2 lreg' after 0.126380777161s
[INFO -- 2018-11-24 16:43:04]
Execution finished before waitTime
