[INFO -- 2018-11-23 17:10:14]
Starting GDB script
[INFO -- 2018-11-23 17:10:14]
initSignal:0.0
[INFO -- 2018-11-23 17:10:14]
endSignal:3.0
[INFO -- 2018-11-23 17:10:14]
sending 5 signals using command: 'killall -2 lreg' after 0.769998631668s
[INFO -- 2018-11-23 17:10:15]
sending 5 signals using command: 'killall -2 lreg' after 1.08327881154s
[INFO -- 2018-11-23 17:10:16]
sending 5 signals using command: 'killall -2 lreg' after 2.13824052133s
[INFO -- 2018-11-23 17:10:18]
Execution finished before waitTime
