[INFO -- 2018-11-26 17:50:01]
Starting flip_value script
version: 1.1
[INFO -- 2018-11-26 17:50:01]
Initialization strings:
[INFO -- 2018-11-26 17:50:01]
(1) file /tmp/lreg/lreg
[INFO -- 2018-11-26 17:50:01]
(2) set args /tmp/lreg/randInput /tmp/lreg/output
[INFO -- 2018-11-26 17:50:01]
initSignal:0
[INFO -- 2018-11-26 17:50:01]
endSignal:3
[INFO -- 2018-11-26 17:50:01]
faultModel:2
[EXCEPTION -- 2018-11-26 17:50:03]
pythonException: Unable to exit loop in struct fields; Exiting wihtout making a bit flip
[INFO -- 2018-11-26 17:50:03]
Backtrace BEGIN:
#0  std::vector<double, std::allocator<double> >::operator[] (this=0x55555575b180 <T1>, __n=2) at /usr/include/c++/7/bits/stl_vector.h:798
#1  0x00005555555557d4 in predict (v=21) at lreg.cpp:116
#2  0x00005555555558c0 in meanSquaredError () at lreg.cpp:128
#3  0x0000555555555ee5 in train (iter1=30000, iter2=30000, N=4, alpha1=2.2222199999999999e-05, alpha2=2.2222199999999999e-05, stopsWhenStable=true) at lreg.cpp:194
#4  0x0000555555556467 in main (argc=3, argv=0x7fffffffde58) at lreg.cpp:253

793	       */
794	      reference
795	      operator[](size_type __n) _GLIBCXX_NOEXCEPT
796	      {
797		__glibcxx_requires_subscript(__n);
798		return *(this->_M_impl._M_start + __n);
799	      }
800	
801	      /**
802	       *  @brief  Subscript access to the data contained in the %vector.

Backtrace END
Memory content before bitflip:0x020x000x000x00
Fault Model: Random bit-flip
base address to flip value: 0x7fffffffd8ec
address max offset: 4
Memory content after  bitflip:0x7e0x4f0x250xa6
frame name: main
symbol name: i1
symbol filename: lreg.cpp
symbol line: 232
value: 2787463038
value address: 0x7fffffffd8ec
Type: The type is an integer type.
Type sizeof: 4

[INFO -- 2018-11-26 17:50:03]
Fault Injection Successful after 2.5925896167755127s
[INFO -- 2018-11-26 17:50:04]
event type: exit
[INFO -- 2018-11-26 17:50:04]
exit code: 0
