[INFO -- 2018-11-26 21:12:08]
Starting flip_value script
version: 1.1
[INFO -- 2018-11-26 21:12:08]
Initialization strings:
[INFO -- 2018-11-26 21:12:08]
(1) file /tmp/lreg/lreg
[INFO -- 2018-11-26 21:12:08]
(2) set args /tmp/lreg/randInput /tmp/lreg/output
[INFO -- 2018-11-26 21:12:08]
initSignal:0
[INFO -- 2018-11-26 21:12:08]
endSignal:3
[INFO -- 2018-11-26 21:12:08]
faultModel:2
[INFO -- 2018-11-26 21:12:09]
Backtrace BEGIN:
#0  verifyUintDup (a=2, b=2) at lreg.cpp:68
#1  0x0000555555555906 in meanSquaredError () at lreg.cpp:128
#2  0x0000555555555ee5 in train (iter1=20000, iter2=20000, N=3, alpha1=5.0000000000000002e-05, alpha2=5.0000000000000002e-05, stopsWhenStable=true) at lreg.cpp:194
#3  0x0000555555556467 in main (argc=3, argv=0x7fffffffde58) at lreg.cpp:253

63			//gerar entrada no log
64			ofstream fp ("/tmp/lreg/detected.log", std::ofstream::app);
65			fp << "verifyUint: a = "<<a<<"; b = "<<b<<endl;
66	        detected = 1;	
67		}
68		return a;
69	}
70	double verifyDoubleDup(double a, double b){
71		if (a != b && detected != 1){
72			//gerar entrada no log

Backtrace END
Fliping value of field: std::_Vector_base<double, std::allocator<double> >
Fliping value of field: _M_impl
Fliping value of field: _M_end_of_storage
Fliping a bit of the pointer
Memory content before bitflip:0x380x250x770x550x550x550x000x00
Fault Model: Random bit-flip
base address to flip value: 0x55555575b190 
address max offset: 8
Memory content after  bitflip:0x310x8e0x830x770x440xc60x900x9a
frame name: main
symbol name: T1
symbol filename: lreg.cpp
symbol line: 36
value: std::vector of length 3, capacity -913652252856447709 = {0.39760838867042636, -0.030889836278561195, -2.9909789409445353}
value address: 0x55555575b180 <T1>
Type: The type is a structure.
Type sizeof: 24
Field name: std::_Vector_base<double, std::allocator<double> >
Field Type: The type is a structure.
Field Type sizeof: 24

[INFO -- 2018-11-26 21:12:09]
Fault Injection Successful after 1.334672451019287s
[INFO -- 2018-11-26 21:12:11]
event type: exit
[INFO -- 2018-11-26 21:12:11]
exit code: 0
