[INFO -- 2018-11-25 11:29:57]
Starting flip_value script
version: 1.1
[INFO -- 2018-11-25 11:29:57]
Initialization strings:
[INFO -- 2018-11-25 11:29:57]
(1) file /tmp/lreg/lreg
[INFO -- 2018-11-25 11:29:57]
(2) set args /tmp/lreg/randInput /tmp/lreg/output /tmp/lreg/detected.log
[INFO -- 2018-11-25 11:29:57]
initSignal:0
[INFO -- 2018-11-25 11:29:57]
endSignal:6
[INFO -- 2018-11-25 11:29:57]
faultModel:0
[INFO -- 2018-11-25 11:29:59]
Backtrace BEGIN:
#0  log1 (error=<synthetic pointer>, delta=<synthetic pointer>, x=17) at ../sysdeps/ieee754/dbl-64/e_pow.c:335
#1  __ieee754_pow_sse2 (x=17, y=3) at ../sysdeps/ieee754/dbl-64/e_pow.c:103
#2  0x00007ffff76db6be in __ieee754_pow_sse2 (x=<optimized out>, y=<optimized out>) at ../sysdeps/ieee754/dbl-64/e_pow.c:184
#3  0x00007ffff76bcb14 in __pow (x=-17, y=3) at w_pow_compat.c:30
#4  0x000055555555621b in std::pow<double, int> (__x=-17, __y=3) at /usr/include/c++/7/cmath:418
#5  0x0000555555555237 in predict (v=-17) at lreg.cpp:50
#6  0x00005555555553fc in partialDerivate (pos=2) at lreg.cpp:74
#7  0x0000555555555503 in adjust (alpha=2.2222199999999999e-05) at lreg.cpp:87
#8  0x00005555555556ac in train (iterations=30000, alpha=2.2222199999999999e-05, N=4, stopsWhenStable=true) at lreg.cpp:120
#9  0x0000555555555a1c in execute (input=0x7fffffffe1f1 "/tmp/lreg/randInput") at lreg.cpp:157
#10 0x0000555555555cb0 in main (argc=4, argv=0x7fffffffde48) at lreg.cpp:196

330	../sysdeps/ieee754/dbl-64/e_pow.c: No such file or directory.

Backtrace END
Fliping value of field name: i
Fliping array at pos: 1
Memory content before bitflip:0x000x000x000x80
Fault Model: Single bit-flip
base address to flip value: 0x7ffff779f5e4 
address max offset: 4
Memory content after  bitflip:0x000x000x000x82
frame name: log1
symbol name: nZERO
symbol filename: ../sysdeps/ieee754/dbl-64/upow.h
symbol line: 47
value: {i = {0, -2113929216}, x = -4.7783097267364807e-299}
value address: 0x7ffff779f5e0 <nZERO>
Type: The type is a union.
Type sizeof: 8
Field name: i
Field Type: The type is an array.
Field Type sizeof: 8
Field name: x
Field Type: A floating point type.
Field Type sizeof: 8

[INFO -- 2018-11-25 11:29:59]
Fault Injection Successful after 2.9352517127990723s
[INFO -- 2018-11-25 11:30:00]
event type: exit
[INFO -- 2018-11-25 11:30:00]
exit code: 0
