[INFO -- 2018-11-27 16:44:55]
Starting GDB script
[INFO -- 2018-11-27 16:44:55]
initSignal:0.0
[INFO -- 2018-11-27 16:44:55]
endSignal:3.0
[INFO -- 2018-11-27 16:44:56]
sending 5 signals using command: 'killall -2 lreg' after 0.275684483716s
[INFO -- 2018-11-27 16:44:56]
sending 5 signals using command: 'killall -2 lreg' after 0.271374415223s
[INFO -- 2018-11-27 16:45:02]
sending 5 signals using command: 'killall -2 lreg' after 2.58324725683s
[INFO -- 2018-11-27 16:45:02]
Execution finished before waitTime
