[INFO -- 2018-11-24 10:17:18]
Starting GDB script
[INFO -- 2018-11-24 10:17:18]
initSignal:0.0
[INFO -- 2018-11-24 10:17:18]
endSignal:2.0
[INFO -- 2018-11-24 10:17:18]
sending 5 signals using command: 'killall -2 lreg' after 0.304713899097s
[INFO -- 2018-11-24 10:17:18]
sending 5 signals using command: 'killall -2 lreg' after 0.469135018002s
[INFO -- 2018-11-24 10:17:19]
sending 5 signals using command: 'killall -2 lreg' after 0.7633970956s
[INFO -- 2018-11-24 10:17:23]
Execution finished before waitTime
