[INFO -- 2018-11-22 19:05:54]
Starting flip_value script
version: 1.1
[INFO -- 2018-11-22 19:05:54]
Initialization strings:
[INFO -- 2018-11-22 19:05:54]
(1) file /tmp/lreg/lreg
[INFO -- 2018-11-22 19:05:54]
(2) set args /tmp/lreg/randInput /tmp/lreg/output
[INFO -- 2018-11-22 19:05:54]
initSignal:0
[INFO -- 2018-11-22 19:05:54]
endSignal:3
[INFO -- 2018-11-22 19:05:54]
faultModel:0
[EXCEPTION -- 2018-11-22 19:05:56]
pythonException: empty range for randrange() (0,0, 0)
[INFO -- 2018-11-22 19:05:56]
Backtrace BEGIN:
#0  0x00005555555551dd in predict (v=23) at lreg.cpp:50
#1  0x000055555555526a in meanSquaredError () at lreg.cpp:61
#2  0x0000555555555661 in train (iterations=20000, alpha=5.0000000000000002e-05, N=3, stopsWhenStable=true) at lreg.cpp:121
#3  0x0000555555555ab7 in main (argc=3, argv=0x7fffffffde58) at lreg.cpp:174

45		Predicts the value related to v using the Ts variables
46	*/
47	double predict(double v){
48		double val = 0;
49		for(int i = 0; i<T.size(); i++){
50			val+= (T[i] * pow(v, i));
51		}
52		return val;
53		
54	}

Backtrace END
Fliping value of field: std::_Vector_base<double, std::allocator<double> >
Fliping value of field: _M_impl
Fliping value of field: _M_start
Fliping a bit of the value pointed by a pointer
Memory content before bitflip:0xff0xbf0xfa0x1b0xa90x910xd00x3f
Fault Model: Single bit-flip
base address to flip value: 0x555555771360
address max offset: 8
Memory content after  bitflip:0xff0xbf0xda0x1b0xa90x910xd00x3f
frame name: predict
symbol name: T
symbol filename: lreg.cpp
symbol line: 34
value: std::vector of length 3, capacity 3 = {0.25889041633763549, -0.032086650040496607, -2.9904962540386202}
value address: 0x55555575a180 <T>
Type: The type is a structure.
Type sizeof: 24
Field name: std::_Vector_base<double, std::allocator<double> >
Field Type: The type is a structure.
Field Type sizeof: 24

[INFO -- 2018-11-22 19:05:56]
Fault Injection Successful after 2.405770778656006s
[INFO -- 2018-11-22 19:05:58]
event type: exit
[INFO -- 2018-11-22 19:05:58]
exit code: 0
