[INFO -- 2018-11-24 18:53:19]
sending 5 signals using command: 'killall -2 lreg' after 5.37709938984s
[INFO -- 2018-11-24 18:53:20]
Starting GDB script
[INFO -- 2018-11-24 18:53:20]
initSignal:0.0
[INFO -- 2018-11-24 18:53:20]
endSignal:6.0
[INFO -- 2018-11-24 18:53:21]
sending 5 signals using command: 'killall -2 lreg' after 1.12325347114s
[INFO -- 2018-11-24 18:53:22]
sending 5 signals using command: 'killall -2 lreg' after 2.31347707457s
[INFO -- 2018-11-24 18:53:22]
sending 5 signals using command: 'killall -2 lreg' after 2.97555803587s
[INFO -- 2018-11-24 18:53:24]
Execution finished before waitTime
