[INFO -- 2018-11-24 11:30:18]
Starting GDB script
[INFO -- 2018-11-24 11:30:18]
initSignal:0.0
[INFO -- 2018-11-24 11:30:18]
endSignal:2.0
[INFO -- 2018-11-24 11:30:19]
sending 5 signals using command: 'killall -2 lreg' after 0.73698382065s
[INFO -- 2018-11-24 11:30:19]
sending 5 signals using command: 'killall -2 lreg' after 1.58515747587s
[INFO -- 2018-11-24 11:30:20]
sending 5 signals using command: 'killall -2 lreg' after 1.99609992699s
[INFO -- 2018-11-24 11:30:23]
Execution finished before waitTime
