[INFO -- 2018-11-25 18:43:27]
Starting flip_value script
version: 1.1
[INFO -- 2018-11-25 18:43:27]
Initialization strings:
[INFO -- 2018-11-25 18:43:27]
(1) file /tmp/lreg/lreg
[INFO -- 2018-11-25 18:43:27]
(2) set args /tmp/lreg/randInput /tmp/lreg/output /tmp/lreg/detected.log
[INFO -- 2018-11-25 18:43:27]
initSignal:0
[INFO -- 2018-11-25 18:43:27]
endSignal:6
[INFO -- 2018-11-25 18:43:27]
faultModel:0
[INFO -- 2018-11-25 18:43:29]
event type: exit
[INFO -- 2018-11-25 18:43:29]
exit code: 0
