[INFO -- 2018-11-24 12:01:13]
Starting flip_value script
version: 1.1
[INFO -- 2018-11-24 12:01:13]
Initialization strings:
[INFO -- 2018-11-24 12:01:13]
(1) file /tmp/lreg/lreg
[INFO -- 2018-11-24 12:01:13]
(2) set args /tmp/lreg/randInput /tmp/lreg/output
[INFO -- 2018-11-24 12:01:13]
initSignal:0
[INFO -- 2018-11-24 12:01:13]
endSignal:2
[INFO -- 2018-11-24 12:01:13]
faultModel:0
[INFO -- 2018-11-24 12:01:14]
Backtrace BEGIN:
#0  dl_main (phdr=<optimized out>, phnum=<optimized out>, user_entry=<optimized out>, auxv=<optimized out>) at rtld.c:2289
#1  0x00007ffff7defdd0 in _dl_sysdep_start (start_argptr=start_argptr@entry=0x7fffffffde50, dl_main=dl_main@entry=0x7ffff7dd7660 <dl_main>) at ../elf/dl-sysdep.c:253
#2  0x00007ffff7dd7128 in _dl_start_final (arg=0x7fffffffde50) at rtld.c:414
#3  _dl_start (arg=0x7fffffffde50) at rtld.c:521
#4  0x00007ffff7dd6098 in _start () from /lib64/ld-linux-x86-64.so.2
#5  0x0000000000000003 in ?? ()
#6  0x00007fffffffe1fd in ?? ()
#7  0x00007fffffffe20c in ?? ()
#8  0x00007fffffffe220 in ?? ()
#9  0x0000000000000000 in ?? ()

2284	rtld.c: No such file or directory.

Backtrace END
Memory content before bitflip:0xe70x7a0x220x000x000x000x000x00
Fault Model: Single bit-flip
base address to flip value: 0x7ffff7ffc728 
address max offset: 8
Memory content after  bitflip:0xe70x5a0x220x000x000x000x000x00
frame name: _dl_start
symbol name: load_time
symbol filename: rtld.c
symbol line: 307
value: 2251495
value address: 0x7ffff7ffc728 <load_time>
Type: The type is an integer type.
Type sizeof: 8

[INFO -- 2018-11-24 12:01:14]
Fault Injection Successful after 1.3892619609832764s
[INFO -- 2018-11-24 12:01:17]
event type: exit
[INFO -- 2018-11-24 12:01:17]
exit code: 0
