[INFO -- 2018-11-24 10:07:30]
Starting GDB script
[INFO -- 2018-11-24 10:07:30]
initSignal:0.0
[INFO -- 2018-11-24 10:07:30]
endSignal:2.0
[INFO -- 2018-11-24 10:07:30]
sending 5 signals using command: 'killall -2 lreg' after 0.243105736101s
[INFO -- 2018-11-24 10:07:30]
sending 5 signals using command: 'killall -2 lreg' after 0.780768852984s
[INFO -- 2018-11-24 10:07:31]
sending 5 signals using command: 'killall -2 lreg' after 1.61504559516s
[INFO -- 2018-11-24 10:07:33]
Execution finished before waitTime
