[INFO -- 2018-11-23 16:50:04]
Starting flip_value script
version: 1.1
[INFO -- 2018-11-23 16:50:04]
Initialization strings:
[INFO -- 2018-11-23 16:50:04]
(1) file /tmp/lreg/lreg
[INFO -- 2018-11-23 16:50:04]
(2) set args /tmp/lreg/randInput /tmp/lreg/output
[INFO -- 2018-11-23 16:50:04]
initSignal:0
[INFO -- 2018-11-23 16:50:04]
endSignal:3
[INFO -- 2018-11-23 16:50:04]
faultModel:2
[INFO -- 2018-11-23 16:50:05]
Backtrace BEGIN:
#0  dl_main (phdr=<optimized out>, phnum=<optimized out>, user_entry=<optimized out>, auxv=<optimized out>) at rtld.c:2289
#1  0x00007ffff7defdd0 in _dl_sysdep_start (start_argptr=start_argptr@entry=0x7fffffffde50, dl_main=dl_main@entry=0x7ffff7dd7660 <dl_main>) at ../elf/dl-sysdep.c:253
#2  0x00007ffff7dd7128 in _dl_start_final (arg=0x7fffffffde50) at rtld.c:414
#3  _dl_start (arg=0x7fffffffde50) at rtld.c:521
#4  0x00007ffff7dd6098 in _start () from /lib64/ld-linux-x86-64.so.2
#5  0x0000000000000003 in ?? ()
#6  0x00007fffffffe1fc in ?? ()
#7  0x00007fffffffe20b in ?? ()
#8  0x00007fffffffe21f in ?? ()
#9  0x0000000000000000 in ?? ()

2284	rtld.c: No such file or directory.

Backtrace END
Memory content before bitflip:0xa00x4f0x550x550x550x550x000x00
Fault Model: Random bit-flip
base address to flip value: 0x7fffffffdd80
address max offset: 8
Memory content after  bitflip:0x960x870x840x540x2e0x050xc00xc5
frame name: _dl_sysdep_start
symbol name: user_entry
symbol filename: ../elf/dl-sysdep.c
symbol line: 91
value: 14249394917544855446
value address: 0x7fffffffdd80
Type: The type is an integer type.
Type sizeof: 8

[INFO -- 2018-11-23 16:50:05]
Fault Injection Successful after 1.7926537990570068s
[INFO -- 2018-11-23 16:50:06]
event type: exit
[EXCEPTION -- 2018-11-23 16:50:06]
exit code: no exit code available
