[INFO -- 2018-11-25 18:49:44]
sending 5 signals using command: 'killall -2 lreg' after 2.5752104875s
[INFO -- 2018-11-25 18:49:45]
sending 5 signals using command: 'killall -2 lreg' after 3.48287978137s
[INFO -- 2018-11-25 18:49:47]
sending 5 signals using command: 'killall -2 lreg' after 5.29347378222s
[INFO -- 2018-11-25 18:49:47]
Starting GDB script
[INFO -- 2018-11-25 18:49:47]
initSignal:0.0
[INFO -- 2018-11-25 18:49:47]
endSignal:6.0
[INFO -- 2018-11-25 18:49:50]
Execution finished before waitTime
