[INFO -- 2018-11-25 22:58:26]
Starting flip_value script
version: 1.1
[INFO -- 2018-11-25 22:58:26]
Initialization strings:
[INFO -- 2018-11-25 22:58:26]
(1) file /tmp/lreg/lreg
[INFO -- 2018-11-25 22:58:26]
(2) set args /tmp/lreg/randInput /tmp/lreg/output /tmp/lreg/detected.log
[INFO -- 2018-11-25 22:58:26]
initSignal:0
[INFO -- 2018-11-25 22:58:26]
endSignal:6
[INFO -- 2018-11-25 22:58:26]
faultModel:1
[INFO -- 2018-11-25 22:58:27]
Backtrace BEGIN:
#0  0x0000555555555220 in predict (v=-9) at lreg.cpp:50
#1  0x00005555555553fc in partialDerivate (pos=0) at lreg.cpp:74
#2  0x0000555555555503 in adjust (alpha=2.2222199999999999e-05) at lreg.cpp:87
#3  0x00005555555556ac in train (iterations=30000, alpha=2.2222199999999999e-05, N=4, stopsWhenStable=true) at lreg.cpp:120
#4  0x0000555555555a1c in execute (input=0x7fffffffe1f1 "/tmp/lreg/randInput") at lreg.cpp:157
#5  0x0000555555555c78 in main (argc=4, argv=0x7fffffffde48) at lreg.cpp:193

45		Predicts the value related to v using the Ts variables
46	*/
47	double predict(double v){
48		double val = 0;
49		for(int i = 0; i<T.size(); i++){
50			val+= (T[i] * pow(v, i));
51		}
52		return val;
53		
54	}

Backtrace END
Fliping value of field: std::_Vector_base<double, std::allocator<double> >
Fliping value of field: _M_impl
Fliping value of field: _M_end_of_storage
Fliping a bit of the value pointed by a pointer
Memory content before bitflip:0x000x000x000x000x000x000x000x00
Fault Model: Double bit-flip
base address to flip value: 0x5555557726b0
address max offset: 8
Memory content after  bitflip:0x000x000x000x000x000x000x000x21
frame name: train
symbol name: bestT
symbol filename: lreg.cpp
symbol line: 115
value: std::vector of length 4, capacity 4 = {0.017638139176553137, -0.45645159267310736, -1.9504955891975175, -4.0456291647250824}
value address: 0x7fffffffd5b0
Type: The type is a structure.
Type sizeof: 24
Field name: std::_Vector_base<double, std::allocator<double> >
Field Type: The type is a structure.
Field Type sizeof: 24

[INFO -- 2018-11-25 22:58:27]
Fault Injection Successful after 1.412635087966919s
[INFO -- 2018-11-25 22:58:29]
event type: exit
[INFO -- 2018-11-25 22:58:29]
exit code: 0
