[INFO -- 2018-11-25 20:55:16]
Starting GDB script
[INFO -- 2018-11-25 20:55:16]
initSignal:0.0
[INFO -- 2018-11-25 20:55:16]
endSignal:6.0
[INFO -- 2018-11-25 20:55:21]
sending 5 signals using command: 'killall -2 lreg' after 4.15164127846s
[INFO -- 2018-11-25 20:55:21]
sending 5 signals using command: 'killall -2 lreg' after 2.58652426613s
[INFO -- 2018-11-25 20:55:21]
Execution finished before waitTime
