[INFO -- 2018-11-22 16:57:18]
Starting GDB script
[INFO -- 2018-11-22 16:57:18]
initSignal:0.0
[INFO -- 2018-11-22 16:57:18]
endSignal:3.0
[INFO -- 2018-11-22 16:57:19]
sending 5 signals using command: 'killall -2 lreg' after 1.35953798959s
[INFO -- 2018-11-22 16:57:20]
sending 5 signals using command: 'killall -2 lreg' after 1.61344288254s
[INFO -- 2018-11-22 16:57:21]
sending 5 signals using command: 'killall -2 lreg' after 2.83004259741s
[INFO -- 2018-11-22 16:57:25]
Execution finished before waitTime
