[INFO -- 2018-11-25 14:49:06]
Starting GDB script
[INFO -- 2018-11-25 14:49:06]
initSignal:0.0
[INFO -- 2018-11-25 14:49:06]
endSignal:6.0
[INFO -- 2018-11-25 14:49:10]
sending 5 signals using command: 'killall -2 lreg' after 3.7867650685s
[INFO -- 2018-11-25 14:49:11]
sending 5 signals using command: 'killall -2 lreg' after 4.37931596099s
[INFO -- 2018-11-25 14:49:11]
Execution finished before waitTime
