[INFO -- 2018-11-25 12:56:33]
Starting flip_value script
version: 1.1
[INFO -- 2018-11-25 12:56:33]
Initialization strings:
[INFO -- 2018-11-25 12:56:33]
(1) file /tmp/lreg/lreg
[INFO -- 2018-11-25 12:56:33]
(2) set args /tmp/lreg/randInput /tmp/lreg/output /tmp/lreg/detected.log
[INFO -- 2018-11-25 12:56:33]
initSignal:0
[INFO -- 2018-11-25 12:56:33]
endSignal:6
[INFO -- 2018-11-25 12:56:33]
faultModel:1
[EXCEPTION -- 2018-11-25 12:56:35]
pythonException: empty range for randrange() (0,0, 0)
[INFO -- 2018-11-25 12:56:35]
Backtrace BEGIN:
#0  0x0000555555555220 in predict (v=-1) at lreg.cpp:50
#1  0x00005555555552ba in meanSquaredError () at lreg.cpp:61
#2  0x00005555555556b1 in train (iterations=30000, alpha=2.2222199999999999e-05, N=4, stopsWhenStable=true) at lreg.cpp:121
#3  0x0000555555555a1c in execute (input=0x7fffffffe1f1 "/tmp/lreg/randInput") at lreg.cpp:157
#4  0x0000555555555c78 in main (argc=4, argv=0x7fffffffde48) at lreg.cpp:193

45		Predicts the value related to v using the Ts variables
46	*/
47	double predict(double v){
48		double val = 0;
49		for(int i = 0; i<T.size(); i++){
50			val+= (T[i] * pow(v, i));
51		}
52		return val;
53		
54	}

Backtrace END
Fliping value of field: std::_Vector_base<double, std::allocator<double> >
Fliping value of field: _M_impl
Fliping value of field: _M_finish
Fliping a bit of the value pointed by a pointer
Memory content before bitflip:0x000x000x000x000x000x000x000x00
Fault Model: Double bit-flip
base address to flip value: 0x5555557723a0
address max offset: 8
Memory content after  bitflip:0x880x000x000x000x000x000x000x00
frame name: meanSquaredError
symbol name: T
symbol filename: lreg.cpp
symbol line: 34
value: std::vector of length 4, capacity 4 = {0.37786481203418176, -1.5013931806974137, -1.9596461190726988, -4.0440710840435115}
value address: 0x55555575b180 <T>
Type: The type is a structure.
Type sizeof: 24
Field name: std::_Vector_base<double, std::allocator<double> >
Field Type: The type is a structure.
Field Type sizeof: 24

[INFO -- 2018-11-25 12:56:35]
Fault Injection Successful after 2.4519259929656982s
[INFO -- 2018-11-25 12:56:36]
event type: exit
[EXCEPTION -- 2018-11-25 12:56:36]
exit code: no exit code available
