[INFO -- 2018-11-26 20:35:21]
Starting GDB script
[INFO -- 2018-11-26 20:35:21]
initSignal:0.0
[INFO -- 2018-11-26 20:35:21]
endSignal:3.0
[INFO -- 2018-11-26 20:35:22]
sending 5 signals using command: 'killall -2 lreg' after 0.638158553832s
[INFO -- 2018-11-26 20:35:23]
sending 5 signals using command: 'killall -2 lreg' after 1.97083715056s
[INFO -- 2018-11-26 20:35:23]
sending 5 signals using command: 'killall -2 lreg' after 2.15032465969s
[INFO -- 2018-11-26 20:35:25]
Execution finished before waitTime
