[INFO -- 2018-11-24 17:43:16]
sending 5 signals using command: 'killall -2 lreg' after 5.70777913696s
[INFO -- 2018-11-24 17:43:16]
Starting GDB script
[INFO -- 2018-11-24 17:43:16]
initSignal:0.0
[INFO -- 2018-11-24 17:43:16]
endSignal:6.0
[INFO -- 2018-11-24 17:43:16]
sending 5 signals using command: 'killall -2 lreg' after 0.137876844289s
[INFO -- 2018-11-24 17:43:18]
sending 5 signals using command: 'killall -2 lreg' after 1.87390356728s
[INFO -- 2018-11-24 17:43:20]
sending 5 signals using command: 'killall -2 lreg' after 3.74262845609s
[INFO -- 2018-11-24 17:43:20]
Execution finished before waitTime
