[INFO -- 2018-11-26 18:00:15]
Starting GDB script
[INFO -- 2018-11-26 18:00:15]
initSignal:0.0
[INFO -- 2018-11-26 18:00:15]
endSignal:3.0
[INFO -- 2018-11-26 18:00:15]
sending 5 signals using command: 'killall -2 lreg' after 0.224760167634s
[INFO -- 2018-11-26 18:00:16]
sending 5 signals using command: 'killall -2 lreg' after 0.837152998621s
[INFO -- 2018-11-26 18:00:16]
sending 5 signals using command: 'killall -2 lreg' after 1.23979920313s
[INFO -- 2018-11-26 18:00:19]
Execution finished before waitTime
