[INFO -- 2018-11-23 17:31:02]
Starting flip_value script
version: 1.1
[INFO -- 2018-11-23 17:31:02]
Initialization strings:
[INFO -- 2018-11-23 17:31:02]
(1) file /tmp/lreg/lreg
[INFO -- 2018-11-23 17:31:02]
(2) set args /tmp/lreg/randInput /tmp/lreg/output
[INFO -- 2018-11-23 17:31:02]
initSignal:0
[INFO -- 2018-11-23 17:31:02]
endSignal:3
[INFO -- 2018-11-23 17:31:02]
faultModel:2
[INFO -- 2018-11-23 17:31:03]
Backtrace BEGIN:
#0  dl_main (phdr=<optimized out>, phnum=<optimized out>, user_entry=<optimized out>, auxv=<optimized out>) at rtld.c:2289
#1  0x00007ffff7defdd0 in _dl_sysdep_start (start_argptr=start_argptr@entry=0x7fffffffde50, dl_main=dl_main@entry=0x7ffff7dd7660 <dl_main>) at ../elf/dl-sysdep.c:253
#2  0x00007ffff7dd7128 in _dl_start_final (arg=0x7fffffffde50) at rtld.c:414
#3  _dl_start (arg=0x7fffffffde50) at rtld.c:521
#4  0x00007ffff7dd6098 in _start () from /lib64/ld-linux-x86-64.so.2
#5  0x0000000000000003 in ?? ()
#6  0x00007fffffffe1fc in ?? ()
#7  0x00007fffffffe20b in ?? ()
#8  0x00007fffffffe21f in ?? ()
#9  0x0000000000000000 in ?? ()

2284	rtld.c: No such file or directory.

Backtrace END
Fliping array at pos: 3
Memory content before bitflip:0x6d
Fault Model: Random bit-flip
base address to flip value: 0x7ffff7df773b  
address max offset: 1
Memory content after  bitflip:0x16
frame name: dl_main
symbol name: __PRETTY_FUNCTION__
symbol filename: rtld.c
symbol line: 0
value: "dl_\026ain"
value address: 0x7ffff7df7738 <__PRETTY_FUNCTION__.10243>
Type: The type is an array.
Type sizeof: 8
Field name: None
Field Type: A range type, that is, an integer type with bounds.
Field Type sizeof: 8
Field Type range: (0, 7)

[INFO -- 2018-11-23 17:31:03]
Fault Injection Successful after 1.225888967514038s
[INFO -- 2018-11-23 17:31:04]
event type: exit
[INFO -- 2018-11-23 17:31:04]
exit code: 0
