[INFO -- 2018-11-26 15:31:39]
Starting GDB script
[INFO -- 2018-11-26 15:31:39]
initSignal:0.0
[INFO -- 2018-11-26 15:31:39]
endSignal:3.0
[INFO -- 2018-11-26 15:31:39]
sending 5 signals using command: 'killall -2 lreg' after 0.152524890363s
[INFO -- 2018-11-26 15:31:39]
sending 5 signals using command: 'killall -2 lreg' after 0.16591774493s
[INFO -- 2018-11-26 15:31:40]
sending 5 signals using command: 'killall -2 lreg' after 0.8325903872s
[INFO -- 2018-11-26 15:31:43]
Execution finished before waitTime
