[INFO -- 2018-11-24 12:22:15]
Starting GDB script
[INFO -- 2018-11-24 12:22:15]
initSignal:0.0
[INFO -- 2018-11-24 12:22:15]
endSignal:2.0
[INFO -- 2018-11-24 12:22:15]
sending 5 signals using command: 'killall -2 lreg' after 0.179405454328s
[INFO -- 2018-11-24 12:22:16]
sending 5 signals using command: 'killall -2 lreg' after 1.05569526725s
[INFO -- 2018-11-24 12:22:16]
sending 5 signals using command: 'killall -2 lreg' after 1.68154551683s
[INFO -- 2018-11-24 12:22:20]
Execution finished before waitTime
