[INFO -- 2018-11-27 17:40:04]
Starting flip_value script
version: 1.1
[INFO -- 2018-11-27 17:40:04]
Initialization strings:
[INFO -- 2018-11-27 17:40:04]
(1) file /tmp/lreg/lreg
[INFO -- 2018-11-27 17:40:04]
(2) set args /tmp/lreg/randInput /tmp/lreg/output
[INFO -- 2018-11-27 17:40:04]
initSignal:0
[INFO -- 2018-11-27 17:40:04]
endSignal:3
[INFO -- 2018-11-27 17:40:04]
faultModel:2
[INFO -- 2018-11-27 17:40:05]
Backtrace BEGIN:
#0  std::pow<double, unsigned int> (__x=9.8813129168249309e-324, __y=0) at /usr/include/c++/7/cmath:415
#1  0x0000555555555814 in predict (v=-4) at lreg.cpp:116
#2  0x0000555555555a53 in partialDerivate (pos1=0, pos2=0) at lreg.cpp:142
#3  0x0000555555555bbe in adjust (alpha1=5.0000000000000002e-05, alpha2=5.0000000000000002e-05) at lreg.cpp:156
#4  0x0000555555555ee0 in train (iter1=20000, iter2=20000, N=3, alpha1=5.0000000000000002e-05, alpha2=5.0000000000000002e-05, stopsWhenStable=true) at lreg.cpp:193
#5  0x0000555555556467 in main (argc=3, argv=0x7fffffffde58) at lreg.cpp:253

410	#endif
411	
412	  template<typename _Tp, typename _Up>
413	    inline _GLIBCXX_CONSTEXPR
414	    typename __gnu_cxx::__promote_2<_Tp, _Up>::__type
415	    pow(_Tp __x, _Up __y)
416	    {
417	      typedef typename __gnu_cxx::__promote_2<_Tp, _Up>::__type __type;
418	      return pow(__type(__x), __type(__y));
419	    }

Backtrace END
Memory content before bitflip:0x200x4e0x000x00
Fault Model: Random bit-flip
base address to flip value: 0x7fffffffd7d8
address max offset: 4
Memory content after  bitflip:0xd50xe80x240x08
frame name: train
symbol name: iter2
symbol filename: lreg.cpp
symbol line: 177
value: 136636629
value address: 0x7fffffffd7d8
Type: The type is an integer type.
Type sizeof: 4

[INFO -- 2018-11-27 17:40:05]
Fault Injection Successful after 1.1504371166229248s
[INFO -- 2018-11-27 17:40:07]
event type: exit
[INFO -- 2018-11-27 17:40:07]
exit code: 0
