[INFO -- 2018-11-27 16:43:51]
Starting flip_value script
version: 1.1
[INFO -- 2018-11-27 16:43:51]
Initialization strings:
[INFO -- 2018-11-27 16:43:51]
(1) file /tmp/lreg/lreg
[INFO -- 2018-11-27 16:43:51]
(2) set args /tmp/lreg/randInput /tmp/lreg/output
[INFO -- 2018-11-27 16:43:51]
initSignal:0
[INFO -- 2018-11-27 16:43:51]
endSignal:3
[INFO -- 2018-11-27 16:43:51]
faultModel:1
[INFO -- 2018-11-27 16:43:52]
Backtrace BEGIN:
#0  __exp1 (x=8.6711152736884944, xx=-3.6368412425847043e-16, error=<optimized out>) at ../sysdeps/ieee754/dbl-64/e_exp.c:255
#1  0x00007ffff76da8dc in __ieee754_pow_sse2 (x=18, y=3) at ../sysdeps/ieee754/dbl-64/e_pow.c:115
#2  0x00007ffff76db6be in __ieee754_pow_sse2 (x=<optimized out>, y=<optimized out>) at ../sysdeps/ieee754/dbl-64/e_pow.c:184
#3  0x00007ffff76bcb14 in __pow (x=-18, y=3) at w_pow_compat.c:30
#4  0x0000555555556826 in std::pow<double, unsigned int> (__x=-18, __y=3) at /usr/include/c++/7/cmath:418
#5  0x0000555555555814 in predict (v=-18) at lreg.cpp:116
#6  0x0000555555555a53 in partialDerivate (pos1=1, pos2=1) at lreg.cpp:142
#7  0x0000555555555bbe in adjust (alpha1=2.2222199999999999e-05, alpha2=2.2222199999999999e-05) at lreg.cpp:156
#8  0x0000555555555ee0 in train (iter1=30000, iter2=30000, N=4, alpha1=2.2222199999999999e-05, alpha2=2.2222199999999999e-05, stopsWhenStable=true) at lreg.cpp:193
#9  0x0000555555556467 in main (argc=3, argv=0x7fffffffde58) at lreg.cpp:253

250	../sysdeps/ieee754/dbl-64/e_exp.c: No such file or directory.

Backtrace END
Memory content before bitflip:0xfd0xf20x330xc70x7c0x910xf00xc0
Fault Model: Double bit-flip
base address to flip value: 0x7fffffffd728
address max offset: 8
Memory content after  bitflip:0xfd0xf10x330xc70x7c0x910xf00xc0
frame name: partialDerivate
symbol name: pD
symbol filename: lreg.cpp
symbol line: 139
value: -67863.798633523242
value address: 0x7fffffffd728
Type: A floating point type.
Type sizeof: 8

[INFO -- 2018-11-27 16:43:52]
Fault Injection Successful after 1.7444534301757812s
[INFO -- 2018-11-27 16:43:53]
event type: exit
[INFO -- 2018-11-27 16:43:53]
exit code: 0
