[INFO -- 2018-11-23 17:42:56]
Starting GDB script
[INFO -- 2018-11-23 17:42:56]
initSignal:0.0
[INFO -- 2018-11-23 17:42:56]
endSignal:3.0
[INFO -- 2018-11-23 17:42:56]
sending 5 signals using command: 'killall -2 lreg' after 0.0546394718962s
[INFO -- 2018-11-23 17:42:57]
sending 5 signals using command: 'killall -2 lreg' after 1.48571114074s
[INFO -- 2018-11-23 17:42:58]
sending 5 signals using command: 'killall -2 lreg' after 2.15063757173s
[INFO -- 2018-11-23 17:42:59]
Execution finished before waitTime
