[INFO -- 2018-11-25 21:12:39]
sending 5 signals using command: 'killall -2 lreg' after 5.8295388999s
[INFO -- 2018-11-25 21:12:39]
Starting GDB script
[INFO -- 2018-11-25 21:12:39]
initSignal:0.0
[INFO -- 2018-11-25 21:12:39]
endSignal:6.0
[INFO -- 2018-11-25 21:12:42]
Execution finished before waitTime
