[INFO -- 2018-11-24 10:10:00]
Starting GDB script
[INFO -- 2018-11-24 10:10:00]
initSignal:0.0
[INFO -- 2018-11-24 10:10:00]
endSignal:2.0
[INFO -- 2018-11-24 10:10:01]
sending 5 signals using command: 'killall -2 lreg' after 0.720663566515s
[INFO -- 2018-11-24 10:10:01]
sending 5 signals using command: 'killall -2 lreg' after 0.542523412683s
[INFO -- 2018-11-24 10:10:01]
Execution finished before waitTime
