[INFO -- 2018-11-29 14:16:37]
sending 5 signals using command: 'killall -2 lreg' after 5.97572857702s
[INFO -- 2018-11-29 14:16:37]
Starting GDB script
[INFO -- 2018-11-29 14:16:37]
initSignal:0.0
[INFO -- 2018-11-29 14:16:37]
endSignal:6.0
[INFO -- 2018-11-29 14:16:39]
sending 5 signals using command: 'killall -2 lreg' after 1.99078584402s
[INFO -- 2018-11-29 14:16:40]
sending 5 signals using command: 'killall -2 lreg' after 2.20800736478s
[INFO -- 2018-11-29 14:16:41]
Execution finished before waitTime
