[INFO -- 2018-11-25 12:06:46]
Starting flip_value script
version: 1.1
[INFO -- 2018-11-25 12:06:46]
Initialization strings:
[INFO -- 2018-11-25 12:06:46]
(1) file /tmp/lreg/lreg
[INFO -- 2018-11-25 12:06:46]
(2) set args /tmp/lreg/randInput /tmp/lreg/output /tmp/lreg/detected.log
[INFO -- 2018-11-25 12:06:46]
initSignal:0
[INFO -- 2018-11-25 12:06:46]
endSignal:6
[INFO -- 2018-11-25 12:06:46]
faultModel:2
[INFO -- 2018-11-25 12:06:48]
event type: exit
[INFO -- 2018-11-25 12:06:48]
exit code: 0
