[INFO -- 2018-11-24 11:30:28]
Starting GDB script
[INFO -- 2018-11-24 11:30:28]
initSignal:0.0
[INFO -- 2018-11-24 11:30:28]
endSignal:2.0
[INFO -- 2018-11-24 11:30:29]
sending 5 signals using command: 'killall -2 lreg' after 0.151130176428s
[INFO -- 2018-11-24 11:30:29]
sending 5 signals using command: 'killall -2 lreg' after 0.358166267208s
[INFO -- 2018-11-24 11:30:29]
sending 5 signals using command: 'killall -2 lreg' after 0.439840710035s
[INFO -- 2018-11-24 11:30:34]
Execution finished before waitTime
