[INFO -- 2018-11-24 16:14:23]
sending 5 signals using command: 'killall -2 lreg' after 5.2831197258s
[INFO -- 2018-11-24 16:14:23]
Starting GDB script
[INFO -- 2018-11-24 16:14:23]
initSignal:0.0
[INFO -- 2018-11-24 16:14:23]
endSignal:6.0
[INFO -- 2018-11-24 16:14:24]
sending 5 signals using command: 'killall -2 lreg' after 0.304720922512s
[INFO -- 2018-11-24 16:14:24]
sending 5 signals using command: 'killall -2 lreg' after 1.0375296692s
[INFO -- 2018-11-24 16:14:28]
sending 5 signals using command: 'killall -2 lreg' after 5.03111986357s
[INFO -- 2018-11-24 16:14:29]
Execution finished before waitTime
