[INFO -- 2018-11-25 12:34:21]
Starting flip_value script
version: 1.1
[INFO -- 2018-11-25 12:34:21]
Initialization strings:
[INFO -- 2018-11-25 12:34:21]
(1) file /tmp/lreg/lreg
[INFO -- 2018-11-25 12:34:21]
(2) set args /tmp/lreg/randInput /tmp/lreg/output /tmp/lreg/detected.log
[INFO -- 2018-11-25 12:34:21]
initSignal:0
[INFO -- 2018-11-25 12:34:21]
endSignal:6
[INFO -- 2018-11-25 12:34:21]
faultModel:1
[INFO -- 2018-11-25 12:34:23]
event type: exit
[INFO -- 2018-11-25 12:34:23]
exit code: 0
