[INFO -- 2018-11-26 19:19:53]
Starting GDB script
[INFO -- 2018-11-26 19:19:53]
initSignal:0.0
[INFO -- 2018-11-26 19:19:53]
endSignal:3.0
[INFO -- 2018-11-26 19:19:53]
sending 5 signals using command: 'killall -2 lreg' after 0.42204912318s
[INFO -- 2018-11-26 19:19:54]
sending 5 signals using command: 'killall -2 lreg' after 1.33597143818s
[INFO -- 2018-11-26 19:19:54]
sending 5 signals using command: 'killall -2 lreg' after 1.67741349815s
[INFO -- 2018-11-26 19:19:59]
Execution finished before waitTime
