[INFO -- 2018-11-26 18:41:28]
Starting GDB script
[INFO -- 2018-11-26 18:41:28]
initSignal:0.0
[INFO -- 2018-11-26 18:41:28]
endSignal:3.0
[INFO -- 2018-11-26 18:41:28]
sending 5 signals using command: 'killall -2 lreg' after 0.148232383289s
[INFO -- 2018-11-26 18:41:29]
sending 5 signals using command: 'killall -2 lreg' after 0.488545176312s
[INFO -- 2018-11-26 18:41:29]
sending 5 signals using command: 'killall -2 lreg' after 1.26600794257s
[INFO -- 2018-11-26 18:41:31]
Execution finished before waitTime
