[INFO -- 2018-11-29 15:01:09]
Starting flip_value script
version: 1.1
[INFO -- 2018-11-29 15:01:09]
Initialization strings:
[INFO -- 2018-11-29 15:01:09]
(1) file /tmp/lreg/lreg
[INFO -- 2018-11-29 15:01:09]
(2) set args /tmp/lreg/randInput /tmp/lreg/output /tmp/lreg/detected.log
[INFO -- 2018-11-29 15:01:09]
initSignal:0
[INFO -- 2018-11-29 15:01:09]
endSignal:6
[INFO -- 2018-11-29 15:01:09]
faultModel:0
[INFO -- 2018-11-29 15:01:10]
Backtrace BEGIN:
#0  dl_main (phdr=<optimized out>, phnum=<optimized out>, user_entry=<optimized out>, auxv=<optimized out>) at rtld.c:2289
#1  0x00007ffff7defdd0 in _dl_sysdep_start (start_argptr=start_argptr@entry=0x7fffffffde40, dl_main=dl_main@entry=0x7ffff7dd7660 <dl_main>) at ../elf/dl-sysdep.c:253
#2  0x00007ffff7dd7128 in _dl_start_final (arg=0x7fffffffde40) at rtld.c:414
#3  _dl_start (arg=0x7fffffffde40) at rtld.c:521
#4  0x00007ffff7dd6098 in _start () from /lib64/ld-linux-x86-64.so.2
#5  0x0000000000000004 in ?? ()
#6  0x00007fffffffe1e2 in ?? ()
#7  0x00007fffffffe1f1 in ?? ()
#8  0x00007fffffffe205 in ?? ()
#9  0x00007fffffffe216 in ?? ()
#10 0x0000000000000000 in ?? ()

2284	rtld.c: No such file or directory.

Backtrace END
Fliping array at pos: 3
Memory content before bitflip:0x63
Fault Model: Single bit-flip
base address to flip value: 0x7ffff7df8dd3  
address max offset: 1
Memory content after  bitflip:0x43
frame name: dl_main
symbol name: preload_file
symbol filename: rtld.c
symbol line: 1630
value: "/etC/ld.so.preload"
value address: 0x7ffff7df8dd0 <preload_file>
Type: The type is an array.
Type sizeof: 19
Field name: None
Field Type: A range type, that is, an integer type with bounds.
Field Type sizeof: 8
Field Type range: (0, 18)

[INFO -- 2018-11-29 15:01:10]
Fault Injection Successful after 1.6673791408538818s
[INFO -- 2018-11-29 15:01:15]
event type: exit
[INFO -- 2018-11-29 15:01:15]
exit code: 0
