[INFO -- 2018-11-24 14:34:19]
Starting GDB script
[INFO -- 2018-11-24 14:34:19]
initSignal:0.0
[INFO -- 2018-11-24 14:34:19]
endSignal:6.0
[INFO -- 2018-11-24 14:34:20]
sending 5 signals using command: 'killall -2 lreg' after 0.683702024844s
[INFO -- 2018-11-24 14:34:22]
sending 5 signals using command: 'killall -2 lreg' after 3.06815751334s
[INFO -- 2018-11-24 14:34:23]
sending 5 signals using command: 'killall -2 lreg' after 3.57209148277s
[INFO -- 2018-11-24 14:34:28]
Execution finished before waitTime
