[INFO -- 2018-11-25 22:45:42]
Starting flip_value script
version: 1.1
[INFO -- 2018-11-25 22:45:42]
Initialization strings:
[INFO -- 2018-11-25 22:45:42]
(1) file /tmp/lreg/lreg
[INFO -- 2018-11-25 22:45:42]
(2) set args /tmp/lreg/randInput /tmp/lreg/output /tmp/lreg/detected.log
[INFO -- 2018-11-25 22:45:42]
initSignal:0
[INFO -- 2018-11-25 22:45:42]
endSignal:6
[INFO -- 2018-11-25 22:45:42]
faultModel:2
[INFO -- 2018-11-25 22:45:44]
Backtrace BEGIN:
#0  std::pow<double, int> (__x=31, __y=3) at /usr/include/c++/7/cmath:418
#1  0x0000555555555237 in predict (v=31) at lreg.cpp:50
#2  0x00005555555553fc in partialDerivate (pos=3) at lreg.cpp:74
#3  0x0000555555555503 in adjust (alpha=2.2222199999999999e-05) at lreg.cpp:87
#4  0x00005555555556ac in train (iterations=30000, alpha=2.2222199999999999e-05, N=4, stopsWhenStable=true) at lreg.cpp:120
#5  0x0000555555555a1c in execute (input=0x7fffffffe1f1 "/tmp/lreg/randInput") at lreg.cpp:157
#6  0x0000555555555cb0 in main (argc=4, argv=0x7fffffffde48) at lreg.cpp:196

413	    inline _GLIBCXX_CONSTEXPR
414	    typename __gnu_cxx::__promote_2<_Tp, _Up>::__type
415	    pow(_Tp __x, _Up __y)
416	    {
417	      typedef typename __gnu_cxx::__promote_2<_Tp, _Up>::__type __type;
418	      return pow(__type(__x), __type(__y));
419	    }
420	
421	  using ::sin;
422	

Backtrace END
Fliping value of field: std::_Vector_base<double, std::allocator<double> >
Fliping value of field: _M_impl
Fliping value of field: _M_end_of_storage
Fliping a bit of the pointer
Memory content before bitflip:0x500x260x770x550x550x550x000x00
Fault Model: Random bit-flip
base address to flip value: 0x7fffffffd930
address max offset: 8
Memory content after  bitflip:0x5f0xb30xff0x560xcb0x460x620xe5
frame name: execute
symbol name: ans
symbol filename: lreg.cpp
symbol line: 135
value: std::vector of length 10, capacity -239748309643619918 = {9.9997448205173409, 10.999751207252501, 12.999763980722822, -7.0003637539803849, -1078.8160145721722, -1078.8160145721722, -1722.5303976432911, -1319.1177772194476, -1582.6669839552355, -584.82432114594803}
value address: 0x7fffffffd920
Type: The type is a structure.
Type sizeof: 24
Field name: std::_Vector_base<double, std::allocator<double> >
Field Type: The type is a structure.
Field Type sizeof: 24

[INFO -- 2018-11-25 22:45:44]
Fault Injection Successful after 2.4472405910491943s
[INFO -- 2018-11-25 22:45:44]
event type: exit
[INFO -- 2018-11-25 22:45:44]
exit code: 0
