[INFO -- 2018-11-26 21:22:27]
sending 5 signals using command: 'killall -2 lreg' after 1.36090947757s
[INFO -- 2018-11-26 21:22:28]
sending 5 signals using command: 'killall -2 lreg' after 2.17534078267s
[INFO -- 2018-11-26 21:22:28]
Starting GDB script
[INFO -- 2018-11-26 21:22:28]
initSignal:0.0
[INFO -- 2018-11-26 21:22:28]
endSignal:3.0
[INFO -- 2018-11-26 21:22:28]
sending 5 signals using command: 'killall -2 lreg' after 0.109340752317s
[INFO -- 2018-11-26 21:22:28]
sending 5 signals using command: 'killall -2 lreg' after 0.132891091682s
[INFO -- 2018-11-26 21:22:30]
sending 5 signals using command: 'killall -2 lreg' after 1.77418216628s
[INFO -- 2018-11-26 21:22:32]
Execution finished before waitTime
