[INFO -- 2018-11-25 22:37:21]
sending 5 signals using command: 'killall -2 lreg' after 2.13590142799s
[INFO -- 2018-11-25 22:37:21]
sending 5 signals using command: 'killall -2 lreg' after 3.18697211935s
[INFO -- 2018-11-25 22:37:23]
sending 5 signals using command: 'killall -2 lreg' after 5.89804975624s
[INFO -- 2018-11-25 22:37:23]
Starting GDB script
[INFO -- 2018-11-25 22:37:23]
initSignal:0.0
[INFO -- 2018-11-25 22:37:23]
endSignal:6.0
[INFO -- 2018-11-25 22:37:26]
Execution finished before waitTime
