[INFO -- 2018-11-24 17:42:46]
Starting GDB script
[INFO -- 2018-11-24 17:42:46]
initSignal:0.0
[INFO -- 2018-11-24 17:42:46]
endSignal:6.0
[INFO -- 2018-11-24 17:42:47]
sending 5 signals using command: 'killall -2 lreg' after 1.55582656386s
[INFO -- 2018-11-24 17:42:49]
sending 5 signals using command: 'killall -2 lreg' after 2.93227653594s
[INFO -- 2018-11-24 17:42:49]
Execution finished before waitTime
