[INFO -- 2018-11-23 21:18:59]
Starting flip_value script
version: 1.1
[INFO -- 2018-11-23 21:18:59]
Initialization strings:
[INFO -- 2018-11-23 21:18:59]
(1) file /tmp/lreg/lreg
[INFO -- 2018-11-23 21:18:59]
(2) set args /tmp/lreg/randInput /tmp/lreg/output
[INFO -- 2018-11-23 21:18:59]
initSignal:0
[INFO -- 2018-11-23 21:18:59]
endSignal:3
[INFO -- 2018-11-23 21:18:59]
faultModel:2
[INFO -- 2018-11-23 21:19:00]
Backtrace BEGIN:
#0  0x00007ffff76da5d4 in __ieee754_pow_sse2 (x=9, y=3) at ../sysdeps/ieee754/dbl-64/e_pow.c:83
#1  0x00007ffff76db6be in __ieee754_pow_sse2 (x=<optimized out>, y=<optimized out>) at ../sysdeps/ieee754/dbl-64/e_pow.c:184
#2  0x00007ffff76bcb14 in __pow (x=-9, y=3) at w_pow_compat.c:30
#3  0x0000555555555d5f in std::pow<double, int> (__x=-9, __y=3) at /usr/include/c++/7/cmath:418
#4  0x00005555555551e7 in predict (v=-9) at lreg.cpp:50
#5  0x00005555555553ac in partialDerivate (pos=3) at lreg.cpp:74
#6  0x00005555555554b3 in adjust (alpha=2.2222199999999999e-05) at lreg.cpp:87
#7  0x000055555555565c in train (iterations=30000, alpha=2.2222199999999999e-05, N=4, stopsWhenStable=true) at lreg.cpp:120
#8  0x0000555555555ab7 in main (argc=3, argv=0x7fffffffde58) at lreg.cpp:174

78	../sysdeps/ieee754/dbl-64/e_pow.c: No such file or directory.

Backtrace END
Fliping value of field: std::_Vector_base<double, std::allocator<double> >
Fliping value of field: _M_impl
Fliping value of field: _M_finish
Fliping a bit of the value pointed by a pointer
Memory content before bitflip:0x000x000x000x000x000x000x000x00
Fault Model: Random bit-flip
base address to flip value: 0x555555771530
address max offset: 8
Memory content after  bitflip:0xe00x8d0x6b0xfb0xaf0xd40x690x40
frame name: std::pow<double, int>
symbol name: x
symbol filename: lreg.cpp
symbol line: 32
value: std::vector of length 16, capacity 16 = {-15, -9, -1, 29, 5, -18, 31, -16, -18, -28, 25, -14, 7, -2, -17, 21}
value address: 0x55555575a140 <x>
Type: The type is a structure.
Type sizeof: 24
Field name: std::_Vector_base<double, std::allocator<double> >
Field Type: The type is a structure.
Field Type sizeof: 24

[INFO -- 2018-11-23 21:19:00]
Fault Injection Successful after 1.8145802021026611s
[INFO -- 2018-11-23 21:19:00]
event type: exit
[INFO -- 2018-11-23 21:19:00]
exit code: 0
