[INFO -- 2018-11-24 16:41:37]
Starting flip_value script
version: 1.1
[INFO -- 2018-11-24 16:41:37]
Initialization strings:
[INFO -- 2018-11-24 16:41:37]
(1) file /tmp/lreg/lreg
[INFO -- 2018-11-24 16:41:37]
(2) set args /tmp/lreg/randInput /tmp/lreg/output /tmp/lreg/detected.log
[INFO -- 2018-11-24 16:41:37]
initSignal:0
[INFO -- 2018-11-24 16:41:37]
endSignal:6
[INFO -- 2018-11-24 16:41:37]
faultModel:1
[INFO -- 2018-11-24 16:41:39]
Backtrace BEGIN:
#0  0x000055555555543e in partialDerivate (pos=1) at lreg.cpp:74
#1  0x0000555555555503 in adjust (alpha=2.2222199999999999e-05) at lreg.cpp:87
#2  0x00005555555556ac in train (iterations=30000, alpha=2.2222199999999999e-05, N=4, stopsWhenStable=true) at lreg.cpp:120
#3  0x0000555555555a1c in execute (input=0x7fffffffe1f2 "/tmp/lreg/randInput") at lreg.cpp:157
#4  0x0000555555555c78 in main (argc=4, argv=0x7fffffffde48) at lreg.cpp:193

69		to the adjustment variable whose position in T is passed in pos
70	*/
71	double partialDerivate(int pos){
72		double pD = 0;
73		for(int i = 0; i<x.size(); i++){
74			pD += ((predict(x[i]) - y[i])*pow(x[i], pos));	
75		}
76		pD *= (2.0/x.size());
77		return pD;
78	}

Backtrace END
Fliping value of field: std::_Vector_base<double, std::allocator<double> >
Fliping value of field: _M_impl
Fliping value of field: _M_finish
Fliping a bit of the pointer
Memory content before bitflip:0xc00x250x770x550x550x550x000x00
Fault Model: Double bit-flip
base address to flip value: 0x55555575b168 
address max offset: 8
Memory content after  bitflip:0xc00x250x770x550x550xd70x000x00
frame name: adjust
symbol name: y
symbol filename: lreg.cpp
symbol line: 33
value: std::vector of length 17867063951376, capacity 16 = {13145, 2813, 13, -99407, -575, 22793, -121267, 15973, 22793, 86413, -63895, 10673, -1507, 41, 19181, -38047, 0, 7.1639518646980749e-322, 9.9997448205173409, 10.999751207252501, 12.999763980722822, -7.0003637539803849, -1078.8160145721722, -1078.8160145721722, -1722.5303976432911, -1319.1177772194476, -1582.6669839552355, -584.82432114594803, 0, 0, 0, 0, 0, 0, 0, 2.4209216646221081e-322, 0.17324147006240426, -0.90775874312130667, -1.9450397095581309, -3.9703319297405923, 0, 2.4209216646221081e-322, 0.17296006325796967, -0.91046597867670087, -1.9544691847652502, -4.0449522175240347, 0, 2.4209216646221081e-322, 4.6355706480587443e-310, -0.91046597867670087, -1.9544691847652502, -4.0449522175240347, 0, 2.4209216646221081e-322, 0, -0.90775874312130667, -1.9450397095581309, -3.9703319297405923, 0, 2.1367845116988072e-319, 0, 0, 0, 0, 0, 0, 0, 0, 0, 0, 0, 0, 0, 0, 0, 0, 0, 0, 0, 0, 0, 0, 0, 0, 0, 0, 0, 0, 0, 0, 0, 0, 0, 0, 0, 0, 0, 0, 0, 0, 0, 0, 0, 0, 0, 0, 0, 0, 0, 0, 0, 0, 0, 0, 0, 0, 0, 0, 0, 0, 0, 0, 0, 0, 0, 0, 0, 0, 0, 0, 0, 0, 0, 0, 0, 0, 0, 0, 0, 0, 0, 0, 0, 0, 0, 0, 0, 0, 0, 0, 0, 0, 0, 0, 0, 0, 0, 0, 0, 0, 0, 0, 0, 0, 0, 0, 0, 0, 0, 0, 0, 0, 0, 0, 0, 0, 0, 0, 0, 0, 0, 0, 0, 0, 0, 0, 0, 0, 0, 0, 0, 0, 0, 0, 0, 0, 0, 0, 0, 0...}
value address: 0x55555575b160 <y>
Type: The type is a structure.
Type sizeof: 24
Field name: std::_Vector_base<double, std::allocator<double> >
Field Type: The type is a structure.
Field Type sizeof: 24

[INFO -- 2018-11-24 16:41:39]
Fault Injection Successful after 2.3290159702301025s
[INFO -- 2018-11-24 16:41:41]
event type: exit
[INFO -- 2018-11-24 16:41:41]
exit code: 0
