[INFO -- 2018-11-27 21:28:36]
sending 5 signals using command: 'killall -2 lreg' after 2.77485404122s
[INFO -- 2018-11-27 21:28:36]
Starting GDB script
[INFO -- 2018-11-27 21:28:36]
initSignal:0.0
[INFO -- 2018-11-27 21:28:36]
endSignal:3.0
[INFO -- 2018-11-27 21:28:36]
sending 5 signals using command: 'killall -2 lreg' after 0.162327869608s
[INFO -- 2018-11-27 21:28:36]
sending 5 signals using command: 'killall -2 lreg' after 0.395253864669s
[INFO -- 2018-11-27 21:28:38]
sending 5 signals using command: 'killall -2 lreg' after 2.16935217338s
[INFO -- 2018-11-27 21:28:39]
Execution finished before waitTime
