[INFO -- 2018-11-25 17:37:46]
Starting GDB script
[INFO -- 2018-11-25 17:37:46]
initSignal:0.0
[INFO -- 2018-11-25 17:37:46]
endSignal:6.0
[INFO -- 2018-11-25 17:37:47]
sending 5 signals using command: 'killall -2 lreg' after 0.94138133048s
[INFO -- 2018-11-25 17:37:49]
sending 5 signals using command: 'killall -2 lreg' after 2.40406805187s
[INFO -- 2018-11-25 17:37:50]
Execution finished before waitTime
