[INFO -- 2018-11-22 17:04:51]
Starting GDB script
[INFO -- 2018-11-22 17:04:51]
initSignal:0.0
[INFO -- 2018-11-22 17:04:51]
endSignal:3.0
[INFO -- 2018-11-22 17:04:52]
sending 5 signals using command: 'killall -2 lreg' after 0.499660554431s
[INFO -- 2018-11-22 17:04:52]
sending 5 signals using command: 'killall -2 lreg' after 0.880568996225s
[INFO -- 2018-11-22 17:04:53]
sending 5 signals using command: 'killall -2 lreg' after 1.3996529051s
[INFO -- 2018-11-22 17:04:58]
Execution finished before waitTime
