[INFO -- 2018-11-22 18:47:21]
Starting GDB script
[INFO -- 2018-11-22 18:47:21]
initSignal:0.0
[INFO -- 2018-11-22 18:47:21]
endSignal:3.0
[INFO -- 2018-11-22 18:47:21]
sending 5 signals using command: 'killall -2 lreg' after 0.00515271269422s
[INFO -- 2018-11-22 18:47:26]
sending 5 signals using command: 'killall -2 lreg' after 2.25337138101s
[INFO -- 2018-11-22 18:47:27]
sending 5 signals using command: 'killall -2 lreg' after 1.3660670616s
[INFO -- 2018-11-22 18:47:27]
Execution finished before waitTime
