[INFO -- 2018-11-25 12:39:49]
Starting GDB script
[INFO -- 2018-11-25 12:39:49]
initSignal:0.0
[INFO -- 2018-11-25 12:39:49]
endSignal:6.0
[INFO -- 2018-11-25 12:39:51]
sending 5 signals using command: 'killall -2 lreg' after 1.93886564144s
[INFO -- 2018-11-25 12:39:51]
sending 5 signals using command: 'killall -2 lreg' after 2.51329095545s
[INFO -- 2018-11-25 12:39:52]
sending 5 signals using command: 'killall -2 lreg' after 3.03225596327s
[INFO -- 2018-11-25 12:39:57]
Execution finished before waitTime
