[INFO -- 2018-11-25 11:13:05]
sending 5 signals using command: 'killall -2 lreg' after 4.25995951846s
[INFO -- 2018-11-25 11:13:05]
Starting GDB script
[INFO -- 2018-11-25 11:13:05]
initSignal:0.0
[INFO -- 2018-11-25 11:13:05]
endSignal:6.0
[INFO -- 2018-11-25 11:13:07]
sending 5 signals using command: 'killall -2 lreg' after 1.38732207831s
[INFO -- 2018-11-25 11:13:08]
sending 5 signals using command: 'killall -2 lreg' after 2.45247432201s
[INFO -- 2018-11-25 11:13:10]
sending 5 signals using command: 'killall -2 lreg' after 4.3034030648s
[INFO -- 2018-11-25 11:13:34]
Execution did not finish before waitTime
