[INFO -- 2018-11-23 21:31:41]
Starting flip_value script
version: 1.1
[INFO -- 2018-11-23 21:31:41]
Initialization strings:
[INFO -- 2018-11-23 21:31:41]
(1) file /tmp/lreg/lreg
[INFO -- 2018-11-23 21:31:41]
(2) set args /tmp/lreg/randInput /tmp/lreg/output
[INFO -- 2018-11-23 21:31:41]
initSignal:0
[INFO -- 2018-11-23 21:31:41]
endSignal:3
[INFO -- 2018-11-23 21:31:41]
faultModel:1
[INFO -- 2018-11-23 21:31:43]
Backtrace BEGIN:
#0  0x0000555555555d01 in std::vector<double, std::allocator<double> >::size (this=0x7fffffffd8a0) at /usr/include/c++/7/bits/stl_vector.h:671
#1  0x00005555555550d6 in equals (a=std::vector of length 3, capacity 3 = {...}, b=std::vector of length 3, capacity 3 = {...}) at lreg.cpp:37
#2  0x00005555555556f4 in train (iterations=20000, alpha=5.0000000000000002e-05, N=3, stopsWhenStable=true) at lreg.cpp:126
#3  0x0000555555555ab7 in main (argc=3, argv=0x7fffffffde58) at lreg.cpp:174

666	
667	      // [23.2.4.2] capacity
668	      /**  Returns the number of elements in the %vector.  */
669	      size_type
670	      size() const _GLIBCXX_NOEXCEPT
671	      { return size_type(this->_M_impl._M_finish - this->_M_impl._M_start); }
672	
673	      /**  Returns the size() of the largest possible %vector.  */
674	      size_type
675	      max_size() const _GLIBCXX_NOEXCEPT

Backtrace END
Fliping value of field: std::_Vector_base<double, std::allocator<double> >
Fliping value of field: _M_impl
Fliping value of field: _M_end_of_storage
Fliping a bit of the value pointed by a pointer
Memory content before bitflip:0x210x000x000x000x000x000x000x00
Fault Model: Double bit-flip
base address to flip value: 0x555555771468
address max offset: 8
Memory content after  bitflip:0x210x140x000x000x000x000x000x00
frame name: train
symbol name: bestT
symbol filename: lreg.cpp
symbol line: 115
value: std::vector of length 3, capacity 3 = {1.7088821698361205, -0.019647712040768046, -2.9942867859943569}
value address: 0x7fffffffd860
Type: The type is a structure.
Type sizeof: 24
Field name: std::_Vector_base<double, std::allocator<double> >
Field Type: The type is a structure.
Field Type sizeof: 24

[INFO -- 2018-11-23 21:31:43]
Fault Injection Successful after 2.0086612701416016s
[INFO -- 2018-11-23 21:31:43]
event type: exit
[EXCEPTION -- 2018-11-23 21:31:43]
exit code: no exit code available
