[INFO -- 2018-11-24 13:36:30]
sending 5 signals using command: 'killall -2 lreg' after 5.72269416593s
[INFO -- 2018-11-24 13:36:34]
sending 5 signals using command: 'killall -2 lreg' after 9.16006907745s
[INFO -- 2018-11-24 13:36:34]
Starting GDB script
[INFO -- 2018-11-24 13:36:34]
initSignal:0.0
[INFO -- 2018-11-24 13:36:34]
endSignal:10.0
[INFO -- 2018-11-24 13:36:38]
Execution finished before waitTime
