[INFO -- 2018-11-23 19:07:09]
Starting flip_value script
version: 1.1
[INFO -- 2018-11-23 19:07:09]
Initialization strings:
[INFO -- 2018-11-23 19:07:09]
(1) file /tmp/lreg/lreg
[INFO -- 2018-11-23 19:07:09]
(2) set args /tmp/lreg/randInput /tmp/lreg/output
[INFO -- 2018-11-23 19:07:09]
initSignal:0
[INFO -- 2018-11-23 19:07:09]
endSignal:3
[INFO -- 2018-11-23 19:07:09]
faultModel:1
[EXCEPTION -- 2018-11-23 19:07:11]
pythonException: empty range for randrange() (0,0, 0)
[INFO -- 2018-11-23 19:07:11]
Backtrace BEGIN:
#0  0x00005555555554b3 in adjust (alpha=0.00020000000000000001) at lreg.cpp:87
#1  0x000055555555565c in train (iterations=10000, alpha=0.00020000000000000001, N=2, stopsWhenStable=true) at lreg.cpp:120
#2  0x0000555555555ab7 in main (argc=3, argv=0x7fffffffde58) at lreg.cpp:174

82	*/
83	void adjust(double alpha){
84		
85		double PD;
86		for(int i = 0; i<T.size(); i++){
87			PD = partialDerivate(i);
88			// alpha is different from the canonical version because this works better
89			T[i]= T[i] - ((alpha / (sqrt( fabs(PD) ))) * PD); 
90		}
91	}

Backtrace END
Memory content before bitflip:0x080x000x000x00
Fault Model: Double bit-flip
base address to flip value: 0x7fffffffd928
address max offset: 4
Memory content after  bitflip:0x2a0x000x000x00
frame name: main
symbol name: sizeOfTraining
symbol filename: lreg.cpp
symbol line: 161
value: 42
value address: 0x7fffffffd928
Type: The type is an integer type.
Type sizeof: 4

[INFO -- 2018-11-23 19:07:11]
Fault Injection Successful after 2.7237627506256104s
[INFO -- 2018-11-23 19:07:12]
event type: exit
[EXCEPTION -- 2018-11-23 19:07:12]
exit code: no exit code available
