[INFO -- 2018-11-27 20:34:46]
Starting GDB script
[INFO -- 2018-11-27 20:34:46]
initSignal:0.0
[INFO -- 2018-11-27 20:34:46]
endSignal:3.0
[INFO -- 2018-11-27 20:34:46]
sending 5 signals using command: 'killall -2 lreg' after 0.448620400515s
[INFO -- 2018-11-27 20:34:47]
sending 5 signals using command: 'killall -2 lreg' after 1.462702842s
[INFO -- 2018-11-27 20:34:49]
sending 5 signals using command: 'killall -2 lreg' after 2.93616409455s
[INFO -- 2018-11-27 20:34:50]
Execution finished before waitTime
