[INFO -- 2018-11-25 21:55:40]
Starting GDB script
[INFO -- 2018-11-25 21:55:40]
initSignal:0.0
[INFO -- 2018-11-25 21:55:40]
endSignal:6.0
[INFO -- 2018-11-25 21:55:42]
sending 5 signals using command: 'killall -2 lreg' after 1.33914400306s
[INFO -- 2018-11-25 21:55:42]
sending 5 signals using command: 'killall -2 lreg' after 1.50466064918s
[INFO -- 2018-11-25 21:55:44]
Execution finished before waitTime
