[INFO -- 2018-11-25 21:34:14]
Starting flip_value script
version: 1.1
[INFO -- 2018-11-25 21:34:14]
Initialization strings:
[INFO -- 2018-11-25 21:34:14]
(1) file /tmp/lreg/lreg
[INFO -- 2018-11-25 21:34:14]
(2) set args /tmp/lreg/randInput /tmp/lreg/output /tmp/lreg/detected.log
[INFO -- 2018-11-25 21:34:14]
initSignal:0
[INFO -- 2018-11-25 21:34:14]
endSignal:6
[INFO -- 2018-11-25 21:34:14]
faultModel:1
[INFO -- 2018-11-25 21:34:15]
Backtrace BEGIN:
#0  __exp1 (x=<optimized out>, xx=<optimized out>, error=<optimized out>) at ../sysdeps/ieee754/dbl-64/e_exp.c:277
#1  0x00007ffff76da8dc in __ieee754_pow_sse2 (x=17, y=3) at ../sysdeps/ieee754/dbl-64/e_pow.c:115
#2  0x00007ffff76db6be in __ieee754_pow_sse2 (x=<optimized out>, y=<optimized out>) at ../sysdeps/ieee754/dbl-64/e_pow.c:184
#3  0x00007ffff76bcb14 in __pow (x=-17, y=3) at w_pow_compat.c:30
#4  0x000055555555621b in std::pow<double, int> (__x=-17, __y=3) at /usr/include/c++/7/cmath:418
#5  0x0000555555555237 in predict (v=-17) at lreg.cpp:50
#6  0x00005555555552ba in meanSquaredError () at lreg.cpp:61
#7  0x00005555555556b1 in train (iterations=30000, alpha=2.2222199999999999e-05, N=4, stopsWhenStable=true) at lreg.cpp:121
#8  0x0000555555555a1c in execute (input=0x7fffffffe1f1 "/tmp/lreg/randInput") at lreg.cpp:157
#9  0x0000555555555c78 in main (argc=4, argv=0x7fffffffde48) at lreg.cpp:193

272	../sysdeps/ieee754/dbl-64/e_exp.c: No such file or directory.

Backtrace END
Memory content before bitflip:0x000x000x000x000x000x000x080x40
Fault Model: Double bit-flip
base address to flip value: 0x7fffffffd478
address max offset: 8
Memory content after  bitflip:0x000x000x000x110x000x000x080x40
frame name: __pow
symbol name: y
symbol filename: w_pow_compat.c
symbol line: 28
value: 3.0000001266598701
value address: 0x7fffffffd478
Type: A floating point type.
Type sizeof: 8

[INFO -- 2018-11-25 21:34:15]
Fault Injection Successful after 1.8685107231140137s
[INFO -- 2018-11-25 21:34:17]
event type: exit
[INFO -- 2018-11-25 21:34:17]
exit code: 0
