[INFO -- 2018-11-29 14:19:02]
sending 5 signals using command: 'killall -2 lreg' after 3.06257426326s
[INFO -- 2018-11-29 14:19:04]
sending 5 signals using command: 'killall -2 lreg' after 4.79324455925s
[INFO -- 2018-11-29 14:19:04]
Starting GDB script
[INFO -- 2018-11-29 14:19:04]
initSignal:0.0
[INFO -- 2018-11-29 14:19:04]
endSignal:6.0
[INFO -- 2018-11-29 14:19:05]
sending 5 signals using command: 'killall -2 lreg' after 1.42519935433s
[INFO -- 2018-11-29 14:19:07]
sending 5 signals using command: 'killall -2 lreg' after 3.30906277464s
[INFO -- 2018-11-29 14:19:07]
sending 5 signals using command: 'killall -2 lreg' after 3.74299889158s
[INFO -- 2018-11-29 14:19:09]
Execution finished before waitTime
