[INFO -- 2018-11-25 11:54:56]
Starting GDB script
[INFO -- 2018-11-25 11:54:56]
initSignal:0.0
[INFO -- 2018-11-25 11:54:56]
endSignal:6.0
[INFO -- 2018-11-25 11:54:56]
sending 5 signals using command: 'killall -2 lreg' after 0.112958732453s
[INFO -- 2018-11-25 11:54:58]
sending 5 signals using command: 'killall -2 lreg' after 2.21354923884s
[INFO -- 2018-11-25 11:54:59]
sending 5 signals using command: 'killall -2 lreg' after 3.45408959196s
[INFO -- 2018-11-25 11:54:59]
Execution finished before waitTime
