[INFO -- 2018-11-24 15:35:35]
Starting GDB script
[INFO -- 2018-11-24 15:35:35]
initSignal:0.0
[INFO -- 2018-11-24 15:35:35]
endSignal:6.0
[INFO -- 2018-11-24 15:35:35]
sending 5 signals using command: 'killall -2 lreg' after 0.257362551598s
[INFO -- 2018-11-24 15:35:36]
sending 5 signals using command: 'killall -2 lreg' after 1.12195075973s
[INFO -- 2018-11-24 15:35:37]
sending 5 signals using command: 'killall -2 lreg' after 1.80186635227s
[INFO -- 2018-11-24 15:35:40]
Execution finished before waitTime
