[INFO -- 2018-11-24 17:18:30]
Starting flip_value script
version: 1.1
[INFO -- 2018-11-24 17:18:30]
Initialization strings:
[INFO -- 2018-11-24 17:18:30]
(1) file /tmp/lreg/lreg
[INFO -- 2018-11-24 17:18:30]
(2) set args /tmp/lreg/randInput /tmp/lreg/output /tmp/lreg/detected.log
[INFO -- 2018-11-24 17:18:30]
initSignal:0
[INFO -- 2018-11-24 17:18:30]
endSignal:6
[INFO -- 2018-11-24 17:18:30]
faultModel:1
[INFO -- 2018-11-24 17:18:32]
Backtrace BEGIN:
#0  0x000055555555754c in __gnu_cxx::__normal_iterator<double*, std::vector<double, std::allocator<double> > >::__normal_iterator (this=0x7fffffffd4e0, __i=@0x7fffffffd5b0: 0x555555772360) at /usr/include/c++/7/bits/stl_iterator.h:780
#1  0x0000555555556cd6 in std::vector<double, std::allocator<double> >::begin (this=0x7fffffffd5b0) at /usr/include/c++/7/bits/stl_vector.h:564
#2  0x000055555555660b in std::vector<double, std::allocator<double> >::operator= (this=0x7fffffffd5b0, __x=std::vector of length 2, capacity 2 = {...}) at /usr/include/c++/7/bits/vector.tcc:218
#3  0x00005555555556f2 in train (iterations=10000, alpha=0.00020000000000000001, N=2, stopsWhenStable=true) at lreg.cpp:124
#4  0x0000555555555a1c in execute (input=0x7fffffffe1f2 "/tmp/lreg/randInput") at lreg.cpp:157
#5  0x0000555555555cb0 in main (argc=4, argv=0x7fffffffde48) at lreg.cpp:196

775	      _GLIBCXX_CONSTEXPR __normal_iterator() _GLIBCXX_NOEXCEPT
776	      : _M_current(_Iterator()) { }
777	
778	      explicit
779	      __normal_iterator(const _Iterator& __i) _GLIBCXX_NOEXCEPT
780	      : _M_current(__i) { }
781	
782	      // Allow iterator to const_iterator conversion
783	      template<typename _Iter>
784	        __normal_iterator(const __normal_iterator<_Iter,

Backtrace END
Fliping value of field: std::_Vector_base<double, std::allocator<double> >
Fliping value of field: _M_impl
Fliping value of field: _M_finish
Fliping a bit of the pointer
Memory content before bitflip:0x600x240x770x550x550x550x000x00
Fault Model: Double bit-flip
base address to flip value: 0x55555575b188 
address max offset: 8
Memory content after  bitflip:0x600x240x770x550x550x550x090x00
frame name: std::vector<double, std::allocator<double> >::operator=
symbol name: T
symbol filename: lreg.cpp
symbol line: 34
value: std::vector of length 316659348799490, capacity 2 = {1.4840457508783993, -1.0133571629940497, -2.9944537928979051, 1.6304166312761136e-322, 4.6355706480287051e-310, -1.0133674111837074, -2.9945863353366149, 1.6304166312761136e-322, 0, -1.013362286597691, -2.9944537928979051, 7.1639518646980749e-322, 12, -6, -10, -3, 7, -12, 6, -10, -18, -28, 25, -14, 7, -2, -17, 21, 0, 7.1639518646980749e-322, -10, 8, 12, 5, -5, 14, -4, 12, 22793, 86413, -63895, 10673, -1507, 41, 19181, -38047, 0, 7.1639518646980749e-322, 0, 10.999751207252501, 12.999763980722822, -7.0003637539803849, -1078.8160145721722, -1078.8160145721722, -1722.5303976432911, -1319.1177772194476, -1582.6669839552355, -584.82432114594803, 97026.528835098041, -561.68664594912298, -9235.2779191372501, 69793.215647290359, -295.84796972341951, 42146.236069249338, 0, 2.4209216646221081e-322, 4.6355706480540012e-310, -1.5136731619258823, -1.959753769940316, -4.0440527726936848, 0, 2.4209216646221081e-322, 4.6355706480563728e-310, -1.5136731619258823, -1.959753769940316, -4.0440527726936848, 0, 2.4209216646221081e-322, 4.6355706480587443e-310, -1.5136731619258823, -1.959753769940316, -4.0440527726936848, 0, 2.4209216646221081e-322, 0, -1.5109604774850565, -1.9503242482174707, -3.9694324930209692, 0, 1.3487992131466031e-321, 9.9997448205173409, 10.999751207252501, 12.999763980722822, -7.0003637539803849, -1078.8160145721722, -1078.8160145721722, -1722.5303976432911, -1319.1177772194476, -1582.6669839552355, -584.82432114594803, 97026.528835098041, -561.68664594912298, -9235.2779191372501, 69793.215647290359, -295.84796972341951, 42146.236069249338, 19328.177037179787, -20460.150394813842, 0, 0, 0, 0, 0, 0, 0, 0, 0, 0, 0, 0, 0, 0, 0, 2.1233459261319253e-319, 0, 0, 0, 0, 0, 0, 0, 0, 0, 0, 0, 0, 0, 0, 0, 0, 0, 0, 0, 0, 0, 0, 0, 0, 0, 0, 0, 0, 0, 0, 0, 0, 0, 0, 0, 0, 0, 0, 0, 0, 0, 0, 0, 0, 0, 0, 0, 0, 0, 0, 0, 0, 0, 0, 0, 0, 0, 0, 0, 0, 0, 0, 0, 0, 0, 0, 0, 0, 0, 0, 0, 0, 0, 0, 0, 0...}
value address: 0x55555575b180 <T>
Type: The type is a structure.
Type sizeof: 24
Field name: std::_Vector_base<double, std::allocator<double> >
Field Type: The type is a structure.
Field Type sizeof: 24

[INFO -- 2018-11-24 17:18:32]
Fault Injection Successful after 2.0261478424072266s
[INFO -- 2018-11-24 17:18:32]
event type: exit
[EXCEPTION -- 2018-11-24 17:18:32]
exit code: no exit code available
