[INFO -- 2018-11-26 19:12:46]
sending 5 signals using command: 'killall -2 lreg' after 2.81304750505s
[INFO -- 2018-11-26 19:12:46]
Starting GDB script
[INFO -- 2018-11-26 19:12:46]
initSignal:0.0
[INFO -- 2018-11-26 19:12:46]
endSignal:3.0
[INFO -- 2018-11-26 19:12:46]
sending 5 signals using command: 'killall -2 lreg' after 0.105696315969s
[INFO -- 2018-11-26 19:12:47]
sending 5 signals using command: 'killall -2 lreg' after 0.389509697485s
[INFO -- 2018-11-26 19:12:49]
sending 5 signals using command: 'killall -2 lreg' after 2.83256446227s
[INFO -- 2018-11-26 19:12:49]
Execution finished before waitTime
