Variable Name;Variable File;Variable Line;Fault Injection Time(s);Injection Time Interval;Fault Model
i;lreg.cpp;118;1.8976569175720215;0-3;Single bit-flip
i;lreg.cpp;86;1.9709415435791016;0-2;Single bit-flip
pD;lreg.cpp;72;2.6116838455200195;0-2;Single bit-flip
pos;lreg.cpp;71;2.420001745223999;0-2;Single bit-flip
x;lreg.cpp;32;1.3669826984405518;0-2;Single bit-flip
i;lreg.cpp;118;2.0910627841949463;0-2;Single bit-flip
pos;lreg.cpp;71;2.765990972518921;0-2;Single bit-flip
i;lreg.cpp;49;2.067403793334961;0-2;Single bit-flip
alpha;lreg.cpp;105;2.3448262214660645;0-2;Single bit-flip
i;lreg.cpp;118;1.6066429615020752;0-2;Single bit-flip
alpha;lreg.cpp;83;1.5717945098876953;0-2;Single bit-flip
i;lreg.cpp;86;1.5608420372009277;0-2;Single bit-flip
v;lreg.cpp;47;1.4475958347320557;0-2;Single bit-flip
T;lreg.cpp;34;1.2193026542663574;0-2;Single bit-flip
two52e;../sysdeps/ieee754/dbl-64/upow.h;55;1.4186320304870605;0-2;Single bit-flip
x;lreg.cpp;32;2.332749605178833;0-2;Single bit-flip
pos;lreg.cpp;71;1.5669379234313965;0-2;Single bit-flip
bestT;lreg.cpp;115;2.2480430603027344;0-2;Single bit-flip
i;lreg.cpp;159;3.076735258102417;0-2;Single bit-flip
i;lreg.cpp;60;2.8767893314361572;0-2;Single bit-flip
bigu;../sysdeps/ieee754/dbl-64/upow.h;52;1.4421031475067139;0-2;Single bit-flip
i;lreg.cpp;159;1.0437209606170654;0-2;Single bit-flip
i;lreg.cpp;60;2.370283603668213;0-3;Single bit-flip
pos;lreg.cpp;71;2.7264320850372314;0-3;Single bit-flip
iterations;lreg.cpp;105;2.804117441177368;0-3;Single bit-flip
i;lreg.cpp;118;2.668874979019165;0-3;Single bit-flip
y;lreg.cpp;33;3.0413765907287598;0-3;Single bit-flip
i;lreg.cpp;159;2.0114381313323975;0-3;Single bit-flip
pos;lreg.cpp;71;4.385363340377808;0-3;Single bit-flip
i;lreg.cpp;60;2.403329610824585;0-3;Single bit-flip
pos;lreg.cpp;71;2.237804651260376;0-3;Single bit-flip
i;lreg.cpp;86;3.379366397857666;0-3;Single bit-flip
i;lreg.cpp;118;2.9533321857452393;0-3;Single bit-flip
i;lreg.cpp;118;3.8596930503845215;0-3;Single bit-flip
predictions;lreg.cpp;161;2.33843731880188;0-3;Single bit-flip
pos;lreg.cpp;71;2.994767189025879;0-3;Single bit-flip
predictions;lreg.cpp;161;2.582371234893799;0-3;Single bit-flip
ln2a;../sysdeps/ieee754/dbl-64/upow.h;50;2.558229684829712;0-3;Single bit-flip
predictions;lreg.cpp;161;2.3193652629852295;0-3;Single bit-flip
pD;lreg.cpp;72;2.319669485092163;0-3;Single bit-flip
bestMSE;lreg.cpp;116;2.3515172004699707;0-3;Single bit-flip
T;lreg.cpp;34;4.373272180557251;0-3;Single bit-flip
alpha;lreg.cpp;105;3.58737850189209;0-3;Single bit-flip
iterations;lreg.cpp;105;2.5867085456848145;0-3;Single bit-flip
i;lreg.cpp;118;2.691959857940674;0-3;Single bit-flip
alpha;lreg.cpp;105;3.4211044311523438;0-3;Single bit-flip
pD;lreg.cpp;72;1.9803500175476074;0-3;Single bit-flip
predictions;lreg.cpp;161;1.8487093448638916;0-3;Single bit-flip
predictions;lreg.cpp;161;2.5245463848114014;0-3;Single bit-flip
ln2a;../sysdeps/ieee754/dbl-64/upow.h;50;3.7391960620880127;0-3;Single bit-flip
i;lreg.cpp;60;2.976652145385742;0-3;Single bit-flip
i;lreg.cpp;60;3.2712831497192383;0-3;Single bit-flip
predictions;lreg.cpp;161;1.4806020259857178;0-3;Single bit-flip
__first;/usr/include/c++/7/bits/stl_algobase.h;446;3.0856614112854004;0-3;Single bit-flip
pos;lreg.cpp;71;2.482131242752075;0-3;Single bit-flip
i;lreg.cpp;49;2.4931576251983643;0-3;Single bit-flip
T;lreg.cpp;34;3.0697081089019775;0-3;Single bit-flip
i;lreg.cpp;73;3.0582501888275146;0-3;Single bit-flip
alpha;lreg.cpp;105;2.8550965785980225;0-3;Single bit-flip
pos;lreg.cpp;71;1.1661601066589355;0-3;Single bit-flip
i;lreg.cpp;159;1.4965527057647705;0-3;Single bit-flip
two52e;../sysdeps/ieee754/dbl-64/upow.h;55;2.8728578090667725;0-3;Single bit-flip
i;lreg.cpp;118;2.1402816772460938;0-3;Single bit-flip
i;lreg.cpp;118;1.6567816734313965;0-3;Single bit-flip
testCases;lreg.cpp;156;1.85508394241333;0-3;Single bit-flip
x;lreg.cpp;32;2.2656121253967285;0-3;Single bit-flip
x;lreg.cpp;32;2.8600542545318604;0-3;Single bit-flip
i;lreg.cpp;86;1.451707363128662;0-3;Single bit-flip
i;lreg.cpp;118;0.9440302848815918;0-3;Single bit-flip
y;lreg.cpp;33;1.738900899887085;0-3;Single bit-flip
pos;lreg.cpp;71;1.1672437191009521;0-3;Single bit-flip
v;lreg.cpp;47;1.846937656402588;0-3;Single bit-flip
y;lreg.cpp;33;1.6393113136291504;0-3;Single bit-flip
alpha;lreg.cpp;105;1.58128023147583;0-3;Single bit-flip
i;lreg.cpp;118;1.2399075031280518;0-3;Single bit-flip
ln2a;../sysdeps/ieee754/dbl-64/upow.h;50;1.6932346820831299;0-3;Single bit-flip
i;lreg.cpp;73;0.718040943145752;0-3;Single bit-flip
two52e;../sysdeps/ieee754/dbl-64/upow.h;55;1.7976348400115967;0-3;Single bit-flip
predictions;lreg.cpp;161;1.053837776184082;0-3;Single bit-flip
iterations;lreg.cpp;105;1.9151866436004639;0-3;Single bit-flip
iterations;lreg.cpp;105;1.966461181640625;0-3;Single bit-flip
i;lreg.cpp;159;1.2374131679534912;0-3;Single bit-flip
i;lreg.cpp;159;0.8960752487182617;0-3;Single bit-flip
i;lreg.cpp;118;1.503575325012207;0-3;Single bit-flip
x;lreg.cpp;32;1.8335604667663574;0-3;Single bit-flip
predictions;lreg.cpp;161;1.4690160751342773;0-3;Single bit-flip
pos;lreg.cpp;71;1.7711868286132812;0-3;Single bit-flip
i;lreg.cpp;118;2.0282485485076904;0-3;Single bit-flip
y;lreg.cpp;33;1.720360279083252;0-3;Single bit-flip
i;lreg.cpp;60;1.9253005981445312;0-3;Single bit-flip
iterations;lreg.cpp;105;1.2198469638824463;0-3;Single bit-flip
i;lreg.cpp;86;1.7250778675079346;0-3;Single bit-flip
i;lreg.cpp;159;1.5301408767700195;0-3;Single bit-flip
predictions;lreg.cpp;161;1.5583665370941162;0-3;Single bit-flip
iterations;lreg.cpp;105;2.9809796810150146;0-3;Single bit-flip
bestMSE;lreg.cpp;116;3.0543394088745117;0-3;Single bit-flip
pos;lreg.cpp;71;0.980384111404419;0-3;Single bit-flip
val;lreg.cpp;48;1.952204704284668;0-3;Single bit-flip
i;lreg.cpp;118;2.4193811416625977;0-3;Single bit-flip
ln2a;../sysdeps/ieee754/dbl-64/upow.h;50;0.973442792892456;0-3;Single bit-flip
i;lreg.cpp;159;1.4191477298736572;0-3;Single bit-flip
i;lreg.cpp;118;2.6973443031311035;0-3;Single bit-flip
i;lreg.cpp;118;2.890360116958618;0-3;Single bit-flip
predictions;lreg.cpp;161;1.2785453796386719;0-3;Single bit-flip
v;lreg.cpp;47;1.4894609451293945;0-3;Single bit-flip
ln2a;../sysdeps/ieee754/dbl-64/upow.h;50;2.188814878463745;0-3;Single bit-flip
v;lreg.cpp;47;1.9141874313354492;0-3;Single bit-flip
y;lreg.cpp;33;1.552612066268921;0-3;Single bit-flip
pos;lreg.cpp;71;1.6667940616607666;0-3;Single bit-flip
i;lreg.cpp;159;2.8628761768341064;0-3;Single bit-flip
alpha;lreg.cpp;105;2.1204638481140137;0-3;Single bit-flip
i;lreg.cpp;49;2.6695265769958496;0-3;Single bit-flip
iterations;lreg.cpp;105;1.4079992771148682;0-3;Single bit-flip
i;lreg.cpp;118;1.7947869300842285;0-3;Single bit-flip
x;lreg.cpp;32;1.4215188026428223;0-3;Single bit-flip
alpha;lreg.cpp;83;2.3866724967956543;0-3;Single bit-flip
i;lreg.cpp;118;0.9066708087921143;0-3;Single bit-flip
predictions;lreg.cpp;161;3.0218026638031006;0-3;Single bit-flip
ln2a;../sysdeps/ieee754/dbl-64/upow.h;50;2.490985631942749;0-3;Single bit-flip
predictions;lreg.cpp;161;1.6047539710998535;0-3;Single bit-flip
i;lreg.cpp;159;1.310293436050415;0-3;Single bit-flip
v;lreg.cpp;47;1.09135103225708;0-3;Single bit-flip
i;lreg.cpp;60;1.4325354099273682;0-3;Single bit-flip
pos;lreg.cpp;71;1.0378491878509521;0-3;Single bit-flip
pos;lreg.cpp;71;1.1598541736602783;0-3;Single bit-flip
bigu;../sysdeps/ieee754/dbl-64/upow.h;52;1.7416315078735352;0-3;Single bit-flip
y;lreg.cpp;33;1.8804175853729248;0-3;Single bit-flip
iterations;lreg.cpp;105;1.0661749839782715;0-3;Single bit-flip
i;lreg.cpp;60;1.348705768585205;0-3;Single bit-flip
iterations;lreg.cpp;105;1.0520694255828857;0-3;Single bit-flip
val;lreg.cpp;48;1.4463014602661133;0-3;Single bit-flip
T;lreg.cpp;34;1.1212902069091797;0-3;Single bit-flip
i;lreg.cpp;118;2.6160709857940674;0-3;Single bit-flip
x;lreg.cpp;32;1.9360203742980957;0-3;Single bit-flip
pos;lreg.cpp;71;1.350903034210205;0-3;Single bit-flip
bigu;../sysdeps/ieee754/dbl-64/upow.h;52;1.575038194656372;0-3;Single bit-flip
i;lreg.cpp;159;1.7727899551391602;0-3;Single bit-flip
bestMSE;lreg.cpp;116;2.6844675540924072;0-3;Single bit-flip
x;lreg.cpp;32;1.0009262561798096;0-3;Single bit-flip
i;lreg.cpp;49;1.4796559810638428;0-3;Single bit-flip
x;lreg.cpp;32;1.1795117855072021;0-3;Single bit-flip
ln_two1;../sysdeps/ieee754/dbl-64/uexp.h;57;1.5414669513702393;0-3;Single bit-flip
pos;lreg.cpp;71;1.0885536670684814;0-3;Single bit-flip
i;lreg.cpp;73;2.131082534790039;0-3;Single bit-flip
pD;lreg.cpp;72;1.229374647140503;0-3;Single bit-flip
error;lreg.cpp;59;1.9446709156036377;0-3;Single bit-flip
y;lreg.cpp;33;2.2815465927124023;0-3;Single bit-flip
iterations;lreg.cpp;105;1.521050214767456;0-3;Single bit-flip
pos;lreg.cpp;71;2.0033586025238037;0-3;Single bit-flip
alpha;lreg.cpp;83;2.068073272705078;0-3;Single bit-flip
pos;lreg.cpp;71;1.2497761249542236;0-3;Single bit-flip
pos;lreg.cpp;71;1.8084523677825928;0-3;Single bit-flip
x;lreg.cpp;32;1.751495361328125;0-3;Single bit-flip
x;lreg.cpp;32;2.92441725730896;0-3;Single bit-flip
alpha;lreg.cpp;83;1.9390368461608887;0-3;Single bit-flip
i;lreg.cpp;49;1.9704504013061523;0-3;Single bit-flip
i;lreg.cpp;159;1.7802832126617432;0-3;Single bit-flip
iterations;lreg.cpp;105;2.5457041263580322;0-3;Single bit-flip
i;lreg.cpp;86;1.5965077877044678;0-3;Single bit-flip
predictions;lreg.cpp;161;1.140186071395874;0-3;Single bit-flip
i;lreg.cpp;86;1.873826026916504;0-3;Single bit-flip
log2e;../sysdeps/ieee754/dbl-64/uexp.h;59;1.7843973636627197;0-3;Single bit-flip
T;lreg.cpp;34;1.241455078125;0-3;Single bit-flip
i;lreg.cpp;86;1.3900878429412842;0-3;Single bit-flip
v;lreg.cpp;47;0.8603076934814453;0-3;Single bit-flip
v;lreg.cpp;47;2.1271026134490967;0-3;Single bit-flip
iterations;lreg.cpp;105;1.9830536842346191;0-3;Single bit-flip
x;lreg.cpp;32;1.6353766918182373;0-3;Single bit-flip
T;lreg.cpp;34;2.245821714401245;0-3;Single bit-flip
predictions;lreg.cpp;161;1.4357411861419678;0-3;Single bit-flip
i;lreg.cpp;118;0.9970965385437012;0-3;Single bit-flip
bigu;../sysdeps/ieee754/dbl-64/upow.h;52;1.7447948455810547;0-3;Single bit-flip
predictions;lreg.cpp;161;1.1547861099243164;0-3;Single bit-flip
i;lreg.cpp;118;2.018155097961426;0-3;Single bit-flip
ln2a;../sysdeps/ieee754/dbl-64/upow.h;50;1.4523067474365234;0-3;Random bit-flip
x;lreg.cpp;32;1.0729668140411377;0-3;Random bit-flip
i;lreg.cpp;49;1.883760929107666;0-2;Random bit-flip
ln2a;../sysdeps/ieee754/dbl-64/upow.h;50;2.030000686645508;0-2;Random bit-flip
x;lreg.cpp;32;1.6094601154327393;0-2;Random bit-flip
i;lreg.cpp;118;2.602951765060425;0-2;Random bit-flip
p2;../sysdeps/ieee754/dbl-64/uexp.h;61;1.0794503688812256;0-2;Random bit-flip
y;lreg.cpp;33;1.0676651000976562;0-2;Random bit-flip
T;lreg.cpp;34;2.013965606689453;0-2;Random bit-flip
i;lreg.cpp;49;1.2953870296478271;0-2;Random bit-flip
v;lreg.cpp;47;2.5191502571105957;0-2;Random bit-flip
T;lreg.cpp;34;1.5108015537261963;0-2;Random bit-flip
x;lreg.cpp;32;1.5145986080169678;0-2;Random bit-flip
i;lreg.cpp;159;2.351381778717041;0-2;Random bit-flip
i;lreg.cpp;159;2.9267351627349854;0-2;Random bit-flip
error;lreg.cpp;59;1.1305444240570068;0-2;Random bit-flip
alpha;lreg.cpp;105;1.7355177402496338;0-2;Random bit-flip
y;lreg.cpp;33;3.508373737335205;0-2;Random bit-flip
y;lreg.cpp;33;1.3447821140289307;0-2;Random bit-flip
bigu;../sysdeps/ieee754/dbl-64/upow.h;52;2.021300792694092;0-2;Random bit-flip
x;lreg.cpp;32;1.292194128036499;0-2;Random bit-flip
bestMSE;lreg.cpp;116;0.7842533588409424;0-2;Random bit-flip
three33;../sysdeps/ieee754/dbl-64/uexp.h;64;1.1728105545043945;0-2;Random bit-flip
alpha;lreg.cpp;83;2.8804922103881836;0-2;Random bit-flip
iterations;lreg.cpp;105;1.174731969833374;0-2;Random bit-flip
i;lreg.cpp;118;2.097898244857788;0-2;Random bit-flip
alpha;lreg.cpp;83;1.293083667755127;0-2;Random bit-flip
pos;lreg.cpp;71;2.1013307571411133;0-2;Random bit-flip
i;lreg.cpp;118;1.6248257160186768;0-2;Random bit-flip
alpha;lreg.cpp;83;1.17991042137146;0-2;Random bit-flip
bestMSE;lreg.cpp;116;1.023024082183838;0-2;Random bit-flip
two52e;../sysdeps/ieee754/dbl-64/upow.h;55;1.6137001514434814;0-2;Random bit-flip
pos;lreg.cpp;71;0.9259419441223145;0-2;Random bit-flip
iterations;lreg.cpp;105;4.073789834976196;0-2;Random bit-flip
x;lreg.cpp;32;4.247750759124756;0-2;Random bit-flip
pos;lreg.cpp;71;2.4263651371002197;0-3;Random bit-flip
error;lreg.cpp;59;2.835639238357544;0-3;Random bit-flip
bestMSE;lreg.cpp;116;2.531895875930786;0-3;Random bit-flip
pD;lreg.cpp;72;1.6596717834472656;0-3;Random bit-flip
pos;lreg.cpp;71;4.129948139190674;0-3;Random bit-flip
alpha;lreg.cpp;105;2.025409460067749;0-3;Random bit-flip
T;lreg.cpp;34;2.8272812366485596;0-3;Random bit-flip
error;lreg.cpp;59;2.004088878631592;0-3;Random bit-flip
ln2a;../sysdeps/ieee754/dbl-64/upow.h;50;2.71235728263855;0-3;Random bit-flip
iterations;lreg.cpp;105;2.640416145324707;0-3;Random bit-flip
alpha;lreg.cpp;105;2.7803115844726562;0-3;Random bit-flip
pos;lreg.cpp;71;2.2063045501708984;0-3;Random bit-flip
pos;lreg.cpp;71;2.922118663787842;0-3;Random bit-flip
y;lreg.cpp;33;4.377729892730713;0-3;Random bit-flip
two52e;../sysdeps/ieee754/dbl-64/upow.h;55;3.215710401535034;0-3;Random bit-flip
ln2b;../sysdeps/ieee754/dbl-64/upow.h;51;2.156144857406616;0-3;Random bit-flip
bestMSE;lreg.cpp;116;3.15556263923645;0-3;Random bit-flip
x;lreg.cpp;32;2.876244068145752;0-3;Random bit-flip
T;lreg.cpp;34;2.339418888092041;0-3;Random bit-flip
iterations;lreg.cpp;105;2.11368727684021;0-3;Random bit-flip
pD;lreg.cpp;72;1.593135118484497;0-3;Random bit-flip
i;lreg.cpp;73;3.65641188621521;0-3;Random bit-flip
i;lreg.cpp;73;2.8962409496307373;0-3;Random bit-flip
val;lreg.cpp;48;2.14473032951355;0-3;Random bit-flip
val;lreg.cpp;48;1.7440972328186035;0-3;Random bit-flip
y;lreg.cpp;33;2.3074328899383545;0-3;Random bit-flip
bestMSE;lreg.cpp;116;2.74045991897583;0-3;Random bit-flip
alpha;lreg.cpp;83;2.5423529148101807;0-3;Random bit-flip
pD;lreg.cpp;72;2.505746603012085;0-3;Random bit-flip
pD;lreg.cpp;72;1.9306533336639404;0-3;Random bit-flip
bigu;../sysdeps/ieee754/dbl-64/upow.h;52;2.743804454803467;0-3;Random bit-flip
y;lreg.cpp;33;2.9259755611419678;0-3;Random bit-flip
x;lreg.cpp;32;2.169954538345337;0-3;Random bit-flip
alpha;lreg.cpp;83;2.4296178817749023;0-3;Random bit-flip
T;lreg.cpp;34;2.6452784538269043;0-3;Random bit-flip
y;lreg.cpp;33;2.847555637359619;0-3;Random bit-flip
iterations;lreg.cpp;105;2.943939685821533;0-3;Random bit-flip
alpha;lreg.cpp;105;1.542717695236206;0-3;Random bit-flip
y;lreg.cpp;33;3.0309224128723145;0-3;Random bit-flip
PD;lreg.cpp;85;2.546023368835449;0-3;Random bit-flip
i;lreg.cpp;118;2.57289981842041;0-3;Random bit-flip
T;lreg.cpp;34;2.0438807010650635;0-3;Random bit-flip
pos;lreg.cpp;71;2.0457937717437744;0-3;Random bit-flip
iterations;lreg.cpp;105;3.300471782684326;0-3;Random bit-flip
pos;lreg.cpp;71;3.039462089538574;0-3;Random bit-flip
i;lreg.cpp;49;2.8179657459259033;0-3;Random bit-flip
alpha;lreg.cpp;83;2.3753957748413086;0-3;Random bit-flip
x;lreg.cpp;32;2.533625841140747;0-3;Random bit-flip
i;lreg.cpp;118;2.709186315536499;0-3;Random bit-flip
x;lreg.cpp;32;2.9179985523223877;0-3;Random bit-flip
y;lreg.cpp;33;3.2518603801727295;0-3;Random bit-flip
x;lreg.cpp;32;2.9553632736206055;0-3;Random bit-flip
two52e;../sysdeps/ieee754/dbl-64/upow.h;55;1.3597242832183838;0-3;Random bit-flip
alpha;lreg.cpp;105;2.445042848587036;0-3;Random bit-flip
y;lreg.cpp;33;0.6916792392730713;0-3;Random bit-flip
alpha;lreg.cpp;105;1.2733180522918701;0-3;Random bit-flip
v;lreg.cpp;47;1.8927209377288818;0-3;Random bit-flip
i;lreg.cpp;49;1.4289910793304443;0-3;Random bit-flip
two52e;../sysdeps/ieee754/dbl-64/upow.h;55;2.8709957599639893;0-3;Random bit-flip
iterations;lreg.cpp;105;0.6866204738616943;0-3;Random bit-flip
y;lreg.cpp;33;1.3988077640533447;0-3;Random bit-flip
iterations;lreg.cpp;105;1.4056808948516846;0-3;Random bit-flip
pD;lreg.cpp;72;2.09319806098938;0-3;Random bit-flip
alpha;lreg.cpp;83;2.128864049911499;0-3;Random bit-flip
two52e;../sysdeps/ieee754/dbl-64/upow.h;55;1.0314669609069824;0-3;Random bit-flip
pos;lreg.cpp;71;2.6224799156188965;0-3;Random bit-flip
pD;lreg.cpp;72;1.4859747886657715;0-3;Random bit-flip
bestMSE;lreg.cpp;116;1.9689388275146484;0-3;Random bit-flip
T;lreg.cpp;34;2.280951976776123;0-3;Random bit-flip
pD;lreg.cpp;72;2.4212522506713867;0-3;Random bit-flip
bestMSE;lreg.cpp;116;1.6403450965881348;0-3;Random bit-flip
ln2a;../sysdeps/ieee754/dbl-64/upow.h;50;1.9064149856567383;0-3;Random bit-flip
pos;lreg.cpp;71;1.8998103141784668;0-3;Random bit-flip
alpha;lreg.cpp;83;1.7547647953033447;0-3;Random bit-flip
alpha;lreg.cpp;83;2.3098833560943604;0-3;Random bit-flip
T;lreg.cpp;34;1.7741928100585938;0-3;Random bit-flip
alpha;lreg.cpp;105;1.2682404518127441;0-3;Random bit-flip
alpha;lreg.cpp;105;1.2290284633636475;0-3;Random bit-flip
ln2b;../sysdeps/ieee754/dbl-64/upow.h;51;2.41386079788208;0-3;Random bit-flip
y;lreg.cpp;33;2.193331718444824;0-3;Random bit-flip
alpha;lreg.cpp;83;1.8475332260131836;0-3;Random bit-flip
y;lreg.cpp;33;1.929152250289917;0-3;Random bit-flip
alpha;lreg.cpp;83;1.3363242149353027;0-3;Random bit-flip
alpha;lreg.cpp;105;0.8598451614379883;0-3;Random bit-flip
val;lreg.cpp;48;2.1172378063201904;0-3;Random bit-flip
two52e;../sysdeps/ieee754/dbl-64/upow.h;55;1.8072516918182373;0-3;Random bit-flip
y;lreg.cpp;33;1.642848253250122;0-3;Random bit-flip
two52e;../sysdeps/ieee754/dbl-64/upow.h;55;2.4299540519714355;0-3;Random bit-flip
bigu;../sysdeps/ieee754/dbl-64/upow.h;52;2.1197128295898438;0-3;Random bit-flip
T;lreg.cpp;34;1.2821786403656006;0-3;Random bit-flip
predictions;lreg.cpp;161;2.036308765411377;0-3;Random bit-flip
y;lreg.cpp;33;1.4580681324005127;0-3;Random bit-flip
pD;lreg.cpp;72;0.8397636413574219;0-3;Random bit-flip
val;lreg.cpp;48;1.2819573879241943;0-3;Random bit-flip
y;lreg.cpp;33;2.2073590755462646;0-3;Random bit-flip
y;lreg.cpp;33;3.0307512283325195;0-3;Random bit-flip
bestMSE;lreg.cpp;116;2.2196507453918457;0-3;Random bit-flip
pD;lreg.cpp;72;1.9794907569885254;0-3;Random bit-flip
three51;../sysdeps/ieee754/dbl-64/uexp.h;65;1.9441859722137451;0-3;Random bit-flip
alpha;lreg.cpp;83;1.5113933086395264;0-3;Random bit-flip
T;lreg.cpp;34;1.968400239944458;0-3;Random bit-flip
x;lreg.cpp;32;1.527137279510498;0-3;Random bit-flip
bestMSE;lreg.cpp;116;3.3550140857696533;0-3;Random bit-flip
v;lreg.cpp;47;1.495206356048584;0-3;Random bit-flip
i;lreg.cpp;49;1.8568918704986572;0-3;Random bit-flip
testCases;lreg.cpp;156;1.7593016624450684;0-3;Random bit-flip
iterations;lreg.cpp;105;1.8994722366333008;0-3;Random bit-flip
bestMSE;lreg.cpp;116;1.8316807746887207;0-3;Random bit-flip
alpha;lreg.cpp;105;1.3361361026763916;0-3;Random bit-flip
x;lreg.cpp;32;1.9630615711212158;0-3;Random bit-flip
T;lreg.cpp;34;1.076333999633789;0-3;Random bit-flip
x;lreg.cpp;32;1.3472106456756592;0-3;Random bit-flip
T;lreg.cpp;34;0.9034013748168945;0-3;Random bit-flip
two52e;../sysdeps/ieee754/dbl-64/upow.h;55;2.1679341793060303;0-3;Random bit-flip
ln2a;../sysdeps/ieee754/dbl-64/upow.h;50;1.620361566543579;0-3;Random bit-flip
T;lreg.cpp;34;0.8960506916046143;0-3;Random bit-flip
x;lreg.cpp;32;1.5954689979553223;0-3;Random bit-flip
bestMSE;lreg.cpp;116;1.6961851119995117;0-3;Random bit-flip
val;lreg.cpp;48;2.599963665008545;0-3;Random bit-flip
i;lreg.cpp;118;1.3369951248168945;0-3;Random bit-flip
predictions;lreg.cpp;161;2.3622326850891113;0-3;Random bit-flip
two52e;../sysdeps/ieee754/dbl-64/upow.h;55;2.867107391357422;0-3;Random bit-flip
i;lreg.cpp;118;2.3959975242614746;0-3;Random bit-flip
p3;../sysdeps/ieee754/dbl-64/uexp.h;62;2.4377315044403076;0-3;Random bit-flip
T;lreg.cpp;34;1.2574727535247803;0-3;Random bit-flip
alpha;lreg.cpp;83;1.7485051155090332;0-3;Random bit-flip
y;lreg.cpp;33;2.0661873817443848;0-3;Random bit-flip
y;lreg.cpp;33;1.4083364009857178;0-3;Random bit-flip
pos;lreg.cpp;71;1.5099403858184814;0-3;Random bit-flip
x;lreg.cpp;32;1.9043786525726318;0-3;Random bit-flip
T;lreg.cpp;34;1.1846117973327637;0-3;Random bit-flip
two52e;../sysdeps/ieee754/dbl-64/upow.h;55;2.17569899559021;0-3;Random bit-flip
bestMSE;lreg.cpp;116;1.7223877906799316;0-3;Random bit-flip
two52e;../sysdeps/ieee754/dbl-64/upow.h;55;2.723900556564331;0-3;Random bit-flip
T;lreg.cpp;34;1.4332184791564941;0-3;Random bit-flip
pD;lreg.cpp;72;3.329352378845215;0-3;Random bit-flip
pos;lreg.cpp;71;1.6030943393707275;0-3;Random bit-flip
alpha;lreg.cpp;83;1.819458246231079;0-3;Random bit-flip
ln2a;../sysdeps/ieee754/dbl-64/upow.h;50;1.3503241539001465;0-3;Random bit-flip
bestMSE;lreg.cpp;116;2.792940855026245;0-3;Random bit-flip
bestMSE;lreg.cpp;116;2.567645788192749;0-3;Random bit-flip
y;lreg.cpp;33;0.85872483253479;0-3;Random bit-flip
y;lreg.cpp;33;2.026831865310669;0-3;Random bit-flip
x;lreg.cpp;32;1.225996494293213;0-3;Random bit-flip
error;lreg.cpp;59;1.4267768859863281;0-3;Random bit-flip
iterations;lreg.cpp;105;2.405503511428833;0-3;Random bit-flip
pD;lreg.cpp;72;1.6918175220489502;0-3;Random bit-flip
pos;lreg.cpp;71;1.699993371963501;0-3;Random bit-flip
alpha;lreg.cpp;105;1.8303649425506592;0-3;Random bit-flip
val;lreg.cpp;48;2.0445752143859863;0-3;Random bit-flip
x;lreg.cpp;32;1.8451666831970215;0-3;Random bit-flip
ln_two1;../sysdeps/ieee754/dbl-64/uexp.h;57;1.0869901180267334;0-3;Random bit-flip
x;lreg.cpp;32;1.6491129398345947;0-3;Random bit-flip
pD;lreg.cpp;72;1.8919203281402588;0-3;Random bit-flip
T;lreg.cpp;34;2.7979297637939453;0-3;Random bit-flip
pos;lreg.cpp;71;1.265282154083252;0-3;Random bit-flip
two52e;../sysdeps/ieee754/dbl-64/upow.h;55;2.2696616649627686;0-3;Random bit-flip
alpha;lreg.cpp;105;1.594038724899292;0-3;Random bit-flip
iterations;lreg.cpp;105;1.8668577671051025;0-3;Random bit-flip
val;lreg.cpp;48;1.4971961975097656;0-3;Random bit-flip
y;lreg.cpp;33;1.4586539268493652;0-3;Random bit-flip
error;lreg.cpp;59;1.9497265815734863;0-3;Random bit-flip
v;lreg.cpp;47;2.8802037239074707;0-3;Random bit-flip
bestMSE;lreg.cpp;116;1.783099889755249;0-3;Random bit-flip
x;lreg.cpp;32;1.8406460285186768;0-3;Random bit-flip
alpha;lreg.cpp;83;2.548243284225464;0-3;Random bit-flip
pD;lreg.cpp;72;1.8057072162628174;0-3;Random bit-flip
val;lreg.cpp;48;1.0198595523834229;0-3;Random bit-flip
y;lreg.cpp;33;1.7265686988830566;0-3;Random bit-flip
i;lreg.cpp;118;2.2755513191223145;0-3;Random bit-flip
pD;lreg.cpp;72;1.3944058418273926;0-3;Random bit-flip
bestMSE;lreg.cpp;116;1.9236173629760742;0-3;Random bit-flip
y;lreg.cpp;33;0.6774964332580566;0-3;Random bit-flip
alpha;lreg.cpp;83;1.392876386642456;0-3;Random bit-flip
y;lreg.cpp;33;1.5234944820404053;0-3;Random bit-flip
error;lreg.cpp;59;2.614518880844116;0-3;Random bit-flip
T;lreg.cpp;34;1.9238369464874268;0-3;Random bit-flip
T;lreg.cpp;34;1.5975165367126465;0-3;Random bit-flip
T;lreg.cpp;34;1.5953991413116455;0-3;Random bit-flip
predictions;lreg.cpp;161;1.599151372909546;0-3;Random bit-flip
y;lreg.cpp;33;1.1787242889404297;0-3;Random bit-flip
two52e;../sysdeps/ieee754/dbl-64/upow.h;55;1.355337381362915;0-3;Random bit-flip
x;lreg.cpp;32;1.313650131225586;0-3;Random bit-flip
__y;/usr/include/c++/7/cmath;415;1.1690137386322021;0-3;Random bit-flip
bestMSE;lreg.cpp;116;2.452043294906616;0-3;Random bit-flip
bestMSE;lreg.cpp;116;3.148192882537842;0-3;Random bit-flip
alpha;lreg.cpp;83;0.91912841796875;0-3;Random bit-flip
alpha;lreg.cpp;83;1.016157865524292;0-3;Random bit-flip
alpha;lreg.cpp;105;1.788788080215454;0-3;Random bit-flip
predictions;lreg.cpp;161;1.8710370063781738;0-3;Random bit-flip
two52e;../sysdeps/ieee754/dbl-64/upow.h;55;1.941051721572876;0-3;Random bit-flip
T;lreg.cpp;34;1.5162172317504883;0-3;Random bit-flip
pD;lreg.cpp;72;2.1441144943237305;0-3;Random bit-flip
pos;lreg.cpp;71;1.135998010635376;0-3;Random bit-flip
alpha;lreg.cpp;105;1.239072322845459;0-3;Random bit-flip
val;lreg.cpp;48;1.1862730979919434;0-3;Random bit-flip
alpha;lreg.cpp;83;2.8213701248168945;0-3;Random bit-flip
bestMSE;lreg.cpp;116;1.3751921653747559;0-3;Random bit-flip
ln2b;../sysdeps/ieee754/dbl-64/upow.h;51;1.1308538913726807;0-3;Random bit-flip
y;lreg.cpp;33;2.3399648666381836;0-3;Random bit-flip
y;lreg.cpp;33;2.5853047370910645;0-3;Random bit-flip
x;lreg.cpp;32;5.1645667552948;0-3;Random bit-flip
ln2a;../sysdeps/ieee754/dbl-64/upow.h;50;1.732804775238037;0-3;Random bit-flip
two52e;../sysdeps/ieee754/dbl-64/upow.h;55;2.0123839378356934;0-2;Double bit-flip
i;lreg.cpp;118;1.9225671291351318;0-2;Double bit-flip
ln2a;../sysdeps/ieee754/dbl-64/upow.h;50;1.5746431350708008;0-2;Double bit-flip
i;lreg.cpp;60;0.6764709949493408;0-2;Double bit-flip
x;lreg.cpp;32;1.427703619003296;0-2;Double bit-flip
pos;lreg.cpp;71;1.9420106410980225;0-2;Double bit-flip
y;lreg.cpp;33;1.7021987438201904;0-2;Double bit-flip
pos;lreg.cpp;71;2.211158037185669;0-2;Double bit-flip
alpha;lreg.cpp;105;1.093231201171875;0-2;Double bit-flip
i;lreg.cpp;159;1.9680283069610596;0-2;Double bit-flip
pos;lreg.cpp;71;1.653571605682373;0-2;Double bit-flip
i;lreg.cpp;86;1.2735209465026855;0-2;Double bit-flip
ln2a;../sysdeps/ieee754/dbl-64/upow.h;50;1.760481357574463;0-2;Double bit-flip
alpha;lreg.cpp;105;2.431499481201172;0-2;Double bit-flip
y;lreg.cpp;33;3.0871469974517822;0-2;Double bit-flip
two52e;../sysdeps/ieee754/dbl-64/upow.h;55;1.512284517288208;0-2;Double bit-flip
two52e;../sysdeps/ieee754/dbl-64/upow.h;55;0.8675050735473633;0-2;Double bit-flip
two52e;../sysdeps/ieee754/dbl-64/upow.h;55;1.9186413288116455;0-2;Double bit-flip
y;w_pow_compat.c;28;2.551417827606201;0-2;Double bit-flip
pos;lreg.cpp;71;1.6740937232971191;0-2;Double bit-flip
alpha;lreg.cpp;83;1.608274221420288;0-2;Double bit-flip
x;lreg.cpp;32;2.041830062866211;0-2;Double bit-flip
two52e;../sysdeps/ieee754/dbl-64/upow.h;55;1.9937129020690918;0-2;Double bit-flip
iterations;lreg.cpp;105;3.1678895950317383;0-2;Double bit-flip
two52e;../sysdeps/ieee754/dbl-64/upow.h;55;1.7101712226867676;0-2;Double bit-flip
i;lreg.cpp;159;1.929844617843628;0-2;Double bit-flip
alpha;lreg.cpp;105;2.9455437660217285;0-3;Double bit-flip
x;lreg.cpp;32;2.100454092025757;0-3;Double bit-flip
x;lreg.cpp;32;2.814724922180176;0-3;Double bit-flip
i;lreg.cpp;159;2.1232545375823975;0-3;Double bit-flip
pos;lreg.cpp;71;3.823233127593994;0-3;Double bit-flip
i;lreg.cpp;159;2.278789520263672;0-3;Double bit-flip
i;lreg.cpp;118;3.9007272720336914;0-3;Double bit-flip
ln_two1;../sysdeps/ieee754/dbl-64/uexp.h;57;2.962411403656006;0-3;Double bit-flip
iterations;lreg.cpp;105;3.799818992614746;0-3;Double bit-flip
y;lreg.cpp;33;2.675065040588379;0-3;Double bit-flip
bestMSE;lreg.cpp;116;2.281421661376953;0-3;Double bit-flip
x;lreg.cpp;32;2.7475404739379883;0-3;Double bit-flip
two52e;../sysdeps/ieee754/dbl-64/upow.h;55;3.019996404647827;0-3;Double bit-flip
iterations;lreg.cpp;105;1.648083209991455;0-3;Double bit-flip
ln2b;../sysdeps/ieee754/dbl-64/upow.h;51;2.810620069503784;0-3;Double bit-flip
two52e;../sysdeps/ieee754/dbl-64/upow.h;55;3.077383518218994;0-3;Double bit-flip
T;lreg.cpp;34;3.8011157512664795;0-3;Double bit-flip
x;lreg.cpp;32;2.9535696506500244;0-3;Double bit-flip
iterations;lreg.cpp;105;2.794227361679077;0-3;Double bit-flip
two52e;../sysdeps/ieee754/dbl-64/upow.h;55;3.1124866008758545;0-3;Double bit-flip
pos;lreg.cpp;71;2.9577841758728027;0-3;Double bit-flip
two52e;../sysdeps/ieee754/dbl-64/upow.h;55;2.6711344718933105;0-3;Double bit-flip
pD;lreg.cpp;72;1.8616385459899902;0-3;Double bit-flip
pos;lreg.cpp;71;3.5612592697143555;0-3;Double bit-flip
v;lreg.cpp;47;2.279993772506714;0-3;Double bit-flip
__last;/usr/include/c++/7/bits/stl_construct.h;203;2.5109333992004395;0-3;Double bit-flip
val;lreg.cpp;48;2.4063820838928223;0-3;Double bit-flip
T;lreg.cpp;34;2.4302663803100586;0-3;Double bit-flip
pD;lreg.cpp;72;3.179314374923706;0-3;Double bit-flip
pos;lreg.cpp;71;1.5990235805511475;0-3;Double bit-flip
i;lreg.cpp;118;2.1341347694396973;0-3;Double bit-flip
y;lreg.cpp;33;2.3950905799865723;0-3;Double bit-flip
i;lreg.cpp;49;2.019343852996826;0-3;Double bit-flip
y;lreg.cpp;33;2.712886095046997;0-3;Double bit-flip
alpha;lreg.cpp;105;2.4311909675598145;0-3;Double bit-flip
i;lreg.cpp;159;2.504586696624756;0-3;Double bit-flip
iterations;lreg.cpp;105;2.483837366104126;0-3;Double bit-flip
i;lreg.cpp;118;2.192971706390381;0-3;Double bit-flip
ln2a;../sysdeps/ieee754/dbl-64/upow.h;50;1.6795754432678223;0-3;Double bit-flip
pos;lreg.cpp;71;0.9873666763305664;0-3;Double bit-flip
iterations;lreg.cpp;105;1.9160025119781494;0-3;Double bit-flip
i;lreg.cpp;118;1.6042873859405518;0-3;Double bit-flip
i;lreg.cpp;118;1.3569462299346924;0-3;Double bit-flip
alpha;lreg.cpp;83;1.7268226146697998;0-3;Double bit-flip
i;lreg.cpp;49;1.3947763442993164;0-3;Double bit-flip
pos;lreg.cpp;71;2.0533530712127686;0-3;Double bit-flip
ln2a;../sysdeps/ieee754/dbl-64/upow.h;50;2.2814650535583496;0-3;Double bit-flip
pos;lreg.cpp;71;1.534092903137207;0-3;Double bit-flip
predictions;lreg.cpp;161;0.773015022277832;0-3;Double bit-flip
two52e;../sysdeps/ieee754/dbl-64/upow.h;55;1.4683911800384521;0-3;Double bit-flip
iterations;lreg.cpp;105;0.9157752990722656;0-3;Double bit-flip
i;lreg.cpp;49;2.4976320266723633;0-3;Double bit-flip
i;lreg.cpp;118;1.0596933364868164;0-3;Double bit-flip
i;lreg.cpp;86;1.4243309497833252;0-3;Double bit-flip
y;lreg.cpp;33;0.9386754035949707;0-3;Double bit-flip
ln2a;../sysdeps/ieee754/dbl-64/upow.h;50;3.1993935108184814;0-3;Double bit-flip
i;lreg.cpp;118;2.0024304389953613;0-3;Double bit-flip
i;lreg.cpp;118;1.9247639179229736;0-3;Double bit-flip
i;lreg.cpp;118;2.1376614570617676;0-3;Double bit-flip
pos;lreg.cpp;71;1.9304046630859375;0-3;Double bit-flip
pos;lreg.cpp;71;2.9190826416015625;0-3;Double bit-flip
log2e;../sysdeps/ieee754/dbl-64/uexp.h;59;1.7157273292541504;0-3;Double bit-flip
alpha;lreg.cpp;105;2.1776301860809326;0-3;Double bit-flip
T;lreg.cpp;34;3.2078359127044678;0-3;Double bit-flip
i;lreg.cpp;49;0.642519474029541;0-3;Double bit-flip
i;lreg.cpp;159;1.6110877990722656;0-3;Double bit-flip
i;lreg.cpp;86;1.549088478088379;0-3;Double bit-flip
log2e;../sysdeps/ieee754/dbl-64/uexp.h;59;1.5241789817810059;0-3;Double bit-flip
x;lreg.cpp;32;1.3357994556427002;0-3;Double bit-flip
error;lreg.cpp;59;1.1417992115020752;0-3;Double bit-flip
pos;lreg.cpp;71;1.0325806140899658;0-3;Double bit-flip
x;lreg.cpp;32;2.194995403289795;0-3;Double bit-flip
predictions;lreg.cpp;161;1.67067551612854;0-3;Double bit-flip
pos;lreg.cpp;71;2.232832908630371;0-3;Double bit-flip
i;lreg.cpp;159;1.181105613708496;0-3;Double bit-flip
ln2a;../sysdeps/ieee754/dbl-64/upow.h;50;1.2391357421875;0-3;Double bit-flip
i;lreg.cpp;118;1.4700162410736084;0-3;Double bit-flip
pos;lreg.cpp;71;2.965076446533203;0-3;Double bit-flip
iterations;lreg.cpp;105;1.9919390678405762;0-3;Double bit-flip
y;lreg.cpp;33;1.0785868167877197;0-3;Double bit-flip
i;lreg.cpp;49;2.1781675815582275;0-3;Double bit-flip
alpha;lreg.cpp;83;1.8065135478973389;0-3;Double bit-flip
two52e;../sysdeps/ieee754/dbl-64/upow.h;55;2.3837203979492188;0-3;Double bit-flip
i;lreg.cpp;118;2.0602617263793945;0-3;Double bit-flip
alpha;lreg.cpp;105;2.1324462890625;0-3;Double bit-flip
i;lreg.cpp;118;1.34659743309021;0-3;Double bit-flip
alpha;lreg.cpp;83;1.3193557262420654;0-3;Double bit-flip
i;lreg.cpp;159;1.037996530532837;0-3;Double bit-flip
x;lreg.cpp;32;1.6357240676879883;0-3;Double bit-flip
i;lreg.cpp;49;2.1235663890838623;0-3;Double bit-flip
error;lreg.cpp;59;1.3647606372833252;0-3;Double bit-flip
x;lreg.cpp;32;1.4072797298431396;0-3;Double bit-flip
iterations;lreg.cpp;105;0.7200942039489746;0-3;Double bit-flip
i;lreg.cpp;86;1.1221439838409424;0-3;Double bit-flip
i;lreg.cpp;118;1.699023723602295;0-3;Double bit-flip
x;lreg.cpp;32;0.8566350936889648;0-3;Double bit-flip
predictions;lreg.cpp;161;1.5751972198486328;0-3;Double bit-flip
i;lreg.cpp;86;1.5783770084381104;0-3;Double bit-flip
i;lreg.cpp;118;1.9450767040252686;0-3;Double bit-flip
three33;../sysdeps/ieee754/dbl-64/uexp.h;64;1.6370248794555664;0-3;Double bit-flip
i;lreg.cpp;49;1.3167195320129395;0-3;Double bit-flip
iterations;lreg.cpp;105;1.8139712810516357;0-3;Double bit-flip
predictions;lreg.cpp;161;1.5470921993255615;0-3;Double bit-flip
pos;lreg.cpp;71;3.8632819652557373;0-3;Double bit-flip
ln2a;../sysdeps/ieee754/dbl-64/upow.h;50;1.9522452354431152;0-3;Double bit-flip
pos;lreg.cpp;71;1.0459911823272705;0-3;Double bit-flip
i;lreg.cpp;49;1.9364829063415527;0-3;Double bit-flip
i;lreg.cpp;118;1.573448896408081;0-3;Double bit-flip
i;lreg.cpp;73;2.399359703063965;0-3;Double bit-flip
ln2b;../sysdeps/ieee754/dbl-64/upow.h;51;1.5267889499664307;0-3;Double bit-flip
pos;lreg.cpp;71;1.5238094329833984;0-3;Double bit-flip
i;lreg.cpp;118;1.9486284255981445;0-3;Double bit-flip
pos;lreg.cpp;71;2.276944398880005;0-3;Double bit-flip
pos;lreg.cpp;71;1.9850893020629883;0-3;Double bit-flip
i;lreg.cpp;49;2.186147928237915;0-3;Double bit-flip
i;lreg.cpp;86;2.2099099159240723;0-3;Double bit-flip
pos;lreg.cpp;71;2.034724235534668;0-3;Double bit-flip
alpha;lreg.cpp;105;2.2464945316314697;0-3;Double bit-flip
x;lreg.cpp;32;1.1861212253570557;0-3;Double bit-flip
two52e;../sysdeps/ieee754/dbl-64/upow.h;55;2.3794431686401367;0-3;Double bit-flip
i;lreg.cpp;73;2.159229040145874;0-3;Double bit-flip
i;lreg.cpp;118;1.4510471820831299;0-3;Double bit-flip
i;lreg.cpp;118;0.7801482677459717;0-3;Double bit-flip
predictions;lreg.cpp;161;1.817786455154419;0-3;Double bit-flip
i;lreg.cpp;60;1.4125781059265137;0-3;Double bit-flip
predictions;lreg.cpp;161;1.9166154861450195;0-3;Double bit-flip
two52e;../sysdeps/ieee754/dbl-64/upow.h;55;2.4434292316436768;0-3;Double bit-flip
i;lreg.cpp;86;1.796083927154541;0-3;Double bit-flip
bigu;../sysdeps/ieee754/dbl-64/upow.h;52;1.8416571617126465;0-3;Double bit-flip
i;lreg.cpp;49;2.237062692642212;0-3;Double bit-flip
bigu;../sysdeps/ieee754/dbl-64/upow.h;52;1.759096622467041;0-3;Double bit-flip
y;lreg.cpp;33;2.9415524005889893;0-3;Double bit-flip
i;lreg.cpp;118;2.221104860305786;0-3;Double bit-flip
x;lreg.cpp;32;1.9267709255218506;0-3;Double bit-flip
pos;lreg.cpp;71;1.890749454498291;0-3;Double bit-flip
two52e;../sysdeps/ieee754/dbl-64/upow.h;55;1.0882847309112549;0-3;Double bit-flip
val;lreg.cpp;48;2.5867698192596436;0-3;Double bit-flip
alpha;lreg.cpp;105;2.7402260303497314;0-3;Double bit-flip
alpha;lreg.cpp;105;2.292733669281006;0-3;Double bit-flip
__first;/usr/include/c++/7/bits/stl_algobase.h;357;0.9978408813476562;0-3;Double bit-flip
y;lreg.cpp;33;0.965707540512085;0-3;Double bit-flip
val;lreg.cpp;48;1.0865287780761719;0-3;Double bit-flip
y;lreg.cpp;33;2.625656843185425;0-3;Double bit-flip
bigu;../sysdeps/ieee754/dbl-64/upow.h;52;1.6171164512634277;0-3;Double bit-flip
y;lreg.cpp;33;2.911379098892212;0-3;Double bit-flip
ln2a;../sysdeps/ieee754/dbl-64/upow.h;50;2.235750436782837;0-3;Double bit-flip
i;lreg.cpp;118;2.3335464000701904;0-3;Double bit-flip
i;lreg.cpp;118;1.2124888896942139;0-3;Double bit-flip
