[INFO -- 2018-11-23 16:21:32]
sending 5 signals using command: 'killall -2 lreg' after 2.28271366546s
[INFO -- 2018-11-23 16:21:32]
Starting GDB script
[INFO -- 2018-11-23 16:21:32]
initSignal:0.0
[INFO -- 2018-11-23 16:21:32]
endSignal:3.0
[INFO -- 2018-11-23 16:21:33]
sending 5 signals using command: 'killall -2 lreg' after 0.762912252917s
[INFO -- 2018-11-23 16:21:34]
sending 5 signals using command: 'killall -2 lreg' after 1.70240385621s
[INFO -- 2018-11-23 16:21:34]
Execution finished before waitTime
