[INFO -- 2018-11-22 15:37:31]
Starting GDB script
[INFO -- 2018-11-22 15:37:31]
initSignal:0.0
[INFO -- 2018-11-22 15:37:31]
endSignal:3.0
[INFO -- 2018-11-22 15:37:32]
sending 5 signals using command: 'killall -2 lreg' after 1.28496551136s
[INFO -- 2018-11-22 15:37:32]
sending 5 signals using command: 'killall -2 lreg' after 1.40411558817s
[INFO -- 2018-11-22 15:37:32]
sending 5 signals using command: 'killall -2 lreg' after 1.53928741601s
[INFO -- 2018-11-22 15:37:34]
Execution finished before waitTime
