[INFO -- 2018-11-29 15:10:16]
Starting GDB script
[INFO -- 2018-11-29 15:10:16]
initSignal:0.0
[INFO -- 2018-11-29 15:10:16]
endSignal:6.0
[INFO -- 2018-11-29 15:10:18]
sending 5 signals using command: 'killall -2 lreg' after 1.70059017942s
[INFO -- 2018-11-29 15:10:20]
sending 5 signals using command: 'killall -2 lreg' after 3.29791533985s
[INFO -- 2018-11-29 15:10:21]
sending 5 signals using command: 'killall -2 lreg' after 4.94775812352s
[INFO -- 2018-11-29 15:10:21]
Execution finished before waitTime
