[INFO -- 2018-11-25 21:47:14]
Starting GDB script
[INFO -- 2018-11-25 21:47:14]
initSignal:0.0
[INFO -- 2018-11-25 21:47:14]
endSignal:6.0
[INFO -- 2018-11-25 21:47:17]
sending 5 signals using command: 'killall -2 lreg' after 2.49946639798s
[INFO -- 2018-11-25 21:47:19]
sending 5 signals using command: 'killall -2 lreg' after 3.2349431457s
[INFO -- 2018-11-25 21:47:19]
sending 5 signals using command: 'killall -2 lreg' after 3.56165190949s
[INFO -- 2018-11-25 21:47:20]
Execution finished before waitTime
