[INFO -- 2018-11-25 11:50:23]
sending 5 signals using command: 'killall -2 lreg' after 5.76936972131s
[INFO -- 2018-11-25 11:50:23]
Starting GDB script
[INFO -- 2018-11-25 11:50:23]
initSignal:0.0
[INFO -- 2018-11-25 11:50:23]
endSignal:6.0
[INFO -- 2018-11-25 11:50:27]
sending 5 signals using command: 'killall -2 lreg' after 3.33433056507s
[INFO -- 2018-11-25 11:50:27]
Execution finished before waitTime
