[INFO -- 2018-11-27 17:17:16]
sending 5 signals using command: 'killall -2 lreg' after 2.60872353136s
[INFO -- 2018-11-27 17:17:16]
sending 5 signals using command: 'killall -2 lreg' after 2.92649979586s
[INFO -- 2018-11-27 17:17:16]
Starting GDB script
[INFO -- 2018-11-27 17:17:16]
initSignal:0.0
[INFO -- 2018-11-27 17:17:16]
endSignal:3.0
[INFO -- 2018-11-27 17:17:17]
sending 5 signals using command: 'killall -2 lreg' after 0.58697345059s
[INFO -- 2018-11-27 17:17:17]
sending 5 signals using command: 'killall -2 lreg' after 0.754474403969s
[INFO -- 2018-11-27 17:17:19]
sending 5 signals using command: 'killall -2 lreg' after 2.97524111838s
[INFO -- 2018-11-27 17:17:19]
Execution finished before waitTime
