[INFO -- 2018-11-23 16:22:10]
Starting GDB script
[INFO -- 2018-11-23 16:22:10]
initSignal:0.0
[INFO -- 2018-11-23 16:22:10]
endSignal:3.0
[INFO -- 2018-11-23 16:22:11]
sending 5 signals using command: 'killall -2 lreg' after 1.0423912232s
[INFO -- 2018-11-23 16:22:12]
sending 5 signals using command: 'killall -2 lreg' after 1.9759043198s
[INFO -- 2018-11-23 16:22:13]
Execution finished before waitTime
