[INFO -- 2018-11-24 18:34:31]
Starting flip_value script
version: 1.1
[INFO -- 2018-11-24 18:34:31]
Initialization strings:
[INFO -- 2018-11-24 18:34:31]
(1) file /tmp/lreg/lreg
[INFO -- 2018-11-24 18:34:31]
(2) set args /tmp/lreg/randInput /tmp/lreg/output /tmp/lreg/detected.log
[INFO -- 2018-11-24 18:34:31]
initSignal:0
[INFO -- 2018-11-24 18:34:31]
endSignal:6
[INFO -- 2018-11-24 18:34:31]
faultModel:2
[EXCEPTION -- 2018-11-24 18:34:32]
gdbException: Attempt to dereference a generic pointer.
[EXCEPTION -- 2018-11-24 18:34:34]
gdbException: Cannot access memory at address 0x3cb87e6ba9492f86
[EXCEPTION -- 2018-11-24 18:34:34]
gdbException: Cannot access memory at address 0x3cb87e6ba9492f86
[INFO -- 2018-11-24 18:34:34]
Backtrace BEGIN:
#0  0x000055555555543b in partialDerivate (pos=1) at lreg.cpp:74
#1  0x0000555555555503 in adjust (alpha=2.2222199999999999e-05) at lreg.cpp:87
#2  0x00005555555556ac in train (iterations=30000, alpha=2.2222199999999999e-05, N=4, stopsWhenStable=true) at lreg.cpp:120
#3  0x0000555555555a1c in execute (input=0x7fffffffe1f2 "/tmp/lreg/randInput") at lreg.cpp:157
#4  0x0000555555555cb0 in main (argc=4, argv=0x7fffffffde48) at lreg.cpp:196

69		to the adjustment variable whose position in T is passed in pos
70	*/
71	double partialDerivate(int pos){
72		double pD = 0;
73		for(int i = 0; i<x.size(); i++){
74			pD += ((predict(x[i]) - y[i])*pow(x[i], pos));	
75		}
76		pD *= (2.0/x.size());
77		return pD;
78	}

Backtrace END
Fliping value of field: std::_Vector_base<double, std::allocator<double> >
Fliping value of field: _M_impl
Fliping value of field: _M_end_of_storage
Fliping a bit of the value pointed by a pointer
Memory content before bitflip:0x000x000x000x000x000x000x000x00
Fault Model: Random bit-flip
base address to flip value: 0x5555557723a0
address max offset: 8
Memory content after  bitflip:0x320x380xb10x8e0x1e0xc00x750xd9
frame name: partialDerivate
symbol name: T
symbol filename: lreg.cpp
symbol line: 34
value: std::vector of length 4, capacity 4 = {0.17728561070473986, -0.92222146728836729, -1.9545721119277693, -4.0449346894108835}
value address: 0x55555575b180 <T>
Type: The type is a structure.
Type sizeof: 24
Field name: std::_Vector_base<double, std::allocator<double> >
Field Type: The type is a structure.
Field Type sizeof: 24

[INFO -- 2018-11-24 18:34:34]
Fault Injection Successful after 3.8111460208892822s
[INFO -- 2018-11-24 18:34:34]
event type: exit
[EXCEPTION -- 2018-11-24 18:34:34]
exit code: no exit code available
