numberIterationErrors;maxRelativeError;minRelativeError;averageRelativeError;numberErrorsLessThan0.1;numberErrorsLessThan0.2;numberErrorsLessThan0.3;numberErrorsLessThan0.4;numberErrorsLessThan0.5;numberErrorsLessThan1;numberErrorsLessThan2;numberErrorsLessThan3;numberErrorsLessThan4;numberErrorsLessThan5;numberErrorsLessThan8;numberErrorsLessThan10;numberErrorsLessThan12;numberErrorsLessThan15
8;637.9498814066205;4.234276385211145;204.50675836581038;0;0;0;0;0;0;0;0;0;1;1;1;1;1
6;98.75850638305283;96.34332722323298;98.0274883655264;0;0;0;0;0;0;0;0;0;0;0;0;0;0
8;844.5361108246537;7.164971031516913;245.07819390609546;0;0;0;0;0;0;0;0;0;0;1;1;1;1
2;0.00042854938889772275;0.00030000780020921175;0.0003642785945534672;2;2;2;2;2;2;2;2;2;2;2;2;2;2
3;0.0007244933074965314;0.00011025710853378211;0.0005074160892009367;3;3;3;3;3;3;3;3;3;3;3;3;3;3
8;793.8743941425183;4.3696617357198395;234.86912652881128;0;0;0;0;0;0;0;0;0;1;1;1;1;1
3;0.0010312467773685146;0.00011025710853378211;0.000621999064466276;3;3;3;3;3;3;3;3;3;3;3;3;3;3
8;253898.05950158715;215628.57584820045;240423.97547752064;0;0;0;0;0;0;0;0;0;0;0;0;0;0
1;0;0;0.0;1;1;1;1;1;1;1;1;1;1;1;1;1;1
8;0.008959324666012665;0.0004201040807799014;0.005441496681194472;8;8;8;8;8;8;8;8;8;8;8;8;8;8
8;1008.6659104190298;16.219364087044827;278.15219828878406;0;0;0;0;0;0;0;0;0;0;0;0;0;0
1;0.0005273093512963627;0.0005273093512963627;0.0005273093512963627;1;1;1;1;1;1;1;1;1;1;1;1;1;1
4;8.976452639578536e+75;5.585785230415991e+75;6.545724765626075e+75;0;0;0;0;0;0;0;0;0;0;0;0;0;0
8;806.8990409404971;5.088398670038024;237.49357877957124;0;0;0;0;0;0;0;0;0;0;1;1;1;1
8;694.4759547626413;1.1149381806598044;215.11775483709715;0;0;0;0;0;0;1;1;1;1;1;1;1;1
8;0.014093705957167788;0.000181123326868985;0.005603687716467491;8;8;8;8;8;8;8;8;8;8;8;8;8;8
8;1019.9511876525387;16.841539411073736;280.4261312995773;0;0;0;0;0;0;0;0;0;0;0;0;0;0
8;774.9922656491698;3.327891373165838;231.06405818897738;0;0;0;0;0;0;0;0;1;1;1;1;1;1
8;0.04124987109413485;0.00024180171293740907;0.009501229248251192;8;8;8;8;8;8;8;8;8;8;8;8;8;8
8;35.21574970198867;0.03110033874547791;21.49164559622068;1;1;1;1;1;1;2;2;2;2;2;2;2;3
8;4.8168760084791345e+86;4.090474717266508e+86;4.5611177809906525e+86;0;0;0;0;0;0;0;0;0;0;0;0;0;0
8;302.96999071877894;2.9401160566324798;142.1247907675472;0;0;0;0;0;0;0;1;1;1;1;1;1;1
8;0.055687325977098655;0.0009452341817624199;0.022560286064004672;8;8;8;8;8;8;8;8;8;8;8;8;8;8
8;0.005977069786820645;0.0002100520403899507;0.0029747571469838675;8;8;8;8;8;8;8;8;8;8;8;8;8;8
2;0.00042854938889772275;0.00030000780020921175;0.0003642785945534672;2;2;2;2;2;2;2;2;2;2;2;2;2;2
6;99.28058147027919;97.88103771391052;98.85697243984252;0;0;0;0;0;0;0;0;0;0;0;0;0;0
7;0;0;0.0;7;7;7;7;7;7;7;7;7;7;7;7;7;7
8;30818099521183.984;51600151349.52734;9592967200243.738;0;0;0;0;0;0;0;0;0;0;0;0;0;0
1;0;0;0.0;1;1;1;1;1;1;1;1;1;1;1;1;1;1
8;545.5123577738818;9.336114042248198;187.15459250369327;0;0;0;0;0;0;0;0;0;0;0;1;1;1
8;527.6167886975352;10.324128456806104;183.79539651333954;0;0;0;0;0;0;0;0;0;0;0;0;1;1
8;6.641194871266027e+64;1.066539235095495e+64;2.700928893261784e+64;0;0;0;0;0;0;0;0;0;0;0;0;0;0
2;0.0003622466537585614;0.0003437489257960182;0.00035299778977728976;2;2;2;2;2;2;2;2;2;2;2;2;2;2
2;0.0006874978515529566;0.000181123326868985;0.00043431058921097085;2;2;2;2;2;2;2;2;2;2;2;2;2;2
3;0.0003622466537585614;0.00011025710853378211;0.0002720842293627872;3;3;3;3;3;3;3;3;3;3;3;3;3;3
8;1119.5386889415972;22.33360543134171;300.4938139445041;0;0;0;0;0;0;0;0;0;0;0;0;0;0
8;1006.3456051699837;16.090947100165245;277.6844249028574;0;0;0;0;0;0;0;0;0;0;0;0;0;0
8;809.1230964903234;3.949568956935513;239.62241089242107;0;0;0;0;0;0;0;0;1;1;1;1;1;1
8;0.5836856759822553;0.00024180171293740907;0.11412057532228333;6;6;6;7;7;8;8;8;8;8;8;8;8;8
8;6.1143101211756894e+44;5.19225877419133e+44;5.789648243932816e+44;0;0;0;0;0;0;0;0;0;0;0;0;0;0
8;1061.0223093052834;19.10675533079818;288.70233696512815;0;0;0;0;0;0;0;0;0;0;0;0;0;0
6;0.013749957031391312;0.00010502602020261701;0.00421091151463431;6;6;6;6;6;6;6;6;6;6;6;6;6;6
6;3.8321272724785576e+89;1.3010629713270596e+89;2.0671566998758514e+89;0;0;0;0;0;0;0;0;0;0;0;0;0;0
8;54025987418889.31;1171785810034.4111;13339333045218.459;0;0;0;0;0;0;0;0;0;0;0;0;0;0
1;0.000181123326868985;0.000181123326868985;0.000181123326868985;1;1;1;1;1;1;1;1;1;1;1;1;1;1
8;340.37674882265986;7.243451003394827;148.6474061875868;0;0;0;0;0;0;0;0;0;0;1;1;1;1
6;12453.101103921863;823.6313750208561;3762.262979067958;0;0;0;0;0;0;0;0;0;0;0;0;0;0
8;6.550926403354989e+80;2.0015123746908293e+78;1.3127545989454895e+80;0;0;0;0;0;0;0;0;0;0;0;0;0;0
6;6.313711475589238e+20;2.1435969184861802e+20;3.405792670713122e+20;0;0;0;0;0;0;0;0;0;0;0;0;0;0
1;0.000181123326868985;0.000181123326868985;0.000181123326868985;1;1;1;1;1;1;1;1;1;1;1;1;1;1
1;0.0005273093512963627;0.0005273093512963627;0.0005273093512963627;1;1;1;1;1;1;1;1;1;1;1;1;1;1
6;6.883352940371805e+145;2.3369984847869122e+145;3.713073219276627e+145;0;0;0;0;0;0;0;0;0;0;0;0;0;0
8;1.9188787293953755;1.6754322642741626;1.8368925003449874;0;0;0;0;0;0;8;8;8;8;8;8;8;8
8;1089.2200336873946;20.66169590061124;294.3845163838658;0;0;0;0;0;0;0;0;0;0;0;0;0;0
8;1.7883200562939467e+217;4.064529075350811e+144;2.4601065869938716e+216;0;0;0;0;0;0;0;0;0;0;0;0;0;0
8;1.6921453370458214e+120;3.7482736347930204e+118;4.183953254503797e+119;0;0;0;0;0;0;0;0;0;0;0;0;0;0
8;1004.8159224502424;16.006828996356546;277.3761550481567;0;0;0;0;0;0;0;0;0;0;0;0;0;0
8;456.03107490289085;2.6322859479032865;108.34992396079541;0;0;0;0;0;0;0;1;1;1;4;4;4;4
6;9.98295213602725e+80;9.95621323459723e+80;9.965484206899932e+80;0;0;0;0;0;0;0;0;0;0;0;0;0;0
8;2.5339486439104878e+26;4.06939069154383e+25;1.0305389742034907e+26;0;0;0;0;0;0;0;0;0;0;0;0;0;0
2;0.0003437489257764783;0.000181123326868985;0.0002624361263227317;2;2;2;2;2;2;2;2;2;2;2;2;2;2
1;0.000181123326868985;0.000181123326868985;0.000181123326868985;1;1;1;1;1;1;1;1;1;1;1;1;1;1
4;0.0004977402592158839;0.0002205142170876199;0.0003560625139645209;4;4;4;4;4;4;4;4;4;4;4;4;4;4
2;0.0009091074383149415;0.00014284979630347014;0.0005259786173092058;2;2;2;2;2;2;2;2;2;2;2;2;2;2
1;0.0005273093512963627;0.0005273093512963627;0.0005273093512963627;1;1;1;1;1;1;1;1;1;1;1;1;1;1
6;0.004644331303369303;0.0037077547690961997;0.004246169214451313;6;6;6;6;6;6;6;6;6;6;6;6;6;6
8;326441.8239318002;167.51007104134322;63788.134355185255;0;0;0;0;0;0;0;0;0;0;0;0;0;0
7;0.0030937403320469244;0.0001460109800341969;0.001420638228790485;7;7;7;7;7;7;7;7;7;7;7;7;7;7
8;2.209618094943452;0.054823582542571865;0.8321415621231373;2;3;3;3;3;5;7;8;8;8;8;8;8;8
8;116.84990309902012;3.4262936572830363;42.60569178470304;0;0;0;0;0;0;0;0;1;1;2;2;2;3
8;896.8821972431338;10.0528600155295;255.62641964767772;0;0;0;0;0;0;0;0;0;0;0;0;1;1
8;597.0196968134474;6.4935194218249075;196.82333391320404;0;0;0;0;0;0;0;0;0;0;1;1;1;1
1;0.00010000260008157992;0.00010000260008157992;0.00010000260008157992;1;1;1;1;1;1;1;1;1;1;1;1;1;1
8;436.5370733216458;15.413833518381534;167.58747803073865;0;0;0;0;0;0;0;0;0;0;0;0;0;0
8;281117579439053.75;238691004090512.22;266179008423595.88;0;0;0;0;0;0;0;0;0;0;0;0;0;0
8;0.07081227871163495;0.0029016205550905683;0.022814566837907366;8;8;8;8;8;8;8;8;8;8;8;8;8;8
1;0.000181123326868985;0.000181123326868985;0.000181123326868985;1;1;1;1;1;1;1;1;1;1;1;1;1;1
4;1407513327785.9944;757818581924.3358;1011537838635.9878;0;0;0;0;0;0;0;0;0;0;0;0;0;0
1;0;0;0.0;1;1;1;1;1;1;1;1;1;1;1;1;1;1
8;2181004207928523.5;1852105462170330.5;2065202625249265.2;0;0;0;0;0;0;0;0;0;0;0;0;0;0
3;0.0010312467773685146;0.00011025710853378211;0.000621999064466276;3;3;3;3;3;3;3;3;3;3;3;3;3;3
8;953.6798322505243;10.927887391243754;270.4901458770058;0;0;0;0;0;0;0;0;0;0;0;0;1;1
6;0.14688179691666614;0.00758081145005072;0.051618362841303146;5;6;6;6;6;6;6;6;6;6;6;6;6;6
8;2.067077444223801;1.0372932930032015;1.5961710837906429;0;0;0;0;0;0;6;8;8;8;8;8;8;8
4;77042.31839505397;39861.61171710333;54085.74668825488;0;0;0;0;0;0;0;0;0;0;0;0;0;0
4;20.64336691255878;6.447791504484675;11.13899169848937;0;0;0;0;0;0;0;0;0;0;1;3;3;3
8;7.148602660616685e+34;1.148028924165962e+34;2.907287152642226e+34;0;0;0;0;0;0;0;0;0;0;0;0;0;0
