[INFO -- 2018-11-27 19:30:08]
Starting GDB script
[INFO -- 2018-11-27 19:30:08]
initSignal:0.0
[INFO -- 2018-11-27 19:30:08]
endSignal:3.0
[INFO -- 2018-11-27 19:30:09]
sending 5 signals using command: 'killall -2 lreg' after 1.089377533s
[INFO -- 2018-11-27 19:30:09]
sending 5 signals using command: 'killall -2 lreg' after 1.51700271326s
[INFO -- 2018-11-27 19:30:09]
sending 5 signals using command: 'killall -2 lreg' after 1.57745712089s
[INFO -- 2018-11-27 19:30:14]
Execution finished before waitTime
