[INFO -- 2018-11-25 15:51:09]
Starting flip_value script
version: 1.1
[INFO -- 2018-11-25 15:51:09]
Initialization strings:
[INFO -- 2018-11-25 15:51:09]
(1) file /tmp/lreg/lreg
[INFO -- 2018-11-25 15:51:09]
(2) set args /tmp/lreg/randInput /tmp/lreg/output /tmp/lreg/detected.log
[INFO -- 2018-11-25 15:51:09]
initSignal:0
[INFO -- 2018-11-25 15:51:09]
endSignal:6
[INFO -- 2018-11-25 15:51:09]
faultModel:2
[INFO -- 2018-11-25 15:51:10]
Backtrace BEGIN:
#0  0x00005555555561ca in std::vector<double, std::allocator<double> >::size (this=0x55555575b180 <T>) at /usr/include/c++/7/bits/stl_vector.h:671
#1  0x00005555555551f9 in predict (v=13) at lreg.cpp:49
#2  0x00005555555553fc in partialDerivate (pos=0) at lreg.cpp:74
#3  0x0000555555555503 in adjust (alpha=5.0000000000000002e-05) at lreg.cpp:87
#4  0x00005555555556ac in train (iterations=20000, alpha=5.0000000000000002e-05, N=3, stopsWhenStable=true) at lreg.cpp:120
#5  0x0000555555555a1c in execute (input=0x7fffffffe1f1 "/tmp/lreg/randInput") at lreg.cpp:157
#6  0x0000555555555c78 in main (argc=4, argv=0x7fffffffde48) at lreg.cpp:193

666	
667	      // [23.2.4.2] capacity
668	      /**  Returns the number of elements in the %vector.  */
669	      size_type
670	      size() const _GLIBCXX_NOEXCEPT
671	      { return size_type(this->_M_impl._M_finish - this->_M_impl._M_start); }
672	
673	      /**  Returns the size() of the largest possible %vector.  */
674	      size_type
675	      max_size() const _GLIBCXX_NOEXCEPT

Backtrace END
Fliping value of field: std::_Vector_base<double, std::allocator<double> >
Fliping value of field: _M_impl
Fliping value of field: _M_end_of_storage
Fliping a bit of the pointer
Memory content before bitflip:0xc00x250x770x550x550x550x000x00
Fault Model: Random bit-flip
base address to flip value: 0x55555575b170 
address max offset: 8
Memory content after  bitflip:0xb00x4a0x2f0xa40x500x630x0b0x26
frame name: partialDerivate
symbol name: y
symbol filename: lreg.cpp
symbol line: 33
value: std::vector of length 12, capacity 342662521399215278 = {-44, -23, -143, -8, 1, 1, -1319, -23, -1079, -503, -104, -1583}
value address: 0x55555575b160 <y>
Type: The type is a structure.
Type sizeof: 24
Field name: std::_Vector_base<double, std::allocator<double> >
Field Type: The type is a structure.
Field Type sizeof: 24

[INFO -- 2018-11-25 15:51:10]
Fault Injection Successful after 1.790708065032959s
[INFO -- 2018-11-25 15:51:13]
event type: exit
[INFO -- 2018-11-25 15:51:13]
exit code: 0
