[INFO -- 2018-11-23 22:08:38]
sending 5 signals using command: 'killall -2 lreg' after 2.41520282374s
[INFO -- 2018-11-23 22:08:38]
Starting GDB script
[INFO -- 2018-11-23 22:08:38]
initSignal:0.0
[INFO -- 2018-11-23 22:08:38]
endSignal:3.0
[INFO -- 2018-11-23 22:08:38]
sending 5 signals using command: 'killall -2 lreg' after 0.452495329946s
[INFO -- 2018-11-23 22:08:39]
sending 5 signals using command: 'killall -2 lreg' after 1.42254664657s
[INFO -- 2018-11-23 22:08:40]
sending 5 signals using command: 'killall -2 lreg' after 1.86612572395s
[INFO -- 2018-11-23 22:08:40]
Execution finished before waitTime
