[INFO -- 2018-11-26 21:04:02]
sending 5 signals using command: 'killall -2 lreg' after 2.4276236017s
[INFO -- 2018-11-26 21:04:02]
Starting GDB script
[INFO -- 2018-11-26 21:04:02]
initSignal:0.0
[INFO -- 2018-11-26 21:04:02]
endSignal:3.0
[INFO -- 2018-11-26 21:04:05]
sending 5 signals using command: 'killall -2 lreg' after 2.70498778705s
[INFO -- 2018-11-26 21:04:05]
Execution finished before waitTime
