[INFO -- 2018-11-24 09:37:08]
Starting GDB script
[INFO -- 2018-11-24 09:37:08]
initSignal:0.0
[INFO -- 2018-11-24 09:37:08]
endSignal:2.0
[INFO -- 2018-11-24 09:37:09]
sending 5 signals using command: 'killall -2 lreg' after 0.174183359994s
[INFO -- 2018-11-24 09:37:09]
sending 5 signals using command: 'killall -2 lreg' after 0.728248700589s
[INFO -- 2018-11-24 09:37:10]
sending 5 signals using command: 'killall -2 lreg' after 1.19941074723s
[INFO -- 2018-11-24 09:37:13]
Execution finished before waitTime
