[INFO -- 2018-11-26 16:06:48]
Starting flip_value script
version: 1.1
[INFO -- 2018-11-26 16:06:48]
Initialization strings:
[INFO -- 2018-11-26 16:06:48]
(1) file /tmp/lreg/lreg
[INFO -- 2018-11-26 16:06:48]
(2) set args /tmp/lreg/randInput /tmp/lreg/output
[INFO -- 2018-11-26 16:06:48]
initSignal:0
[INFO -- 2018-11-26 16:06:48]
endSignal:3
[INFO -- 2018-11-26 16:06:48]
faultModel:0
[INFO -- 2018-11-26 16:06:50]
Backtrace BEGIN:
#0  0x0000555555555106 in verifyUintDup (a=1, b=1) at lreg.cpp:61
#1  0x000055555555579a in predict (v=-17) at lreg.cpp:116
#2  0x0000555555555a53 in partialDerivate (pos1=1, pos2=1) at lreg.cpp:142
#3  0x0000555555555bbe in adjust (alpha1=2.2222199999999999e-05, alpha2=2.2222199999999999e-05) at lreg.cpp:156
#4  0x0000555555555ee0 in train (iter1=30000, iter2=30000, N=4, alpha1=2.2222199999999999e-05, alpha2=2.2222199999999999e-05, stopsWhenStable=true) at lreg.cpp:193
#5  0x0000555555556467 in main (argc=3, argv=0x7fffffffde58) at lreg.cpp:253

56	*/
57	
58	int detected = 0;
59	
60	
61	UINT verifyUintDup(UINT a, UINT b){
62		if (a != b && detected != 1){
63			//gerar entrada no log
64			ofstream fp ("/tmp/lreg/detected.log", std::ofstream::app);
65			fp << "verifyUint: a = "<<a<<"; b = "<<b<<endl;

Backtrace END
Memory content before bitflip:0x000x000x000x000x000x000x310xc0
Fault Model: Single bit-flip
base address to flip value: 0x7fffffffd6c8
address max offset: 8
Memory content after  bitflip:0x000x000x000x000x200x000x310xc0
frame name: predict
symbol name: v
symbol filename: lreg.cpp
symbol line: 112
value: -17.00048828125
value address: 0x7fffffffd6c8
Type: A floating point type.
Type sizeof: 8

[INFO -- 2018-11-26 16:06:50]
Fault Injection Successful after 2.3279197216033936s
[INFO -- 2018-11-26 16:06:50]
event type: exit
[INFO -- 2018-11-26 16:06:50]
exit code: 0
