[INFO -- 2018-11-25 22:41:16]
sending 5 signals using command: 'killall -2 lreg' after 5.53103785005s
[INFO -- 2018-11-25 22:41:16]
Starting GDB script
[INFO -- 2018-11-25 22:41:16]
initSignal:0.0
[INFO -- 2018-11-25 22:41:16]
endSignal:6.0
[INFO -- 2018-11-25 22:41:17]
sending 5 signals using command: 'killall -2 lreg' after 0.45086735444s
[INFO -- 2018-11-25 22:41:20]
sending 5 signals using command: 'killall -2 lreg' after 3.58641057049s
[INFO -- 2018-11-25 22:41:20]
Execution finished before waitTime
