[INFO -- 2018-11-25 14:50:42]
sending 5 signals using command: 'killall -2 lreg' after 3.25801641348s
[INFO -- 2018-11-25 14:50:44]
sending 5 signals using command: 'killall -2 lreg' after 5.40709701553s
[INFO -- 2018-11-25 14:50:44]
Starting GDB script
[INFO -- 2018-11-25 14:50:44]
initSignal:0.0
[INFO -- 2018-11-25 14:50:44]
endSignal:6.0
[INFO -- 2018-11-25 14:50:49]
sending 5 signals using command: 'killall -2 lreg' after 4.55647864677s
[INFO -- 2018-11-25 14:50:49]
Execution finished before waitTime
