[INFO -- 2018-11-22 15:36:14]
Starting GDB script
[INFO -- 2018-11-22 15:36:14]
initSignal:0.0
[INFO -- 2018-11-22 15:36:14]
endSignal:3.0
[INFO -- 2018-11-22 15:36:16]
sending 5 signals using command: 'killall -2 lreg' after 2.02003895825s
[INFO -- 2018-11-22 15:36:16]
sending 5 signals using command: 'killall -2 lreg' after 2.53919626387s
[INFO -- 2018-11-22 15:36:16]
sending 5 signals using command: 'killall -2 lreg' after 2.5917485654s
[INFO -- 2018-11-22 15:36:21]
Execution finished before waitTime
