[INFO -- 2018-11-22 16:40:33]
Starting flip_value script
version: 1.1
[INFO -- 2018-11-22 16:40:33]
Initialization strings:
[INFO -- 2018-11-22 16:40:33]
(1) file /tmp/lreg/lreg
[INFO -- 2018-11-22 16:40:33]
(2) set args /tmp/lreg/randInput /tmp/lreg/output
[INFO -- 2018-11-22 16:40:33]
initSignal:0
[INFO -- 2018-11-22 16:40:33]
endSignal:3
[INFO -- 2018-11-22 16:40:33]
faultModel:0
[INFO -- 2018-11-22 16:40:34]
Backtrace BEGIN:
#0  dl_main (phdr=<optimized out>, phnum=<optimized out>, user_entry=<optimized out>, auxv=<optimized out>) at rtld.c:2289
#1  0x00007ffff7defdd0 in _dl_sysdep_start (start_argptr=start_argptr@entry=0x7fffffffde50, dl_main=dl_main@entry=0x7ffff7dd7660 <dl_main>) at ../elf/dl-sysdep.c:253
#2  0x00007ffff7dd7128 in _dl_start_final (arg=0x7fffffffde50) at rtld.c:414
#3  _dl_start (arg=0x7fffffffde50) at rtld.c:521
#4  0x00007ffff7dd6098 in _start () from /lib64/ld-linux-x86-64.so.2
#5  0x0000000000000003 in ?? ()
#6  0x00007fffffffe1fd in ?? ()
#7  0x00007fffffffe20c in ?? ()
#8  0x00007fffffffe220 in ?? ()
#9  0x0000000000000000 in ?? ()

2284	rtld.c: No such file or directory.

Backtrace END
Fliping a bit of the value pointed by a pointer
Fliping a bit of the value pointed by a pointer
Memory content before bitflip:0x2f
Fault Model: Single bit-flip
base address to flip value: 0x7fffffffe1fd 
address max offset: 1
Memory content after  bitflip:0x2e
frame name: _dl_start_final
symbol name: __GI__dl_argv
symbol filename: rtld.c
symbol line: 83
value: 0x7fffffffde58
value address: 0x7ffff7ffc740 <_dl_argv>
Type: The type is a pointer.
Type sizeof: 8

[INFO -- 2018-11-22 16:40:34]
Fault Injection Successful after 1.663607120513916s
[INFO -- 2018-11-22 16:40:37]
event type: exit
[INFO -- 2018-11-22 16:40:37]
exit code: 0
