[INFO -- 2018-11-22 17:22:30]
Starting GDB script
[INFO -- 2018-11-22 17:22:30]
initSignal:0.0
[INFO -- 2018-11-22 17:22:30]
endSignal:3.0
[INFO -- 2018-11-22 17:22:30]
sending 5 signals using command: 'killall -2 lreg' after 0.110945599409s
[INFO -- 2018-11-22 17:22:31]
sending 5 signals using command: 'killall -2 lreg' after 0.906632873059s
[INFO -- 2018-11-22 17:22:32]
sending 5 signals using command: 'killall -2 lreg' after 2.67720356959s
[INFO -- 2018-11-22 17:22:36]
Execution finished before waitTime
