[INFO -- 2018-11-26 16:55:29]
Starting flip_value script
version: 1.1
[INFO -- 2018-11-26 16:55:29]
Initialization strings:
[INFO -- 2018-11-26 16:55:29]
(1) file /tmp/lreg/lreg
[INFO -- 2018-11-26 16:55:29]
(2) set args /tmp/lreg/randInput /tmp/lreg/output
[INFO -- 2018-11-26 16:55:29]
initSignal:0
[INFO -- 2018-11-26 16:55:29]
endSignal:3
[INFO -- 2018-11-26 16:55:29]
faultModel:1
[INFO -- 2018-11-26 16:55:30]
Backtrace BEGIN:
#0  0x00007ffff76b9990 in *ABS*+0x2d7c0@plt () from /lib/x86_64-linux-gnu/libm.so.6
#1  0x00007ffff76bcb14 in __pow (x=6, y=1) at w_pow_compat.c:30
#2  0x0000555555556826 in std::pow<double, unsigned int> (__x=6, __y=1) at /usr/include/c++/7/cmath:418
#3  0x0000555555555814 in predict (v=6) at lreg.cpp:116
#4  0x0000555555555a53 in partialDerivate (pos1=1, pos2=1) at lreg.cpp:142
#5  0x0000555555555bbe in adjust (alpha1=0.00020000000000000001, alpha2=0.00020000000000000001) at lreg.cpp:156
#6  0x0000555555555ee0 in train (iter1=10000, iter2=10000, N=2, alpha1=0.00020000000000000001, alpha2=0.00020000000000000001, stopsWhenStable=true) at lreg.cpp:193
#7  0x0000555555556467 in main (argc=3, argv=0x7fffffffde58) at lreg.cpp:253

203		//T1 = bestT;
204	}
205	
206	/*
207	It must receive an input file formated as follows:
208		1° Line : one integer T -> number of test cases
209		2° to 5° repeat to all test case	
210		2° Line : method parameters -> alpha, iterations, N, size of 
211			      training set, predictions
212		3° Line : inputs x of the training set

Backtrace END
Memory content before bitflip:0x2d0x430x1c0xeb0xe20x360x2a0x3f
Fault Model: Double bit-flip
base address to flip value: 0x7fffffffd768
address max offset: 8
Memory content after  bitflip:0x210x430x1c0xeb0xe20x360x2a0x3f
frame name: adjust
symbol name: alpha1
symbol filename: lreg.cpp
symbol line: 151
value: 0.00019999999999999968
value address: 0x7fffffffd768
Type: A floating point type.
Type sizeof: 8

[INFO -- 2018-11-26 16:55:30]
Fault Injection Successful after 1.3328239917755127s
[INFO -- 2018-11-26 16:55:32]
event type: exit
[INFO -- 2018-11-26 16:55:32]
exit code: 0
