[INFO -- 2018-11-25 14:37:39]
sending 5 signals using command: 'killall -2 lreg' after 5.23998954856s
[INFO -- 2018-11-25 14:37:40]
Starting GDB script
[INFO -- 2018-11-25 14:37:40]
initSignal:0.0
[INFO -- 2018-11-25 14:37:40]
endSignal:6.0
[INFO -- 2018-11-25 14:37:40]
sending 5 signals using command: 'killall -2 lreg' after 0.52952518305s
[INFO -- 2018-11-25 14:37:43]
sending 5 signals using command: 'killall -2 lreg' after 1.74272834372s
[INFO -- 2018-11-25 14:37:44]
Execution finished before waitTime
