[INFO -- 2018-11-24 17:50:33]
Starting GDB script
[INFO -- 2018-11-24 17:50:33]
initSignal:0.0
[INFO -- 2018-11-24 17:50:33]
endSignal:6.0
[INFO -- 2018-11-24 17:50:35]
sending 5 signals using command: 'killall -2 lreg' after 1.76162321745s
[INFO -- 2018-11-24 17:50:37]
Execution finished before waitTime
