[INFO -- 2018-11-26 16:15:54]
sending 5 signals using command: 'killall -2 lreg' after 2.81058490874s
[INFO -- 2018-11-26 16:15:54]
Starting GDB script
[INFO -- 2018-11-26 16:15:54]
initSignal:0.0
[INFO -- 2018-11-26 16:15:54]
endSignal:3.0
[INFO -- 2018-11-26 16:15:54]
sending 5 signals using command: 'killall -2 lreg' after 0.112111474439s
[INFO -- 2018-11-26 16:15:57]
sending 5 signals using command: 'killall -2 lreg' after 2.97787622544s
[INFO -- 2018-11-26 16:15:58]
sending 5 signals using command: 'killall -2 lreg' after 1.22893862993s
[INFO -- 2018-11-26 16:15:58]
Execution finished before waitTime
