[INFO -- 2018-11-23 21:51:37]
sending 5 signals using command: 'killall -2 lreg' after 2.82664839936s
[INFO -- 2018-11-23 21:51:37]
Starting GDB script
[INFO -- 2018-11-23 21:51:37]
initSignal:0.0
[INFO -- 2018-11-23 21:51:37]
endSignal:3.0
[INFO -- 2018-11-23 21:51:37]
sending 5 signals using command: 'killall -2 lreg' after 0.226713991806s
[INFO -- 2018-11-23 21:51:39]
sending 5 signals using command: 'killall -2 lreg' after 1.93063938877s
[INFO -- 2018-11-23 21:51:39]
sending 5 signals using command: 'killall -2 lreg' after 2.71158554513s
[INFO -- 2018-11-23 21:51:40]
Execution finished before waitTime
