[INFO -- 2018-11-25 10:29:27]
Starting flip_value script
version: 1.1
[INFO -- 2018-11-25 10:29:27]
Initialization strings:
[INFO -- 2018-11-25 10:29:27]
(1) file /tmp/lreg/lreg
[INFO -- 2018-11-25 10:29:27]
(2) set args /tmp/lreg/randInput /tmp/lreg/output /tmp/lreg/detected.log
[INFO -- 2018-11-25 10:29:27]
initSignal:0
[INFO -- 2018-11-25 10:29:27]
endSignal:6
[INFO -- 2018-11-25 10:29:27]
faultModel:2
[INFO -- 2018-11-25 10:29:29]
Backtrace BEGIN:
#0  0x00007ffff76d59c0 in __exp1 (x=<optimized out>, xx=<optimized out>, error=<optimized out>) at ../sysdeps/ieee754/dbl-64/e_exp.c:361
#1  0x00007ffff76da8dc in __ieee754_pow_sse2 (x=1, y=3) at ../sysdeps/ieee754/dbl-64/e_pow.c:115
#2  0x00007ffff76db6be in __ieee754_pow_sse2 (x=<optimized out>, y=<optimized out>) at ../sysdeps/ieee754/dbl-64/e_pow.c:184
#3  0x00007ffff76bcb14 in __pow (x=-1, y=3) at w_pow_compat.c:30
#4  0x000055555555621b in std::pow<double, int> (__x=-1, __y=3) at /usr/include/c++/7/cmath:418
#5  0x0000555555555237 in predict (v=-1) at lreg.cpp:50
#6  0x00005555555553fc in partialDerivate (pos=3) at lreg.cpp:74
#7  0x0000555555555503 in adjust (alpha=2.2222199999999999e-05) at lreg.cpp:87
#8  0x00005555555556ac in train (iterations=30000, alpha=2.2222199999999999e-05, N=4, stopsWhenStable=true) at lreg.cpp:120
#9  0x0000555555555a1c in execute (input=0x7fffffffe1f1 "/tmp/lreg/randInput") at lreg.cpp:157
#10 0x0000555555555cb0 in main (argc=4, argv=0x7fffffffde48) at lreg.cpp:196

356	../sysdeps/ieee754/dbl-64/e_exp.c: No such file or directory.

Backtrace END
Memory content before bitflip:0x460x5a0xb70xf40x390x4d0xf70x3e
Fault Model: Random bit-flip
base address to flip value: 0x7fffffffd560
address max offset: 8
Memory content after  bitflip:0x5a0xc50x500xe00x890xc90x8d0xf3
frame name: train
symbol name: alpha
symbol filename: lreg.cpp
symbol line: 105
value: -4.1654027307806436e+248
value address: 0x7fffffffd560
Type: A floating point type.
Type sizeof: 8

[INFO -- 2018-11-25 10:29:29]
Fault Injection Successful after 2.6839826107025146s
[INFO -- 2018-11-25 10:29:30]
event type: exit
[INFO -- 2018-11-25 10:29:30]
exit code: 0
