[INFO -- 2018-11-23 20:05:52]
Starting flip_value script
version: 1.1
[INFO -- 2018-11-23 20:05:52]
Initialization strings:
[INFO -- 2018-11-23 20:05:52]
(1) file /tmp/lreg/lreg
[INFO -- 2018-11-23 20:05:52]
(2) set args /tmp/lreg/randInput /tmp/lreg/output
[INFO -- 2018-11-23 20:05:52]
initSignal:0
[INFO -- 2018-11-23 20:05:52]
endSignal:3
[INFO -- 2018-11-23 20:05:52]
faultModel:1
[EXCEPTION -- 2018-11-23 20:05:52]
gdbException: Attempt to dereference a generic pointer.
[INFO -- 2018-11-23 20:05:53]
event type: exit
[INFO -- 2018-11-23 20:05:53]
exit code: 0
