[INFO -- 2018-11-23 18:01:32]
sending 5 signals using command: 'killall -2 lreg' after 2.10915003969s
[INFO -- 2018-11-23 18:01:32]
sending 5 signals using command: 'killall -2 lreg' after 2.11801918625s
[INFO -- 2018-11-23 18:01:32]
sending 5 signals using command: 'killall -2 lreg' after 2.30371113417s
[INFO -- 2018-11-23 18:01:32]
Starting GDB script
[INFO -- 2018-11-23 18:01:32]
initSignal:0.0
[INFO -- 2018-11-23 18:01:32]
endSignal:3.0
[INFO -- 2018-11-23 18:01:33]
sending 5 signals using command: 'killall -2 lreg' after 0.706280682989s
[INFO -- 2018-11-23 18:01:34]
sending 5 signals using command: 'killall -2 lreg' after 2.02439311238s
[INFO -- 2018-11-23 18:01:35]
sending 5 signals using command: 'killall -2 lreg' after 2.18569044553s
[INFO -- 2018-11-23 18:01:35]
Execution finished before waitTime
