[INFO -- 2018-11-26 18:09:10]
Starting flip_value script
version: 1.1
[INFO -- 2018-11-26 18:09:10]
Initialization strings:
[INFO -- 2018-11-26 18:09:10]
(1) file /tmp/lreg/lreg
[INFO -- 2018-11-26 18:09:10]
(2) set args /tmp/lreg/randInput /tmp/lreg/output
[INFO -- 2018-11-26 18:09:10]
initSignal:0
[INFO -- 2018-11-26 18:09:10]
endSignal:3
[INFO -- 2018-11-26 18:09:10]
faultModel:0
[INFO -- 2018-11-26 18:09:12]
Backtrace BEGIN:
#0  __ieee754_pow_sse2 (x=28, y=3) at ../sysdeps/ieee754/dbl-64/e_pow.c:112
#1  0x00007ffff76db6be in __ieee754_pow_sse2 (x=<optimized out>, y=<optimized out>) at ../sysdeps/ieee754/dbl-64/e_pow.c:184
#2  0x00007ffff76bcb14 in __pow (x=-28, y=3) at w_pow_compat.c:30
#3  0x0000555555556826 in std::pow<double, unsigned int> (__x=-28, __y=3) at /usr/include/c++/7/cmath:418
#4  0x0000555555555814 in predict (v=-28) at lreg.cpp:116
#5  0x0000555555555a53 in partialDerivate (pos1=3, pos2=3) at lreg.cpp:142
#6  0x0000555555555bbe in adjust (alpha1=2.2222199999999999e-05, alpha2=2.2222199999999999e-05) at lreg.cpp:156
#7  0x0000555555555ee0 in train (iter1=30000, iter2=30000, N=4, alpha1=2.2222199999999999e-05, alpha2=2.2222199999999999e-05, stopsWhenStable=true) at lreg.cpp:193
#8  0x0000555555556467 in main (argc=3, argv=0x7fffffffde58) at lreg.cpp:253

107	../sysdeps/ieee754/dbl-64/e_pow.c: No such file or directory.

Backtrace END
Fliping value of field name: i
Fliping array at pos: 0
Memory content before bitflip:0xff0x030x000x00
Fault Model: Single bit-flip
base address to flip value: 0x7ffff779f5a0 
address max offset: 4
Memory content after  bitflip:0xfd0x030x000x00
frame name: __ieee754_pow_sse2
symbol name: two52e
symbol filename: ../sysdeps/ieee754/dbl-64/upow.h
symbol line: 55
value: {i = {1021, 1127219200}, x = 4503599627371517}
value address: 0x7ffff779f5a0 <two52e>
Type: The type is a union.
Type sizeof: 8
Field name: i
Field Type: The type is an array.
Field Type sizeof: 8
Field name: x
Field Type: A floating point type.
Field Type sizeof: 8

[INFO -- 2018-11-26 18:09:12]
Fault Injection Successful after 2.5254743099212646s
[INFO -- 2018-11-26 18:09:12]
event type: exit
[INFO -- 2018-11-26 18:09:12]
exit code: 0
