[INFO -- 2018-11-24 18:39:05]
sending 5 signals using command: 'killall -2 lreg' after 5.78917650995s
[INFO -- 2018-11-24 18:39:05]
Starting GDB script
[INFO -- 2018-11-24 18:39:05]
initSignal:0.0
[INFO -- 2018-11-24 18:39:05]
endSignal:6.0
[INFO -- 2018-11-24 18:39:06]
sending 5 signals using command: 'killall -2 lreg' after 1.25253031197s
[INFO -- 2018-11-24 18:39:07]
Execution finished before waitTime
