[INFO -- 2018-11-24 11:31:08]
Starting GDB script
[INFO -- 2018-11-24 11:31:08]
initSignal:0.0
[INFO -- 2018-11-24 11:31:08]
endSignal:2.0
[INFO -- 2018-11-24 11:31:08]
sending 5 signals using command: 'killall -2 lreg' after 0.0877131233477s
[INFO -- 2018-11-24 11:31:08]
sending 5 signals using command: 'killall -2 lreg' after 0.349538101785s
[INFO -- 2018-11-24 11:31:09]
sending 5 signals using command: 'killall -2 lreg' after 1.18264780251s
[INFO -- 2018-11-24 11:31:14]
Execution finished before waitTime
