[INFO -- 2018-11-24 10:09:40]
Starting flip_value script
version: 1.1
[INFO -- 2018-11-24 10:09:40]
Initialization strings:
[INFO -- 2018-11-24 10:09:40]
(1) file /tmp/lreg/lreg
[INFO -- 2018-11-24 10:09:40]
(2) set args /tmp/lreg/randInput /tmp/lreg/output
[INFO -- 2018-11-24 10:09:40]
initSignal:0
[INFO -- 2018-11-24 10:09:40]
endSignal:2
[INFO -- 2018-11-24 10:09:40]
faultModel:1
[INFO -- 2018-11-24 10:09:40]
Backtrace BEGIN:
#0  log1 (error=<synthetic pointer>, delta=<synthetic pointer>, x=2) at ../sysdeps/ieee754/dbl-64/e_pow.c:335
#1  __ieee754_pow_sse2 (x=2, y=3) at ../sysdeps/ieee754/dbl-64/e_pow.c:103
#2  0x00007ffff76db6be in __ieee754_pow_sse2 (x=<optimized out>, y=<optimized out>) at ../sysdeps/ieee754/dbl-64/e_pow.c:184
#3  0x00007ffff76bcb14 in __pow (x=-2, y=3) at w_pow_compat.c:30
#4  0x0000555555555d5f in std::pow<double, int> (__x=-2, __y=3) at /usr/include/c++/7/cmath:418
#5  0x0000555555555401 in partialDerivate (pos=3) at lreg.cpp:74
#6  0x00005555555554b3 in adjust (alpha=2.2222199999999999e-05) at lreg.cpp:87
#7  0x000055555555565c in train (iterations=30000, alpha=2.2222199999999999e-05, N=4, stopsWhenStable=true) at lreg.cpp:120
#8  0x0000555555555ab7 in main (argc=3, argv=0x7fffffffde58) at lreg.cpp:174

330	../sysdeps/ieee754/dbl-64/e_pow.c: No such file or directory.

Backtrace END
Fliping value of field name: x
Memory content before bitflip:0xff0x030x000x000x000x000x300x43
Fault Model: Double bit-flip
base address to flip value: 0x7ffff779f5a0 
address max offset: 8
Memory content after  bitflip:0xff0x030x180x000x000x000x300x43
frame name: __ieee754_pow_sse2
symbol name: two52e
symbol filename: ../sysdeps/ieee754/dbl-64/upow.h
symbol line: 55
value: {i = {1573887, 1127219200}, x = 4503599628944383}
value address: 0x7ffff779f5a0 <two52e>
Type: The type is a union.
Type sizeof: 8
Field name: i
Field Type: The type is an array.
Field Type sizeof: 8
Field name: x
Field Type: A floating point type.
Field Type sizeof: 8

[INFO -- 2018-11-24 10:09:40]
Fault Injection Successful after 0.8675050735473633s
[INFO -- 2018-11-24 10:09:42]
event type: exit
[INFO -- 2018-11-24 10:09:42]
exit code: 0
