[INFO -- 2018-11-29 18:39:08]
Starting flip_value script
version: 1.1
[INFO -- 2018-11-29 18:39:08]
Initialization strings:
[INFO -- 2018-11-29 18:39:08]
(1) file /tmp/lreg/lreg
[INFO -- 2018-11-29 18:39:08]
(2) set args /tmp/lreg/randInput /tmp/lreg/output /tmp/lreg/detected.log
[INFO -- 2018-11-29 18:39:08]
initSignal:0
[INFO -- 2018-11-29 18:39:08]
endSignal:6
[INFO -- 2018-11-29 18:39:08]
faultModel:0
[INFO -- 2018-11-29 18:39:10]
Backtrace BEGIN:
#0  0x0000555555555409 in partialDerivate (pos=0) at lreg.cpp:74
#1  0x0000555555555503 in adjust (alpha=2.2222199999999999e-05) at lreg.cpp:87
#2  0x00005555555556ac in train (iterations=30000, alpha=2.2222199999999999e-05, N=4, stopsWhenStable=true) at lreg.cpp:120
#3  0x0000555555555a1c in execute (input=0x7fffffffe1f1 "/tmp/lreg/randInput") at lreg.cpp:157
#4  0x0000555555555c78 in main (argc=4, argv=0x7fffffffde48) at lreg.cpp:193

69		to the adjustment variable whose position in T is passed in pos
70	*/
71	double partialDerivate(int pos){
72		double pD = 0;
73		for(int i = 0; i<x.size(); i++){
74			pD += ((predict(x[i]) - y[i])*pow(x[i], pos));	
75		}
76		pD *= (2.0/x.size());
77		return pD;
78	}

Backtrace END
Memory content before bitflip:0x9c0xf40x260xad0x100x010x890x40
Fault Model: Single bit-flip
base address to flip value: 0x7fffffffd4d8
address max offset: 8
Memory content after  bitflip:0x9c0xf40x260xaf0x100x010x890x40
frame name: partialDerivate
symbol name: pD
symbol filename: lreg.cpp
symbol line: 72
value: 800.13314657625187
value address: 0x7fffffffd4d8
Type: A floating point type.
Type sizeof: 8

[INFO -- 2018-11-29 18:39:10]
Fault Injection Successful after 2.9560394287109375s
[INFO -- 2018-11-29 18:39:14]
event type: exit
[INFO -- 2018-11-29 18:39:14]
exit code: 0
