[INFO -- 2018-11-27 18:01:21]
Starting GDB script
[INFO -- 2018-11-27 18:01:21]
initSignal:0.0
[INFO -- 2018-11-27 18:01:21]
endSignal:3.0
[INFO -- 2018-11-27 18:01:21]
sending 5 signals using command: 'killall -2 lreg' after 0.0422865071892s
[INFO -- 2018-11-27 18:01:21]
sending 5 signals using command: 'killall -2 lreg' after 0.306962693911s
[INFO -- 2018-11-27 18:01:22]
sending 5 signals using command: 'killall -2 lreg' after 0.814346101354s
[INFO -- 2018-11-27 18:01:25]
Execution finished before waitTime
