[INFO -- 2018-11-26 16:42:52]
Starting GDB script
[INFO -- 2018-11-26 16:42:52]
initSignal:0.0
[INFO -- 2018-11-26 16:42:52]
endSignal:3.0
[INFO -- 2018-11-26 16:42:52]
sending 5 signals using command: 'killall -2 lreg' after 0.137101522307s
[INFO -- 2018-11-26 16:42:53]
Execution finished before waitTime
