[INFO -- 2018-11-26 20:43:01]
Starting GDB script
[INFO -- 2018-11-26 20:43:01]
initSignal:0.0
[INFO -- 2018-11-26 20:43:01]
endSignal:3.0
[INFO -- 2018-11-26 20:43:02]
sending 5 signals using command: 'killall -2 lreg' after 0.72090347383s
[INFO -- 2018-11-26 20:43:03]
sending 5 signals using command: 'killall -2 lreg' after 1.0156671799s
[INFO -- 2018-11-26 20:43:03]
Execution finished before waitTime
[INFO -- 2018-11-26 20:43:03]
sending 5 signals using command: 'killall -2 lreg' after 1.87155977022s
