[INFO -- 2018-11-26 16:01:16]
Starting GDB script
[INFO -- 2018-11-26 16:01:16]
initSignal:0.0
[INFO -- 2018-11-26 16:01:16]
endSignal:3.0
[INFO -- 2018-11-26 16:01:17]
sending 5 signals using command: 'killall -2 lreg' after 0.515964122698s
[INFO -- 2018-11-26 16:01:17]
sending 5 signals using command: 'killall -2 lreg' after 0.764166095906s
[INFO -- 2018-11-26 16:01:18]
sending 5 signals using command: 'killall -2 lreg' after 1.03654194705s
[INFO -- 2018-11-26 16:01:20]
Execution finished before waitTime
