[INFO -- 2018-11-26 14:58:08]
Starting GDB script
[INFO -- 2018-11-26 14:58:08]
initSignal:0.0
[INFO -- 2018-11-26 14:58:08]
endSignal:3.0
[INFO -- 2018-11-26 14:58:08]
sending 5 signals using command: 'killall -2 lreg' after 0.249534019879s
[INFO -- 2018-11-26 14:58:09]
sending 5 signals using command: 'killall -2 lreg' after 0.781584794215s
[INFO -- 2018-11-26 14:58:09]
sending 5 signals using command: 'killall -2 lreg' after 1.02127972427s
[INFO -- 2018-11-26 14:58:13]
Execution finished before waitTime
