[INFO -- 2018-11-25 14:06:46]
Starting flip_value script
version: 1.1
[INFO -- 2018-11-25 14:06:46]
Initialization strings:
[INFO -- 2018-11-25 14:06:46]
(1) file /tmp/lreg/lreg
[INFO -- 2018-11-25 14:06:46]
(2) set args /tmp/lreg/randInput /tmp/lreg/output /tmp/lreg/detected.log
[INFO -- 2018-11-25 14:06:46]
initSignal:0
[INFO -- 2018-11-25 14:06:46]
endSignal:6
[INFO -- 2018-11-25 14:06:46]
faultModel:2
[EXCEPTION -- 2018-11-25 14:06:48]
pythonException: empty range for randrange() (0,0, 0)
[EXCEPTION -- 2018-11-25 14:06:48]
pythonException: empty range for randrange() (0,0, 0)
[INFO -- 2018-11-25 14:06:48]
Backtrace BEGIN:
#0  0x0000555555555217 in predict (v=-3) at lreg.cpp:50
#1  0x00005555555552ba in meanSquaredError () at lreg.cpp:61
#2  0x00005555555556b1 in train (iterations=10000, alpha=0.00020000000000000001, N=2, stopsWhenStable=true) at lreg.cpp:121
#3  0x0000555555555a1c in execute (input=0x7fffffffe1f1 "/tmp/lreg/randInput") at lreg.cpp:157
#4  0x0000555555555cb0 in main (argc=4, argv=0x7fffffffde48) at lreg.cpp:196

45		Predicts the value related to v using the Ts variables
46	*/
47	double predict(double v){
48		double val = 0;
49		for(int i = 0; i<T.size(); i++){
50			val+= (T[i] * pow(v, i));
51		}
52		return val;
53		
54	}

Backtrace END
Fliping a bit of the value pointed by a pointer
Fliping a bit of the value pointed by a pointer
Memory content before bitflip:0x2f
Fault Model: Random bit-flip
base address to flip value: 0x7fffffffe1e2 
address max offset: 1
Memory content after  bitflip:0x6c
frame name: main
symbol name: argv
symbol filename: lreg.cpp
symbol line: 181
value: 0x7fffffffde48
value address: 0x7fffffffd8e0
Type: The type is a pointer.
Type sizeof: 8

[INFO -- 2018-11-25 14:06:48]
Fault Injection Successful after 2.955111026763916s
[INFO -- 2018-11-25 14:06:49]
event type: exit
[EXCEPTION -- 2018-11-25 14:06:49]
exit code: no exit code available
