[INFO -- 2018-11-27 21:32:16]
Starting GDB script
[INFO -- 2018-11-27 21:32:16]
initSignal:0.0
[INFO -- 2018-11-27 21:32:16]
endSignal:3.0
[INFO -- 2018-11-27 21:32:16]
sending 5 signals using command: 'killall -2 lreg' after 0.0972467493794s
[INFO -- 2018-11-27 21:32:17]
sending 5 signals using command: 'killall -2 lreg' after 1.05226930111s
[INFO -- 2018-11-27 21:32:18]
sending 5 signals using command: 'killall -2 lreg' after 1.82113158174s
[INFO -- 2018-11-27 21:32:24]
Execution finished before waitTime
