[INFO -- 2018-11-24 09:52:45]
Starting GDB script
[INFO -- 2018-11-24 09:52:45]
initSignal:0.0
[INFO -- 2018-11-24 09:52:45]
endSignal:2.0
[INFO -- 2018-11-24 09:52:45]
sending 5 signals using command: 'killall -2 lreg' after 0.0447756550634s
[INFO -- 2018-11-24 09:52:45]
sending 5 signals using command: 'killall -2 lreg' after 0.564397215022s
[INFO -- 2018-11-24 09:52:45]
sending 5 signals using command: 'killall -2 lreg' after 0.828786053713s
[INFO -- 2018-11-24 09:52:47]
Execution finished before waitTime
