[INFO -- 2018-11-27 20:14:25]
Starting GDB script
[INFO -- 2018-11-27 20:14:25]
initSignal:0.0
[INFO -- 2018-11-27 20:14:25]
endSignal:3.0
[INFO -- 2018-11-27 20:14:26]
sending 5 signals using command: 'killall -2 lreg' after 0.412316776704s
[INFO -- 2018-11-27 20:14:27]
sending 5 signals using command: 'killall -2 lreg' after 1.15097203786s
[INFO -- 2018-11-27 20:14:27]
sending 5 signals using command: 'killall -2 lreg' after 1.68393283825s
[INFO -- 2018-11-27 20:14:29]
Execution finished before waitTime
