[INFO -- 2018-11-26 17:41:42]
Starting GDB script
[INFO -- 2018-11-26 17:41:42]
initSignal:0.0
[INFO -- 2018-11-26 17:41:42]
endSignal:3.0
[INFO -- 2018-11-26 17:41:42]
sending 5 signals using command: 'killall -2 lreg' after 0.276519458838s
[INFO -- 2018-11-26 17:41:43]
sending 5 signals using command: 'killall -2 lreg' after 0.913204265894s
[INFO -- 2018-11-26 17:41:44]
sending 5 signals using command: 'killall -2 lreg' after 2.36490520534s
[INFO -- 2018-11-26 17:41:50]
Execution finished before waitTime
