[INFO -- 2018-11-22 17:31:04]
Starting GDB script
[INFO -- 2018-11-22 17:31:04]
initSignal:0.0
[INFO -- 2018-11-22 17:31:04]
endSignal:3.0
[INFO -- 2018-11-22 17:31:05]
sending 5 signals using command: 'killall -2 lreg' after 0.856510660682s
[INFO -- 2018-11-22 17:31:05]
sending 5 signals using command: 'killall -2 lreg' after 1.52672044165s
[INFO -- 2018-11-22 17:31:07]
sending 5 signals using command: 'killall -2 lreg' after 2.9524555747s
[INFO -- 2018-11-22 17:31:09]
Execution finished before waitTime
