[INFO -- 2018-11-25 13:58:10]
Starting flip_value script
version: 1.1
[INFO -- 2018-11-25 13:58:10]
Initialization strings:
[INFO -- 2018-11-25 13:58:10]
(1) file /tmp/lreg/lreg
[INFO -- 2018-11-25 13:58:10]
(2) set args /tmp/lreg/randInput /tmp/lreg/output /tmp/lreg/detected.log
[INFO -- 2018-11-25 13:58:10]
initSignal:0
[INFO -- 2018-11-25 13:58:10]
endSignal:6
[INFO -- 2018-11-25 13:58:10]
faultModel:2
[INFO -- 2018-11-25 13:58:13]
event type: exit
[INFO -- 2018-11-25 13:58:13]
exit code: 0
