[INFO -- 2018-11-29 14:38:39]
Starting GDB script
[INFO -- 2018-11-29 14:38:39]
initSignal:0.0
[INFO -- 2018-11-29 14:38:39]
endSignal:6.0
[INFO -- 2018-11-29 14:38:40]
sending 5 signals using command: 'killall -2 lreg' after 1.11163382658s
[INFO -- 2018-11-29 14:38:40]
sending 5 signals using command: 'killall -2 lreg' after 1.36611149782s
[INFO -- 2018-11-29 14:38:43]
Execution finished before waitTime
