[INFO -- 2018-11-29 13:44:06]
Starting flip_value script
version: 1.1
[INFO -- 2018-11-29 13:44:06]
Initialization strings:
[INFO -- 2018-11-29 13:44:06]
(1) file /tmp/lreg/lreg
[INFO -- 2018-11-29 13:44:06]
(2) set args /tmp/lreg/randInput /tmp/lreg/output /tmp/lreg/detected.log
[INFO -- 2018-11-29 13:44:06]
initSignal:0
[INFO -- 2018-11-29 13:44:06]
endSignal:6
[INFO -- 2018-11-29 13:44:06]
faultModel:0
[EXCEPTION -- 2018-11-29 13:44:10]
pythonException: Unable to exit loop in struct fields; Exiting wihtout making a bit flip
[EXCEPTION -- 2018-11-29 13:44:10]
pythonException: Unable to exit loop in struct fields; Exiting wihtout making a bit flip
[INFO -- 2018-11-29 13:44:13]
event type: exit
[INFO -- 2018-11-29 13:44:13]
exit code: 0
