[INFO -- 2018-11-29 13:44:06]
Starting GDB script
[INFO -- 2018-11-29 13:44:06]
initSignal:0.0
[INFO -- 2018-11-29 13:44:06]
endSignal:6.0
[INFO -- 2018-11-29 13:44:06]
sending 5 signals using command: 'killall -2 lreg' after 0.067484847203s
[INFO -- 2018-11-29 13:44:10]
sending 5 signals using command: 'killall -2 lreg' after 3.52244451964s
[INFO -- 2018-11-29 13:44:10]
sending 5 signals using command: 'killall -2 lreg' after 3.54227812805s
[INFO -- 2018-11-29 13:44:15]
Execution finished before waitTime
