[INFO -- 2018-11-29 14:33:20]
Starting flip_value script
version: 1.1
[INFO -- 2018-11-29 14:33:20]
Initialization strings:
[INFO -- 2018-11-29 14:33:20]
(1) file /tmp/lreg/lreg
[INFO -- 2018-11-29 14:33:20]
(2) set args /tmp/lreg/randInput /tmp/lreg/output /tmp/lreg/detected.log
[INFO -- 2018-11-29 14:33:20]
initSignal:0
[INFO -- 2018-11-29 14:33:20]
endSignal:6
[INFO -- 2018-11-29 14:33:20]
faultModel:0
[INFO -- 2018-11-29 14:33:22]
Backtrace BEGIN:
#0  log1 (error=<synthetic pointer>, delta=<synthetic pointer>, x=9) at ../sysdeps/ieee754/dbl-64/e_pow.c:329
#1  __ieee754_pow_sse2 (x=9, y=3) at ../sysdeps/ieee754/dbl-64/e_pow.c:103
#2  0x00007ffff76db6be in __ieee754_pow_sse2 (x=<optimized out>, y=<optimized out>) at ../sysdeps/ieee754/dbl-64/e_pow.c:184
#3  0x00007ffff76bcb14 in __pow (x=-9, y=3) at w_pow_compat.c:30
#4  0x000055555555621b in std::pow<double, int> (__x=-9, __y=3) at /usr/include/c++/7/cmath:418
#5  0x0000555555555237 in predict (v=-9) at lreg.cpp:50
#6  0x00005555555553fc in partialDerivate (pos=0) at lreg.cpp:74
#7  0x0000555555555503 in adjust (alpha=2.2222199999999999e-05) at lreg.cpp:87
#8  0x00005555555556ac in train (iterations=30000, alpha=2.2222199999999999e-05, N=4, stopsWhenStable=true) at lreg.cpp:120
#9  0x0000555555555a1c in execute (input=0x7fffffffe1f1 "/tmp/lreg/randInput") at lreg.cpp:157
#10 0x0000555555555c78 in main (argc=4, argv=0x7fffffffde48) at lreg.cpp:193

324	../sysdeps/ieee754/dbl-64/e_pow.c: No such file or directory.

Backtrace END
Memory content before bitflip:0x000x000x000x000x000x000x220xc0
Fault Model: Single bit-flip
base address to flip value: 0x7fffffffd410
address max offset: 8
Memory content after  bitflip:0x000x020x000x000x000x000x220xc0
frame name: __pow
symbol name: x
symbol filename: w_pow_compat.c
symbol line: 28
value: -9.0000000000009095
value address: 0x7fffffffd410
Type: A floating point type.
Type sizeof: 8

[INFO -- 2018-11-29 14:33:22]
Fault Injection Successful after 2.8139328956604004s
[INFO -- 2018-11-29 14:33:25]
event type: exit
[INFO -- 2018-11-29 14:33:25]
exit code: 0
