[INFO -- 2018-11-23 16:37:14]
Starting GDB script
[INFO -- 2018-11-23 16:37:14]
initSignal:0.0
[INFO -- 2018-11-23 16:37:14]
endSignal:3.0
[INFO -- 2018-11-23 16:37:16]
sending 5 signals using command: 'killall -2 lreg' after 1.4612221589s
[INFO -- 2018-11-23 16:37:16]
sending 5 signals using command: 'killall -2 lreg' after 1.78510703631s
[INFO -- 2018-11-23 16:37:16]
sending 5 signals using command: 'killall -2 lreg' after 1.92270140942s
[INFO -- 2018-11-23 16:37:17]
Execution finished before waitTime
