[INFO -- 2018-11-27 21:35:57]
Starting GDB script
[INFO -- 2018-11-27 21:35:57]
initSignal:0.0
[INFO -- 2018-11-27 21:35:57]
endSignal:3.0
[INFO -- 2018-11-27 21:35:58]
sending 5 signals using command: 'killall -2 lreg' after 1.1204157258s
[INFO -- 2018-11-27 21:35:59]
sending 5 signals using command: 'killall -2 lreg' after 2.49653783264s
[INFO -- 2018-11-27 21:35:59]
sending 5 signals using command: 'killall -2 lreg' after 2.84451085353s
[INFO -- 2018-11-27 21:36:03]
Execution finished before waitTime
