[INFO -- 2018-11-22 19:07:05]
Starting flip_value script
version: 1.1
[INFO -- 2018-11-22 19:07:05]
Initialization strings:
[INFO -- 2018-11-22 19:07:05]
(1) file /tmp/lreg/lreg
[INFO -- 2018-11-22 19:07:05]
(2) set args /tmp/lreg/randInput /tmp/lreg/output
[INFO -- 2018-11-22 19:07:05]
initSignal:0
[INFO -- 2018-11-22 19:07:05]
endSignal:3
[INFO -- 2018-11-22 19:07:05]
faultModel:0
[INFO -- 2018-11-22 19:07:05]
Backtrace BEGIN:
#0  malloc (n=16) at dl-minimal.c:50
#1  <function called from gdb>
#2  malloc (n=9) at dl-minimal.c:50
#3  <function called from gdb>
#4  0x00007ffff7df1cdd in __libc_open64 (file=file@entry=0x7ffff7fdf3b0 "/lib/x86_64-linux-gnu/libc.so.6", oflag=oflag@entry=524288) at ../sysdeps/unix/sysv/linux/open64.c:47
#5  0x00007ffff7ddac07 in open_verify (name=name@entry=0x7ffff7fdf3b0 "/lib/x86_64-linux-gnu/libc.so.6", fbp=fbp@entry=0x7fffffffd490, loader=<optimized out>, whatcode=whatcode@entry=8, mode=mode@entry=0, found_other_class=found_other_class@entry=0x7fffffffd47f, free_name=false, fd=-1) at dl-load.c:1668
#6  0x00007ffff7dde3ce in _dl_map_object (loader=0x7ffff7ffe170, name=0x555555554904 "libc.so.6", type=1, trace_mode=0, mode=<optimized out>, nsid=<optimized out>) at dl-load.c:2292
#7  0x00007ffff7de3312 in openaux (a=a@entry=0x7fffffffdae0) at dl-deps.c:63
#8  0x00007ffff7df0c6b in _dl_catch_exception (exception=exception@entry=0x7fffffffdac0, operate=operate@entry=0x7ffff7de32e0 <openaux>, args=args@entry=0x7fffffffdae0) at dl-error-skeleton.c:196
#9  0x00007ffff7de3618 in _dl_map_object_deps (map=map@entry=0x7ffff7ffe170, preloads=<optimized out>, npreloads=npreloads@entry=0, trace_mode=trace_mode@entry=0, open_mode=open_mode@entry=0) at dl-deps.c:249
#10 0x00007ffff7dd8ea6 in dl_main (phdr=<optimized out>, phnum=<optimized out>, user_entry=<optimized out>, auxv=<optimized out>) at rtld.c:1726
#11 0x00007ffff7defdd0 in _dl_sysdep_start (start_argptr=start_argptr@entry=0x7fffffffde50, dl_main=dl_main@entry=0x7ffff7dd7660 <dl_main>) at ../elf/dl-sysdep.c:253
#12 0x00007ffff7dd7128 in _dl_start_final (arg=0x7fffffffde50) at rtld.c:414
#13 _dl_start (arg=0x7fffffffde50) at rtld.c:521
#14 0x00007ffff7dd6098 in _start () from /lib64/ld-linux-x86-64.so.2
#15 0x0000000000000003 in ?? ()
#16 0x00007fffffffe1fd in ?? ()
#17 0x00007fffffffe20c in ?? ()
#18 0x00007fffffffe220 in ?? ()
#19 0x0000000000000000 in ?? ()

45	in dl-minimal.c

Backtrace END
Memory content before bitflip:0x050x000x000x00
Fault Model: Single bit-flip
base address to flip value: 0x7fffffffdaa0
address max offset: 4
Memory content after  bitflip:0x250x000x000x00
frame name: _dl_map_object_deps
symbol name: nlist
symbol filename: dl-deps.c
symbol line: 161
value: 37
value address: 0x7fffffffdaa0
Type: The type is an integer type.
Type sizeof: 4

[INFO -- 2018-11-22 19:07:05]
Fault Injection Successful after 0.6039867401123047s
[INFO -- 2018-11-22 19:07:06]
event type: exit
[EXCEPTION -- 2018-11-22 19:07:06]
exit code: no exit code available
