[INFO -- 2018-11-24 11:12:24]
Starting GDB script
[INFO -- 2018-11-24 11:12:24]
initSignal:0.0
[INFO -- 2018-11-24 11:12:24]
endSignal:2.0
[INFO -- 2018-11-24 11:12:24]
sending 5 signals using command: 'killall -2 lreg' after 0.276885730055s
[INFO -- 2018-11-24 11:12:24]
sending 5 signals using command: 'killall -2 lreg' after 0.437807346853s
[INFO -- 2018-11-24 11:12:25]
sending 5 signals using command: 'killall -2 lreg' after 0.798994642005s
[INFO -- 2018-11-24 11:12:26]
Execution finished before waitTime
