[INFO -- 2018-11-29 15:11:34]
Starting flip_value script
version: 1.1
[INFO -- 2018-11-29 15:11:34]
Initialization strings:
[INFO -- 2018-11-29 15:11:34]
(1) file /tmp/lreg/lreg
[INFO -- 2018-11-29 15:11:34]
(2) set args /tmp/lreg/randInput /tmp/lreg/output /tmp/lreg/detected.log
[INFO -- 2018-11-29 15:11:34]
initSignal:0
[INFO -- 2018-11-29 15:11:34]
endSignal:6
[INFO -- 2018-11-29 15:11:34]
faultModel:0
[INFO -- 2018-11-29 15:11:37]
Backtrace BEGIN:
#0  0x00007ffff76da518 in __ieee754_pow_sse2 (x=-28, y=0) at ../sysdeps/ieee754/dbl-64/e_pow.c:65
#1  0x00007ffff76bcb14 in __pow (x=-28, y=0) at w_pow_compat.c:30
#2  0x000055555555621b in std::pow<double, int> (__x=-28, __y=0) at /usr/include/c++/7/cmath:418
#3  0x0000555555555237 in predict (v=-28) at lreg.cpp:50
#4  0x00005555555553fc in partialDerivate (pos=3) at lreg.cpp:74
#5  0x0000555555555503 in adjust (alpha=2.2222199999999999e-05) at lreg.cpp:87
#6  0x00005555555556ac in train (iterations=30000, alpha=2.2222199999999999e-05, N=4, stopsWhenStable=true) at lreg.cpp:120
#7  0x0000555555555a1c in execute (input=0x7fffffffe1f1 "/tmp/lreg/randInput") at lreg.cpp:157
#8  0x0000555555555cb0 in main (argc=4, argv=0x7fffffffde48) at lreg.cpp:196

60	../sysdeps/ieee754/dbl-64/e_pow.c: No such file or directory.

Backtrace END
Fliping value of field: std::_Vector_base<double, std::allocator<double> >
Fliping value of field: _M_impl
Fliping value of field: _M_end_of_storage
Fliping a bit of the pointer
Memory content before bitflip:0x200x280x770x550x550x550x000x00
Fault Model: Single bit-flip
base address to flip value: 0x7fffffffd910
address max offset: 8
Memory content after  bitflip:0x200x280x770x550x550xd50x000x00
frame name: main
symbol name: e1
symbol filename: lreg.cpp
symbol line: 193
value: std::vector of length 18, capacity 17592186044448 = {9.9997448205173409, 10.999751207252501, 12.999763980722822, -7.0003637539803849, -1078.8160145721722, -1078.8160145721722, -1722.5303976432911, -1319.1177772194476, -1582.6669839552355, -584.82432114594803, 97026.528835098041, -561.68664594912298, -9235.2779191372501, 69793.215647290359, -295.84796972341951, 42146.236069249338, 19328.177037179787, -20460.150394813842}
value address: 0x7fffffffd900
Type: The type is a structure.
Type sizeof: 24
Field name: std::_Vector_base<double, std::allocator<double> >
Field Type: The type is a structure.
Field Type sizeof: 24

[INFO -- 2018-11-29 15:11:37]
Fault Injection Successful after 3.8245396614074707s
[INFO -- 2018-11-29 15:11:38]
event type: exit
[INFO -- 2018-11-29 15:11:38]
exit code: 0
