[INFO -- 2018-11-26 15:35:09]
Starting GDB script
[INFO -- 2018-11-26 15:35:09]
initSignal:0.0
[INFO -- 2018-11-26 15:35:09]
endSignal:3.0
[INFO -- 2018-11-26 15:35:10]
sending 5 signals using command: 'killall -2 lreg' after 0.381067216429s
[INFO -- 2018-11-26 15:35:11]
sending 5 signals using command: 'killall -2 lreg' after 1.24878999678s
[INFO -- 2018-11-26 15:35:12]
sending 5 signals using command: 'killall -2 lreg' after 2.44877639791s
[INFO -- 2018-11-26 15:35:13]
Execution finished before waitTime
