[INFO -- 2018-11-25 10:49:09]
Starting GDB script
[INFO -- 2018-11-25 10:49:09]
initSignal:0.0
[INFO -- 2018-11-25 10:49:09]
endSignal:6.0
[INFO -- 2018-11-25 10:49:10]
sending 5 signals using command: 'killall -2 lreg' after 1.62364793958s
[INFO -- 2018-11-25 10:49:13]
Execution finished before waitTime
