[INFO -- 2018-11-25 11:00:38]
sending 5 signals using command: 'killall -2 lreg' after 3.90757049736s
[INFO -- 2018-11-25 11:00:38]
Starting GDB script
[INFO -- 2018-11-25 11:00:38]
initSignal:0.0
[INFO -- 2018-11-25 11:00:38]
endSignal:6.0
[INFO -- 2018-11-25 11:00:39]
sending 5 signals using command: 'killall -2 lreg' after 1.0727677432s
[INFO -- 2018-11-25 11:00:39]
sending 5 signals using command: 'killall -2 lreg' after 0.876920833331s
[INFO -- 2018-11-25 11:00:41]
Execution finished before waitTime
