[INFO -- 2018-11-22 15:23:56]
Starting GDB script
[INFO -- 2018-11-22 15:23:56]
initSignal:0.0
[INFO -- 2018-11-22 15:23:56]
endSignal:3.0
[INFO -- 2018-11-22 15:23:56]
sending 5 signals using command: 'killall -2 lreg' after 0.101764699775s
[INFO -- 2018-11-22 15:23:57]
sending 5 signals using command: 'killall -2 lreg' after 1.39715927149s
[INFO -- 2018-11-22 15:23:58]
sending 5 signals using command: 'killall -2 lreg' after 1.83578993241s
[INFO -- 2018-11-22 15:24:01]
Execution finished before waitTime
