[INFO -- 2018-11-25 13:36:34]
sending 5 signals using command: 'killall -2 lreg' after 4.19641580008s
[INFO -- 2018-11-25 13:36:36]
sending 5 signals using command: 'killall -2 lreg' after 5.90808309343s
[INFO -- 2018-11-25 13:36:36]
Starting GDB script
[INFO -- 2018-11-25 13:36:36]
initSignal:0.0
[INFO -- 2018-11-25 13:36:36]
endSignal:6.0
[INFO -- 2018-11-25 13:36:36]
sending 5 signals using command: 'killall -2 lreg' after 0.098758012578s
[INFO -- 2018-11-25 13:36:37]
sending 5 signals using command: 'killall -2 lreg' after 1.47715045208s
[INFO -- 2018-11-25 13:36:38]
Execution finished before waitTime
