[INFO -- 2018-11-25 14:58:31]
Starting GDB script
[INFO -- 2018-11-25 14:58:31]
initSignal:0.0
[INFO -- 2018-11-25 14:58:31]
endSignal:6.0
[INFO -- 2018-11-25 14:58:33]
Execution finished before waitTime
