[INFO -- 2018-11-24 12:02:39]
Starting flip_value script
version: 1.1
[INFO -- 2018-11-24 12:02:39]
Initialization strings:
[INFO -- 2018-11-24 12:02:39]
(1) file /tmp/lreg/lreg
[INFO -- 2018-11-24 12:02:39]
(2) set args /tmp/lreg/randInput /tmp/lreg/output
[INFO -- 2018-11-24 12:02:39]
initSignal:0
[INFO -- 2018-11-24 12:02:39]
endSignal:2
[INFO -- 2018-11-24 12:02:39]
faultModel:2
[INFO -- 2018-11-24 12:02:40]
Backtrace BEGIN:
#0  dl_main (phdr=<optimized out>, phnum=<optimized out>, user_entry=<optimized out>, auxv=<optimized out>) at rtld.c:2289
#1  0x00007ffff7defdd0 in _dl_sysdep_start (start_argptr=start_argptr@entry=0x7fffffffde50, dl_main=dl_main@entry=0x7ffff7dd7660 <dl_main>) at ../elf/dl-sysdep.c:253
#2  0x00007ffff7dd7128 in _dl_start_final (arg=0x7fffffffde50) at rtld.c:414
#3  _dl_start (arg=0x7fffffffde50) at rtld.c:521
#4  0x00007ffff7dd6098 in _start () from /lib64/ld-linux-x86-64.so.2
#5  0x0000000000000003 in ?? ()
#6  0x00007fffffffe1fd in ?? ()
#7  0x00007fffffffe20c in ?? ()
#8  0x00007fffffffe220 in ?? ()
#9  0x0000000000000000 in ?? ()

2284	rtld.c: No such file or directory.

Backtrace END
Memory content before bitflip:0x9a0xcc0x1d0x000x000x000x000x00
Fault Model: Random bit-flip
base address to flip value: 0x7ffff7ffc728 
address max offset: 8
Memory content after  bitflip:0x7a0x640x3a0xb90xc80xfa0xd90xd5
frame name: _dl_start_final
symbol name: load_time
symbol filename: rtld.c
symbol line: 307
value: 15409623340032877690
value address: 0x7ffff7ffc728 <load_time>
Type: The type is an integer type.
Type sizeof: 8

[INFO -- 2018-11-24 12:02:40]
Fault Injection Successful after 1.7470414638519287s
[INFO -- 2018-11-24 12:02:43]
event type: exit
[INFO -- 2018-11-24 12:02:43]
exit code: 0
