[INFO -- 2018-11-22 19:08:39]
Starting GDB script
[INFO -- 2018-11-22 19:08:39]
initSignal:0.0
[INFO -- 2018-11-22 19:08:39]
endSignal:3.0
[INFO -- 2018-11-22 19:08:40]
sending 5 signals using command: 'killall -2 lreg' after 0.0786828589586s
[INFO -- 2018-11-22 19:08:41]
sending 5 signals using command: 'killall -2 lreg' after 1.35129337824s
[INFO -- 2018-11-22 19:08:41]
sending 5 signals using command: 'killall -2 lreg' after 1.91382431883s
[INFO -- 2018-11-22 19:08:44]
Execution finished before waitTime
