[INFO -- 2018-11-27 21:32:59]
Starting GDB script
[INFO -- 2018-11-27 21:32:59]
initSignal:0.0
[INFO -- 2018-11-27 21:32:59]
endSignal:3.0
[INFO -- 2018-11-27 21:33:00]
sending 5 signals using command: 'killall -2 lreg' after 0.260809167522s
[INFO -- 2018-11-27 21:33:00]
sending 5 signals using command: 'killall -2 lreg' after 0.497451730197s
[INFO -- 2018-11-27 21:33:01]
sending 5 signals using command: 'killall -2 lreg' after 1.61577638177s
[INFO -- 2018-11-27 21:33:06]
Execution finished before waitTime
