[INFO -- 2018-11-24 10:16:28]
Starting GDB script
[INFO -- 2018-11-24 10:16:28]
initSignal:0.0
[INFO -- 2018-11-24 10:16:28]
endSignal:2.0
[INFO -- 2018-11-24 10:16:28]
sending 5 signals using command: 'killall -2 lreg' after 0.158387052965s
[INFO -- 2018-11-24 10:16:29]
sending 5 signals using command: 'killall -2 lreg' after 1.19731887631s
[INFO -- 2018-11-24 10:16:29]
sending 5 signals using command: 'killall -2 lreg' after 0.855347889297s
[INFO -- 2018-11-24 10:16:30]
Execution finished before waitTime
