[INFO -- 2018-11-24 10:07:08]
Starting GDB script
[INFO -- 2018-11-24 10:07:08]
initSignal:0.0
[INFO -- 2018-11-24 10:07:08]
endSignal:2.0
[INFO -- 2018-11-24 10:07:08]
sending 5 signals using command: 'killall -2 lreg' after 0.236178169691s
[INFO -- 2018-11-24 10:07:09]
sending 5 signals using command: 'killall -2 lreg' after 0.764731841862s
[INFO -- 2018-11-24 10:07:09]
sending 5 signals using command: 'killall -2 lreg' after 1.07078017655s
[INFO -- 2018-11-24 10:07:11]
Execution finished before waitTime
