[INFO -- 2018-11-23 21:07:01]
sending 5 signals using command: 'killall -2 lreg' after 2.37674190503s
[INFO -- 2018-11-23 21:07:01]
sending 5 signals using command: 'killall -2 lreg' after 2.66275485307s
[INFO -- 2018-11-23 21:07:01]
Starting GDB script
[INFO -- 2018-11-23 21:07:01]
initSignal:0.0
[INFO -- 2018-11-23 21:07:01]
endSignal:3.0
[INFO -- 2018-11-23 21:07:03]
sending 5 signals using command: 'killall -2 lreg' after 1.14199391348s
[INFO -- 2018-11-23 21:07:03]
sending 5 signals using command: 'killall -2 lreg' after 1.62844322103s
[INFO -- 2018-11-23 21:07:03]
Execution finished before waitTime
