[INFO -- 2018-11-25 21:59:44]
sending 5 signals using command: 'killall -2 lreg' after 3.11261502225s
[INFO -- 2018-11-25 21:59:46]
sending 5 signals using command: 'killall -2 lreg' after 4.68450804788s
[INFO -- 2018-11-25 21:59:47]
sending 5 signals using command: 'killall -2 lreg' after 5.67812717542s
[INFO -- 2018-11-25 21:59:47]
Starting GDB script
[INFO -- 2018-11-25 21:59:47]
initSignal:0.0
[INFO -- 2018-11-25 21:59:47]
endSignal:6.0
[INFO -- 2018-11-25 21:59:47]
sending 5 signals using command: 'killall -2 lreg' after 0.331381324832s
[INFO -- 2018-11-25 21:59:48]
sending 5 signals using command: 'killall -2 lreg' after 0.891788139007s
[INFO -- 2018-11-25 21:59:50]
sending 5 signals using command: 'killall -2 lreg' after 3.17713503663s
[INFO -- 2018-11-25 21:59:51]
Execution finished before waitTime
