[INFO -- 2018-11-23 18:17:46]
Starting flip_value script
version: 1.1
[INFO -- 2018-11-23 18:17:46]
Initialization strings:
[INFO -- 2018-11-23 18:17:46]
(1) file /tmp/lreg/lreg
[INFO -- 2018-11-23 18:17:46]
(2) set args /tmp/lreg/randInput /tmp/lreg/output
[INFO -- 2018-11-23 18:17:46]
initSignal:0
[INFO -- 2018-11-23 18:17:46]
endSignal:3
[INFO -- 2018-11-23 18:17:46]
faultModel:2
[INFO -- 2018-11-23 18:17:47]
Backtrace BEGIN:
#0  dl_main (phdr=<optimized out>, phnum=<optimized out>, user_entry=<optimized out>, auxv=<optimized out>) at rtld.c:2289
#1  0x00007ffff7defdd0 in _dl_sysdep_start (start_argptr=start_argptr@entry=0x7fffffffde50, dl_main=dl_main@entry=0x7ffff7dd7660 <dl_main>) at ../elf/dl-sysdep.c:253
#2  0x00007ffff7dd7128 in _dl_start_final (arg=0x7fffffffde50) at rtld.c:414
#3  _dl_start (arg=0x7fffffffde50) at rtld.c:521
#4  0x00007ffff7dd6098 in _start () from /lib64/ld-linux-x86-64.so.2
#5  0x0000000000000003 in ?? ()
#6  0x00007fffffffe1fc in ?? ()
#7  0x00007fffffffe20b in ?? ()
#8  0x00007fffffffe21f in ?? ()
#9  0x0000000000000000 in ?? ()

2284	rtld.c: No such file or directory.

Backtrace END
Memory content before bitflip:0x01
Fault Model: Random bit-flip
base address to flip value: 0x7ffff7ffdff8 
address max offset: 1
Memory content after  bitflip:0x2f
frame name: dl_main
symbol name: tls_init_tp_called
symbol filename: rtld.c
symbol line: 677
value: 47
value address: 0x7ffff7ffdff8 <tls_init_tp_called>
Type: A boolean type.
Type sizeof: 1

[INFO -- 2018-11-23 18:17:47]
Fault Injection Successful after 1.3789751529693604s
[INFO -- 2018-11-23 18:17:48]
event type: exit
[INFO -- 2018-11-23 18:17:48]
exit code: 0
