[INFO -- 2018-11-25 21:43:40]
Starting flip_value script
version: 1.1
[INFO -- 2018-11-25 21:43:40]
Initialization strings:
[INFO -- 2018-11-25 21:43:40]
(1) file /tmp/lreg/lreg
[INFO -- 2018-11-25 21:43:40]
(2) set args /tmp/lreg/randInput /tmp/lreg/output /tmp/lreg/detected.log
[INFO -- 2018-11-25 21:43:40]
initSignal:0
[INFO -- 2018-11-25 21:43:40]
endSignal:6
[INFO -- 2018-11-25 21:43:40]
faultModel:0
[INFO -- 2018-11-25 21:43:41]
Backtrace BEGIN:
#0  0x00007ffff76db69e in libc_feholdsetround_sse_ctx (r=0, ctx=<synthetic pointer>) at ../sysdeps/i386/fpu/fenv_private.h:447
#1  __ieee754_pow_sse2 (x=<optimized out>, y=3) at ../sysdeps/ieee754/dbl-64/e_pow.c:183
#2  0x00007ffff76bcb14 in __pow (x=-1, y=3) at w_pow_compat.c:30
#3  0x000055555555621b in std::pow<double, int> (__x=-1, __y=3) at /usr/include/c++/7/cmath:418
#4  0x0000555555555237 in predict (v=-1) at lreg.cpp:50
#5  0x00005555555553fc in partialDerivate (pos=0) at lreg.cpp:74
#6  0x0000555555555503 in adjust (alpha=2.2222199999999999e-05) at lreg.cpp:87
#7  0x00005555555556ac in train (iterations=30000, alpha=2.2222199999999999e-05, N=4, stopsWhenStable=true) at lreg.cpp:120
#8  0x0000555555555a1c in execute (input=0x7fffffffe1f1 "/tmp/lreg/randInput") at lreg.cpp:157
#9  0x0000555555555c78 in main (argc=4, argv=0x7fffffffde48) at lreg.cpp:193

442	../sysdeps/i386/fpu/fenv_private.h: No such file or directory.

Backtrace END
Fliping value of field name: i
Fliping array at pos: 1
Memory content before bitflip:0x000x000x300x43
Fault Model: Single bit-flip
base address to flip value: 0x7ffff779f5a4 
address max offset: 4
Memory content after  bitflip:0x000x000x320x43
frame name: libc_feholdsetround_sse_ctx
symbol name: two52e
symbol filename: ../sysdeps/ieee754/dbl-64/upow.h
symbol line: 55
value: {i = {1023, 1127350272}, x = 5066549580792831}
value address: 0x7ffff779f5a0 <two52e>
Type: The type is a union.
Type sizeof: 8
Field name: i
Field Type: The type is an array.
Field Type sizeof: 8
Field name: x
Field Type: A floating point type.
Field Type sizeof: 8

[INFO -- 2018-11-25 21:43:41]
Fault Injection Successful after 1.1049220561981201s
[INFO -- 2018-11-25 21:43:44]
event type: exit
[INFO -- 2018-11-25 21:43:44]
exit code: 0
