[INFO -- 2018-11-25 18:16:49]
sending 5 signals using command: 'killall -2 lreg' after 2.44207417027s
[INFO -- 2018-11-25 18:16:49]
sending 5 signals using command: 'killall -2 lreg' after 3.07587398194s
[INFO -- 2018-11-25 18:16:50]
Starting GDB script
[INFO -- 2018-11-25 18:16:50]
initSignal:0.0
[INFO -- 2018-11-25 18:16:50]
endSignal:6.0
[INFO -- 2018-11-25 18:16:50]
sending 5 signals using command: 'killall -2 lreg' after 0.136749506965s
[INFO -- 2018-11-25 18:16:50]
sending 5 signals using command: 'killall -2 lreg' after 0.343215339283s
[INFO -- 2018-11-25 18:16:51]
sending 5 signals using command: 'killall -2 lreg' after 1.07748974721s
[INFO -- 2018-11-25 18:16:51]
Execution finished before waitTime
