[INFO -- 2018-11-24 10:41:17]
Starting GDB script
[INFO -- 2018-11-24 10:41:17]
initSignal:0.0
[INFO -- 2018-11-24 10:41:17]
endSignal:2.0
[INFO -- 2018-11-24 10:41:18]
sending 5 signals using command: 'killall -2 lreg' after 0.938556572099s
[INFO -- 2018-11-24 10:41:19]
sending 5 signals using command: 'killall -2 lreg' after 1.46146846136s
[INFO -- 2018-11-24 10:41:19]
sending 5 signals using command: 'killall -2 lreg' after 1.382787255s
[INFO -- 2018-11-24 10:41:22]
Execution finished before waitTime
