[INFO -- 2018-11-25 20:34:16]
Starting flip_value script
version: 1.1
[INFO -- 2018-11-25 20:34:16]
Initialization strings:
[INFO -- 2018-11-25 20:34:16]
(1) file /tmp/lreg/lreg
[INFO -- 2018-11-25 20:34:16]
(2) set args /tmp/lreg/randInput /tmp/lreg/output /tmp/lreg/detected.log
[INFO -- 2018-11-25 20:34:16]
initSignal:0
[INFO -- 2018-11-25 20:34:16]
endSignal:6
[INFO -- 2018-11-25 20:34:16]
faultModel:1
[INFO -- 2018-11-25 20:34:19]
event type: exit
[INFO -- 2018-11-25 20:34:19]
exit code: 0
