[INFO -- 2018-11-25 21:14:42]
sending 5 signals using command: 'killall -2 lreg' after 5.78777667225s
[INFO -- 2018-11-25 21:14:42]
Starting GDB script
[INFO -- 2018-11-25 21:14:42]
initSignal:0.0
[INFO -- 2018-11-25 21:14:42]
endSignal:6.0
[INFO -- 2018-11-25 21:14:43]
sending 5 signals using command: 'killall -2 lreg' after 1.25819014418s
[INFO -- 2018-11-25 21:14:43]
sending 5 signals using command: 'killall -2 lreg' after 1.17996756086s
[INFO -- 2018-11-25 21:14:45]
Execution finished before waitTime
