[INFO -- 2018-11-26 16:59:22]
Starting GDB script
[INFO -- 2018-11-26 16:59:22]
initSignal:0.0
[INFO -- 2018-11-26 16:59:22]
endSignal:3.0
[INFO -- 2018-11-26 16:59:23]
sending 5 signals using command: 'killall -2 lreg' after 0.424288872143s
[INFO -- 2018-11-26 16:59:25]
sending 5 signals using command: 'killall -2 lreg' after 2.02824611483s
[INFO -- 2018-11-26 16:59:25]
sending 5 signals using command: 'killall -2 lreg' after 2.14170409009s
[INFO -- 2018-11-26 16:59:26]
Execution finished before waitTime
