[INFO -- 2018-11-26 17:40:54]
Starting flip_value script
version: 1.1
[INFO -- 2018-11-26 17:40:54]
Initialization strings:
[INFO -- 2018-11-26 17:40:54]
(1) file /tmp/lreg/lreg
[INFO -- 2018-11-26 17:40:54]
(2) set args /tmp/lreg/randInput /tmp/lreg/output
[INFO -- 2018-11-26 17:40:54]
initSignal:0
[INFO -- 2018-11-26 17:40:54]
endSignal:3
[INFO -- 2018-11-26 17:40:54]
faultModel:0
[INFO -- 2018-11-26 17:40:56]
Backtrace BEGIN:
#0  0x000055555555576f in predict (v=13) at lreg.cpp:115
#1  0x0000555555555a53 in partialDerivate (pos1=0, pos2=0) at lreg.cpp:142
#2  0x0000555555555bbe in adjust (alpha1=5.0000000000000002e-05, alpha2=5.0000000000000002e-05) at lreg.cpp:156
#3  0x0000555555555ee0 in train (iter1=20000, iter2=20000, N=3, alpha1=5.0000000000000002e-05, alpha2=5.0000000000000002e-05, stopsWhenStable=true) at lreg.cpp:193
#4  0x0000555555556467 in main (argc=3, argv=0x7fffffffde58) at lreg.cpp:253

110		Predicts the value related to v using the Ts variables
111	*/
112	double predict(double v){
113		double val = 0;
114		
115		for(UINT i1 = 0, i2 = 0; verifyUintDup(i1, i2)<T1.size(); i1++, i2++){
116			val+= (verifyDoubleDup(T1[verifyUintDup(i1, i2)], T2[verifyUintDup(i1, i2)]) * pow(v, verifyUintDup(i1, i2)));
117		}
118		return val;
119		

Backtrace END
Memory content before bitflip:0x000x000x000x000x000xdb0xb20xc0
Fault Model: Single bit-flip
base address to flip value: 0x7fffffffd928
address max offset: 8
Memory content after  bitflip:0x000x000x000x000x000xdb0xb20x40
frame name: main
symbol name: yChecksum
symbol filename: lreg.cpp
symbol line: 233
value: 4827
value address: 0x7fffffffd928
Type: A floating point type.
Type sizeof: 8

[INFO -- 2018-11-26 17:40:56]
Fault Injection Successful after 2.2182579040527344s
[INFO -- 2018-11-26 17:41:00]
event type: exit
[INFO -- 2018-11-26 17:41:00]
exit code: 0
