[INFO -- 2018-11-25 16:56:54]
Starting flip_value script
version: 1.1
[INFO -- 2018-11-25 16:56:54]
Initialization strings:
[INFO -- 2018-11-25 16:56:54]
(1) file /tmp/lreg/lreg
[INFO -- 2018-11-25 16:56:54]
(2) set args /tmp/lreg/randInput /tmp/lreg/output /tmp/lreg/detected.log
[INFO -- 2018-11-25 16:56:54]
initSignal:0
[INFO -- 2018-11-25 16:56:54]
endSignal:6
[INFO -- 2018-11-25 16:56:54]
faultModel:2
[EXCEPTION -- 2018-11-25 16:56:58]
pythonException: Unable to exit loop in struct fields; Exiting wihtout making a bit flip
[INFO -- 2018-11-25 16:56:59]
Backtrace BEGIN:
#0  0x0000555555555217 in predict (v=21) at lreg.cpp:50
#1  0x00005555555553fc in partialDerivate (pos=2) at lreg.cpp:74
#2  0x0000555555555503 in adjust (alpha=2.2222199999999999e-05) at lreg.cpp:87
#3  0x00005555555556ac in train (iterations=30000, alpha=2.2222199999999999e-05, N=4, stopsWhenStable=true) at lreg.cpp:120
#4  0x0000555555555a1c in execute (input=0x7fffffffe1f1 "/tmp/lreg/randInput") at lreg.cpp:157
#5  0x0000555555555cb0 in main (argc=4, argv=0x7fffffffde48) at lreg.cpp:196

45		Predicts the value related to v using the Ts variables
46	*/
47	double predict(double v){
48		double val = 0;
49		for(int i = 0; i<T.size(); i++){
50			val+= (T[i] * pow(v, i));
51		}
52		return val;
53		
54	}

Backtrace END
Memory content before bitflip:0x100x000x000x00
Fault Model: Random bit-flip
base address to flip value: 0x7fffffffd670
address max offset: 4
Memory content after  bitflip:0x9e0x6f0x620x0a
frame name: execute
symbol name: sizeOfTraining
symbol filename: lreg.cpp
symbol line: 144
value: 174223262
value address: 0x7fffffffd670
Type: The type is an integer type.
Type sizeof: 4

[INFO -- 2018-11-25 16:56:59]
Fault Injection Successful after 5.121878623962402s
[INFO -- 2018-11-25 16:57:01]
event type: exit
[INFO -- 2018-11-25 16:57:01]
exit code: 0
