[INFO -- 2018-11-25 15:23:50]
Starting flip_value script
version: 1.1
[INFO -- 2018-11-25 15:23:50]
Initialization strings:
[INFO -- 2018-11-25 15:23:50]
(1) file /tmp/lreg/lreg
[INFO -- 2018-11-25 15:23:50]
(2) set args /tmp/lreg/randInput /tmp/lreg/output /tmp/lreg/detected.log
[INFO -- 2018-11-25 15:23:50]
initSignal:0
[INFO -- 2018-11-25 15:23:50]
endSignal:6
[INFO -- 2018-11-25 15:23:50]
faultModel:1
[EXCEPTION -- 2018-11-25 15:23:53]
pythonException: empty range for randrange() (0,0, 0)
[EXCEPTION -- 2018-11-25 15:23:53]
pythonException: empty range for randrange() (0,0, 0)
[EXCEPTION -- 2018-11-25 15:23:53]
gdbException: Cannot access memory at address 0x550555772540
[EXCEPTION -- 2018-11-25 15:23:54]
pythonException: Unable to exit loop in struct fields; Exiting wihtout making a bit flip
[INFO -- 2018-11-25 15:23:54]
event type: exit
[EXCEPTION -- 2018-11-25 15:23:54]
exit code: no exit code available
