[INFO -- 2018-11-24 11:51:49]
Starting GDB script
[INFO -- 2018-11-24 11:51:49]
initSignal:0.0
[INFO -- 2018-11-24 11:51:49]
endSignal:2.0
[INFO -- 2018-11-24 11:51:50]
sending 5 signals using command: 'killall -2 lreg' after 1.07193470702s
[INFO -- 2018-11-24 11:51:50]
sending 5 signals using command: 'killall -2 lreg' after 1.35002298777s
[INFO -- 2018-11-24 11:51:51]
sending 5 signals using command: 'killall -2 lreg' after 1.91142814656s
[INFO -- 2018-11-24 11:51:55]
Execution finished before waitTime
