[INFO -- 2018-11-26 16:45:21]
Starting flip_value script
version: 1.1
[INFO -- 2018-11-26 16:45:21]
Initialization strings:
[INFO -- 2018-11-26 16:45:21]
(1) file /tmp/lreg/lreg
[INFO -- 2018-11-26 16:45:21]
(2) set args /tmp/lreg/randInput /tmp/lreg/output
[INFO -- 2018-11-26 16:45:21]
initSignal:0
[INFO -- 2018-11-26 16:45:21]
endSignal:3
[INFO -- 2018-11-26 16:45:21]
faultModel:1
[INFO -- 2018-11-26 16:45:22]
Backtrace BEGIN:
#0  0x0000555555555106 in verifyUintDup (a=7, b=7) at lreg.cpp:61
#1  0x0000555555555a99 in partialDerivate (pos1=0, pos2=0) at lreg.cpp:142
#2  0x0000555555555bbe in adjust (alpha1=0.00020000000000000001, alpha2=0.00020000000000000001) at lreg.cpp:156
#3  0x0000555555555ee0 in train (iter1=10000, iter2=10000, N=2, alpha1=0.00020000000000000001, alpha2=0.00020000000000000001, stopsWhenStable=true) at lreg.cpp:193
#4  0x0000555555556467 in main (argc=3, argv=0x7fffffffde58) at lreg.cpp:253

56	*/
57	
58	int detected = 0;
59	
60	
61	UINT verifyUintDup(UINT a, UINT b){
62		if (a != b && detected != 1){
63			//gerar entrada no log
64			ofstream fp ("/tmp/lreg/detected.log", std::ofstream::app);
65			fp << "verifyUint: a = "<<a<<"; b = "<<b<<endl;

Backtrace END
Memory content before bitflip:0x000x000x000x00
Fault Model: Double bit-flip
base address to flip value: 0x7fffffffd718
address max offset: 4
Memory content after  bitflip:0x000x000x000x48
frame name: partialDerivate
symbol name: pos2
symbol filename: lreg.cpp
symbol line: 138
value: 1207959552
value address: 0x7fffffffd718
Type: The type is an integer type.
Type sizeof: 4

[INFO -- 2018-11-26 16:45:22]
Fault Injection Successful after 1.0671086311340332s
[INFO -- 2018-11-26 16:45:24]
event type: exit
[INFO -- 2018-11-26 16:45:24]
exit code: 0
