[INFO -- 2018-11-27 21:45:44]
Starting GDB script
[INFO -- 2018-11-27 21:45:44]
initSignal:0.0
[INFO -- 2018-11-27 21:45:44]
endSignal:3.0
[INFO -- 2018-11-27 21:45:45]
sending 5 signals using command: 'killall -2 lreg' after 0.827467447299s
[INFO -- 2018-11-27 21:45:46]
sending 5 signals using command: 'killall -2 lreg' after 1.7469351122s
[INFO -- 2018-11-27 21:45:46]
sending 5 signals using command: 'killall -2 lreg' after 1.98056974763s
[INFO -- 2018-11-27 21:45:47]
Execution finished before waitTime
