[INFO -- 2018-11-24 16:31:50]
Starting flip_value script
version: 1.1
[INFO -- 2018-11-24 16:31:50]
Initialization strings:
[INFO -- 2018-11-24 16:31:50]
(1) file /tmp/lreg/lreg
[INFO -- 2018-11-24 16:31:50]
(2) set args /tmp/lreg/randInput /tmp/lreg/output /tmp/lreg/detected.log
[INFO -- 2018-11-24 16:31:50]
initSignal:0
[INFO -- 2018-11-24 16:31:50]
endSignal:6
[INFO -- 2018-11-24 16:31:50]
faultModel:0
[INFO -- 2018-11-24 16:31:54]
event type: exit
[INFO -- 2018-11-24 16:31:54]
exit code: 0
