[INFO -- 2018-11-24 10:39:34]
Starting flip_value script
version: 1.1
[INFO -- 2018-11-24 10:39:34]
Initialization strings:
[INFO -- 2018-11-24 10:39:34]
(1) file /tmp/lreg/lreg
[INFO -- 2018-11-24 10:39:34]
(2) set args /tmp/lreg/randInput /tmp/lreg/output
[INFO -- 2018-11-24 10:39:34]
initSignal:0
[INFO -- 2018-11-24 10:39:34]
endSignal:2
[INFO -- 2018-11-24 10:39:34]
faultModel:2
[INFO -- 2018-11-24 10:39:36]
Backtrace BEGIN:
#0  0x000055555555517d in predict (v=4.6355705386583318e-310) at lreg.cpp:47
#1  0x00005555555553ac in partialDerivate (pos=1) at lreg.cpp:74
#2  0x00005555555554b3 in adjust (alpha=0.00020000000000000001) at lreg.cpp:87
#3  0x000055555555565c in train (iterations=10000, alpha=0.00020000000000000001, N=2, stopsWhenStable=true) at lreg.cpp:120
#4  0x0000555555555ab7 in main (argc=3, argv=0x7fffffffde58) at lreg.cpp:174

42	}
43	
44	/**
45		Predicts the value related to v using the Ts variables
46	*/
47	double predict(double v){
48		double val = 0;
49		for(int i = 0; i<T.size(); i++){
50			val+= (T[i] * pow(v, i));
51		}

Backtrace END
Memory content before bitflip:0x6f0x130x000x00
Fault Model: Random bit-flip
base address to flip value: 0x7fffffffd82c
address max offset: 4
Memory content after  bitflip:0x040xcb0xdc0x11
frame name: train
symbol name: i
symbol filename: lreg.cpp
symbol line: 118
value: 299682564
value address: 0x7fffffffd82c
Type: The type is an integer type.
Type sizeof: 4

[INFO -- 2018-11-24 10:39:36]
Fault Injection Successful after 2.097898244857788s
[INFO -- 2018-11-24 10:39:38]
event type: exit
[INFO -- 2018-11-24 10:39:38]
exit code: 0
