[INFO -- 2018-11-27 21:01:03]
sending 5 signals using command: 'killall -2 lreg' after 2.68117127414s
[INFO -- 2018-11-27 21:01:03]
Starting GDB script
[INFO -- 2018-11-27 21:01:03]
initSignal:0.0
[INFO -- 2018-11-27 21:01:03]
endSignal:3.0
[INFO -- 2018-11-27 21:01:04]
sending 5 signals using command: 'killall -2 lreg' after 0.273532387207s
[INFO -- 2018-11-27 21:01:04]
sending 5 signals using command: 'killall -2 lreg' after 0.308022493019s
[INFO -- 2018-11-27 21:01:06]
sending 5 signals using command: 'killall -2 lreg' after 2.91196639067s
[INFO -- 2018-11-27 21:01:07]
Execution finished before waitTime
