[INFO -- 2018-11-23 18:51:55]
Starting flip_value script
version: 1.1
[INFO -- 2018-11-23 18:51:55]
Initialization strings:
[INFO -- 2018-11-23 18:51:55]
(1) file /tmp/lreg/lreg
[INFO -- 2018-11-23 18:51:55]
(2) set args /tmp/lreg/randInput /tmp/lreg/output
[INFO -- 2018-11-23 18:51:55]
initSignal:0
[INFO -- 2018-11-23 18:51:55]
endSignal:3
[INFO -- 2018-11-23 18:51:55]
faultModel:0
[INFO -- 2018-11-23 18:51:55]
Backtrace BEGIN:
#0  _dl_lookup_symbol_x (undef_name=0x7ffff7a766bb "_ZNK10__cxxabiv117__class_type_info20__do_find_public_srcElPKvPKS0_S2_", undef_map=undef_map@entry=0x7ffff7fdd000, ref=ref@entry=0x7fffffffdac0, symbol_scope=symbol_scope@entry=0x7ffff7fdd358, version=0x7ffff7fdb2a0, type_class=0, flags=1, skip_map=0x0) at dl-lookup.c:793
#1  0x00007ffff7de1af9 in elf_machine_rela (skip_ifunc=<optimized out>, reloc_addr_arg=0x7ffff7dc6838, version=<optimized out>, sym=<optimized out>, reloc=0x7ffff7abffc0, map=0x7ffff7fdd000) at ../sysdeps/x86_64/dl-machine.h:308
#2  elf_dynamic_do_Rela (skip_ifunc=<optimized out>, lazy=<optimized out>, nrelative=<optimized out>, relsize=<optimized out>, reladdr=<optimized out>, map=0x7ffff7fdd000) at do-rel.h:137
#3  _dl_relocate_object (scope=<optimized out>, reloc_mode=<optimized out>, consider_profiling=<optimized out>, consider_profiling@entry=0) at dl-reloc.c:258
#4  0x00007ffff7dd9307 in dl_main (phdr=<optimized out>, phnum=<optimized out>, user_entry=<optimized out>, auxv=<optimized out>) at rtld.c:2190
#5  0x00007ffff7defdd0 in _dl_sysdep_start (start_argptr=start_argptr@entry=0x7fffffffde50, dl_main=dl_main@entry=0x7ffff7dd7660 <dl_main>) at ../elf/dl-sysdep.c:253
#6  0x00007ffff7dd7128 in _dl_start_final (arg=0x7fffffffde50) at rtld.c:414
#7  _dl_start (arg=0x7fffffffde50) at rtld.c:521
#8  0x00007ffff7dd6098 in _start () from /lib64/ld-linux-x86-64.so.2
#9  0x0000000000000003 in ?? ()
#10 0x00007fffffffe1fc in ?? ()
#11 0x00007fffffffe20b in ?? ()
#12 0x00007fffffffe21f in ?? ()
#13 0x0000000000000000 in ?? ()

788	dl-lookup.c: No such file or directory.

Backtrace END
Memory content before bitflip:0x000x000x000x00
Fault Model: Single bit-flip
base address to flip value: 0x7ffff7ffce60 
address max offset: 4
Memory content after  bitflip:0x000x020x000x00
frame name: _dl_sysdep_start
symbol name: __GI___libc_enable_secure
symbol filename: ../elf/dl-sysdep.c
symbol line: 58
value: 512
value address: 0x7ffff7ffce60 <__libc_enable_secure>
Type: The type is an integer type.
Type sizeof: 4

[INFO -- 2018-11-23 18:51:55]
Fault Injection Successful after 0.38357114791870117s
[INFO -- 2018-11-23 18:51:56]
event type: exit
[INFO -- 2018-11-23 18:51:56]
exit code: 0
