[INFO -- 2018-11-29 13:51:58]
Starting GDB script
[INFO -- 2018-11-29 13:51:58]
initSignal:0.0
[INFO -- 2018-11-29 13:51:58]
endSignal:6.0
[INFO -- 2018-11-29 13:51:58]
sending 5 signals using command: 'killall -2 lreg' after 0.513903347391s
[INFO -- 2018-11-29 13:51:59]
sending 5 signals using command: 'killall -2 lreg' after 1.24785153242s
[INFO -- 2018-11-29 13:52:02]
sending 5 signals using command: 'killall -2 lreg' after 4.28640129131s
[INFO -- 2018-11-29 13:52:06]
Execution finished before waitTime
