[INFO -- 2018-11-26 16:00:27]
Starting GDB script
[INFO -- 2018-11-26 16:00:27]
initSignal:0.0
[INFO -- 2018-11-26 16:00:27]
endSignal:3.0
[INFO -- 2018-11-26 16:00:27]
sending 5 signals using command: 'killall -2 lreg' after 0.0209908434885s
[INFO -- 2018-11-26 16:00:29]
sending 5 signals using command: 'killall -2 lreg' after 1.53146158406s
[INFO -- 2018-11-26 16:00:29]
sending 5 signals using command: 'killall -2 lreg' after 1.97445106721s
[INFO -- 2018-11-26 16:00:30]
Execution finished before waitTime
