[INFO -- 2018-11-26 21:23:35]
Starting flip_value script
version: 1.1
[INFO -- 2018-11-26 21:23:35]
Initialization strings:
[INFO -- 2018-11-26 21:23:35]
(1) file /tmp/lreg/lreg
[INFO -- 2018-11-26 21:23:35]
(2) set args /tmp/lreg/randInput /tmp/lreg/output
[INFO -- 2018-11-26 21:23:35]
initSignal:0
[INFO -- 2018-11-26 21:23:35]
endSignal:3
[INFO -- 2018-11-26 21:23:35]
faultModel:0
[INFO -- 2018-11-26 21:23:37]
Backtrace BEGIN:
#0  0x00007ffff76da5c4 in __ieee754_pow_sse2 (x=-1, y=0) at ../sysdeps/ieee754/dbl-64/e_pow.c:81
#1  0x00007ffff76bcb14 in __pow (x=-1, y=0) at w_pow_compat.c:30
#2  0x0000555555556826 in std::pow<double, unsigned int> (__x=-1, __y=0) at /usr/include/c++/7/cmath:418
#3  0x0000555555555814 in predict (v=-1) at lreg.cpp:116
#4  0x0000555555555928 in meanSquaredError () at lreg.cpp:128
#5  0x0000555555555ee5 in train (iter1=20000, iter2=20000, N=3, alpha1=5.0000000000000002e-05, alpha2=5.0000000000000002e-05, stopsWhenStable=true) at lreg.cpp:194
#6  0x0000555555556467 in main (argc=3, argv=0x7fffffffde58) at lreg.cpp:253

76	../sysdeps/ieee754/dbl-64/e_pow.c: No such file or directory.

Backtrace END
Fliping value of field: std::_Vector_base<double, std::allocator<double> >
Fliping value of field: _M_impl
Fliping value of field: _M_finish
Fliping a bit of the pointer
Memory content before bitflip:0x380x250x770x550x550x550x000x00
Fault Model: Single bit-flip
base address to flip value: 0x55555575b188 
address max offset: 8
Memory content after  bitflip:0x380x250x770x550xd50x550x000x00
frame name: predict
symbol name: T1
symbol filename: lreg.cpp
symbol line: 36
value: std::vector of length 68719476739, capacity 3 = {0.53455182821240099, -0.029723374911827364, -2.9911916431859473, 1.6304166312761136e-322, 0.53444591208398151, -0.029716707477259512, -2.991324130098211, 1.6304166312761136e-322, 4.6355706480405627e-310, -0.029725187350485998, -2.9911911098827879, 1.6304166312761136e-322, 0, -0.029716707477259512, -2.991324130098211, 2.155756632499111e-319, 0, 0, 0, 0, 0, 0, 0, 0, 0, 0, 0, 0, 0, 0, 0, 0, 0, 0, 0, 0, 0, 0, 0, 0, 0, 0, 0, 0, 0, 0, 0, 0, 0, 0, 0, 0, 0, 0, 0, 0, 0, 0, 0, 0, 0, 0, 0, 0, 0, 0, 0, 0, 0, 0, 0, 0, 0, 0, 0, 0, 0, 0, 0, 0, 0, 0, 0, 0, 0, 0, 0, 0, 0, 0, 0, 0, 0, 0, 0, 0, 0, 0, 0, 0, 0, 0, 0, 0, 0, 0, 0, 0, 0, 0, 0, 0, 0, 0, 0, 0, 0, 0, 0, 0, 0, 0, 0, 0, 0, 0, 0, 0, 0, 0, 0, 0, 0, 0, 0, 0, 0, 0, 0, 0, 0, 0, 0, 0, 0, 0, 0, 0, 0, 0, 0, 0, 0, 0, 0, 0, 0, 0, 0, 0, 0, 0, 0, 0, 0, 0, 0, 0, 0, 0, 0, 0, 0, 0, 0, 0, 0, 0, 0, 0, 0, 0, 0, 0, 0, 0, 0, 0, 0, 0, 0, 0, 0, 0, 0, 0, 0, 0, 0, 0...}
value address: 0x55555575b180 <T1>
Type: The type is a structure.
Type sizeof: 24
Field name: std::_Vector_base<double, std::allocator<double> >
Field Type: The type is a structure.
Field Type sizeof: 24

[INFO -- 2018-11-26 21:23:37]
Fault Injection Successful after 2.8105313777923584s
[INFO -- 2018-11-26 21:23:38]
event type: exit
[EXCEPTION -- 2018-11-26 21:23:38]
exit code: no exit code available
