[INFO -- 2018-11-22 20:28:06]
Starting GDB script
[INFO -- 2018-11-22 20:28:06]
initSignal:0.0
[INFO -- 2018-11-22 20:28:06]
endSignal:3.0
[INFO -- 2018-11-22 20:28:06]
sending 5 signals using command: 'killall -2 lreg' after 0.172417627592s
[INFO -- 2018-11-22 20:28:08]
sending 5 signals using command: 'killall -2 lreg' after 2.13628614708s
[INFO -- 2018-11-22 20:28:08]
sending 5 signals using command: 'killall -2 lreg' after 2.23977622973s
[INFO -- 2018-11-22 20:28:12]
Execution finished before waitTime
