[INFO -- 2018-11-25 14:39:17]
sending 5 signals using command: 'killall -2 lreg' after 4.4783504083s
[INFO -- 2018-11-25 14:39:18]
sending 5 signals using command: 'killall -2 lreg' after 5.20756391935s
[INFO -- 2018-11-25 14:39:18]
Starting GDB script
[INFO -- 2018-11-25 14:39:18]
initSignal:0.0
[INFO -- 2018-11-25 14:39:18]
endSignal:6.0
[INFO -- 2018-11-25 14:39:21]
sending 5 signals using command: 'killall -2 lreg' after 3.37952392195s
[INFO -- 2018-11-25 14:39:22]
Execution finished before waitTime
