[INFO -- 2018-11-24 18:57:12]
sending 5 signals using command: 'killall -2 lreg' after 5.41672266863s
[INFO -- 2018-11-24 18:57:12]
Starting GDB script
[INFO -- 2018-11-24 18:57:12]
initSignal:0.0
[INFO -- 2018-11-24 18:57:12]
endSignal:6.0
[INFO -- 2018-11-24 18:57:13]
sending 5 signals using command: 'killall -2 lreg' after 0.52806418586s
[INFO -- 2018-11-24 18:57:13]
sending 5 signals using command: 'killall -2 lreg' after 1.3108143658s
[INFO -- 2018-11-24 18:57:16]
Execution finished before waitTime
