[INFO -- 2018-11-27 19:57:48]
Starting flip_value script
version: 1.1
[INFO -- 2018-11-27 19:57:48]
Initialization strings:
[INFO -- 2018-11-27 19:57:48]
(1) file /tmp/lreg/lreg
[INFO -- 2018-11-27 19:57:48]
(2) set args /tmp/lreg/randInput /tmp/lreg/output
[INFO -- 2018-11-27 19:57:48]
initSignal:0
[INFO -- 2018-11-27 19:57:48]
endSignal:3
[INFO -- 2018-11-27 19:57:48]
faultModel:2
[INFO -- 2018-11-27 19:57:49]
Backtrace BEGIN:
#0  dl_main (phdr=<optimized out>, phnum=<optimized out>, user_entry=<optimized out>, auxv=<optimized out>) at rtld.c:2289
#1  0x00007ffff7defdd0 in _dl_sysdep_start (start_argptr=start_argptr@entry=0x7fffffffde50, dl_main=dl_main@entry=0x7ffff7dd7660 <dl_main>) at ../elf/dl-sysdep.c:253
#2  0x00007ffff7dd7128 in _dl_start_final (arg=0x7fffffffde50) at rtld.c:414
#3  _dl_start (arg=0x7fffffffde50) at rtld.c:521
#4  0x00007ffff7dd6098 in _start () from /lib64/ld-linux-x86-64.so.2
#5  0x0000000000000003 in ?? ()
#6  0x00007fffffffe1fe in ?? ()
#7  0x00007fffffffe20d in ?? ()
#8  0x00007fffffffe221 in ?? ()
#9  0x0000000000000000 in ?? ()

2284	rtld.c: No such file or directory.

Backtrace END
Memory content before bitflip:0x330x870xbe0xf70xe80x9f0x440x8b
Fault Model: Random bit-flip
base address to flip value: 0x7ffff7ffc730 
address max offset: 8
Memory content after  bitflip:0xa40x780x540x920x8a0x5b0x4e0x24
frame name: _dl_start_final
symbol name: __pointer_chk_guard_local
symbol filename: rtld.c
symbol line: 96
value: 2616129084267460772
value address: 0x7ffff7ffc730 <__pointer_chk_guard_local>
Type: The type is an integer type.
Type sizeof: 8

[INFO -- 2018-11-27 19:57:49]
Fault Injection Successful after 1.9218239784240723s
[INFO -- 2018-11-27 19:57:54]
event type: exit
[INFO -- 2018-11-27 19:57:54]
exit code: 0
