[INFO -- 2018-11-24 16:23:07]
sending 5 signals using command: 'killall -2 lreg' after 4.02374103369s
[INFO -- 2018-11-24 16:23:09]
sending 5 signals using command: 'killall -2 lreg' after 5.97391337583s
[INFO -- 2018-11-24 16:23:09]
Starting GDB script
[INFO -- 2018-11-24 16:23:09]
initSignal:0.0
[INFO -- 2018-11-24 16:23:09]
endSignal:6.0
[INFO -- 2018-11-24 16:23:12]
sending 5 signals using command: 'killall -2 lreg' after 2.72675199522s
[INFO -- 2018-11-24 16:23:12]
Execution finished before waitTime
