[INFO -- 2018-11-22 17:20:02]
Starting GDB script
[INFO -- 2018-11-22 17:20:02]
initSignal:0.0
[INFO -- 2018-11-22 17:20:02]
endSignal:3.0
[INFO -- 2018-11-22 17:20:03]
sending 5 signals using command: 'killall -2 lreg' after 0.941592095552s
[INFO -- 2018-11-22 17:20:03]
sending 5 signals using command: 'killall -2 lreg' after 1.89768206334s
[INFO -- 2018-11-22 17:20:04]
sending 5 signals using command: 'killall -2 lreg' after 2.10160760664s
[INFO -- 2018-11-22 17:20:08]
Execution finished before waitTime
