[INFO -- 2018-11-29 15:19:44]
sending 5 signals using command: 'killall -2 lreg' after 3.82619818354s
[INFO -- 2018-11-29 15:19:44]
sending 5 signals using command: 'killall -2 lreg' after 4.21600222631s
[INFO -- 2018-11-29 15:19:45]
sending 5 signals using command: 'killall -2 lreg' after 4.82206645018s
[INFO -- 2018-11-29 15:19:45]
Starting GDB script
[INFO -- 2018-11-29 15:19:45]
initSignal:0.0
[INFO -- 2018-11-29 15:19:45]
endSignal:6.0
[INFO -- 2018-11-29 15:19:46]
sending 5 signals using command: 'killall -2 lreg' after 1.65855567134s
[INFO -- 2018-11-29 15:19:48]
Execution finished before waitTime
