[INFO -- 2018-11-25 15:44:19]
Starting GDB script
[INFO -- 2018-11-25 15:44:19]
initSignal:0.0
[INFO -- 2018-11-25 15:44:19]
endSignal:6.0
[INFO -- 2018-11-25 15:44:23]
sending 5 signals using command: 'killall -2 lreg' after 4.15002931702s
[INFO -- 2018-11-25 15:44:23]
sending 5 signals using command: 'killall -2 lreg' after 4.55624883733s
[INFO -- 2018-11-25 15:44:23]
sending 5 signals using command: 'killall -2 lreg' after 4.58048150565s
[INFO -- 2018-11-25 15:44:43]
Execution did not finish before waitTime
