[INFO -- 2018-11-22 18:19:05]
Starting GDB script
[INFO -- 2018-11-22 18:19:05]
initSignal:0.0
[INFO -- 2018-11-22 18:19:05]
endSignal:3.0
[INFO -- 2018-11-22 18:19:08]
sending 5 signals using command: 'killall -2 lreg' after 1.69498453643s
[INFO -- 2018-11-22 18:19:08]
sending 5 signals using command: 'killall -2 lreg' after 1.59248186547s
[INFO -- 2018-11-22 18:19:08]
sending 5 signals using command: 'killall -2 lreg' after 2.57928927816s
[INFO -- 2018-11-22 18:19:11]
Execution finished before waitTime
