[INFO -- 2018-11-25 13:06:55]
Starting GDB script
[INFO -- 2018-11-25 13:06:55]
initSignal:0.0
[INFO -- 2018-11-25 13:06:55]
endSignal:6.0
[INFO -- 2018-11-25 13:06:57]
sending 5 signals using command: 'killall -2 lreg' after 1.54156554586s
[INFO -- 2018-11-25 13:07:00]
sending 5 signals using command: 'killall -2 lreg' after 4.131690677s
[INFO -- 2018-11-25 13:07:00]
sending 5 signals using command: 'killall -2 lreg' after 5.00394989043s
[INFO -- 2018-11-25 13:07:00]
Execution finished before waitTime
