[INFO -- 2018-11-27 21:35:04]
Starting GDB script
[INFO -- 2018-11-27 21:35:04]
initSignal:0.0
[INFO -- 2018-11-27 21:35:04]
endSignal:3.0
[INFO -- 2018-11-27 21:35:04]
sending 5 signals using command: 'killall -2 lreg' after 0.243111820426s
[INFO -- 2018-11-27 21:35:06]
sending 5 signals using command: 'killall -2 lreg' after 2.48356834169s
[INFO -- 2018-11-27 21:35:07]
sending 5 signals using command: 'killall -2 lreg' after 2.98780567527s
[INFO -- 2018-11-27 21:35:08]
Execution finished before waitTime
