[INFO -- 2018-11-26 21:20:43]
Starting flip_value script
version: 1.1
[INFO -- 2018-11-26 21:20:43]
Initialization strings:
[INFO -- 2018-11-26 21:20:43]
(1) file /tmp/lreg/lreg
[INFO -- 2018-11-26 21:20:43]
(2) set args /tmp/lreg/randInput /tmp/lreg/output
[INFO -- 2018-11-26 21:20:43]
initSignal:0
[INFO -- 2018-11-26 21:20:43]
endSignal:3
[INFO -- 2018-11-26 21:20:43]
faultModel:1
[INFO -- 2018-11-26 21:20:45]
Backtrace BEGIN:
#0  0x00005555555550fe in verifyUintDup (a=10, b=10) at lreg.cpp:61
#1  0x000055555555589e in meanSquaredError () at lreg.cpp:128
#2  0x0000555555555ee5 in train (iter1=20000, iter2=20000, N=3, alpha1=5.0000000000000002e-05, alpha2=5.0000000000000002e-05, stopsWhenStable=true) at lreg.cpp:194
#3  0x0000555555556467 in main (argc=3, argv=0x7fffffffde58) at lreg.cpp:253

56	*/
57	
58	int detected = 0;
59	
60	
61	UINT verifyUintDup(UINT a, UINT b){
62		if (a != b && detected != 1){
63			//gerar entrada no log
64			ofstream fp ("/tmp/lreg/detected.log", std::ofstream::app);
65			fp << "verifyUint: a = "<<a<<"; b = "<<b<<endl;

Backtrace END
Memory content before bitflip:0x0a0x000x000x00
Fault Model: Double bit-flip
base address to flip value: 0x7fffffffd53c
address max offset: 4
Memory content after  bitflip:0x0a0x000x000x44
frame name: verifyUintDup
symbol name: a
symbol filename: lreg.cpp
symbol line: 61
value: 1140850698
value address: 0x7fffffffd53c
Type: The type is an integer type.
Type sizeof: 4

[INFO -- 2018-11-26 21:20:45]
Fault Injection Successful after 2.966660499572754s
[INFO -- 2018-11-26 21:20:49]
event type: exit
[INFO -- 2018-11-26 21:20:49]
exit code: 0
