[INFO -- 2018-11-29 14:44:16]
Starting GDB script
[INFO -- 2018-11-29 14:44:16]
initSignal:0.0
[INFO -- 2018-11-29 14:44:16]
endSignal:6.0
[INFO -- 2018-11-29 14:44:18]
sending 5 signals using command: 'killall -2 lreg' after 2.69373614711s
[INFO -- 2018-11-29 14:44:19]
sending 5 signals using command: 'killall -2 lreg' after 3.57878999531s
[INFO -- 2018-11-29 14:44:22]
sending 5 signals using command: 'killall -2 lreg' after 5.87046640969s
[INFO -- 2018-11-29 14:44:40]
Execution did not finish before waitTime
