[INFO -- 2018-11-25 22:09:34]
Starting flip_value script
version: 1.1
[INFO -- 2018-11-25 22:09:34]
Initialization strings:
[INFO -- 2018-11-25 22:09:34]
(1) file /tmp/lreg/lreg
[INFO -- 2018-11-25 22:09:34]
(2) set args /tmp/lreg/randInput /tmp/lreg/output /tmp/lreg/detected.log
[INFO -- 2018-11-25 22:09:34]
initSignal:0
[INFO -- 2018-11-25 22:09:34]
endSignal:6
[INFO -- 2018-11-25 22:09:34]
faultModel:2
[INFO -- 2018-11-25 22:09:37]
event type: exit
[INFO -- 2018-11-25 22:09:37]
exit code: 0
