[INFO -- 2018-11-24 12:44:55]
Starting GDB script
[INFO -- 2018-11-24 12:44:55]
initSignal:0.0
[INFO -- 2018-11-24 12:44:55]
endSignal:2.0
[INFO -- 2018-11-24 12:44:55]
sending 5 signals using command: 'killall -2 lreg' after 0.248025486474s
[INFO -- 2018-11-24 12:44:56]
sending 5 signals using command: 'killall -2 lreg' after 0.53833108079s
[INFO -- 2018-11-24 12:44:57]
sending 5 signals using command: 'killall -2 lreg' after 1.49635516092s
[INFO -- 2018-11-24 12:44:58]
Execution finished before waitTime
