[INFO -- 2018-11-27 20:45:21]
Starting GDB script
[INFO -- 2018-11-27 20:45:21]
initSignal:0.0
[INFO -- 2018-11-27 20:45:21]
endSignal:3.0
[INFO -- 2018-11-27 20:45:22]
sending 5 signals using command: 'killall -2 lreg' after 0.439777109879s
[INFO -- 2018-11-27 20:45:22]
sending 5 signals using command: 'killall -2 lreg' after 1.02895618518s
[INFO -- 2018-11-27 20:45:24]
sending 5 signals using command: 'killall -2 lreg' after 2.38704772366s
[INFO -- 2018-11-27 20:45:28]
Execution finished before waitTime
