[INFO -- 2018-11-26 18:43:22]
Starting GDB script
[INFO -- 2018-11-26 18:43:22]
initSignal:0.0
[INFO -- 2018-11-26 18:43:22]
endSignal:3.0
[INFO -- 2018-11-26 18:43:22]
sending 5 signals using command: 'killall -2 lreg' after 0.0712236983104s
[INFO -- 2018-11-26 18:43:24]
sending 5 signals using command: 'killall -2 lreg' after 1.96745887785s
[INFO -- 2018-11-26 18:43:24]
sending 5 signals using command: 'killall -2 lreg' after 2.46425878059s
[INFO -- 2018-11-26 18:43:26]
Execution finished before waitTime
