[INFO -- 2018-11-26 21:07:09]
Starting flip_value script
version: 1.1
[INFO -- 2018-11-26 21:07:09]
Initialization strings:
[INFO -- 2018-11-26 21:07:10]
(1) file /tmp/lreg/lreg
[INFO -- 2018-11-26 21:07:10]
(2) set args /tmp/lreg/randInput /tmp/lreg/output
[INFO -- 2018-11-26 21:07:10]
initSignal:0
[INFO -- 2018-11-26 21:07:10]
endSignal:3
[INFO -- 2018-11-26 21:07:10]
faultModel:1
[INFO -- 2018-11-26 21:07:12]
Backtrace BEGIN:
#0  0x00005555555570ee in __gnu_cxx::__alloc_traits<std::allocator<double> >::_S_select_on_copy (__a=...) at /usr/include/c++/7/ext/alloc_traits.h:95
#1  0x00005555555569da in std::vector<double, std::allocator<double> >::vector (this=0x7fffffffd860, __x=std::vector of length 3, capacity 3 = {...}) at /usr/include/c++/7/bits/stl_vector.h:328
#2  0x0000555555555f47 in train (iter1=20000, iter2=20000, N=3, alpha1=5.0000000000000002e-05, alpha2=5.0000000000000002e-05, stopsWhenStable=true) at lreg.cpp:199
#3  0x0000555555556467 in main (argc=3, argv=0x7fffffffde58) at lreg.cpp:253

90	      static typename std::enable_if<__is_custom_pointer<_Ptr>::value>::type
91	      destroy(_Alloc& __a, _Ptr __p)
92	      { _Base_type::destroy(__a, std::addressof(*__p)); }
93	
94	    static _Alloc _S_select_on_copy(const _Alloc& __a)
95	    { return _Base_type::select_on_container_copy_construction(__a); }
96	
97	    static void _S_on_swap(_Alloc& __a, _Alloc& __b)
98	    { std::__alloc_on_swap(__a, __b); }
99	

Backtrace END
Memory content before bitflip:0x000x000x000x000x000xdb0xb20xc0
Fault Model: Double bit-flip
base address to flip value: 0x7fffffffd928
address max offset: 8
Memory content after  bitflip:0x000x000x000x000x000xdb0xa00xc0
frame name: main
symbol name: yChecksum
symbol filename: lreg.cpp
symbol line: 233
value: -2157.5
value address: 0x7fffffffd928
Type: A floating point type.
Type sizeof: 8

[INFO -- 2018-11-26 21:07:12]
Fault Injection Successful after 2.145199775695801s
[INFO -- 2018-11-26 21:07:15]
event type: exit
[INFO -- 2018-11-26 21:07:15]
exit code: 0
