[INFO -- 2018-11-26 20:19:00]
sending 5 signals using command: 'killall -2 lreg' after 2.72648432433s
[INFO -- 2018-11-26 20:19:00]
sending 5 signals using command: 'killall -2 lreg' after 2.11358296833s
[INFO -- 2018-11-26 20:19:00]
Starting GDB script
[INFO -- 2018-11-26 20:19:00]
initSignal:0.0
[INFO -- 2018-11-26 20:19:00]
endSignal:3.0
[INFO -- 2018-11-26 20:19:01]
sending 5 signals using command: 'killall -2 lreg' after 1.11664107733s
[INFO -- 2018-11-26 20:19:02]
sending 5 signals using command: 'killall -2 lreg' after 2.41850741118s
[INFO -- 2018-11-26 20:19:02]
sending 5 signals using command: 'killall -2 lreg' after 1.97479381921s
[INFO -- 2018-11-26 20:19:03]
Execution finished before waitTime
