[INFO -- 2018-11-25 18:35:07]
sending 5 signals using command: 'killall -2 lreg' after 2.75791302451s
[INFO -- 2018-11-25 18:35:09]
sending 5 signals using command: 'killall -2 lreg' after 4.64867158831s
[INFO -- 2018-11-25 18:35:09]
Starting GDB script
[INFO -- 2018-11-25 18:35:09]
initSignal:0.0
[INFO -- 2018-11-25 18:35:09]
endSignal:6.0
[INFO -- 2018-11-25 18:35:09]
sending 5 signals using command: 'killall -2 lreg' after 0.12488455843s
[INFO -- 2018-11-25 18:35:12]
sending 5 signals using command: 'killall -2 lreg' after 3.44311790645s
[INFO -- 2018-11-25 18:35:12]
Execution finished before waitTime
