[INFO -- 2018-11-25 16:57:55]
Starting flip_value script
version: 1.1
[INFO -- 2018-11-25 16:57:55]
Initialization strings:
[INFO -- 2018-11-25 16:57:55]
(1) file /tmp/lreg/lreg
[INFO -- 2018-11-25 16:57:55]
(2) set args /tmp/lreg/randInput /tmp/lreg/output /tmp/lreg/detected.log
[INFO -- 2018-11-25 16:57:55]
initSignal:0
[INFO -- 2018-11-25 16:57:55]
endSignal:6
[INFO -- 2018-11-25 16:57:55]
faultModel:2
[INFO -- 2018-11-25 16:57:56]
Backtrace BEGIN:
#0  __exp1 (x=8.1241506033066297, xx=4.5035274717976725e-16, error=<optimized out>) at ../sysdeps/ieee754/dbl-64/e_exp.c:259
#1  0x00007ffff76da8dc in __ieee754_pow_sse2 (x=15, y=3) at ../sysdeps/ieee754/dbl-64/e_pow.c:115
#2  0x00007ffff76db6be in __ieee754_pow_sse2 (x=<optimized out>, y=<optimized out>) at ../sysdeps/ieee754/dbl-64/e_pow.c:184
#3  0x00007ffff76bcb14 in __pow (x=-15, y=3) at w_pow_compat.c:30
#4  0x000055555555621b in std::pow<double, int> (__x=-15, __y=3) at /usr/include/c++/7/cmath:418
#5  0x0000555555555237 in predict (v=-15) at lreg.cpp:50
#6  0x00005555555553fc in partialDerivate (pos=3) at lreg.cpp:74
#7  0x0000555555555503 in adjust (alpha=2.2222199999999999e-05) at lreg.cpp:87
#8  0x00005555555556ac in train (iterations=30000, alpha=2.2222199999999999e-05, N=4, stopsWhenStable=true) at lreg.cpp:120
#9  0x0000555555555a1c in execute (input=0x7fffffffe1f1 "/tmp/lreg/randInput") at lreg.cpp:157
#10 0x0000555555555c78 in main (argc=4, argv=0x7fffffffde48) at lreg.cpp:193

254	../sysdeps/ieee754/dbl-64/e_exp.c: No such file or directory.

Backtrace END
Memory content before bitflip:0x000x000x000x000x000x000x080x40
Fault Model: Random bit-flip
base address to flip value: 0x7fffffffd418
address max offset: 8
Memory content after  bitflip:0xca0xa50x010x0c0x860x800xf20xa7
frame name: __pow
symbol name: y
symbol filename: w_pow_compat.c
symbol line: 28
value: -2.9348196924847788e-116
value address: 0x7fffffffd418
Type: A floating point type.
Type sizeof: 8

[INFO -- 2018-11-25 16:57:56]
Fault Injection Successful after 1.7277815341949463s
[INFO -- 2018-11-25 16:57:57]
event type: exit
[INFO -- 2018-11-25 16:57:57]
exit code: 0
