[INFO -- 2018-11-22 20:34:21]
Starting GDB script
[INFO -- 2018-11-22 20:34:21]
initSignal:0.0
[INFO -- 2018-11-22 20:34:21]
endSignal:3.0
[INFO -- 2018-11-22 20:34:23]
sending 5 signals using command: 'killall -2 lreg' after 1.60993794499s
[INFO -- 2018-11-22 20:34:24]
sending 5 signals using command: 'killall -2 lreg' after 2.51357936835s
[INFO -- 2018-11-22 20:34:25]
sending 5 signals using command: 'killall -2 lreg' after 1.80381724066s
[INFO -- 2018-11-22 20:34:26]
Execution finished before waitTime
