[INFO -- 2018-11-25 14:31:56]
Starting flip_value script
version: 1.1
[INFO -- 2018-11-25 14:31:56]
Initialization strings:
[INFO -- 2018-11-25 14:31:56]
(1) file /tmp/lreg/lreg
[INFO -- 2018-11-25 14:31:56]
(2) set args /tmp/lreg/randInput /tmp/lreg/output /tmp/lreg/detected.log
[INFO -- 2018-11-25 14:31:56]
initSignal:0
[INFO -- 2018-11-25 14:31:56]
endSignal:6
[INFO -- 2018-11-25 14:31:56]
faultModel:1
[INFO -- 2018-11-25 14:31:59]
event type: exit
[INFO -- 2018-11-25 14:31:59]
exit code: 0
