[INFO -- 2018-11-23 21:52:55]
Starting flip_value script
version: 1.1
[INFO -- 2018-11-23 21:52:55]
Initialization strings:
[INFO -- 2018-11-23 21:52:55]
(1) file /tmp/lreg/lreg
[INFO -- 2018-11-23 21:52:55]
(2) set args /tmp/lreg/randInput /tmp/lreg/output
[INFO -- 2018-11-23 21:52:55]
initSignal:0
[INFO -- 2018-11-23 21:52:55]
endSignal:3
[INFO -- 2018-11-23 21:52:55]
faultModel:0
[INFO -- 2018-11-23 21:52:56]
Backtrace BEGIN:
#0  predict (v=23) at lreg.cpp:49
#1  0x00005555555553ac in partialDerivate (pos=0) at lreg.cpp:74
#2  0x00005555555554b3 in adjust (alpha=5.0000000000000002e-05) at lreg.cpp:87
#3  0x000055555555565c in train (iterations=20000, alpha=5.0000000000000002e-05, N=3, stopsWhenStable=true) at lreg.cpp:120
#4  0x0000555555555ab7 in main (argc=3, argv=0x7fffffffde58) at lreg.cpp:174

44	/**
45		Predicts the value related to v using the Ts variables
46	*/
47	double predict(double v){
48		double val = 0;
49		for(int i = 0; i<T.size(); i++){
50			val+= (T[i] * pow(v, i));
51		}
52		return val;
53		

Backtrace END
Fliping value of field: std::_Vector_base<double, std::allocator<double> >
Fliping value of field: _M_impl
Fliping value of field: _M_end_of_storage
Fliping a bit of the pointer
Memory content before bitflip:0x780x130x770x550x550x550x000x00
Fault Model: Single bit-flip
base address to flip value: 0x55555575a190 
address max offset: 8
Memory content after  bitflip:0x780x930x770x550x550x550x000x00
frame name: predict
symbol name: T
symbol filename: lreg.cpp
symbol line: 34
value: std::vector of length 3, capacity 4099 = {-0.12760455648959082, 0.088765051769468778, -2.989262266172545}
value address: 0x55555575a180 <T>
Type: The type is a structure.
Type sizeof: 24
Field name: std::_Vector_base<double, std::allocator<double> >
Field Type: The type is a structure.
Field Type sizeof: 24

[INFO -- 2018-11-23 21:52:56]
Fault Injection Successful after 1.4267191886901855s
[INFO -- 2018-11-23 21:52:57]
event type: exit
[INFO -- 2018-11-23 21:52:57]
exit code: 0
