[INFO -- 2018-11-26 20:04:14]
Starting GDB script
[INFO -- 2018-11-26 20:04:14]
initSignal:0.0
[INFO -- 2018-11-26 20:04:14]
endSignal:3.0
[INFO -- 2018-11-26 20:04:14]
sending 5 signals using command: 'killall -2 lreg' after 0.0704157964755s
[INFO -- 2018-11-26 20:04:15]
sending 5 signals using command: 'killall -2 lreg' after 0.703193234171s
[INFO -- 2018-11-26 20:04:15]
sending 5 signals using command: 'killall -2 lreg' after 0.725229742553s
[INFO -- 2018-11-26 20:04:16]
Execution finished before waitTime
