[INFO -- 2018-11-24 11:09:47]
Starting GDB script
[INFO -- 2018-11-24 11:09:47]
initSignal:0.0
[INFO -- 2018-11-24 11:09:47]
endSignal:2.0
[INFO -- 2018-11-24 11:09:47]
sending 5 signals using command: 'killall -2 lreg' after 0.205653220938s
[INFO -- 2018-11-24 11:09:48]
sending 5 signals using command: 'killall -2 lreg' after 0.728870866786s
[INFO -- 2018-11-24 11:09:48]
sending 5 signals using command: 'killall -2 lreg' after 1.22248177647s
[INFO -- 2018-11-24 11:09:50]
Execution finished before waitTime
