[INFO -- 2018-11-24 16:28:07]
sending 5 signals using command: 'killall -2 lreg' after 5.65925050484s
[INFO -- 2018-11-24 16:28:07]
sending 5 signals using command: 'killall -2 lreg' after 5.94458862475s
[INFO -- 2018-11-24 16:28:07]
Starting GDB script
[INFO -- 2018-11-24 16:28:07]
initSignal:0.0
[INFO -- 2018-11-24 16:28:07]
endSignal:6.0
[INFO -- 2018-11-24 16:28:08]
sending 5 signals using command: 'killall -2 lreg' after 0.436117093687s
[INFO -- 2018-11-24 16:28:08]
sending 5 signals using command: 'killall -2 lreg' after 0.81540797517s
[INFO -- 2018-11-24 16:28:11]
sending 5 signals using command: 'killall -2 lreg' after 3.26699777046s
[INFO -- 2018-11-24 16:28:11]
Execution finished before waitTime
