[INFO -- 2018-11-23 19:41:53]
sending 5 signals using command: 'killall -2 lreg' after 2.49168081236s
[INFO -- 2018-11-23 19:41:53]
Starting GDB script
[INFO -- 2018-11-23 19:41:53]
initSignal:0.0
[INFO -- 2018-11-23 19:41:53]
endSignal:3.0
[INFO -- 2018-11-23 19:41:54]
sending 5 signals using command: 'killall -2 lreg' after 0.295381348524s
[INFO -- 2018-11-23 19:41:55]
sending 5 signals using command: 'killall -2 lreg' after 2.01550160716s
[INFO -- 2018-11-23 19:41:56]
Execution finished before waitTime
[INFO -- 2018-11-23 19:41:56]
sending 5 signals using command: 'killall -2 lreg' after 2.7101236665s
