[INFO -- 2018-11-24 12:24:17]
Starting GDB script
[INFO -- 2018-11-24 12:24:17]
initSignal:0.0
[INFO -- 2018-11-24 12:24:17]
endSignal:2.0
[INFO -- 2018-11-24 12:24:17]
sending 5 signals using command: 'killall -2 lreg' after 0.7777127372s
[INFO -- 2018-11-24 12:24:18]
sending 5 signals using command: 'killall -2 lreg' after 1.79763694238s
[INFO -- 2018-11-24 12:24:18]
sending 5 signals using command: 'killall -2 lreg' after 1.82637869409s
[INFO -- 2018-11-24 12:24:20]
Execution finished before waitTime
