[INFO -- 2018-11-23 21:25:18]
Starting flip_value script
version: 1.1
[INFO -- 2018-11-23 21:25:18]
Initialization strings:
[INFO -- 2018-11-23 21:25:18]
(1) file /tmp/lreg/lreg
[INFO -- 2018-11-23 21:25:18]
(2) set args /tmp/lreg/randInput /tmp/lreg/output
[INFO -- 2018-11-23 21:25:18]
initSignal:0
[INFO -- 2018-11-23 21:25:18]
endSignal:3
[INFO -- 2018-11-23 21:25:18]
faultModel:0
[INFO -- 2018-11-23 21:25:19]
Backtrace BEGIN:
#0  meanSquaredError () at lreg.cpp:61
#1  0x0000555555555661 in train (iterations=30000, alpha=2.2222199999999999e-05, N=4, stopsWhenStable=true) at lreg.cpp:121
#2  0x0000555555555ab7 in main (argc=3, argv=0x7fffffffde58) at lreg.cpp:174

56		Calculates the mean squared error of T
57	*/
58	double meanSquaredError(){
59		double error = 0;
60		for(int i = 0; i<x.size(); i++){
61			error+= ((predict(x[i]) - y[i]) * (predict(x[i]) - y[i]));	
62		}
63		error /= x.size();
64		return error;
65	

Backtrace END
Fliping value of field: std::_Vector_base<double, std::allocator<double> >
Fliping value of field: _M_impl
Fliping value of field: _M_end_of_storage
Fliping a bit of the pointer
Memory content before bitflip:0xc00x150x770x550x550x550x000x00
Fault Model: Single bit-flip
base address to flip value: 0x55555575a170 
address max offset: 8
Memory content after  bitflip:0xc00x150x770x5d0x550x550x000x00
frame name: train
symbol name: y
symbol filename: lreg.cpp
symbol line: 33
value: std::vector of length 16, capacity 16777232 = {13145, 2813, 13, -99407, -575, 22793, -121267, 15973, 22793, 86413, -63895, 10673, -1507, 41, 19181, -38047}
value address: 0x55555575a160 <y>
Type: The type is a structure.
Type sizeof: 24
Field name: std::_Vector_base<double, std::allocator<double> >
Field Type: The type is a structure.
Field Type sizeof: 24

[INFO -- 2018-11-23 21:25:19]
Fault Injection Successful after 1.7881391048431396s
[INFO -- 2018-11-23 21:25:20]
event type: exit
[INFO -- 2018-11-23 21:25:20]
exit code: 0
