[INFO -- 2018-11-22 16:01:22]
Starting GDB script
[INFO -- 2018-11-22 16:01:22]
initSignal:0.0
[INFO -- 2018-11-22 16:01:22]
endSignal:3.0
[INFO -- 2018-11-22 16:01:23]
sending 5 signals using command: 'killall -2 lreg' after 0.873440579574s
[INFO -- 2018-11-22 16:01:23]
sending 5 signals using command: 'killall -2 lreg' after 1.14784912927s
[INFO -- 2018-11-22 16:01:24]
sending 5 signals using command: 'killall -2 lreg' after 1.87368195489s
[INFO -- 2018-11-22 16:01:28]
Execution finished before waitTime
