[INFO -- 2018-11-23 18:15:36]
Starting GDB script
[INFO -- 2018-11-23 18:15:36]
initSignal:0.0
[INFO -- 2018-11-23 18:15:36]
endSignal:3.0
[INFO -- 2018-11-23 18:15:36]
sending 5 signals using command: 'killall -2 lreg' after 0.220661209259s
[INFO -- 2018-11-23 18:15:38]
sending 5 signals using command: 'killall -2 lreg' after 1.71923202443s
[INFO -- 2018-11-23 18:15:38]
sending 5 signals using command: 'killall -2 lreg' after 1.85161709734s
[INFO -- 2018-11-23 18:15:38]
Execution finished before waitTime
