[INFO -- 2018-11-25 10:43:28]
Starting GDB script
[INFO -- 2018-11-25 10:43:28]
initSignal:0.0
[INFO -- 2018-11-25 10:43:28]
endSignal:6.0
[INFO -- 2018-11-25 10:43:32]
sending 5 signals using command: 'killall -2 lreg' after 3.00879167288s
[INFO -- 2018-11-25 10:43:32]
sending 5 signals using command: 'killall -2 lreg' after 3.6597440168s
[INFO -- 2018-11-25 10:43:33]
Execution finished before waitTime
