[INFO -- 2018-11-25 14:13:05]
Starting flip_value script
version: 1.1
[INFO -- 2018-11-25 14:13:05]
Initialization strings:
[INFO -- 2018-11-25 14:13:05]
(1) file /tmp/lreg/lreg
[INFO -- 2018-11-25 14:13:05]
(2) set args /tmp/lreg/randInput /tmp/lreg/output /tmp/lreg/detected.log
[INFO -- 2018-11-25 14:13:05]
initSignal:0
[INFO -- 2018-11-25 14:13:05]
endSignal:6
[INFO -- 2018-11-25 14:13:05]
faultModel:2
[INFO -- 2018-11-25 14:13:07]
Backtrace BEGIN:
#0  std::vector<double, std::allocator<double> >::size (this=0x403d000000000000) at /usr/include/c++/7/bits/stl_vector.h:670
#1  0x00005555555551f9 in predict (v=29) at lreg.cpp:49
#2  0x00005555555553fc in partialDerivate (pos=2) at lreg.cpp:74
#3  0x0000555555555503 in adjust (alpha=2.2222199999999999e-05) at lreg.cpp:87
#4  0x00005555555556ac in train (iterations=30000, alpha=2.2222199999999999e-05, N=4, stopsWhenStable=true) at lreg.cpp:120
#5  0x0000555555555a1c in execute (input=0x7fffffffe1f1 "/tmp/lreg/randInput") at lreg.cpp:157
#6  0x0000555555555c78 in main (argc=4, argv=0x7fffffffde48) at lreg.cpp:193

665	#endif
666	
667	      // [23.2.4.2] capacity
668	      /**  Returns the number of elements in the %vector.  */
669	      size_type
670	      size() const _GLIBCXX_NOEXCEPT
671	      { return size_type(this->_M_impl._M_finish - this->_M_impl._M_start); }
672	
673	      /**  Returns the size() of the largest possible %vector.  */
674	      size_type

Backtrace END
Fliping value of field: std::_Vector_base<double, std::allocator<double> >
Fliping value of field: _M_impl
Fliping value of field: _M_end_of_storage
Fliping a bit of the value pointed by a pointer
Memory content before bitflip:0x000x000x000x000x000x000x000x00
Fault Model: Random bit-flip
base address to flip value: 0x5555557725c0
address max offset: 8
Memory content after  bitflip:0x270xc20x3c0x650x500x7b0x930x35
frame name: main
symbol name: y
symbol filename: lreg.cpp
symbol line: 33
value: std::vector of length 16, capacity 16 = {13145, 2813, 13, -99407, -575, 22793, -121267, 15973, 22793, 86413, -63895, 10673, -1507, 41, 19181, -38047}
value address: 0x55555575b160 <y>
Type: The type is a structure.
Type sizeof: 24
Field name: std::_Vector_base<double, std::allocator<double> >
Field Type: The type is a structure.
Field Type sizeof: 24

[INFO -- 2018-11-25 14:13:07]
Fault Injection Successful after 2.1372969150543213s
[INFO -- 2018-11-25 14:13:08]
event type: exit
[INFO -- 2018-11-25 14:13:08]
exit code: 0
