[INFO -- 2018-11-25 11:07:08]
Starting flip_value script
version: 1.1
[INFO -- 2018-11-25 11:07:08]
Initialization strings:
[INFO -- 2018-11-25 11:07:08]
(1) file /tmp/lreg/lreg
[INFO -- 2018-11-25 11:07:08]
(2) set args /tmp/lreg/randInput /tmp/lreg/output /tmp/lreg/detected.log
[INFO -- 2018-11-25 11:07:08]
initSignal:0
[INFO -- 2018-11-25 11:07:08]
endSignal:6
[INFO -- 2018-11-25 11:07:08]
faultModel:0
[EXCEPTION -- 2018-11-25 11:07:09]
pythonException: empty range for randrange() (0,0, 0)
[INFO -- 2018-11-25 11:07:09]
Backtrace BEGIN:
#0  __GI___libc_free (mem=0x555555772490) at malloc.c:3092
#1  0x0000555555557dac in __gnu_cxx::new_allocator<double>::deallocate (this=0x7fffffffd5d0, __p=0x555555772490) at /usr/include/c++/7/ext/new_allocator.h:125
#2  0x00005555555575bb in std::allocator_traits<std::allocator<double> >::deallocate (__a=..., __p=0x555555772490, __n=3) at /usr/include/c++/7/bits/alloc_traits.h:462
#3  0x0000555555556c66 in std::_Vector_base<double, std::allocator<double> >::_M_deallocate (this=0x7fffffffd5d0, __p=0x555555772490, __n=3) at /usr/include/c++/7/bits/stl_vector.h:180
#4  0x0000555555556923 in std::_Vector_base<double, std::allocator<double> >::~_Vector_base (this=0x7fffffffd5d0, __in_chrg=<optimized out>) at /usr/include/c++/7/bits/stl_vector.h:162
#5  0x000055555555630f in std::vector<double, std::allocator<double> >::~vector (this=0x7fffffffd5d0, __in_chrg=<optimized out>) at /usr/include/c++/7/bits/stl_vector.h:435
#6  0x0000555555555770 in train (iterations=20000, alpha=5.0000000000000002e-05, N=3, stopsWhenStable=true) at lreg.cpp:126
#7  0x0000555555555a1c in execute (input=0x7fffffffe1f1 "/tmp/lreg/randInput") at lreg.cpp:157
#8  0x0000555555555c78 in main (argc=4, argv=0x7fffffffde48) at lreg.cpp:193

3087	in malloc.c

Backtrace END
Fliping value of field: std::_Vector_base<double, std::allocator<double> >
Fliping value of field: _M_impl
Fliping value of field: _M_start
Fliping a bit of the value pointed by a pointer
Memory content before bitflip:0x000x000x000x000x000x000x460xc0
Fault Model: Single bit-flip
base address to flip value: 0x555555772540
address max offset: 8
Memory content after  bitflip:0x000x000x000x000x000x000x460xc8
frame name: std::vector<double, std::allocator<double> >::~vector
symbol name: y
symbol filename: lreg.cpp
symbol line: 33
value: std::vector of length 12, capacity 16 = {-1.4972424144521292e+40, -23, -143, -8, 1, 1, -1319, -23, -1079, -503, -104, -1583}
value address: 0x55555575b160 <y>
Type: The type is a structure.
Type sizeof: 24
Field name: std::_Vector_base<double, std::allocator<double> >
Field Type: The type is a structure.
Field Type sizeof: 24

[INFO -- 2018-11-25 11:07:09]
Fault Injection Successful after 1.515843391418457s
[INFO -- 2018-11-25 11:07:12]
event type: exit
[EXCEPTION -- 2018-11-25 11:07:12]
exit code: no exit code available
