[INFO -- 2018-11-23 21:12:27]
sending 5 signals using command: 'killall -2 lreg' after 2.25097325956s
[INFO -- 2018-11-23 21:12:27]
Starting GDB script
[INFO -- 2018-11-23 21:12:27]
initSignal:0.0
[INFO -- 2018-11-23 21:12:27]
endSignal:3.0
[INFO -- 2018-11-23 21:12:28]
sending 5 signals using command: 'killall -2 lreg' after 0.761410641507s
[INFO -- 2018-11-23 21:12:29]
sending 5 signals using command: 'killall -2 lreg' after 2.17003981901s
[INFO -- 2018-11-23 21:12:29]
Execution finished before waitTime
