[INFO -- 2018-11-24 19:30:26]
Starting flip_value script
version: 1.1
[INFO -- 2018-11-24 19:30:26]
Initialization strings:
[INFO -- 2018-11-24 19:30:26]
(1) file /tmp/lreg/lreg
[INFO -- 2018-11-24 19:30:26]
(2) set args /tmp/lreg/randInput /tmp/lreg/output /tmp/lreg/detected.log
[INFO -- 2018-11-24 19:30:26]
initSignal:0
[INFO -- 2018-11-24 19:30:26]
endSignal:6
[INFO -- 2018-11-24 19:30:26]
faultModel:2
[INFO -- 2018-11-24 19:30:28]
Backtrace BEGIN:
#0  0x00007ffff76da519 in __ieee754_pow_sse2 (x=21, y=0) at ../sysdeps/ieee754/dbl-64/e_pow.c:65
#1  0x00007ffff76bcb14 in __pow (x=21, y=0) at w_pow_compat.c:30
#2  0x0000555555556149 in std::pow<double, int> (__x=21, __y=0) at /usr/include/c++/7/cmath:418
#3  0x0000555555555237 in predict (v=21) at lreg.cpp:50
#4  0x00005555555553fc in partialDerivate (pos=2) at lreg.cpp:74
#5  0x0000555555555503 in adjust (alpha=2.2222199999999999e-05) at lreg.cpp:87
#6  0x00005555555556ac in train (iterations=30000, alpha=2.2222199999999999e-05, N=4, stopsWhenStable=true) at lreg.cpp:120
#7  0x0000555555555a1c in execute (input=0x7fffffffe1f2 "/tmp/lreg/randInput") at lreg.cpp:157
#8  0x0000555555555c78 in main (argc=4, argv=0x7fffffffde48) at lreg.cpp:193

60	../sysdeps/ieee754/dbl-64/e_pow.c: No such file or directory.

Backtrace END
Memory content before bitflip:0x000x000x000x000x000x000x350x40
Fault Model: Random bit-flip
base address to flip value: 0x7fffffffd448
address max offset: 8
Memory content after  bitflip:0xc30x430x430x3c0xee0x200x620x80
frame name: std::pow<double, int>
symbol name: __x
symbol filename: /usr/include/c++/7/cmath
symbol line: 415
value: -8.0675104475493492e-307
value address: 0x7fffffffd448
Type: A floating point type.
Type sizeof: 8

[INFO -- 2018-11-24 19:30:28]
Fault Injection Successful after 2.0705199241638184s
[INFO -- 2018-11-24 19:30:29]
event type: exit
[INFO -- 2018-11-24 19:30:29]
exit code: 0
