[INFO -- 2018-11-25 19:03:09]
sending 5 signals using command: 'killall -2 lreg' after 4.35701115631s
[INFO -- 2018-11-25 19:03:09]
sending 5 signals using command: 'killall -2 lreg' after 5.05198138737s
[INFO -- 2018-11-25 19:03:09]
Starting GDB script
[INFO -- 2018-11-25 19:03:09]
initSignal:0.0
[INFO -- 2018-11-25 19:03:09]
endSignal:6.0
[INFO -- 2018-11-25 19:03:11]
sending 5 signals using command: 'killall -2 lreg' after 1.0405404232s
[INFO -- 2018-11-25 19:03:12]
sending 5 signals using command: 'killall -2 lreg' after 2.41520921344s
[INFO -- 2018-11-25 19:03:13]
Execution finished before waitTime
