[INFO -- 2018-11-23 17:39:19]
Starting flip_value script
version: 1.1
[INFO -- 2018-11-23 17:39:19]
Initialization strings:
[INFO -- 2018-11-23 17:39:19]
(1) file /tmp/lreg/lreg
[INFO -- 2018-11-23 17:39:19]
(2) set args /tmp/lreg/randInput /tmp/lreg/output
[INFO -- 2018-11-23 17:39:19]
initSignal:0
[INFO -- 2018-11-23 17:39:19]
endSignal:3
[INFO -- 2018-11-23 17:39:19]
faultModel:2
[INFO -- 2018-11-23 17:39:20]
Backtrace BEGIN:
#0  0x00007ffff76da567 in __ieee754_pow_sse2 (x=-14, y=3) at ../sysdeps/ieee754/dbl-64/e_pow.c:76
#1  0x00007ffff76bcb14 in __pow (x=-14, y=3) at w_pow_compat.c:30
#2  0x0000555555555d5f in std::pow<double, int> (__x=-14, __y=3) at /usr/include/c++/7/cmath:418
#3  0x00005555555551e7 in predict (v=-14) at lreg.cpp:50
#4  0x00005555555552ba in meanSquaredError () at lreg.cpp:61
#5  0x0000555555555661 in train (iterations=30000, alpha=2.2222199999999999e-05, N=4, stopsWhenStable=true) at lreg.cpp:121
#6  0x0000555555555ab7 in main (argc=3, argv=0x7fffffffde58) at lreg.cpp:174

71	../sysdeps/ieee754/dbl-64/e_pow.c: No such file or directory.

Backtrace END
Fliping value of field: std::_Vector_base<double, std::allocator<double> >
Fliping value of field: _M_impl
Fliping value of field: _M_start
Fliping a bit of the value pointed by a pointer
Memory content before bitflip:0x000x000x000x000x800xac0xc90x40
Fault Model: Random bit-flip
base address to flip value: 0x555555771540
address max offset: 8
Memory content after  bitflip:0xfe0xa20x7e0xba0x130x330xaf0x16
frame name: meanSquaredError
symbol name: y
symbol filename: lreg.cpp
symbol line: 33
value: std::vector of length 16, capacity 16 = {2.0379841072804553e-199, 2813, 13, -99407, -575, 22793, -121267, 15973, 22793, 86413, -63895, 10673, -1507, 41, 19181, -38047}
value address: 0x55555575a160 <y>
Type: The type is a structure.
Type sizeof: 24
Field name: std::_Vector_base<double, std::allocator<double> >
Field Type: The type is a structure.
Field Type sizeof: 24

[INFO -- 2018-11-23 17:39:20]
Fault Injection Successful after 1.642848253250122s
[INFO -- 2018-11-23 17:39:21]
event type: exit
[INFO -- 2018-11-23 17:39:21]
exit code: 0
