[INFO -- 2018-11-26 16:27:42]
sending 5 signals using command: 'killall -2 lreg' after 2.63046015695s
[INFO -- 2018-11-26 16:27:42]
sending 5 signals using command: 'killall -2 lreg' after 2.86073484189s
[INFO -- 2018-11-26 16:27:42]
Starting GDB script
[INFO -- 2018-11-26 16:27:42]
initSignal:0.0
[INFO -- 2018-11-26 16:27:42]
endSignal:3.0
[INFO -- 2018-11-26 16:27:43]
sending 5 signals using command: 'killall -2 lreg' after 0.490519028436s
[INFO -- 2018-11-26 16:27:43]
sending 5 signals using command: 'killall -2 lreg' after 0.487127787569s
[INFO -- 2018-11-26 16:27:43]
Execution finished before waitTime
