[INFO -- 2018-11-25 22:50:23]
Starting GDB script
[INFO -- 2018-11-25 22:50:23]
initSignal:0.0
[INFO -- 2018-11-25 22:50:23]
endSignal:6.0
[INFO -- 2018-11-25 22:50:24]
sending 5 signals using command: 'killall -2 lreg' after 1.18695004692s
[INFO -- 2018-11-25 22:50:25]
sending 5 signals using command: 'killall -2 lreg' after 2.44178416842s
[INFO -- 2018-11-25 22:50:26]
sending 5 signals using command: 'killall -2 lreg' after 2.9623475661s
[INFO -- 2018-11-25 22:50:32]
Execution finished before waitTime
