[INFO -- 2018-11-26 20:29:27]
Starting GDB script
[INFO -- 2018-11-26 20:29:27]
initSignal:0.0
[INFO -- 2018-11-26 20:29:27]
endSignal:3.0
[INFO -- 2018-11-26 20:29:28]
sending 5 signals using command: 'killall -2 lreg' after 0.700088362624s
[INFO -- 2018-11-26 20:29:29]
sending 5 signals using command: 'killall -2 lreg' after 1.1355501372s
[INFO -- 2018-11-26 20:29:30]
Execution finished before waitTime
