[INFO -- 2018-11-25 19:44:33]
sending 5 signals using command: 'killall -2 lreg' after 3.88467341469s
[INFO -- 2018-11-25 19:44:35]
sending 5 signals using command: 'killall -2 lreg' after 5.96169510947s
[INFO -- 2018-11-25 19:44:36]
Starting GDB script
[INFO -- 2018-11-25 19:44:36]
initSignal:0.0
[INFO -- 2018-11-25 19:44:36]
endSignal:6.0
[INFO -- 2018-11-25 19:44:38]
sending 5 signals using command: 'killall -2 lreg' after 2.00645481798s
[INFO -- 2018-11-25 19:44:38]
sending 5 signals using command: 'killall -2 lreg' after 2.79371569504s
[INFO -- 2018-11-25 19:44:38]
sending 5 signals using command: 'killall -2 lreg' after 2.92779963902s
[INFO -- 2018-11-25 19:44:40]
Execution finished before waitTime
