[INFO -- 2018-11-26 19:55:40]
Starting GDB script
[INFO -- 2018-11-26 19:55:40]
initSignal:0.0
[INFO -- 2018-11-26 19:55:40]
endSignal:3.0
[INFO -- 2018-11-26 19:55:41]
sending 5 signals using command: 'killall -2 lreg' after 0.595007176484s
[INFO -- 2018-11-26 19:55:41]
sending 5 signals using command: 'killall -2 lreg' after 1.06263401565s
[INFO -- 2018-11-26 19:55:41]
Execution finished before waitTime
