[INFO -- 2018-11-26 19:11:19]
Starting GDB script
[INFO -- 2018-11-26 19:11:19]
initSignal:0.0
[INFO -- 2018-11-26 19:11:19]
endSignal:3.0
[INFO -- 2018-11-26 19:11:19]
sending 5 signals using command: 'killall -2 lreg' after 0.240527852165s
[INFO -- 2018-11-26 19:11:20]
sending 5 signals using command: 'killall -2 lreg' after 1.33639052043s
[INFO -- 2018-11-26 19:11:20]
sending 5 signals using command: 'killall -2 lreg' after 1.65891741945s
[INFO -- 2018-11-26 19:11:22]
Execution finished before waitTime
