[INFO -- 2018-11-24 09:17:48]
Starting flip_value script
version: 1.1
[INFO -- 2018-11-24 09:17:48]
Initialization strings:
[INFO -- 2018-11-24 09:17:48]
(1) file /tmp/lreg/lreg
[INFO -- 2018-11-24 09:17:48]
(2) set args /tmp/lreg/randInput /tmp/lreg/output
[INFO -- 2018-11-24 09:17:48]
initSignal:0
[INFO -- 2018-11-24 09:17:48]
endSignal:2
[INFO -- 2018-11-24 09:17:48]
faultModel:0
[EXCEPTION -- 2018-11-24 09:17:48]
pythonException: empty range for randrange() (0,0, 0)
[EXCEPTION -- 2018-11-24 09:17:49]
pythonException: Unable to exit loop in struct fields; Exiting wihtout making a bit flip
[INFO -- 2018-11-24 09:17:49]
Backtrace BEGIN:
#0  0x0000555555555d18 in std::vector<double, std::allocator<double> >::operator[] (this=0x55555575a180 <T>, __n=4294967297) at /usr/include/c++/7/bits/stl_vector.h:795
#1  0x00005555555551c7 in predict (v=-21) at lreg.cpp:50
#2  0x000055555555526a in meanSquaredError () at lreg.cpp:61
#3  0x0000555555555661 in train (iterations=20000, alpha=5.0000000000000002e-05, N=3, stopsWhenStable=true) at lreg.cpp:121
#4  0x0000555555555ab7 in main (argc=3, argv=0x7fffffffde58) at lreg.cpp:174

790	       *  Note that data access with this operator is unchecked and
791	       *  out_of_range lookups are not defined. (For checked lookups
792	       *  see at().)
793	       */
794	      reference
795	      operator[](size_type __n) _GLIBCXX_NOEXCEPT
796	      {
797		__glibcxx_requires_subscript(__n);
798		return *(this->_M_impl._M_start + __n);
799	      }

Backtrace END
Fliping value of field: std::_Vector_base<double, std::allocator<double> >
Fliping value of field: _M_impl
Fliping value of field: _M_start
Fliping a bit of the value pointed by a pointer
Memory content before bitflip:0x000x000x000x000x000x000x460xc0
Fault Model: Single bit-flip
base address to flip value: 0x555555771540
address max offset: 8
Memory content after  bitflip:0x000x010x000x000x000x000x460xc0
frame name: std::vector<double, std::allocator<double> >::operator[]
symbol name: y
symbol filename: lreg.cpp
symbol line: 33
value: std::vector of length 12, capacity 16 = {-44.000000000001819, -23, -143, -8, 1, 1, -1319, -23, -1079, -503, -104, -1583}
value address: 0x55555575a160 <y>
Type: The type is a structure.
Type sizeof: 24
Field name: std::_Vector_base<double, std::allocator<double> >
Field Type: The type is a structure.
Field Type sizeof: 24

[INFO -- 2018-11-24 09:17:49]
Fault Injection Successful after 1.408050775527954s
[INFO -- 2018-11-24 09:17:49]
event type: exit
[EXCEPTION -- 2018-11-24 09:17:49]
exit code: no exit code available
