[INFO -- 2018-11-25 12:42:51]
Starting flip_value script
version: 1.1
[INFO -- 2018-11-25 12:42:51]
Initialization strings:
[INFO -- 2018-11-25 12:42:51]
(1) file /tmp/lreg/lreg
[INFO -- 2018-11-25 12:42:51]
(2) set args /tmp/lreg/randInput /tmp/lreg/output /tmp/lreg/detected.log
[INFO -- 2018-11-25 12:42:51]
initSignal:0
[INFO -- 2018-11-25 12:42:51]
endSignal:6
[INFO -- 2018-11-25 12:42:51]
faultModel:2
[INFO -- 2018-11-25 12:42:52]
Backtrace BEGIN:
#0  __exp1 (x=<optimized out>, xx=<optimized out>, error=<optimized out>) at ../sysdeps/ieee754/dbl-64/e_exp.c:273
#1  0x00007ffff76da8dc in __ieee754_pow_sse2 (x=16, y=3) at ../sysdeps/ieee754/dbl-64/e_pow.c:115
#2  0x00007ffff76db6be in __ieee754_pow_sse2 (x=<optimized out>, y=<optimized out>) at ../sysdeps/ieee754/dbl-64/e_pow.c:184
#3  0x00007ffff76bcb14 in __pow (x=-16, y=3) at w_pow_compat.c:30
#4  0x000055555555621b in std::pow<double, int> (__x=-16, __y=3) at /usr/include/c++/7/cmath:418
#5  0x0000555555555237 in predict (v=-16) at lreg.cpp:50
#6  0x00005555555552ba in meanSquaredError () at lreg.cpp:61
#7  0x00005555555556b1 in train (iterations=30000, alpha=2.2222199999999999e-05, N=4, stopsWhenStable=true) at lreg.cpp:121
#8  0x0000555555555a1c in execute (input=0x7fffffffe1f1 "/tmp/lreg/randInput") at lreg.cpp:157
#9  0x0000555555555cb0 in main (argc=4, argv=0x7fffffffde48) at lreg.cpp:196

268	../sysdeps/ieee754/dbl-64/e_exp.c: No such file or directory.

Backtrace END
Memory content before bitflip:0x070x000x000x00
Fault Model: Random bit-flip
base address to flip value: 0x7fffffffd524
address max offset: 4
Memory content after  bitflip:0xe80xa50xc40xa3
frame name: meanSquaredError
symbol name: i
symbol filename: lreg.cpp
symbol line: 60
value: -1547393560
value address: 0x7fffffffd524
Type: The type is an integer type.
Type sizeof: 4

[INFO -- 2018-11-25 12:42:52]
Fault Injection Successful after 1.9437353610992432s
[INFO -- 2018-11-25 12:42:53]
event type: exit
[EXCEPTION -- 2018-11-25 12:42:53]
exit code: no exit code available
