[INFO -- 2018-11-25 11:10:08]
sending 5 signals using command: 'killall -2 lreg' after 4.87556554838s
[INFO -- 2018-11-25 11:10:09]
sending 5 signals using command: 'killall -2 lreg' after 5.77678782256s
[INFO -- 2018-11-25 11:10:09]
Starting GDB script
[INFO -- 2018-11-25 11:10:09]
initSignal:0.0
[INFO -- 2018-11-25 11:10:09]
endSignal:6.0
[INFO -- 2018-11-25 11:10:12]
sending 5 signals using command: 'killall -2 lreg' after 2.82943261034s
[INFO -- 2018-11-25 11:10:14]
sending 5 signals using command: 'killall -2 lreg' after 4.29859482298s
[INFO -- 2018-11-25 11:10:14]
sending 5 signals using command: 'killall -2 lreg' after 4.9449500101s
[INFO -- 2018-11-25 11:10:14]
Execution finished before waitTime
