[INFO -- 2018-11-26 20:22:42]
Starting flip_value script
version: 1.1
[INFO -- 2018-11-26 20:22:42]
Initialization strings:
[INFO -- 2018-11-26 20:22:42]
(1) file /tmp/lreg/lreg
[INFO -- 2018-11-26 20:22:42]
(2) set args /tmp/lreg/randInput /tmp/lreg/output
[INFO -- 2018-11-26 20:22:42]
initSignal:0
[INFO -- 2018-11-26 20:22:42]
endSignal:3
[INFO -- 2018-11-26 20:22:42]
faultModel:2
[INFO -- 2018-11-26 20:22:43]
Backtrace BEGIN:
#0  0x00007ffff76daa31 in __ieee754_pow_sse2 (x=<optimized out>, y=<optimized out>) at ../sysdeps/ieee754/dbl-64/e_pow.c:215
#1  0x00007ffff76bcb14 in __pow (x=-1, y=2) at w_pow_compat.c:30
#2  0x0000555555556826 in std::pow<double, unsigned int> (__x=-1, __y=2) at /usr/include/c++/7/cmath:418
#3  0x0000555555555814 in predict (v=-1) at lreg.cpp:116
#4  0x0000555555555a53 in partialDerivate (pos1=0, pos2=0) at lreg.cpp:142
#5  0x0000555555555bbe in adjust (alpha1=2.2222199999999999e-05, alpha2=2.2222199999999999e-05) at lreg.cpp:156
#6  0x0000555555555ee0 in train (iter1=30000, iter2=30000, N=4, alpha1=2.2222199999999999e-05, alpha2=2.2222199999999999e-05, stopsWhenStable=true) at lreg.cpp:193
#7  0x0000555555556467 in main (argc=3, argv=0x7fffffffde58) at lreg.cpp:253

210	../sysdeps/ieee754/dbl-64/e_pow.c: No such file or directory.

Backtrace END
Fliping value of field: std::_Vector_base<double, std::allocator<double> >
Fliping value of field: _M_impl
Fliping value of field: _M_start
Fliping a bit of the value pointed by a pointer
Memory content before bitflip:0x000x000x000x000x000x000x2e0xc0
Fault Model: Random bit-flip
base address to flip value: 0x555555772610
address max offset: 8
Memory content after  bitflip:0x010x480x560xcc0x1c0x130x6c0x44
frame name: partialDerivate
symbol name: x
symbol filename: lreg.cpp
symbol line: 34
value: std::vector of length 17, capacity 32 = {4.143088274567066e+21, -9, -1, 29, 5, -18, 31, -16, -18, -28, 25, -14, 7, -2, -17, 21, -20}
value address: 0x55555575b140 <x>
Type: The type is a structure.
Type sizeof: 24
Field name: std::_Vector_base<double, std::allocator<double> >
Field Type: The type is a structure.
Field Type sizeof: 24

[INFO -- 2018-11-26 20:22:43]
Fault Injection Successful after 1.450256109237671s
[INFO -- 2018-11-26 20:22:44]
event type: exit
[INFO -- 2018-11-26 20:22:44]
exit code: 0
