[INFO -- 2018-11-25 10:52:39]
Starting flip_value script
version: 1.1
[INFO -- 2018-11-25 10:52:39]
Initialization strings:
[INFO -- 2018-11-25 10:52:39]
(1) file /tmp/lreg/lreg
[INFO -- 2018-11-25 10:52:39]
(2) set args /tmp/lreg/randInput /tmp/lreg/output /tmp/lreg/detected.log
[INFO -- 2018-11-25 10:52:39]
initSignal:0
[INFO -- 2018-11-25 10:52:39]
endSignal:6
[INFO -- 2018-11-25 10:52:39]
faultModel:0
[INFO -- 2018-11-25 10:52:41]
event type: exit
[INFO -- 2018-11-25 10:52:41]
exit code: 0
