[INFO -- 2018-11-25 15:22:29]
Starting flip_value script
version: 1.1
[INFO -- 2018-11-25 15:22:29]
Initialization strings:
[INFO -- 2018-11-25 15:22:29]
(1) file /tmp/lreg/lreg
[INFO -- 2018-11-25 15:22:29]
(2) set args /tmp/lreg/randInput /tmp/lreg/output /tmp/lreg/detected.log
[INFO -- 2018-11-25 15:22:29]
initSignal:0
[INFO -- 2018-11-25 15:22:29]
endSignal:6
[INFO -- 2018-11-25 15:22:29]
faultModel:2
[INFO -- 2018-11-25 15:22:32]
Backtrace BEGIN:
#0  0x00005555555551db in predict (v=-3) at lreg.cpp:48
#1  0x00005555555552ba in meanSquaredError () at lreg.cpp:61
#2  0x00005555555556b1 in train (iterations=20000, alpha=5.0000000000000002e-05, N=3, stopsWhenStable=true) at lreg.cpp:121
#3  0x0000555555555a1c in execute (input=0x7fffffffe1f1 "/tmp/lreg/randInput") at lreg.cpp:157
#4  0x0000555555555cb0 in main (argc=4, argv=0x7fffffffde48) at lreg.cpp:196

43	
44	/**
45		Predicts the value related to v using the Ts variables
46	*/
47	double predict(double v){
48		double val = 0;
49		for(int i = 0; i<T.size(); i++){
50			val+= (T[i] * pow(v, i));
51		}
52		return val;

Backtrace END
Fliping a bit of the value pointed by a pointer
Memory content before bitflip:0x2f
Fault Model: Random bit-flip
base address to flip value: 0x7fffffffe1f1 
address max offset: 1
Memory content after  bitflip:0x17
frame name: execute
symbol name: input
symbol filename: lreg.cpp
symbol line: 134
value: 0x7fffffffe1f1 "\027tmp/lreg/randInput"
value address: 0x7fffffffd650
Type: The type is a pointer.
Type sizeof: 8

[INFO -- 2018-11-25 15:22:32]
Fault Injection Successful after 3.371047258377075s
[INFO -- 2018-11-25 15:22:33]
event type: exit
[INFO -- 2018-11-25 15:22:33]
exit code: 0
