[INFO -- 2018-11-22 16:23:04]
Starting GDB script
[INFO -- 2018-11-22 16:23:04]
initSignal:0.0
[INFO -- 2018-11-22 16:23:04]
endSignal:3.0
[INFO -- 2018-11-22 16:23:06]
sending 5 signals using command: 'killall -2 lreg' after 1.4568824919s
[INFO -- 2018-11-22 16:23:06]
sending 5 signals using command: 'killall -2 lreg' after 1.75947060066s
[INFO -- 2018-11-22 16:23:07]
sending 5 signals using command: 'killall -2 lreg' after 2.87882136155s
[INFO -- 2018-11-22 16:23:10]
Execution finished before waitTime
