[INFO -- 2018-11-25 18:11:44]
sending 5 signals using command: 'killall -2 lreg' after 5.46513368174s
[INFO -- 2018-11-25 18:11:44]
Starting GDB script
[INFO -- 2018-11-25 18:11:44]
initSignal:0.0
[INFO -- 2018-11-25 18:11:44]
endSignal:6.0
[INFO -- 2018-11-25 18:11:45]
sending 5 signals using command: 'killall -2 lreg' after 1.4118553275s
[INFO -- 2018-11-25 18:11:46]
sending 5 signals using command: 'killall -2 lreg' after 2.14923659707s
[INFO -- 2018-11-25 18:11:47]
sending 5 signals using command: 'killall -2 lreg' after 3.47046121913s
[INFO -- 2018-11-25 18:11:49]
Execution finished before waitTime
