[INFO -- 2018-11-27 21:29:17]
Starting GDB script
[INFO -- 2018-11-27 21:29:17]
initSignal:0.0
[INFO -- 2018-11-27 21:29:17]
endSignal:3.0
[INFO -- 2018-11-27 21:29:18]
sending 5 signals using command: 'killall -2 lreg' after 0.353968599158s
[INFO -- 2018-11-27 21:29:19]
sending 5 signals using command: 'killall -2 lreg' after 1.30127918959s
[INFO -- 2018-11-27 21:29:19]
sending 5 signals using command: 'killall -2 lreg' after 1.76344612437s
[INFO -- 2018-11-27 21:29:21]
Execution finished before waitTime
