[INFO -- 2018-11-25 10:53:52]
sending 5 signals using command: 'killall -2 lreg' after 5.2933752429s
[INFO -- 2018-11-25 10:53:52]
Starting GDB script
[INFO -- 2018-11-25 10:53:52]
initSignal:0.0
[INFO -- 2018-11-25 10:53:52]
endSignal:6.0
[INFO -- 2018-11-25 10:53:52]
sending 5 signals using command: 'killall -2 lreg' after 0.00993590271957s
[INFO -- 2018-11-25 10:53:55]
Execution finished before waitTime
