[INFO -- 2018-11-29 14:19:09]
Starting GDB script
[INFO -- 2018-11-29 14:19:09]
initSignal:0.0
[INFO -- 2018-11-29 14:19:09]
endSignal:6.0
[INFO -- 2018-11-29 14:19:10]
sending 5 signals using command: 'killall -2 lreg' after 1.14927479544s
[INFO -- 2018-11-29 14:19:13]
sending 5 signals using command: 'killall -2 lreg' after 4.04426802273s
[INFO -- 2018-11-29 14:19:13]
sending 5 signals using command: 'killall -2 lreg' after 4.42328833872s
[INFO -- 2018-11-29 14:19:14]
Execution finished before waitTime
