[INFO -- 2018-11-23 19:09:45]
Starting GDB script
[INFO -- 2018-11-23 19:09:45]
initSignal:0.0
[INFO -- 2018-11-23 19:09:45]
endSignal:3.0
[INFO -- 2018-11-23 19:09:47]
sending 5 signals using command: 'killall -2 lreg' after 1.57952563311s
[INFO -- 2018-11-23 19:09:47]
sending 5 signals using command: 'killall -2 lreg' after 2.31618184977s
[INFO -- 2018-11-23 19:09:48]
sending 5 signals using command: 'killall -2 lreg' after 2.94628378131s
[INFO -- 2018-11-23 19:09:48]
Execution finished before waitTime
