[INFO -- 2018-11-26 17:53:18]
Starting GDB script
[INFO -- 2018-11-26 17:53:18]
initSignal:0.0
[INFO -- 2018-11-26 17:53:18]
endSignal:3.0
[INFO -- 2018-11-26 17:53:19]
sending 5 signals using command: 'killall -2 lreg' after 0.966681083534s
[INFO -- 2018-11-26 17:53:20]
sending 5 signals using command: 'killall -2 lreg' after 1.38144031068s
[INFO -- 2018-11-26 17:53:21]
sending 5 signals using command: 'killall -2 lreg' after 2.3611992356s
[INFO -- 2018-11-26 17:53:22]
Execution finished before waitTime
