[INFO -- 2018-11-23 18:09:33]
sending 5 signals using command: 'killall -2 lreg' after 2.22890276387s
[INFO -- 2018-11-23 18:09:33]
Starting GDB script
[INFO -- 2018-11-23 18:09:33]
initSignal:0.0
[INFO -- 2018-11-23 18:09:33]
endSignal:3.0
[INFO -- 2018-11-23 18:09:34]
sending 5 signals using command: 'killall -2 lreg' after 0.353858637943s
[INFO -- 2018-11-23 18:09:34]
sending 5 signals using command: 'killall -2 lreg' after 0.588473865835s
[INFO -- 2018-11-23 18:09:35]
Execution finished before waitTime
