[INFO -- 2018-11-27 16:24:27]
Starting GDB script
[INFO -- 2018-11-27 16:24:27]
initSignal:0.0
[INFO -- 2018-11-27 16:24:27]
endSignal:3.0
[INFO -- 2018-11-27 16:24:28]
sending 5 signals using command: 'killall -2 lreg' after 0.875348055496s
[INFO -- 2018-11-27 16:24:29]
sending 5 signals using command: 'killall -2 lreg' after 1.78866754609s
[INFO -- 2018-11-27 16:24:29]
Execution finished before waitTime
