[INFO -- 2018-11-25 21:02:54]
sending 5 signals using command: 'killall -2 lreg' after 2.72962328802s
[INFO -- 2018-11-25 21:02:54]
sending 5 signals using command: 'killall -2 lreg' after 3.32057805191s
[INFO -- 2018-11-25 21:02:54]
Starting GDB script
[INFO -- 2018-11-25 21:02:54]
initSignal:0.0
[INFO -- 2018-11-25 21:02:54]
endSignal:6.0
[INFO -- 2018-11-25 21:02:56]
sending 5 signals using command: 'killall -2 lreg' after 1.60957584784s
[INFO -- 2018-11-25 21:02:58]
sending 5 signals using command: 'killall -2 lreg' after 3.60753238129s
[INFO -- 2018-11-25 21:02:58]
Execution finished before waitTime
