[INFO -- 2018-11-27 21:44:53]
Starting GDB script
[INFO -- 2018-11-27 21:44:53]
initSignal:0.0
[INFO -- 2018-11-27 21:44:53]
endSignal:3.0
[INFO -- 2018-11-27 21:44:53]
sending 5 signals using command: 'killall -2 lreg' after 0.500549000166s
[INFO -- 2018-11-27 21:44:55]
sending 5 signals using command: 'killall -2 lreg' after 2.07429571609s
[INFO -- 2018-11-27 21:44:56]
sending 5 signals using command: 'killall -2 lreg' after 2.55813342697s
[INFO -- 2018-11-27 21:44:57]
Execution finished before waitTime
