[INFO -- 2018-11-26 16:37:34]
Starting flip_value script
version: 1.1
[INFO -- 2018-11-26 16:37:34]
Initialization strings:
[INFO -- 2018-11-26 16:37:34]
(1) file /tmp/lreg/lreg
[INFO -- 2018-11-26 16:37:34]
(2) set args /tmp/lreg/randInput /tmp/lreg/output
[INFO -- 2018-11-26 16:37:34]
initSignal:0
[INFO -- 2018-11-26 16:37:34]
endSignal:3
[INFO -- 2018-11-26 16:37:34]
faultModel:0
[EXCEPTION -- 2018-11-26 16:37:35]
gdbException: Attempt to dereference a generic pointer.
[INFO -- 2018-11-26 16:37:36]
Backtrace BEGIN:
#0  0x0000555555556821 in std::pow<double, unsigned int> (__x=-21, __y=1) at /usr/include/c++/7/cmath:418
#1  0x0000555555555814 in predict (v=-21) at lreg.cpp:116
#2  0x00005555555558c0 in meanSquaredError () at lreg.cpp:128
#3  0x0000555555555ee5 in train (iter1=20000, iter2=20000, N=3, alpha1=5.0000000000000002e-05, alpha2=5.0000000000000002e-05, stopsWhenStable=true) at lreg.cpp:194
#4  0x0000555555556467 in main (argc=3, argv=0x7fffffffde58) at lreg.cpp:253

413	    inline _GLIBCXX_CONSTEXPR
414	    typename __gnu_cxx::__promote_2<_Tp, _Up>::__type
415	    pow(_Tp __x, _Up __y)
416	    {
417	      typedef typename __gnu_cxx::__promote_2<_Tp, _Up>::__type __type;
418	      return pow(__type(__x), __type(__y));
419	    }
420	
421	  using ::sin;
422	

Backtrace END
Memory content before bitflip:0x2d0x430x1c0xeb0xe20x360x0a0x3f
Fault Model: Single bit-flip
base address to flip value: 0x7fffffffd7c8
address max offset: 8
Memory content after  bitflip:0x2d0x430x1c0xeb0xe00x360x0a0x3f
frame name: train
symbol name: alpha1
symbol filename: lreg.cpp
symbol line: 177
value: 4.9999941792339089e-05
value address: 0x7fffffffd7c8
Type: A floating point type.
Type sizeof: 8

[INFO -- 2018-11-26 16:37:36]
Fault Injection Successful after 2.4306538105010986s
[INFO -- 2018-11-26 16:37:38]
event type: exit
[INFO -- 2018-11-26 16:37:38]
exit code: 0
