[INFO -- 2018-11-23 18:25:52]
sending 5 signals using command: 'killall -2 lreg' after 2.66648476962s
[INFO -- 2018-11-23 18:25:52]
Starting GDB script
[INFO -- 2018-11-23 18:25:52]
initSignal:0.0
[INFO -- 2018-11-23 18:25:52]
endSignal:3.0
[INFO -- 2018-11-23 18:25:54]
sending 5 signals using command: 'killall -2 lreg' after 1.65658936917s
[INFO -- 2018-11-23 18:25:55]
sending 5 signals using command: 'killall -2 lreg' after 2.12850536393s
[INFO -- 2018-11-23 18:25:55]
sending 5 signals using command: 'killall -2 lreg' after 2.64183305584s
[INFO -- 2018-11-23 18:25:58]
Execution finished before waitTime
