[INFO -- 2018-11-26 15:28:18]
Starting GDB script
[INFO -- 2018-11-26 15:28:18]
initSignal:0.0
[INFO -- 2018-11-26 15:28:18]
endSignal:3.0
[INFO -- 2018-11-26 15:28:20]
sending 5 signals using command: 'killall -2 lreg' after 1.70062538042s
[INFO -- 2018-11-26 15:28:20]
sending 5 signals using command: 'killall -2 lreg' after 1.15163115511s
[INFO -- 2018-11-26 15:28:20]
sending 5 signals using command: 'killall -2 lreg' after 0.90119852741s
[INFO -- 2018-11-26 15:28:21]
Execution finished before waitTime
