[INFO -- 2018-11-26 18:27:16]
Starting GDB script
[INFO -- 2018-11-26 18:27:16]
initSignal:0.0
[INFO -- 2018-11-26 18:27:16]
endSignal:3.0
[INFO -- 2018-11-26 18:27:16]
sending 5 signals using command: 'killall -2 lreg' after 0.555858755999s
[INFO -- 2018-11-26 18:27:18]
sending 5 signals using command: 'killall -2 lreg' after 1.77503289762s
[INFO -- 2018-11-26 18:27:19]
sending 5 signals using command: 'killall -2 lreg' after 2.63011704207s
[INFO -- 2018-11-26 18:27:19]
Execution finished before waitTime
