[INFO -- 2018-11-26 16:17:40]
Starting GDB script
[INFO -- 2018-11-26 16:17:40]
initSignal:0.0
[INFO -- 2018-11-26 16:17:40]
endSignal:3.0
[INFO -- 2018-11-26 16:17:41]
sending 5 signals using command: 'killall -2 lreg' after 1.05630795522s
[INFO -- 2018-11-26 16:17:42]
sending 5 signals using command: 'killall -2 lreg' after 1.86645220273s
[INFO -- 2018-11-26 16:17:42]
sending 5 signals using command: 'killall -2 lreg' after 2.18672367614s
[INFO -- 2018-11-26 16:17:44]
Execution finished before waitTime
