[INFO -- 2018-11-26 18:26:08]
Starting flip_value script
version: 1.1
[INFO -- 2018-11-26 18:26:08]
Initialization strings:
[INFO -- 2018-11-26 18:26:08]
(1) file /tmp/lreg/lreg
[INFO -- 2018-11-26 18:26:08]
(2) set args /tmp/lreg/randInput /tmp/lreg/output
[INFO -- 2018-11-26 18:26:08]
initSignal:0
[INFO -- 2018-11-26 18:26:08]
endSignal:3
[INFO -- 2018-11-26 18:26:08]
faultModel:1
[INFO -- 2018-11-26 18:26:09]
Backtrace BEGIN:
#0  0x00007ffff76bcb0f in __pow (x=-7, y=0) at w_pow_compat.c:30
#1  0x0000555555556826 in std::pow<double, unsigned int> (__x=-7, __y=0) at /usr/include/c++/7/cmath:418
#2  0x0000555555555814 in predict (v=-7) at lreg.cpp:116
#3  0x0000555555555a53 in partialDerivate (pos1=1, pos2=1) at lreg.cpp:142
#4  0x0000555555555bbe in adjust (alpha1=5.0000000000000002e-05, alpha2=5.0000000000000002e-05) at lreg.cpp:156
#5  0x0000555555555ee0 in train (iter1=20000, iter2=20000, N=3, alpha1=5.0000000000000002e-05, alpha2=5.0000000000000002e-05, stopsWhenStable=true) at lreg.cpp:193
#6  0x0000555555556467 in main (argc=3, argv=0x7fffffffde58) at lreg.cpp:253

25	w_pow_compat.c: No such file or directory.

Backtrace END
Memory content before bitflip:0x010x000x000x00
Fault Model: Double bit-flip
base address to flip value: 0x7fffffffd71c
address max offset: 4
Memory content after  bitflip:0x010x600x000x00
frame name: partialDerivate
symbol name: pos1
symbol filename: lreg.cpp
symbol line: 138
value: 24577
value address: 0x7fffffffd71c
Type: The type is an integer type.
Type sizeof: 4

[INFO -- 2018-11-26 18:26:09]
Fault Injection Successful after 1.2869212627410889s
[INFO -- 2018-11-26 18:26:10]
event type: exit
[INFO -- 2018-11-26 18:26:10]
exit code: 0
