[INFO -- 2018-11-24 17:37:24]
Starting GDB script
[INFO -- 2018-11-24 17:37:24]
initSignal:0.0
[INFO -- 2018-11-24 17:37:24]
endSignal:6.0
[INFO -- 2018-11-24 17:37:26]
Execution finished before waitTime
