[INFO -- 2018-11-25 11:35:58]
Starting GDB script
[INFO -- 2018-11-25 11:35:58]
initSignal:0.0
[INFO -- 2018-11-25 11:35:58]
endSignal:6.0
[INFO -- 2018-11-25 11:35:59]
sending 5 signals using command: 'killall -2 lreg' after 0.301417263504s
[INFO -- 2018-11-25 11:35:59]
sending 5 signals using command: 'killall -2 lreg' after 0.983896140732s
[INFO -- 2018-11-25 11:35:59]
sending 5 signals using command: 'killall -2 lreg' after 1.02328817003s
[INFO -- 2018-11-25 11:36:07]
Execution finished before waitTime
