[INFO -- 2018-11-24 12:55:04]
Starting GDB script
[INFO -- 2018-11-24 12:55:04]
initSignal:0.0
[INFO -- 2018-11-24 12:55:04]
endSignal:2.0
[INFO -- 2018-11-24 12:55:04]
sending 5 signals using command: 'killall -2 lreg' after 0.225682073353s
[INFO -- 2018-11-24 12:55:05]
sending 5 signals using command: 'killall -2 lreg' after 0.626224985958s
[INFO -- 2018-11-24 12:55:05]
sending 5 signals using command: 'killall -2 lreg' after 1.09584030476s
[INFO -- 2018-11-24 12:55:09]
Execution finished before waitTime
