[INFO -- 2018-11-29 14:42:22]
Starting GDB script
[INFO -- 2018-11-29 14:42:22]
initSignal:0.0
[INFO -- 2018-11-29 14:42:22]
endSignal:6.0
[INFO -- 2018-11-29 14:42:26]
sending 5 signals using command: 'killall -2 lreg' after 3.33129933581s
[INFO -- 2018-11-29 14:42:26]
sending 5 signals using command: 'killall -2 lreg' after 3.58781257992s
[INFO -- 2018-11-29 14:42:26]
Execution finished before waitTime
