[INFO -- 2018-11-23 18:27:24]
Starting flip_value script
version: 1.1
[INFO -- 2018-11-23 18:27:24]
Initialization strings:
[INFO -- 2018-11-23 18:27:24]
(1) file /tmp/lreg/lreg
[INFO -- 2018-11-23 18:27:24]
(2) set args /tmp/lreg/randInput /tmp/lreg/output
[INFO -- 2018-11-23 18:27:24]
initSignal:0
[INFO -- 2018-11-23 18:27:24]
endSignal:3
[INFO -- 2018-11-23 18:27:24]
faultModel:1
[EXCEPTION -- 2018-11-23 18:27:25]
gdbException: Attempt to dereference a generic pointer.
[INFO -- 2018-11-23 18:27:25]
Backtrace BEGIN:
#0  0x000055555555545f in partialDerivate (pos=0) at lreg.cpp:76
#1  0x00005555555554b3 in adjust (alpha=2.2222199999999999e-05) at lreg.cpp:87
#2  0x000055555555565c in train (iterations=30000, alpha=2.2222199999999999e-05, N=4, stopsWhenStable=true) at lreg.cpp:120
#3  0x0000555555555ab7 in main (argc=3, argv=0x7fffffffde58) at lreg.cpp:174

71	double partialDerivate(int pos){
72		double pD = 0;
73		for(int i = 0; i<x.size(); i++){
74			pD += ((predict(x[i]) - y[i])*pow(x[i], pos));	
75		}
76		pD *= (2.0/x.size());
77		return pD;
78	}
79	
80	/**

Backtrace END
Memory content before bitflip:0x030x000x000x00
Fault Model: Double bit-flip
base address to flip value: 0x7fffffffd91c
address max offset: 4
Memory content after  bitflip:0x2b0x000x000x00
frame name: main
symbol name: testCases
symbol filename: lreg.cpp
symbol line: 156
value: 43
value address: 0x7fffffffd91c
Type: The type is an integer type.
Type sizeof: 4

[INFO -- 2018-11-23 18:27:25]
Fault Injection Successful after 1.4805386066436768s
