[INFO -- 2018-11-26 18:42:13]
Starting flip_value script
version: 1.1
[INFO -- 2018-11-26 18:42:13]
Initialization strings:
[INFO -- 2018-11-26 18:42:13]
(1) file /tmp/lreg/lreg
[INFO -- 2018-11-26 18:42:13]
(2) set args /tmp/lreg/randInput /tmp/lreg/output
[INFO -- 2018-11-26 18:42:13]
initSignal:0
[INFO -- 2018-11-26 18:42:13]
endSignal:3
[INFO -- 2018-11-26 18:42:13]
faultModel:0
[INFO -- 2018-11-26 18:42:14]
Backtrace BEGIN:
#0  0x00005555555567e4 in std::pow<double, unsigned int> (__x=1.4821969375237396e-323, __y=0) at /usr/include/c++/7/cmath:415
#1  0x0000555555555814 in predict (v=-15) at lreg.cpp:116
#2  0x0000555555555928 in meanSquaredError () at lreg.cpp:128
#3  0x0000555555555ee5 in train (iter1=30000, iter2=30000, N=4, alpha1=2.2222199999999999e-05, alpha2=2.2222199999999999e-05, stopsWhenStable=true) at lreg.cpp:194
#4  0x0000555555556467 in main (argc=3, argv=0x7fffffffde58) at lreg.cpp:253

410	#endif
411	
412	  template<typename _Tp, typename _Up>
413	    inline _GLIBCXX_CONSTEXPR
414	    typename __gnu_cxx::__promote_2<_Tp, _Up>::__type
415	    pow(_Tp __x, _Up __y)
416	    {
417	      typedef typename __gnu_cxx::__promote_2<_Tp, _Up>::__type __type;
418	      return pow(__type(__x), __type(__y));
419	    }

Backtrace END
Memory content before bitflip:0xce0xc00x070x1e0x260xeb0x7a0xc0
Fault Model: Single bit-flip
base address to flip value: 0x7fffffffd748
address max offset: 8
Memory content after  bitflip:0xce0xc00x070x1c0x260xeb0x7a0xc0
frame name: predict
symbol name: val
symbol filename: lreg.cpp
symbol line: 113
value: -430.69680407551357
value address: 0x7fffffffd748
Type: A floating point type.
Type sizeof: 8

[INFO -- 2018-11-26 18:42:14]
Fault Injection Successful after 1.6688709259033203s
[INFO -- 2018-11-26 18:42:15]
event type: exit
[INFO -- 2018-11-26 18:42:15]
exit code: 0
