[INFO -- 2018-11-24 15:57:15]
Starting flip_value script
version: 1.1
[INFO -- 2018-11-24 15:57:15]
Initialization strings:
[INFO -- 2018-11-24 15:57:15]
(1) file /tmp/lreg/lreg
[INFO -- 2018-11-24 15:57:15]
(2) set args /tmp/lreg/randInput /tmp/lreg/output /tmp/lreg/detected.log
[INFO -- 2018-11-24 15:57:15]
initSignal:0
[INFO -- 2018-11-24 15:57:15]
endSignal:6
[INFO -- 2018-11-24 15:57:15]
faultModel:1
[INFO -- 2018-11-24 15:57:15]
Backtrace BEGIN:
#0  0x00007ffff76bcb31 in __pow (x=-14, y=2) at w_pow_compat.c:31
#1  0x0000555555556149 in std::pow<double, int> (__x=-14, __y=2) at /usr/include/c++/7/cmath:418
#2  0x0000555555555237 in predict (v=-14) at lreg.cpp:50
#3  0x00005555555552ba in meanSquaredError () at lreg.cpp:61
#4  0x00005555555556b1 in train (iterations=30000, alpha=2.2222199999999999e-05, N=4, stopsWhenStable=true) at lreg.cpp:121
#5  0x0000555555555a1c in execute (input=0x7fffffffe1f2 "/tmp/lreg/randInput") at lreg.cpp:157
#6  0x0000555555555c78 in main (argc=4, argv=0x7fffffffde48) at lreg.cpp:193

26	w_pow_compat.c: No such file or directory.

Backtrace END
Memory content before bitflip:0x020x000x000x00
Fault Model: Double bit-flip
base address to flip value: 0x7fffffffd4a4
address max offset: 4
Memory content after  bitflip:0x020x410x000x00
frame name: std::pow<double, int>
symbol name: __y
symbol filename: /usr/include/c++/7/cmath
symbol line: 415
value: 16642
value address: 0x7fffffffd4a4
Type: The type is an integer type.
Type sizeof: 4

[INFO -- 2018-11-24 15:57:15]
Fault Injection Successful after 0.9437775611877441s
[INFO -- 2018-11-24 15:57:18]
event type: exit
[INFO -- 2018-11-24 15:57:18]
exit code: 0
