[INFO -- 2018-11-27 21:17:30]
Starting flip_value script
version: 1.1
[INFO -- 2018-11-27 21:17:30]
Initialization strings:
[INFO -- 2018-11-27 21:17:30]
(1) file /tmp/lreg/lreg
[INFO -- 2018-11-27 21:17:30]
(2) set args /tmp/lreg/randInput /tmp/lreg/output
[INFO -- 2018-11-27 21:17:30]
initSignal:0
[INFO -- 2018-11-27 21:17:30]
endSignal:3
[INFO -- 2018-11-27 21:17:30]
faultModel:2
[INFO -- 2018-11-27 21:17:32]
Backtrace BEGIN:
#0  0x0000555555555963 in meanSquaredError () at lreg.cpp:128
#1  0x0000555555555ee5 in train (iter1=20000, iter2=20000, N=3, alpha1=5.0000000000000002e-05, alpha2=5.0000000000000002e-05, stopsWhenStable=true) at lreg.cpp:194
#2  0x0000555555556467 in main (argc=3, argv=0x7fffffffde58) at lreg.cpp:253

123	*/
124	double meanSquaredError(){
125		double error = 0;
126		
127		for(UINT i1 = 0, i2 = 0; verifyUintDup(i1, i2)<(x.size() - 1); i1++, i2++){
128			error+= ((predict(x[verifyUintDup(i1, i2)]) - y[verifyUintDup(i1, i2)]) * (predict(x[verifyUintDup(i1, i2)]) - y[verifyUintDup(i1, i2)]));	
129		}
130		error /= (x.size() - 1);
131		return error;
132	

Backtrace END
Memory content before bitflip:0x2d0x430x1c0xeb0xe20x360x0a0x3f
Fault Model: Random bit-flip
base address to flip value: 0x7fffffffd7c0
address max offset: 8
Memory content after  bitflip:0x320x910x5d0x970x030x490x1e0x8d
frame name: train
symbol name: alpha2
symbol filename: lreg.cpp
symbol line: 177
value: -1.7325834090241624e-245
value address: 0x7fffffffd7c0
Type: A floating point type.
Type sizeof: 8

[INFO -- 2018-11-27 21:17:32]
Fault Injection Successful after 2.7308497428894043s
[INFO -- 2018-11-27 21:17:36]
event type: exit
[INFO -- 2018-11-27 21:17:36]
exit code: 0
