[INFO -- 2018-11-26 17:25:28]
sending 5 signals using command: 'killall -2 lreg' after 2.80787410602s
[INFO -- 2018-11-26 17:25:29]
Starting GDB script
[INFO -- 2018-11-26 17:25:29]
initSignal:0.0
[INFO -- 2018-11-26 17:25:29]
endSignal:3.0
[INFO -- 2018-11-26 17:25:30]
sending 5 signals using command: 'killall -2 lreg' after 1.3293170118s
[INFO -- 2018-11-26 17:25:31]
sending 5 signals using command: 'killall -2 lreg' after 2.00934194653s
[INFO -- 2018-11-26 17:25:31]
sending 5 signals using command: 'killall -2 lreg' after 2.90736937802s
[INFO -- 2018-11-26 17:25:32]
Execution finished before waitTime
