[INFO -- 2018-11-26 17:52:31]
Starting GDB script
[INFO -- 2018-11-26 17:52:31]
initSignal:0.0
[INFO -- 2018-11-26 17:52:31]
endSignal:3.0
[INFO -- 2018-11-26 17:52:31]
sending 5 signals using command: 'killall -2 lreg' after 0.0312739865198s
[INFO -- 2018-11-26 17:52:32]
sending 5 signals using command: 'killall -2 lreg' after 0.400222238722s
[INFO -- 2018-11-26 17:52:34]
sending 5 signals using command: 'killall -2 lreg' after 2.21699475791s
[INFO -- 2018-11-26 17:52:35]
Execution finished before waitTime
