[INFO -- 2018-11-26 15:56:43]
Starting flip_value script
version: 1.1
[INFO -- 2018-11-26 15:56:43]
Initialization strings:
[INFO -- 2018-11-26 15:56:43]
(1) file /tmp/lreg/lreg
[INFO -- 2018-11-26 15:56:43]
(2) set args /tmp/lreg/randInput /tmp/lreg/output
[INFO -- 2018-11-26 15:56:43]
initSignal:0
[INFO -- 2018-11-26 15:56:43]
endSignal:3
[INFO -- 2018-11-26 15:56:43]
faultModel:2
[EXCEPTION -- 2018-11-26 15:56:44]
gdbException: Attempt to dereference a generic pointer.
[INFO -- 2018-11-26 15:56:44]
Backtrace BEGIN:
#0  0x00005555555567cf in std::vector<double, std::allocator<double> >::operator[] (this=0x55555575b180 <T1>, __n=0) at /usr/include/c++/7/bits/stl_vector.h:798
#1  0x00005555555557d4 in predict (v=-1) at lreg.cpp:116
#2  0x0000555555555a53 in partialDerivate (pos1=2, pos2=2) at lreg.cpp:142
#3  0x0000555555555bbe in adjust (alpha1=5.0000000000000002e-05, alpha2=5.0000000000000002e-05) at lreg.cpp:156
#4  0x0000555555555ee0 in train (iter1=20000, iter2=20000, N=3, alpha1=5.0000000000000002e-05, alpha2=5.0000000000000002e-05, stopsWhenStable=true) at lreg.cpp:193
#5  0x0000555555556467 in main (argc=3, argv=0x7fffffffde58) at lreg.cpp:253

793	       */
794	      reference
795	      operator[](size_type __n) _GLIBCXX_NOEXCEPT
796	      {
797		__glibcxx_requires_subscript(__n);
798		return *(this->_M_impl._M_start + __n);
799	      }
800	
801	      /**
802	       *  @brief  Subscript access to the data contained in the %vector.

Backtrace END
Memory content before bitflip:0x000x000x000x00
Fault Model: Random bit-flip
base address to flip value: 0x55555575b1b8 
address max offset: 4
Memory content after  bitflip:0x2c0x370x470x4d
frame name: train
symbol name: detected
symbol filename: lreg.cpp
symbol line: 58
value: 1296512812
value address: 0x55555575b1b8 <detected>
Type: The type is an integer type.
Type sizeof: 4

[INFO -- 2018-11-26 15:56:44]
Fault Injection Successful after 1.7506728172302246s
[INFO -- 2018-11-26 15:56:46]
event type: exit
[INFO -- 2018-11-26 15:56:46]
exit code: 0
