[INFO -- 2018-11-23 18:33:52]
Starting flip_value script
version: 1.1
[INFO -- 2018-11-23 18:33:52]
Initialization strings:
[INFO -- 2018-11-23 18:33:52]
(1) file /tmp/lreg/lreg
[INFO -- 2018-11-23 18:33:52]
(2) set args /tmp/lreg/randInput /tmp/lreg/output
[INFO -- 2018-11-23 18:33:52]
initSignal:0
[INFO -- 2018-11-23 18:33:52]
endSignal:3
[INFO -- 2018-11-23 18:33:52]
faultModel:2
[EXCEPTION -- 2018-11-23 18:33:53]
pythonException: empty range for randrange() (0,0, 0)
[INFO -- 2018-11-23 18:33:53]
Backtrace BEGIN:
#0  0x00007ffff76bcb0f in __pow (x=21, y=1) at w_pow_compat.c:30
#1  0x0000555555555d5f in std::pow<double, int> (__x=21, __y=1) at /usr/include/c++/7/cmath:418
#2  0x00005555555551e7 in predict (v=21) at lreg.cpp:50
#3  0x00005555555553ac in partialDerivate (pos=1) at lreg.cpp:74
#4  0x00005555555554b3 in adjust (alpha=2.2222199999999999e-05) at lreg.cpp:87
#5  0x000055555555565c in train (iterations=30000, alpha=2.2222199999999999e-05, N=4, stopsWhenStable=true) at lreg.cpp:120
#6  0x0000555555555ab7 in main (argc=3, argv=0x7fffffffde58) at lreg.cpp:174

25	in w_pow_compat.c

Backtrace END
Memory content before bitflip:0x460x5a0xb70xf40x390x4d0xf70x3e
Fault Model: Random bit-flip
base address to flip value: 0x7fffffffd7c8
address max offset: 8
Memory content after  bitflip:0x4d0xad0xfa0x130xa20x2f0x9d0x1f
frame name: adjust
symbol name: alpha
symbol filename: lreg.cpp
symbol line: 83
value: 2.1257776492225379e-156
value address: 0x7fffffffd7c8
Type: A floating point type.
Type sizeof: 8

[INFO -- 2018-11-23 18:33:53]
Fault Injection Successful after 1.8133916854858398s
[INFO -- 2018-11-23 18:33:54]
event type: exit
[EXCEPTION -- 2018-11-23 18:33:54]
exit code: no exit code available
