[INFO -- 2018-11-25 19:38:57]
sending 5 signals using command: 'killall -2 lreg' after 5.04172007206s
[INFO -- 2018-11-25 19:38:57]
Starting GDB script
[INFO -- 2018-11-25 19:38:57]
initSignal:0.0
[INFO -- 2018-11-25 19:38:57]
endSignal:6.0
[INFO -- 2018-11-25 19:38:57]
sending 5 signals using command: 'killall -2 lreg' after 0.0492069359189s
[INFO -- 2018-11-25 19:38:58]
sending 5 signals using command: 'killall -2 lreg' after 0.669074463218s
[INFO -- 2018-11-25 19:39:00]
Execution finished before waitTime
