[INFO -- 2018-11-25 20:47:01]
Starting flip_value script
version: 1.1
[INFO -- 2018-11-25 20:47:01]
Initialization strings:
[INFO -- 2018-11-25 20:47:01]
(1) file /tmp/lreg/lreg
[INFO -- 2018-11-25 20:47:01]
(2) set args /tmp/lreg/randInput /tmp/lreg/output /tmp/lreg/detected.log
[INFO -- 2018-11-25 20:47:01]
initSignal:0
[INFO -- 2018-11-25 20:47:01]
endSignal:6
[INFO -- 2018-11-25 20:47:01]
faultModel:1
[INFO -- 2018-11-25 20:47:04]
event type: exit
[INFO -- 2018-11-25 20:47:04]
exit code: 0
