[INFO -- 2018-11-27 17:44:18]
Starting GDB script
[INFO -- 2018-11-27 17:44:18]
initSignal:0.0
[INFO -- 2018-11-27 17:44:18]
endSignal:3.0
[INFO -- 2018-11-27 17:44:18]
sending 5 signals using command: 'killall -2 lreg' after 0.610372275789s
[INFO -- 2018-11-27 17:44:19]
sending 5 signals using command: 'killall -2 lreg' after 1.08423043736s
[INFO -- 2018-11-27 17:44:21]
sending 5 signals using command: 'killall -2 lreg' after 2.93550904512s
[INFO -- 2018-11-27 17:44:21]
Execution finished before waitTime
