[INFO -- 2018-11-23 22:04:32]
Starting flip_value script
version: 1.1
[INFO -- 2018-11-23 22:04:32]
Initialization strings:
[INFO -- 2018-11-23 22:04:32]
(1) file /tmp/lreg/lreg
[INFO -- 2018-11-23 22:04:32]
(2) set args /tmp/lreg/randInput /tmp/lreg/output
[INFO -- 2018-11-23 22:04:32]
initSignal:0
[INFO -- 2018-11-23 22:04:32]
endSignal:3
[INFO -- 2018-11-23 22:04:32]
faultModel:2
[INFO -- 2018-11-23 22:04:33]
event type: exit
[INFO -- 2018-11-23 22:04:33]
exit code: 0
