[INFO -- 2018-11-25 14:45:40]
Starting GDB script
[INFO -- 2018-11-25 14:45:40]
initSignal:0.0
[INFO -- 2018-11-25 14:45:40]
endSignal:6.0
[INFO -- 2018-11-25 14:45:41]
sending 5 signals using command: 'killall -2 lreg' after 1.34319960194s
[INFO -- 2018-11-25 14:45:44]
sending 5 signals using command: 'killall -2 lreg' after 3.56469287806s
[INFO -- 2018-11-25 14:45:45]
Execution finished before waitTime
[INFO -- 2018-11-25 14:45:45]
sending 5 signals using command: 'killall -2 lreg' after 4.92284020366s
