[INFO -- 2018-11-29 14:17:42]
Starting flip_value script
version: 1.1
[INFO -- 2018-11-29 14:17:42]
Initialization strings:
[INFO -- 2018-11-29 14:17:42]
(1) file /tmp/lreg/lreg
[INFO -- 2018-11-29 14:17:42]
(2) set args /tmp/lreg/randInput /tmp/lreg/output /tmp/lreg/detected.log
[INFO -- 2018-11-29 14:17:42]
initSignal:0
[INFO -- 2018-11-29 14:17:42]
endSignal:6
[INFO -- 2018-11-29 14:17:42]
faultModel:2
[INFO -- 2018-11-29 14:17:44]
Backtrace BEGIN:
#0  0x000055555555543e in partialDerivate (pos=2) at lreg.cpp:74
#1  0x0000555555555503 in adjust (alpha=5.0000000000000002e-05) at lreg.cpp:87
#2  0x00005555555556ac in train (iterations=20000, alpha=5.0000000000000002e-05, N=3, stopsWhenStable=true) at lreg.cpp:120
#3  0x0000555555555a1c in execute (input=0x7fffffffe1f1 "/tmp/lreg/randInput") at lreg.cpp:157
#4  0x0000555555555cb0 in main (argc=4, argv=0x7fffffffde48) at lreg.cpp:196

69		to the adjustment variable whose position in T is passed in pos
70	*/
71	double partialDerivate(int pos){
72		double pD = 0;
73		for(int i = 0; i<x.size(); i++){
74			pD += ((predict(x[i]) - y[i])*pow(x[i], pos));	
75		}
76		pD *= (2.0/x.size());
77		return pD;
78	}

Backtrace END
Fliping value of field: std::_Vector_base<double, std::allocator<double> >
Fliping value of field: _M_impl
Fliping value of field: _M_start
Fliping a bit of the value pointed by a pointer
Memory content before bitflip:0x000x000x000x000x000x000x460xc0
Fault Model: Random bit-flip
base address to flip value: 0x555555772540
address max offset: 8
Memory content after  bitflip:0x280xeb0x8b0xe90xcf0xe20x340x80
frame name: adjust
symbol name: y
symbol filename: lreg.cpp
symbol line: 33
value: std::vector of length 12, capacity 16 = {-1.1618214802491943e-307, -23, -143, -8, 1, 1, -1319, -23, -1079, -503, -104, -1583}
value address: 0x55555575b160 <y>
Type: The type is a structure.
Type sizeof: 24
Field name: std::_Vector_base<double, std::allocator<double> >
Field Type: The type is a structure.
Field Type sizeof: 24

[INFO -- 2018-11-29 14:17:44]
Fault Injection Successful after 2.9392998218536377s
[INFO -- 2018-11-29 14:17:46]
event type: exit
[INFO -- 2018-11-29 14:17:46]
exit code: 0
