[INFO -- 2018-11-29 14:17:41]
Starting GDB script
[INFO -- 2018-11-29 14:17:41]
initSignal:0.0
[INFO -- 2018-11-29 14:17:41]
endSignal:6.0
[INFO -- 2018-11-29 14:17:44]
sending 5 signals using command: 'killall -2 lreg' after 2.69632624901s
[INFO -- 2018-11-29 14:17:44]
sending 5 signals using command: 'killall -2 lreg' after 2.93790230554s
[INFO -- 2018-11-29 14:17:46]
Execution finished before waitTime
