[INFO -- 2018-11-25 10:48:20]
sending 5 signals using command: 'killall -2 lreg' after 5.86942020053s
[INFO -- 2018-11-25 10:48:20]
Starting GDB script
[INFO -- 2018-11-25 10:48:20]
initSignal:0.0
[INFO -- 2018-11-25 10:48:20]
endSignal:6.0
[INFO -- 2018-11-25 10:48:20]
sending 5 signals using command: 'killall -2 lreg' after 0.502060568753s
[INFO -- 2018-11-25 10:48:24]
Execution finished before waitTime
