[INFO -- 2018-11-23 21:51:04]
Starting flip_value script
version: 1.1
[INFO -- 2018-11-23 21:51:04]
Initialization strings:
[INFO -- 2018-11-23 21:51:04]
(1) file /tmp/lreg/lreg
[INFO -- 2018-11-23 21:51:04]
(2) set args /tmp/lreg/randInput /tmp/lreg/output
[INFO -- 2018-11-23 21:51:04]
initSignal:0
[INFO -- 2018-11-23 21:51:04]
endSignal:3
[INFO -- 2018-11-23 21:51:04]
faultModel:0
[INFO -- 2018-11-23 21:51:04]
Backtrace BEGIN:
#0  0x00007ffff76daa2d in __ieee754_pow_sse2 (x=<optimized out>, y=<optimized out>) at ../sysdeps/ieee754/dbl-64/e_pow.c:215
#1  0x00007ffff76bcb14 in __pow (x=-10, y=0) at w_pow_compat.c:30
#2  0x0000555555555d5f in std::pow<double, int> (__x=-10, __y=0) at /usr/include/c++/7/cmath:418
#3  0x00005555555551e7 in predict (v=-10) at lreg.cpp:50
#4  0x00005555555553ac in partialDerivate (pos=1) at lreg.cpp:74
#5  0x00005555555554b3 in adjust (alpha=0.00020000000000000001) at lreg.cpp:87
#6  0x000055555555565c in train (iterations=10000, alpha=0.00020000000000000001, N=2, stopsWhenStable=true) at lreg.cpp:120
#7  0x0000555555555ab7 in main (argc=3, argv=0x7fffffffde58) at lreg.cpp:174

210	../sysdeps/ieee754/dbl-64/e_pow.c: No such file or directory.

Backtrace END
Fliping value of field name: x
Memory content before bitflip:0x000x380xfa0xfe0x420x2e0xe60x3f
Fault Model: Single bit-flip
base address to flip value: 0x7ffff779f5c8 
address max offset: 8
Memory content after  bitflip:0x000x380xfa0xfe0x420x2e0xe60x2f
frame name: __ieee754_pow_sse2
symbol name: ln2a
symbol filename: ../sysdeps/ieee754/dbl-64/upow.h
symbol line: 50
value: {i = {-17156096, 803614274}, x = 5.9861358848036962e-78}
value address: 0x7ffff779f5c8 <ln2a>
Type: The type is a union.
Type sizeof: 8
Field name: i
Field Type: The type is an array.
Field Type sizeof: 8
Field name: x
Field Type: A floating point type.
Field Type sizeof: 8

[INFO -- 2018-11-23 21:51:04]
Fault Injection Successful after 0.973442792892456s
[INFO -- 2018-11-23 21:51:06]
event type: exit
[INFO -- 2018-11-23 21:51:06]
exit code: 0
