[INFO -- 2018-11-27 19:33:08]
Starting GDB script
[INFO -- 2018-11-27 19:33:08]
initSignal:0.0
[INFO -- 2018-11-27 19:33:08]
endSignal:3.0
[INFO -- 2018-11-27 19:33:08]
sending 5 signals using command: 'killall -2 lreg' after 0.381534474761s
[INFO -- 2018-11-27 19:33:08]
sending 5 signals using command: 'killall -2 lreg' after 0.65643237365s
[INFO -- 2018-11-27 19:33:09]
sending 5 signals using command: 'killall -2 lreg' after 1.03240843998s
[INFO -- 2018-11-27 19:33:14]
Execution finished before waitTime
