[INFO -- 2018-11-27 19:39:15]
Starting flip_value script
version: 1.1
[INFO -- 2018-11-27 19:39:15]
Initialization strings:
[INFO -- 2018-11-27 19:39:15]
(1) file /tmp/lreg/lreg
[INFO -- 2018-11-27 19:39:15]
(2) set args /tmp/lreg/randInput /tmp/lreg/output
[INFO -- 2018-11-27 19:39:15]
initSignal:0
[INFO -- 2018-11-27 19:39:15]
endSignal:3
[INFO -- 2018-11-27 19:39:15]
faultModel:1
[EXCEPTION -- 2018-11-27 19:39:16]
pythonException: Unable to exit loop in struct fields; Exiting wihtout making a bit flip
[INFO -- 2018-11-27 19:39:17]
Backtrace BEGIN:
#0  log1 (error=<synthetic pointer>, delta=<synthetic pointer>, x=15) at ../sysdeps/ieee754/dbl-64/e_pow.c:332
#1  __ieee754_pow_sse2 (x=15, y=3) at ../sysdeps/ieee754/dbl-64/e_pow.c:103
#2  0x00007ffff76db6be in __ieee754_pow_sse2 (x=<optimized out>, y=<optimized out>) at ../sysdeps/ieee754/dbl-64/e_pow.c:184
#3  0x00007ffff76bcb14 in __pow (x=-15, y=3) at w_pow_compat.c:30
#4  0x0000555555556826 in std::pow<double, unsigned int> (__x=-15, __y=3) at /usr/include/c++/7/cmath:418
#5  0x0000555555555814 in predict (v=-15) at lreg.cpp:116
#6  0x00005555555558c0 in meanSquaredError () at lreg.cpp:128
#7  0x0000555555555ee5 in train (iter1=30000, iter2=30000, N=4, alpha1=2.2222199999999999e-05, alpha2=2.2222199999999999e-05, stopsWhenStable=true) at lreg.cpp:194
#8  0x0000555555556467 in main (argc=3, argv=0x7fffffffde58) at lreg.cpp:253

327	in ../sysdeps/ieee754/dbl-64/e_pow.c

Backtrace END
Fliping value of field: std::_Vector_base<double, std::allocator<double> >
Fliping value of field: _M_impl
Fliping value of field: _M_finish
Fliping a bit of the value pointed by a pointer
Memory content before bitflip:0x000x000x000x000x000x000x000x00
Fault Model: Double bit-flip
base address to flip value: 0x5555557727a8
address max offset: 8
Memory content after  bitflip:0x000x000x000x000x600x000x000x00
frame name: meanSquaredError
symbol name: y
symbol filename: lreg.cpp
symbol line: 35
value: std::vector of length 17, capacity 32 = {13145, 2813, 13, -99407, -575, 22793, -121267, 15973, 22793, 86413, -63895, 10673, -1507, 41, 19181, -38047, -130860}
value address: 0x55555575b160 <y>
Type: The type is a structure.
Type sizeof: 24
Field name: std::_Vector_base<double, std::allocator<double> >
Field Type: The type is a structure.
Field Type sizeof: 24

[INFO -- 2018-11-27 19:39:17]
Fault Injection Successful after 2.1424851417541504s
[INFO -- 2018-11-27 19:39:17]
event type: exit
[INFO -- 2018-11-27 19:39:17]
exit code: 0
