[INFO -- 2018-11-25 14:33:08]
sending 5 signals using command: 'killall -2 lreg' after 3.92139563989s
[INFO -- 2018-11-25 14:33:09]
sending 5 signals using command: 'killall -2 lreg' after 4.81530528604s
[INFO -- 2018-11-25 14:33:09]
sending 5 signals using command: 'killall -2 lreg' after 4.88289544222s
[INFO -- 2018-11-25 14:33:09]
Starting GDB script
[INFO -- 2018-11-25 14:33:09]
initSignal:0.0
[INFO -- 2018-11-25 14:33:09]
endSignal:6.0
[INFO -- 2018-11-25 14:33:10]
sending 5 signals using command: 'killall -2 lreg' after 0.630265407266s
[INFO -- 2018-11-25 14:33:11]
Execution finished before waitTime
