[INFO -- 2018-11-22 17:08:28]
Starting GDB script
[INFO -- 2018-11-22 17:08:28]
initSignal:0.0
[INFO -- 2018-11-22 17:08:28]
endSignal:3.0
[INFO -- 2018-11-22 17:08:28]
sending 5 signals using command: 'killall -2 lreg' after 0.812381146189s
[INFO -- 2018-11-22 17:08:30]
sending 5 signals using command: 'killall -2 lreg' after 2.71193486577s
[INFO -- 2018-11-22 17:08:30]
sending 5 signals using command: 'killall -2 lreg' after 2.76279616153s
[INFO -- 2018-11-22 17:08:33]
Execution finished before waitTime
