[INFO -- 2018-11-25 21:35:46]
sending 5 signals using command: 'killall -2 lreg' after 4.15721244074s
[INFO -- 2018-11-25 21:35:47]
sending 5 signals using command: 'killall -2 lreg' after 4.77214767714s
[INFO -- 2018-11-25 21:35:47]
Starting GDB script
[INFO -- 2018-11-25 21:35:47]
initSignal:0.0
[INFO -- 2018-11-25 21:35:47]
endSignal:6.0
[INFO -- 2018-11-25 21:35:48]
sending 5 signals using command: 'killall -2 lreg' after 0.953014991226s
[INFO -- 2018-11-25 21:35:49]
sending 5 signals using command: 'killall -2 lreg' after 1.65293892939s
[INFO -- 2018-11-25 21:35:50]
sending 5 signals using command: 'killall -2 lreg' after 3.13965412821s
[INFO -- 2018-11-25 21:35:51]
Execution finished before waitTime
