[INFO -- 2018-11-26 16:42:21]
Starting flip_value script
version: 1.1
[INFO -- 2018-11-26 16:42:21]
Initialization strings:
[INFO -- 2018-11-26 16:42:21]
(1) file /tmp/lreg/lreg
[INFO -- 2018-11-26 16:42:21]
(2) set args /tmp/lreg/randInput /tmp/lreg/output
[INFO -- 2018-11-26 16:42:21]
initSignal:0
[INFO -- 2018-11-26 16:42:21]
endSignal:3
[INFO -- 2018-11-26 16:42:21]
faultModel:1
[INFO -- 2018-11-26 16:42:24]
event type: exit
[INFO -- 2018-11-26 16:42:24]
exit code: 0
