[INFO -- 2018-11-22 20:28:59]
Starting GDB script
[INFO -- 2018-11-22 20:28:59]
initSignal:0.0
[INFO -- 2018-11-22 20:28:59]
endSignal:3.0
[INFO -- 2018-11-22 20:28:59]
sending 5 signals using command: 'killall -2 lreg' after 0.148579908214s
[INFO -- 2018-11-22 20:28:59]
sending 5 signals using command: 'killall -2 lreg' after 0.196430607839s
[INFO -- 2018-11-22 20:29:00]
sending 5 signals using command: 'killall -2 lreg' after 1.1094475468s
[INFO -- 2018-11-22 20:29:04]
Execution finished before waitTime
