[INFO -- 2018-11-24 10:55:10]
Starting GDB script
[INFO -- 2018-11-24 10:55:10]
initSignal:0.0
[INFO -- 2018-11-24 10:55:10]
endSignal:2.0
[INFO -- 2018-11-24 10:55:10]
sending 5 signals using command: 'killall -2 lreg' after 0.416635679927s
[INFO -- 2018-11-24 10:55:11]
sending 5 signals using command: 'killall -2 lreg' after 0.898672606274s
[INFO -- 2018-11-24 10:55:11]
sending 5 signals using command: 'killall -2 lreg' after 1.56038636064s
[INFO -- 2018-11-24 10:55:13]
Execution finished before waitTime
