[INFO -- 2018-11-26 15:12:57]
sending 5 signals using command: 'killall -2 lreg' after 2.67846656578s
[INFO -- 2018-11-26 15:12:57]
Starting GDB script
[INFO -- 2018-11-26 15:12:57]
initSignal:0.0
[INFO -- 2018-11-26 15:12:57]
endSignal:3.0
[INFO -- 2018-11-26 15:12:58]
sending 5 signals using command: 'killall -2 lreg' after 0.913165910819s
[INFO -- 2018-11-26 15:12:59]
sending 5 signals using command: 'killall -2 lreg' after 1.45833152691s
[INFO -- 2018-11-26 15:12:59]
sending 5 signals using command: 'killall -2 lreg' after 1.57863505793s
[INFO -- 2018-11-26 15:13:01]
Execution finished before waitTime
