[INFO -- 2018-11-24 10:52:55]
Starting GDB script
[INFO -- 2018-11-24 10:52:55]
initSignal:0.0
[INFO -- 2018-11-24 10:52:55]
endSignal:2.0
[INFO -- 2018-11-24 10:52:56]
sending 5 signals using command: 'killall -2 lreg' after 1.30543298395s
[INFO -- 2018-11-24 10:52:56]
sending 5 signals using command: 'killall -2 lreg' after 1.47826440008s
[INFO -- 2018-11-24 10:52:57]
sending 5 signals using command: 'killall -2 lreg' after 1.79264685616s
[INFO -- 2018-11-24 10:53:00]
Execution finished before waitTime
