[INFO -- 2018-11-22 20:24:05]
Starting GDB script
[INFO -- 2018-11-22 20:24:05]
initSignal:0.0
[INFO -- 2018-11-22 20:24:05]
endSignal:3.0
[INFO -- 2018-11-22 20:24:07]
sending 5 signals using command: 'killall -2 lreg' after 1.69628859715s
[INFO -- 2018-11-22 20:24:07]
sending 5 signals using command: 'killall -2 lreg' after 2.09909522816s
[INFO -- 2018-11-22 20:24:07]
sending 5 signals using command: 'killall -2 lreg' after 2.46866418481s
[INFO -- 2018-11-22 20:24:10]
Execution finished before waitTime
