[INFO -- 2018-11-26 19:36:18]
Starting GDB script
[INFO -- 2018-11-26 19:36:18]
initSignal:0.0
[INFO -- 2018-11-26 19:36:18]
endSignal:3.0
[INFO -- 2018-11-26 19:36:20]
sending 5 signals using command: 'killall -2 lreg' after 2.01087282389s
[INFO -- 2018-11-26 19:36:20]
sending 5 signals using command: 'killall -2 lreg' after 2.20555385766s
[INFO -- 2018-11-26 19:36:20]
sending 5 signals using command: 'killall -2 lreg' after 2.75532559202s
[INFO -- 2018-11-26 19:36:21]
Execution finished before waitTime
