[INFO -- 2018-11-24 09:58:10]
sending 5 signals using command: 'killall -2 lreg' after 0.943806541387s
[INFO -- 2018-11-24 09:58:10]
Starting GDB script
[INFO -- 2018-11-24 09:58:10]
initSignal:0.0
[INFO -- 2018-11-24 09:58:10]
endSignal:2.0
[INFO -- 2018-11-24 09:58:11]
sending 5 signals using command: 'killall -2 lreg' after 1.2079444308s
[INFO -- 2018-11-24 09:58:12]
sending 5 signals using command: 'killall -2 lreg' after 1.39572916975s
[INFO -- 2018-11-24 09:58:12]
sending 5 signals using command: 'killall -2 lreg' after 1.93163031414s
[INFO -- 2018-11-24 09:58:12]
Execution finished before waitTime
