[INFO -- 2018-11-26 17:14:19]
Starting GDB script
[INFO -- 2018-11-26 17:14:19]
initSignal:0.0
[INFO -- 2018-11-26 17:14:19]
endSignal:3.0
[INFO -- 2018-11-26 17:14:19]
sending 5 signals using command: 'killall -2 lreg' after 0.585246955249s
[INFO -- 2018-11-26 17:14:19]
sending 5 signals using command: 'killall -2 lreg' after 0.666720307668s
[INFO -- 2018-11-26 17:14:21]
sending 5 signals using command: 'killall -2 lreg' after 2.27136278784s
[INFO -- 2018-11-26 17:14:23]
Execution finished before waitTime
