[INFO -- 2018-11-25 17:54:48]
Starting flip_value script
version: 1.1
[INFO -- 2018-11-25 17:54:48]
Initialization strings:
[INFO -- 2018-11-25 17:54:48]
(1) file /tmp/lreg/lreg
[INFO -- 2018-11-25 17:54:48]
(2) set args /tmp/lreg/randInput /tmp/lreg/output /tmp/lreg/detected.log
[INFO -- 2018-11-25 17:54:48]
initSignal:0
[INFO -- 2018-11-25 17:54:48]
endSignal:6
[INFO -- 2018-11-25 17:54:48]
faultModel:1
[INFO -- 2018-11-25 17:54:51]
event type: exit
[INFO -- 2018-11-25 17:54:51]
exit code: 0
