[INFO -- 2018-11-29 18:28:43]
Starting flip_value script
version: 1.1
[INFO -- 2018-11-29 18:28:43]
Initialization strings:
[INFO -- 2018-11-29 18:28:44]
(1) file /tmp/lreg/lreg
[INFO -- 2018-11-29 18:28:44]
(2) set args /tmp/lreg/randInput /tmp/lreg/output /tmp/lreg/detected.log
[INFO -- 2018-11-29 18:28:44]
initSignal:0
[INFO -- 2018-11-29 18:28:44]
endSignal:6
[INFO -- 2018-11-29 18:28:44]
faultModel:2
[INFO -- 2018-11-29 18:28:47]
event type: exit
[INFO -- 2018-11-29 18:28:47]
exit code: 0
