[INFO -- 2018-11-24 19:14:33]
sending 5 signals using command: 'killall -2 lreg' after 4.61164478873s
[INFO -- 2018-11-24 19:14:33]
Starting GDB script
[INFO -- 2018-11-24 19:14:33]
initSignal:0.0
[INFO -- 2018-11-24 19:14:33]
endSignal:6.0
[INFO -- 2018-11-24 19:14:36]
sending 5 signals using command: 'killall -2 lreg' after 2.56930612319s
[INFO -- 2018-11-24 19:14:36]
sending 5 signals using command: 'killall -2 lreg' after 2.82897583156s
[INFO -- 2018-11-24 19:14:37]
Execution finished before waitTime
