[INFO -- 2018-11-22 18:49:47]
Starting GDB script
[INFO -- 2018-11-22 18:49:47]
initSignal:0.0
[INFO -- 2018-11-22 18:49:47]
endSignal:3.0
[INFO -- 2018-11-22 18:49:48]
sending 5 signals using command: 'killall -2 lreg' after 0.999254172179s
[INFO -- 2018-11-22 18:49:49]
sending 5 signals using command: 'killall -2 lreg' after 1.98329916099s
[INFO -- 2018-11-22 18:49:50]
sending 5 signals using command: 'killall -2 lreg' after 2.74065726061s
[INFO -- 2018-11-22 18:49:52]
Execution finished before waitTime
