[INFO -- 2018-11-27 19:16:05]
Starting GDB script
[INFO -- 2018-11-27 19:16:05]
initSignal:0.0
[INFO -- 2018-11-27 19:16:05]
endSignal:3.0
[INFO -- 2018-11-27 19:16:05]
sending 5 signals using command: 'killall -2 lreg' after 0.0138330163608s
[INFO -- 2018-11-27 19:16:06]
sending 5 signals using command: 'killall -2 lreg' after 0.590131409899s
[INFO -- 2018-11-27 19:16:06]
sending 5 signals using command: 'killall -2 lreg' after 0.697086568964s
[INFO -- 2018-11-27 19:16:09]
Execution finished before waitTime
