[INFO -- 2018-11-24 16:30:47]
Starting GDB script
[INFO -- 2018-11-24 16:30:47]
initSignal:0.0
[INFO -- 2018-11-24 16:30:47]
endSignal:6.0
[INFO -- 2018-11-24 16:30:50]
sending 5 signals using command: 'killall -2 lreg' after 2.00073348403s
[INFO -- 2018-11-24 16:30:50]
sending 5 signals using command: 'killall -2 lreg' after 1.72516830572s
[INFO -- 2018-11-24 16:30:50]
Execution finished before waitTime
