[INFO -- 2018-11-24 13:42:25]
Starting flip_value script
version: 1.1
[INFO -- 2018-11-24 13:42:25]
Initialization strings:
[INFO -- 2018-11-24 13:42:25]
(1) file /tmp/lreg/lreg
[INFO -- 2018-11-24 13:42:25]
(2) set args /tmp/lreg/randInput /tmp/lreg/output /tmp/lreg/detected.log
[INFO -- 2018-11-24 13:42:25]
initSignal:0
[INFO -- 2018-11-24 13:42:25]
endSignal:10
[INFO -- 2018-11-24 13:42:25]
faultModel:2
[INFO -- 2018-11-24 13:42:29]
Backtrace BEGIN:
#0  0x000055555555613f in std::pow<double, int> (__x=31, __y=3) at /usr/include/c++/7/cmath:418
#1  0x0000555555555451 in partialDerivate (pos=3) at lreg.cpp:74
#2  0x0000555555555503 in adjust (alpha=2.2222199999999999e-05) at lreg.cpp:87
#3  0x00005555555556ac in train (iterations=30000, alpha=2.2222199999999999e-05, N=4, stopsWhenStable=true) at lreg.cpp:120
#4  0x0000555555555a1c in execute (input=0x7fffffffe1f2 "/tmp/lreg/randInput") at lreg.cpp:157
#5  0x0000555555555cb0 in main (argc=4, argv=0x7fffffffde48) at lreg.cpp:196

413	    inline _GLIBCXX_CONSTEXPR
414	    typename __gnu_cxx::__promote_2<_Tp, _Up>::__type
415	    pow(_Tp __x, _Up __y)
416	    {
417	      typedef typename __gnu_cxx::__promote_2<_Tp, _Up>::__type __type;
418	      return pow(__type(__x), __type(__y));
419	    }
420	
421	  using ::sin;
422	

Backtrace END
Fliping a bit of the pointer
Memory content before bitflip:0x480xde0xff0xff0xff0x7f0x000x00
Fault Model: Random bit-flip
base address to flip value: 0x7fffffffd8e0
address max offset: 8
Memory content after  bitflip:0x6b0xe00x450xd10xd20x260x490xab
frame name: main
symbol name: argv
symbol filename: lreg.cpp
symbol line: 181
value: 0x7fffffffde48
value address: 0x7fffffffd8e0
Type: The type is a pointer.
Type sizeof: 8

[INFO -- 2018-11-24 13:42:29]
Fault Injection Successful after 4.1925318241119385s
[INFO -- 2018-11-24 13:42:30]
event type: exit
[INFO -- 2018-11-24 13:42:30]
exit code: 0
