[INFO -- 2018-11-24 17:37:35]
Starting flip_value script
version: 1.1
[INFO -- 2018-11-24 17:37:35]
Initialization strings:
[INFO -- 2018-11-24 17:37:35]
(1) file /tmp/lreg/lreg
[INFO -- 2018-11-24 17:37:35]
(2) set args /tmp/lreg/randInput /tmp/lreg/output /tmp/lreg/detected.log
[INFO -- 2018-11-24 17:37:35]
initSignal:0
[INFO -- 2018-11-24 17:37:35]
endSignal:6
[INFO -- 2018-11-24 17:37:35]
faultModel:2
[INFO -- 2018-11-24 17:37:38]
event type: exit
[INFO -- 2018-11-24 17:37:38]
exit code: 0
