[INFO -- 2018-11-27 20:36:10]
Starting GDB script
[INFO -- 2018-11-27 20:36:10]
initSignal:0.0
[INFO -- 2018-11-27 20:36:10]
endSignal:3.0
[INFO -- 2018-11-27 20:36:11]
sending 5 signals using command: 'killall -2 lreg' after 0.705508848704s
[INFO -- 2018-11-27 20:36:11]
sending 5 signals using command: 'killall -2 lreg' after 1.24036007897s
[INFO -- 2018-11-27 20:36:12]
sending 5 signals using command: 'killall -2 lreg' after 2.10961743293s
[INFO -- 2018-11-27 20:36:12]
Execution finished before waitTime
