[INFO -- 2018-11-24 15:53:52]
Starting flip_value script
version: 1.1
[INFO -- 2018-11-24 15:53:52]
Initialization strings:
[INFO -- 2018-11-24 15:53:52]
(1) file /tmp/lreg/lreg
[INFO -- 2018-11-24 15:53:52]
(2) set args /tmp/lreg/randInput /tmp/lreg/output /tmp/lreg/detected.log
[INFO -- 2018-11-24 15:53:52]
initSignal:0
[INFO -- 2018-11-24 15:53:52]
endSignal:6
[INFO -- 2018-11-24 15:53:52]
faultModel:0
[INFO -- 2018-11-24 15:53:53]
Backtrace BEGIN:
#0  0x00007ffff76da795 in log1 (error=<synthetic pointer>, delta=<synthetic pointer>, x=5) at ../sysdeps/ieee754/dbl-64/e_pow.c:330
#1  __ieee754_pow_sse2 (x=5, y=3) at ../sysdeps/ieee754/dbl-64/e_pow.c:103
#2  0x00007ffff76bcb14 in __pow (x=5, y=3) at w_pow_compat.c:30
#3  0x0000555555556149 in std::pow<double, int> (__x=5, __y=3) at /usr/include/c++/7/cmath:418
#4  0x0000555555555237 in predict (v=5) at lreg.cpp:50
#5  0x00005555555553fc in partialDerivate (pos=1) at lreg.cpp:74
#6  0x0000555555555503 in adjust (alpha=2.2222199999999999e-05) at lreg.cpp:87
#7  0x00005555555556ac in train (iterations=30000, alpha=2.2222199999999999e-05, N=4, stopsWhenStable=true) at lreg.cpp:120
#8  0x0000555555555a1c in execute (input=0x7fffffffe1f2 "/tmp/lreg/randInput") at lreg.cpp:157
#9  0x0000555555555c78 in main (argc=4, argv=0x7fffffffde48) at lreg.cpp:193

325	../sysdeps/ieee754/dbl-64/e_pow.c: No such file or directory.

Backtrace END
Fliping value of field name: i
Fliping array at pos: 0
Memory content before bitflip:0x000x000x000x00
Fault Model: Single bit-flip
base address to flip value: 0x7ffff779f5d8 
address max offset: 4
Memory content after  bitflip:0x000x000x000x10
frame name: log1
symbol name: INF
symbol filename: ../sysdeps/ieee754/dbl-64/upow.h
symbol line: 48
value: {i = {268435456, 2146435072}, x = nan(0x010000000)}
value address: 0x7ffff779f5d8 <INF>
Type: The type is a union.
Type sizeof: 8
Field name: i
Field Type: The type is an array.
Field Type sizeof: 8
Field name: x
Field Type: A floating point type.
Field Type sizeof: 8

[INFO -- 2018-11-24 15:53:53]
Fault Injection Successful after 1.260582447052002s
[INFO -- 2018-11-24 15:53:55]
event type: exit
[INFO -- 2018-11-24 15:53:55]
exit code: 0
