[INFO -- 2018-11-23 21:06:35]
sending 5 signals using command: 'killall -2 lreg' after 2.09013832894s
[INFO -- 2018-11-23 21:06:35]
sending 5 signals using command: 'killall -2 lreg' after 2.13377790084s
[INFO -- 2018-11-23 21:06:35]
Starting GDB script
[INFO -- 2018-11-23 21:06:35]
initSignal:0.0
[INFO -- 2018-11-23 21:06:35]
endSignal:3.0
[INFO -- 2018-11-23 21:06:36]
sending 5 signals using command: 'killall -2 lreg' after 0.759674289475s
[INFO -- 2018-11-23 21:06:38]
Execution finished before waitTime
