[INFO -- 2018-11-26 19:43:53]
Starting GDB script
[INFO -- 2018-11-26 19:43:53]
initSignal:0.0
[INFO -- 2018-11-26 19:43:53]
endSignal:3.0
[INFO -- 2018-11-26 19:43:54]
sending 5 signals using command: 'killall -2 lreg' after 0.642261550222s
[INFO -- 2018-11-26 19:43:56]
sending 5 signals using command: 'killall -2 lreg' after 2.38258626051s
[INFO -- 2018-11-26 19:43:56]
sending 5 signals using command: 'killall -2 lreg' after 2.41862457398s
[INFO -- 2018-11-26 19:44:05]
Execution did not finish before waitTime
