[INFO -- 2018-11-26 18:35:22]
Starting GDB script
[INFO -- 2018-11-26 18:35:22]
initSignal:0.0
[INFO -- 2018-11-26 18:35:22]
endSignal:3.0
[INFO -- 2018-11-26 18:35:23]
sending 5 signals using command: 'killall -2 lreg' after 1.34264901613s
[INFO -- 2018-11-26 18:35:24]
sending 5 signals using command: 'killall -2 lreg' after 2.28400218709s
[INFO -- 2018-11-26 18:35:24]
sending 5 signals using command: 'killall -2 lreg' after 2.74616059268s
[INFO -- 2018-11-26 18:35:35]
Execution did not finish before waitTime
