[INFO -- 2018-11-23 16:31:18]
Starting GDB script
[INFO -- 2018-11-23 16:31:18]
initSignal:0.0
[INFO -- 2018-11-23 16:31:18]
endSignal:3.0
[INFO -- 2018-11-23 16:31:20]
sending 5 signals using command: 'killall -2 lreg' after 1.2610648141s
[INFO -- 2018-11-23 16:31:21]
sending 5 signals using command: 'killall -2 lreg' after 2.31035544165s
[INFO -- 2018-11-23 16:31:21]
Execution finished before waitTime
