[INFO -- 2018-11-23 17:02:56]
Starting GDB script
[INFO -- 2018-11-23 17:02:56]
initSignal:0.0
[INFO -- 2018-11-23 17:02:56]
endSignal:3.0
[INFO -- 2018-11-23 17:02:57]
sending 5 signals using command: 'killall -2 lreg' after 1.10094610715s
[INFO -- 2018-11-23 17:02:57]
sending 5 signals using command: 'killall -2 lreg' after 1.27417637329s
[INFO -- 2018-11-23 17:02:59]
Execution finished before waitTime
