[INFO -- 2018-11-26 19:08:27]
Starting GDB script
[INFO -- 2018-11-26 19:08:27]
initSignal:0.0
[INFO -- 2018-11-26 19:08:27]
endSignal:3.0
[INFO -- 2018-11-26 19:08:28]
sending 5 signals using command: 'killall -2 lreg' after 0.545484573473s
[INFO -- 2018-11-26 19:08:30]
sending 5 signals using command: 'killall -2 lreg' after 2.74040695066s
[INFO -- 2018-11-26 19:08:30]
sending 5 signals using command: 'killall -2 lreg' after 2.93547806378s
[INFO -- 2018-11-26 19:08:31]
Execution finished before waitTime
