[INFO -- 2018-11-25 17:36:04]
sending 5 signals using command: 'killall -2 lreg' after 4.06309308948s
[INFO -- 2018-11-25 17:36:04]
Starting GDB script
[INFO -- 2018-11-25 17:36:04]
initSignal:0.0
[INFO -- 2018-11-25 17:36:04]
endSignal:6.0
[INFO -- 2018-11-25 17:36:06]
sending 5 signals using command: 'killall -2 lreg' after 1.14596366979s
[INFO -- 2018-11-25 17:36:07]
sending 5 signals using command: 'killall -2 lreg' after 2.31541623705s
[INFO -- 2018-11-25 17:36:08]
Execution finished before waitTime
