[INFO -- 2018-11-25 12:11:30]
sending 5 signals using command: 'killall -2 lreg' after 4.98426136103s
[INFO -- 2018-11-25 12:11:30]
sending 5 signals using command: 'killall -2 lreg' after 5.52039691709s
[INFO -- 2018-11-25 12:11:30]
Starting GDB script
[INFO -- 2018-11-25 12:11:30]
initSignal:0.0
[INFO -- 2018-11-25 12:11:30]
endSignal:6.0
[INFO -- 2018-11-25 12:11:33]
Execution finished before waitTime
