[INFO -- 2018-11-29 14:21:32]
Starting GDB script
[INFO -- 2018-11-29 14:21:32]
initSignal:0.0
[INFO -- 2018-11-29 14:21:32]
endSignal:6.0
[INFO -- 2018-11-29 14:21:32]
sending 5 signals using command: 'killall -2 lreg' after 0.616884668774s
[INFO -- 2018-11-29 14:21:35]
sending 5 signals using command: 'killall -2 lreg' after 2.92345122712s
[INFO -- 2018-11-29 14:21:38]
sending 5 signals using command: 'killall -2 lreg' after 5.98465405052s
[INFO -- 2018-11-29 14:21:38]
Execution finished before waitTime
