[INFO -- 2018-11-25 16:23:03]
Starting GDB script
[INFO -- 2018-11-25 16:23:03]
initSignal:0.0
[INFO -- 2018-11-25 16:23:03]
endSignal:6.0
[INFO -- 2018-11-25 16:23:04]
sending 5 signals using command: 'killall -2 lreg' after 1.42147721906s
[INFO -- 2018-11-25 16:23:05]
sending 5 signals using command: 'killall -2 lreg' after 2.20827395526s
[INFO -- 2018-11-25 16:23:05]
sending 5 signals using command: 'killall -2 lreg' after 2.29144520265s
[INFO -- 2018-11-25 16:23:07]
Execution finished before waitTime
