[INFO -- 2018-11-24 19:30:14]
sending 5 signals using command: 'killall -2 lreg' after 4.432040567s
[INFO -- 2018-11-24 19:30:14]
sending 5 signals using command: 'killall -2 lreg' after 4.90861835426s
[INFO -- 2018-11-24 19:30:15]
sending 5 signals using command: 'killall -2 lreg' after 5.81118449638s
[INFO -- 2018-11-24 19:30:15]
Starting GDB script
[INFO -- 2018-11-24 19:30:15]
initSignal:0.0
[INFO -- 2018-11-24 19:30:15]
endSignal:6.0
[INFO -- 2018-11-24 19:30:16]
sending 5 signals using command: 'killall -2 lreg' after 0.521111759109s
[INFO -- 2018-11-24 19:30:18]
sending 5 signals using command: 'killall -2 lreg' after 1.67350074871s
[INFO -- 2018-11-24 19:30:18]
sending 5 signals using command: 'killall -2 lreg' after 2.1267412974s
[INFO -- 2018-11-24 19:30:20]
Execution finished before waitTime
