[INFO -- 2018-11-26 21:01:45]
Starting GDB script
[INFO -- 2018-11-26 21:01:45]
initSignal:0.0
[INFO -- 2018-11-26 21:01:45]
endSignal:3.0
[INFO -- 2018-11-26 21:01:47]
sending 5 signals using command: 'killall -2 lreg' after 1.96490112449s
[INFO -- 2018-11-26 21:01:48]
sending 5 signals using command: 'killall -2 lreg' after 2.2200058651s
[INFO -- 2018-11-26 21:01:48]
Execution finished before waitTime
