[INFO -- 2018-11-25 17:37:07]
Starting flip_value script
version: 1.1
[INFO -- 2018-11-25 17:37:07]
Initialization strings:
[INFO -- 2018-11-25 17:37:07]
(1) file /tmp/lreg/lreg
[INFO -- 2018-11-25 17:37:07]
(2) set args /tmp/lreg/randInput /tmp/lreg/output /tmp/lreg/detected.log
[INFO -- 2018-11-25 17:37:07]
initSignal:0
[INFO -- 2018-11-25 17:37:07]
endSignal:6
[INFO -- 2018-11-25 17:37:07]
faultModel:0
[INFO -- 2018-11-25 17:37:10]
Backtrace BEGIN:
#0  0x00007ffff76bcb0f in __pow (x=29, y=1) at w_pow_compat.c:30
#1  0x000055555555621b in std::pow<double, int> (__x=29, __y=1) at /usr/include/c++/7/cmath:418
#2  0x0000555555555237 in predict (v=29) at lreg.cpp:50
#3  0x00005555555553fc in partialDerivate (pos=0) at lreg.cpp:74
#4  0x0000555555555503 in adjust (alpha=2.2222199999999999e-05) at lreg.cpp:87
#5  0x00005555555556ac in train (iterations=30000, alpha=2.2222199999999999e-05, N=4, stopsWhenStable=true) at lreg.cpp:120
#6  0x0000555555555a1c in execute (input=0x7fffffffe1f1 "/tmp/lreg/randInput") at lreg.cpp:157
#7  0x0000555555555cb0 in main (argc=4, argv=0x7fffffffde48) at lreg.cpp:196

25	w_pow_compat.c: No such file or directory.

Backtrace END
Memory content before bitflip:0x460x5a0xb70xf40x390x4d0xf70x3e
Fault Model: Single bit-flip
base address to flip value: 0x7fffffffd518
address max offset: 8
Memory content after  bitflip:0x440x5a0xb70xf40x390x4d0xf70x3e
frame name: adjust
symbol name: alpha
symbol filename: lreg.cpp
symbol line: 83
value: 2.2222199999999992e-05
value address: 0x7fffffffd518
Type: A floating point type.
Type sizeof: 8

[INFO -- 2018-11-25 17:37:10]
Fault Injection Successful after 3.8313491344451904s
[INFO -- 2018-11-25 17:37:11]
event type: exit
[INFO -- 2018-11-25 17:37:11]
exit code: 0
