[INFO -- 2018-11-22 19:02:54]
Starting GDB script
[INFO -- 2018-11-22 19:02:54]
initSignal:0.0
[INFO -- 2018-11-22 19:02:54]
endSignal:3.0
[INFO -- 2018-11-22 19:02:55]
sending 5 signals using command: 'killall -2 lreg' after 1.44997141061s
[INFO -- 2018-11-22 19:02:56]
sending 5 signals using command: 'killall -2 lreg' after 2.20561024614s
[INFO -- 2018-11-22 19:02:57]
sending 5 signals using command: 'killall -2 lreg' after 2.56481034311s
[INFO -- 2018-11-22 19:02:57]
Execution finished before waitTime
