[INFO -- 2018-11-24 16:07:27]
sending 5 signals using command: 'killall -2 lreg' after 4.31845948657s
[INFO -- 2018-11-24 16:07:29]
sending 5 signals using command: 'killall -2 lreg' after 5.84807468128s
[INFO -- 2018-11-24 16:07:29]
Starting GDB script
[INFO -- 2018-11-24 16:07:29]
initSignal:0.0
[INFO -- 2018-11-24 16:07:29]
endSignal:6.0
[INFO -- 2018-11-24 16:07:31]
sending 5 signals using command: 'killall -2 lreg' after 2.3791207236s
[INFO -- 2018-11-24 16:07:31]
Execution finished before waitTime
