[INFO -- 2018-11-23 16:42:11]
Starting GDB script
[INFO -- 2018-11-23 16:42:11]
initSignal:0.0
[INFO -- 2018-11-23 16:42:11]
endSignal:3.0
[INFO -- 2018-11-23 16:42:12]
sending 5 signals using command: 'killall -2 lreg' after 0.558780544795s
[INFO -- 2018-11-23 16:42:13]
sending 5 signals using command: 'killall -2 lreg' after 1.87041505596s
[INFO -- 2018-11-23 16:42:15]
sending 5 signals using command: 'killall -2 lreg' after 2.5465728234s
[INFO -- 2018-11-23 16:42:16]
Execution finished before waitTime
