[INFO -- 2018-11-27 19:51:45]
Starting GDB script
[INFO -- 2018-11-27 19:51:45]
initSignal:0.0
[INFO -- 2018-11-27 19:51:45]
endSignal:3.0
[INFO -- 2018-11-27 19:51:45]
sending 5 signals using command: 'killall -2 lreg' after 0.220644399472s
[INFO -- 2018-11-27 19:51:45]
sending 5 signals using command: 'killall -2 lreg' after 0.572667358238s
[INFO -- 2018-11-27 19:51:47]
sending 5 signals using command: 'killall -2 lreg' after 1.83931264869s
[INFO -- 2018-11-27 19:51:52]
Execution finished before waitTime
