[INFO -- 2018-11-22 17:04:03]
Starting flip_value script
version: 1.1
[INFO -- 2018-11-22 17:04:03]
Initialization strings:
[INFO -- 2018-11-22 17:04:03]
(1) file /tmp/lreg/lreg
[INFO -- 2018-11-22 17:04:03]
(2) set args /tmp/lreg/randInput /tmp/lreg/output
[INFO -- 2018-11-22 17:04:03]
initSignal:0
[INFO -- 2018-11-22 17:04:03]
endSignal:3
[INFO -- 2018-11-22 17:04:03]
faultModel:0
[INFO -- 2018-11-22 17:04:05]
Backtrace BEGIN:
#0  0x00005555555551ec in predict (v=-6) at lreg.cpp:50
#1  0x00005555555552ba in meanSquaredError () at lreg.cpp:61
#2  0x0000555555555661 in train (iterations=10000, alpha=0.00020000000000000001, N=2, stopsWhenStable=true) at lreg.cpp:121
#3  0x0000555555555ab7 in main (argc=3, argv=0x7fffffffde58) at lreg.cpp:174

45		Predicts the value related to v using the Ts variables
46	*/
47	double predict(double v){
48		double val = 0;
49		for(int i = 0; i<T.size(); i++){
50			val+= (T[i] * pow(v, i));
51		}
52		return val;
53		
54	}

Backtrace END
Fliping value of field: std::_Vector_base<double, std::allocator<double> >
Fliping value of field: _M_impl
Fliping value of field: _M_start
Fliping a bit of the value pointed by a pointer
Memory content before bitflip:0x000x000x000x000x000x000x240xc0
Fault Model: Single bit-flip
base address to flip value: 0x5555557713b0
address max offset: 8
Memory content after  bitflip:0x080x000x000x000x000x000x240xc0
frame name: meanSquaredError
symbol name: y
symbol filename: lreg.cpp
symbol line: 33
value: std::vector of length 8, capacity 8 = {-10.000000000000014, 8, 12, 5, -5, 14, -4, 12}
value address: 0x55555575a160 <y>
Type: The type is a structure.
Type sizeof: 24
Field name: std::_Vector_base<double, std::allocator<double> >
Field Type: The type is a structure.
Field Type sizeof: 24

[INFO -- 2018-11-22 17:04:05]
Fault Injection Successful after 2.368767261505127s
[INFO -- 2018-11-22 17:04:08]
event type: exit
[INFO -- 2018-11-22 17:04:08]
exit code: 0
