[INFO -- 2018-11-25 17:56:23]
Starting GDB script
[INFO -- 2018-11-25 17:56:23]
initSignal:0.0
[INFO -- 2018-11-25 17:56:23]
endSignal:6.0
[INFO -- 2018-11-25 17:56:25]
sending 5 signals using command: 'killall -2 lreg' after 1.55291052667s
[INFO -- 2018-11-25 17:56:25]
sending 5 signals using command: 'killall -2 lreg' after 1.54611112777s
[INFO -- 2018-11-25 17:56:27]
Execution finished before waitTime
