[INFO -- 2018-11-25 17:43:21]
Starting flip_value script
version: 1.1
[INFO -- 2018-11-25 17:43:21]
Initialization strings:
[INFO -- 2018-11-25 17:43:21]
(1) file /tmp/lreg/lreg
[INFO -- 2018-11-25 17:43:21]
(2) set args /tmp/lreg/randInput /tmp/lreg/output /tmp/lreg/detected.log
[INFO -- 2018-11-25 17:43:21]
initSignal:0
[INFO -- 2018-11-25 17:43:21]
endSignal:6
[INFO -- 2018-11-25 17:43:21]
faultModel:1
[INFO -- 2018-11-25 17:43:21]
Backtrace BEGIN:
#0  0x00007ffff76da5d4 in __ieee754_pow_sse2 (x=6, y=0) at ../sysdeps/ieee754/dbl-64/e_pow.c:83
#1  0x00007ffff76bcb14 in __pow (x=6, y=0) at w_pow_compat.c:30
#2  0x000055555555621b in std::pow<double, int> (__x=6, __y=0) at /usr/include/c++/7/cmath:418
#3  0x0000555555555451 in partialDerivate (pos=0) at lreg.cpp:74
#4  0x0000555555555503 in adjust (alpha=5.0000000000000002e-05) at lreg.cpp:87
#5  0x00005555555556ac in train (iterations=20000, alpha=5.0000000000000002e-05, N=3, stopsWhenStable=true) at lreg.cpp:120
#6  0x0000555555555a1c in execute (input=0x7fffffffe1f1 "/tmp/lreg/randInput") at lreg.cpp:157
#7  0x0000555555555c78 in main (argc=4, argv=0x7fffffffde48) at lreg.cpp:193

78	../sysdeps/ieee754/dbl-64/e_pow.c: No such file or directory.

Backtrace END
Memory content before bitflip:0x000x000x000x000x000x000x180x40
Fault Model: Double bit-flip
base address to flip value: 0x7fffffffd460
address max offset: 8
Memory content after  bitflip:0x000x090x000x000x000x000x180x40
frame name: __pow
symbol name: x
symbol filename: w_pow_compat.c
symbol line: 28
value: 6.0000000000020464
value address: 0x7fffffffd460
Type: A floating point type.
Type sizeof: 8

[INFO -- 2018-11-25 17:43:21]
Fault Injection Successful after 0.9483609199523926s
[INFO -- 2018-11-25 17:43:24]
event type: exit
[INFO -- 2018-11-25 17:43:24]
exit code: 0
