[INFO -- 2018-11-26 19:26:44]
Starting GDB script
[INFO -- 2018-11-26 19:26:44]
initSignal:0.0
[INFO -- 2018-11-26 19:26:44]
endSignal:3.0
[INFO -- 2018-11-26 19:26:45]
sending 5 signals using command: 'killall -2 lreg' after 0.767855116509s
[INFO -- 2018-11-26 19:26:46]
sending 5 signals using command: 'killall -2 lreg' after 1.45111766719s
[INFO -- 2018-11-26 19:26:46]
sending 5 signals using command: 'killall -2 lreg' after 2.33444025544s
[INFO -- 2018-11-26 19:26:53]
Execution finished before waitTime
