[INFO -- 2018-11-22 14:53:28]
Starting flip_value script
version: 1.1
[INFO -- 2018-11-22 14:53:28]
Initialization strings:
[INFO -- 2018-11-22 14:53:28]
(1) file /tmp/lreg/lreg
[INFO -- 2018-11-22 14:53:28]
(2) set args /tmp/lreg/randInput /tmp/lreg/output
[INFO -- 2018-11-22 14:53:28]
initSignal:0
[INFO -- 2018-11-22 14:53:28]
endSignal:3
[INFO -- 2018-11-22 14:53:28]
faultModel:2
[INFO -- 2018-11-22 14:53:30]
Backtrace BEGIN:
#0  0x0000555555555d41 in std::pow<double, int> (__x=-1, __y=0) at /usr/include/c++/7/cmath:415
#1  0x0000555555555401 in partialDerivate (pos=2) at lreg.cpp:74
#2  0x00005555555554b3 in adjust (alpha=5.0000000000000002e-05) at lreg.cpp:87
#3  0x000055555555565c in train (iterations=20000, alpha=5.0000000000000002e-05, N=3, stopsWhenStable=true) at lreg.cpp:120
#4  0x0000555555555ab7 in main (argc=3, argv=0x7fffffffde58) at lreg.cpp:174

410	#endif
411	
412	  template<typename _Tp, typename _Up>
413	    inline _GLIBCXX_CONSTEXPR
414	    typename __gnu_cxx::__promote_2<_Tp, _Up>::__type
415	    pow(_Tp __x, _Up __y)
416	    {
417	      typedef typename __gnu_cxx::__promote_2<_Tp, _Up>::__type __type;
418	      return pow(__type(__x), __type(__y));
419	    }

Backtrace END
Memory content before bitflip:0x030x000x000x00
Fault Model: Random bit-flip
base address to flip value: 0x7fffffffd90c
address max offset: 4
Memory content after  bitflip:0xab0xdf0x540x5e
frame name: main
symbol name: argc
symbol filename: lreg.cpp
symbol line: 144
value: 1582620587
value address: 0x7fffffffd90c
Type: The type is an integer type.
Type sizeof: 4

[INFO -- 2018-11-22 14:53:30]
Fault Injection Successful after 2.5398452281951904s
[INFO -- 2018-11-22 14:53:32]
event type: exit
[INFO -- 2018-11-22 14:53:32]
exit code: 0
