[INFO -- 2018-11-23 21:51:14]
Starting GDB script
[INFO -- 2018-11-23 21:51:14]
initSignal:0.0
[INFO -- 2018-11-23 21:51:14]
endSignal:3.0
[INFO -- 2018-11-23 21:51:16]
sending 5 signals using command: 'killall -2 lreg' after 1.20619132899s
[INFO -- 2018-11-23 21:51:16]
sending 5 signals using command: 'killall -2 lreg' after 1.71467833776s
[INFO -- 2018-11-23 21:51:17]
Execution finished before waitTime
[INFO -- 2018-11-23 21:51:17]
sending 5 signals using command: 'killall -2 lreg' after 2.28647694145s
