[INFO -- 2018-11-26 15:01:43]
Starting flip_value script
version: 1.1
[INFO -- 2018-11-26 15:01:43]
Initialization strings:
[INFO -- 2018-11-26 15:01:43]
(1) file /tmp/lreg/lreg
[INFO -- 2018-11-26 15:01:43]
(2) set args /tmp/lreg/randInput /tmp/lreg/output
[INFO -- 2018-11-26 15:01:43]
initSignal:0
[INFO -- 2018-11-26 15:01:43]
endSignal:3
[INFO -- 2018-11-26 15:01:43]
faultModel:0
[EXCEPTION -- 2018-11-26 15:01:45]
pythonException: empty range for randrange() (0,0, 0)
[INFO -- 2018-11-26 15:01:45]
Backtrace BEGIN:
#0  0x00007ffff76da721 in log1 (error=<synthetic pointer>, delta=<synthetic pointer>, x=15) at ../sysdeps/ieee754/dbl-64/e_pow.c:284
#1  __ieee754_pow_sse2 (x=15, y=3) at ../sysdeps/ieee754/dbl-64/e_pow.c:103
#2  0x00007ffff76db6be in __ieee754_pow_sse2 (x=<optimized out>, y=<optimized out>) at ../sysdeps/ieee754/dbl-64/e_pow.c:184
#3  0x00007ffff76bcb14 in __pow (x=-15, y=3) at w_pow_compat.c:30
#4  0x0000555555556826 in std::pow<double, unsigned int> (__x=-15, __y=3) at /usr/include/c++/7/cmath:418
#5  0x0000555555555814 in predict (v=-15) at lreg.cpp:116
#6  0x0000555555555a53 in partialDerivate (pos1=2, pos2=2) at lreg.cpp:142
#7  0x0000555555555bbe in adjust (alpha1=2.2222199999999999e-05, alpha2=2.2222199999999999e-05) at lreg.cpp:156
#8  0x0000555555555ee0 in train (iter1=30000, iter2=30000, N=4, alpha1=2.2222199999999999e-05, alpha2=2.2222199999999999e-05, stopsWhenStable=true) at lreg.cpp:193
#9  0x0000555555556467 in main (argc=3, argv=0x7fffffffde58) at lreg.cpp:253

279	in ../sysdeps/ieee754/dbl-64/e_pow.c

Backtrace END
Fliping value of field name: i
Fliping array at pos: 3028
Memory content before bitflip:0xcd0xc70x7e0xca
Fault Model: Single bit-flip
base address to flip value: 0x7ffff7798650 
address max offset: 4
Memory content after  bitflip:0xcd0xc70x6e0xca
frame name: __ieee754_pow_sse2
symbol name: vj
symbol filename: ../sysdeps/ieee754/dbl-64/upow.tbl
symbol line: 8010
value: {i = {2098601000, 1061594112, 543162368, -1085890048, -1435098151, 1026022478, -711530951, 1061590010, 1289748480, -1085894147, 700706989, 1025945807, 840552073, 1061585909, 2069889024, -1085898246, -1782972980, 1025684112, -1835084905, 1061581807, -1411383296, -1085902345, -97571449, 1024968487, -148507678, 1061577705, -564133888, -1085906444, 1859911452, 1022504659, 1605316073, 1061573604, 316669952, -1085910542, 360190651, -1122744010, -868581333, 1061569502, 1231028224, -1085914641, 1613843973, -1121363509, 1019734311, 1061565401, -2116026368, -1085918740, -1016885607, -1120556070, -1319671972, 1061561299, -1132462080, -1085922839, -968910303, 1027600851, 703134024, 1061557198, -117440512, -1085926938, 1911481873, 1026829606, -1501782677, 1061553096, 931135488, -1085931036, 295736969, 1025252471, 655512132, 1061548995, 2013265920, -1085935135, -136551364, -1122108138, -1414916527, 1061544893, -1166016512, -1085939234, -1859024382, -1120443133, 876865554, 1061540792, -14680064, -1085943333, -833233699, 1027036900, -1059076602, 1061536690, 1168113664, -1085947431, -1888514144, 1024644559, 1367191211, 1061532589, -1910505472, -1085951530, -1685726164, -1121021781, -434265983, 1061528487, -658505728, -1085955629, 1005956180, 1027301000, 2126486023, 1061524386, 624951296, -1085959727, 210165169, 1024633914, 459512251, 1061520285, 1941962752, -1085963826, 1988299141, -1120706110, -1140220388, 1061516183, -1000341504, -1085967925, -798823425, 1026767125, 1622255018, 1061512082, 383778816, -1085972023, -1664837489, -1122103904, 157003492, 1061507981, 1803550720, -1085976122, 593215882, 1027369412, -1241008056, 1061503879, -1040187392, -1085980221, -143427805, -1125135207, 1723187286, 1061499778, 444596224, -1085984319, -2137211717, -1119896862, 459654540, 1061495677, 1965031424, -1085988418, 424668771, 1019913672, -736639382, 1061491575, -775946240, -1085992517, -506692676, 1027527461, -1865694866, 1061487474, 809500672, -1085996615, 1756051266, -1123089768, 1367454999, 1061483373, -1864368128, -1086000714, 1105623769, 1027087329, 372875238, 1061479272, -211812352, -1086004813, 1720530530, -1121292679, -554467240, 1061475170, 1476395008, -1086008911, 569948098, 1026051751, -1414572820, 1061471069, -1098907648, -1086013010, 1947720133, -1120155795, 2087525410, 1061466968, 656408576, -1086017108, 380293628, -1122760195, 1361892473, 1061462867, -1849688064, -1086021207, -1732504323, 1026586398, 703495280, 1061458766...}, x = {0.00069093726976710446, -0.0006906986825470085, 4.2384896207613398e-14, 0.0006890272881527388, -0.00068879001787536254, 4.0306710962218592e-14, 0.0006871173138293811, -0.00068688135684169538, 3.3213465204833823e-14, 0.00068520734679698963, -0.00068497269944600703, 2.1119065389746686e-14, 0.00068329738705552264, -0.00068306404568829748, 4.0374178916169444e-15, 0.0006813874346049384, -0.00068115539556856675, -1.8017570994522838e-14, 0.00067947748944519515, -0.00067924674908681482, -4.5031995053266708e-14, 0.00067756755157625116, -0.00067733810624304169, -7.6991948148834701e-14, 0.00067565762099806468, -0.00067542946726462105, 1.1349015121815982e-13, 0.00067374769771059387, -0.00067352083169680554, 7.1680858137782522e-14, 0.0006718377817137971, -0.00067161219976696884, 2.4967753950171112e-14, 0.00066992787300763261, -0.00066970357147511095, -2.6635255527392355e-14, 0.00066801797159205857, -0.00066779494682123186, -8.311426455724877e-14, 0.00066610807746703333, -0.00066588632603270526, 8.2918307961870683e-14, 0.00066419819063251516, -0.00066397770865478378, 1.6729016721916928e-14, 0.0006622883110884622, -0.00066206909491484112, -5.4294557335084101e-14, 0.00066037843883483282, -0.00066016048504025093, 9.723516665327303e-14, 0.00065846857387158529, -0.00065825187857626588, 1.658474314007767e-14, 0.00065655871619867774, -0.00065634327575025964, -6.8858247171503993e-14, 0.00065464886581606844, -0.00065443467678960587, 6.8293776342075553e-14, 0.00065273902272371576, -0.00065252608123955724, -2.6692632104950447e-14, 0.00065082918692157795, -0.00065061748955486109, 1.0094378339496198e-13, 0.00064891935840961316, -0.00064870890128077008, -3.5304231031882627e-15, 0.00064700953718777976, -0.00064680031664465787, -1.1272767129432241e-13, 0.0006450997232560359, -0.00064489173587389814, 7.3961904702266189e-16, 0.00064318991661433994, -0.00064298315874111722, 1.0951167718023091e-13, 0.00064128011726265004, -0.00064107458501894143, -1.3771267714928139e-14, 0.00063937032520092446, -0.00063916601516211813, 8.5652039791397351e-14, 0.00063746054042912166, -0.00063725744871589995, -4.6951846723482247e-14, 0.00063555076294719969, -0.00063534888613503426, 4.3178328011059082e-14, 0.00063364099275511681, -0.0006334403269647737, -9.8690882586892924e-14, 0.00063173122985283139, -0.00063153177165986563, -1.7798223405935675e-14, 0.00062982147424030168, -0.00062962321999293636, 5.8496534256026431e-14, 0.00062791172591748594, -0.00062771467173661222, -9.7166380978521216e-14, 0.00062600198488434232, -0.00062580612734564056, -3.002571423700657e-14, 0.00062409225114082919, -0.00062389758659264771, 3.2558762943837191e-14, 0.0006221825246869048, -0.00062198904947763367, 9.060095439090064e-14, 0.00062027280552252732, -0.00062008051577322476, -8.3258911591765526e-14, 0.0006183630936476552, -0.00061817198593416833, -3.4259580450021522e-14, 0.00061645338906224649, -0.00061626345973309071, 1.0239175960969672e-14, 0.00061454369176625967, -0.0006143549371699919, 5.0251261149671211e-14, 0.00061263400175965278, -0.00061244641824487189, 8.5790578544940926e-14, 0.0006107243190423843, -0.00061053790273035702, -1.1050264394720015e-13, 0.00060881464361441226, -0.00060862939108119463, -8.3867152170638889e-14, 0.00060690497547569514, -0.00060672088307001104, -6.1662718378561855e-14, 0.00060499531462619119, -0.00060481237869680626, -4.3875439460526488e-14, 0.00060308566106585847, -0.00060290387796158029, -3.0491412385692464e-14, 0.00060117601479465544, -0.00060099538086433313, -2.1496734202821173e-14, 0.00059926637581254037, -0.00059908688740506477, -1.6877502040275074e-14, 0.00059735674411947139, -0.00059717839758377522, -1.6619813106017089e-14, 0.00059544711971540678, -0.00059526991140046448, -2.0709764687610001e-14, 0.00059353750260030501, -0.00059336142885513254, -2.913345415221585e-14, 0.00059162789277412411, -0.00059145294994777942, -4.1876978946595305e-14, 0.00058971829023682246, -0.00058954447467840509, -5.8926436597107101e-14, 0.00058780869498835831, -0.00058763600304700958, -8.0267924709707362e-14, 0.00058589910702869002, -0.00058572753505359287, -1.0588754096994906e-13, 0.00058398952635777565, -0.00058381907092552865, 9.1602292300250684e-14, 0.00058207995297557367, -0.00058191061020806956, 5.7468126369682955e-14, 0.00058017038688204221, -0.00058000215312858927, 1.9097538757240047e-14, 0.00057826082807713966, -0.00057809369968708779, -2.3495568541012222e-14, 0.00057635127656082417, -0.00057618524988356512, -7.0297293608601811e-14, 0.00057444173233305409, -0.00057427680394539493, 1.0607994083458221e-13, 0.00057253219539378768, -0.00057236836141782987, 5.0902685659362015e-14, 0.00057062266574298311, -0.00057045992252824362, -8.4414820133359836e-15, 0.00056871314338059883, -0.00056855148727663618, -7.1938660585408814e-14, 0.00056680362830659301, -0.00056664305589038122, 8.7798726904887846e-14, 0.000564894120520924, -0.00056473462791473139...}}
value address: 0x7ffff7795700 <vj>
Type: The type is a union.
Type sizeof: 17400
Field name: i
Field Type: The type is an array.
Field Type sizeof: 17400
Field name: x
Field Type: The type is an array.
Field Type sizeof: 17400

[INFO -- 2018-11-26 15:01:45]
Fault Injection Successful after 2.618483781814575s
[INFO -- 2018-11-26 15:01:46]
event type: exit
[EXCEPTION -- 2018-11-26 15:01:46]
exit code: no exit code available
