[INFO -- 2018-11-27 20:21:31]
Starting GDB script
[INFO -- 2018-11-27 20:21:31]
initSignal:0.0
[INFO -- 2018-11-27 20:21:31]
endSignal:3.0
[INFO -- 2018-11-27 20:21:32]
sending 5 signals using command: 'killall -2 lreg' after 0.969341400812s
[INFO -- 2018-11-27 20:21:33]
sending 5 signals using command: 'killall -2 lreg' after 2.00729149842s
[INFO -- 2018-11-27 20:21:34]
sending 5 signals using command: 'killall -2 lreg' after 2.22024261844s
[INFO -- 2018-11-27 20:21:34]
Execution finished before waitTime
