[INFO -- 2018-11-24 09:22:05]
Starting GDB script
[INFO -- 2018-11-24 09:22:05]
initSignal:0.0
[INFO -- 2018-11-24 09:22:05]
endSignal:2.0
[INFO -- 2018-11-24 09:22:05]
sending 5 signals using command: 'killall -2 lreg' after 0.184587099667s
[INFO -- 2018-11-24 09:22:06]
sending 5 signals using command: 'killall -2 lreg' after 0.576461367592s
[INFO -- 2018-11-24 09:22:06]
sending 5 signals using command: 'killall -2 lreg' after 0.850542317552s
[INFO -- 2018-11-24 09:22:10]
Execution finished before waitTime
