[INFO -- 2018-11-22 15:12:52]
Starting GDB script
[INFO -- 2018-11-22 15:12:52]
initSignal:0.0
[INFO -- 2018-11-22 15:12:52]
endSignal:3.0
[INFO -- 2018-11-22 15:12:53]
sending 5 signals using command: 'killall -2 lreg' after 1.04734110006s
[INFO -- 2018-11-22 15:12:54]
sending 5 signals using command: 'killall -2 lreg' after 2.32162784553s
[INFO -- 2018-11-22 15:12:54]
sending 5 signals using command: 'killall -2 lreg' after 2.87432280819s
[INFO -- 2018-11-22 15:12:57]
Execution finished before waitTime
