[INFO -- 2018-11-26 15:44:09]
Starting GDB script
[INFO -- 2018-11-26 15:44:09]
initSignal:0.0
[INFO -- 2018-11-26 15:44:09]
endSignal:3.0
[INFO -- 2018-11-26 15:44:10]
sending 5 signals using command: 'killall -2 lreg' after 1.10828412277s
[INFO -- 2018-11-26 15:44:12]
sending 5 signals using command: 'killall -2 lreg' after 2.40666978542s
[INFO -- 2018-11-26 15:44:12]
sending 5 signals using command: 'killall -2 lreg' after 2.52408835452s
[INFO -- 2018-11-26 15:44:13]
Execution finished before waitTime
