[INFO -- 2018-11-25 18:02:17]
Starting flip_value script
version: 1.1
[INFO -- 2018-11-25 18:02:17]
Initialization strings:
[INFO -- 2018-11-25 18:02:17]
(1) file /tmp/lreg/lreg
[INFO -- 2018-11-25 18:02:17]
(2) set args /tmp/lreg/randInput /tmp/lreg/output /tmp/lreg/detected.log
[INFO -- 2018-11-25 18:02:17]
initSignal:0
[INFO -- 2018-11-25 18:02:17]
endSignal:6
[INFO -- 2018-11-25 18:02:17]
faultModel:2
[INFO -- 2018-11-25 18:02:19]
event type: exit
[INFO -- 2018-11-25 18:02:19]
exit code: 0
