[INFO -- 2018-11-22 17:52:53]
Starting flip_value script
version: 1.1
[INFO -- 2018-11-22 17:52:53]
Initialization strings:
[INFO -- 2018-11-22 17:52:53]
(1) file /tmp/lreg/lreg
[INFO -- 2018-11-22 17:52:53]
(2) set args /tmp/lreg/randInput /tmp/lreg/output
[INFO -- 2018-11-22 17:52:53]
initSignal:0
[INFO -- 2018-11-22 17:52:53]
endSignal:3
[INFO -- 2018-11-22 17:52:53]
faultModel:0
[INFO -- 2018-11-22 17:52:56]
Backtrace BEGIN:
#0  0x0000555555555d33 in std::vector<double, std::allocator<double> >::operator[] (this=0x55555575a140 <x>, __n=13) at /usr/include/c++/7/bits/stl_vector.h:799
#1  0x000055555555539b in partialDerivate (pos=3) at lreg.cpp:74
#2  0x00005555555554b3 in adjust (alpha=2.2222199999999999e-05) at lreg.cpp:87
#3  0x000055555555565c in train (iterations=30000, alpha=2.2222199999999999e-05, N=4, stopsWhenStable=true) at lreg.cpp:120
#4  0x0000555555555ab7 in main (argc=3, argv=0x7fffffffde58) at lreg.cpp:174

794	      reference
795	      operator[](size_type __n) _GLIBCXX_NOEXCEPT
796	      {
797		__glibcxx_requires_subscript(__n);
798		return *(this->_M_impl._M_start + __n);
799	      }
800	
801	      /**
802	       *  @brief  Subscript access to the data contained in the %vector.
803	       *  @param __n The index of the element for which data should be

Backtrace END
Fliping value of field: std::_Vector_base<double, std::allocator<double> >
Fliping value of field: _M_impl
Fliping value of field: _M_finish
Fliping a bit of the value pointed by a pointer
Memory content before bitflip:0x000x000x000x000x000x000x000x00
Fault Model: Single bit-flip
base address to flip value: 0x555555771620
address max offset: 8
Memory content after  bitflip:0x000x000x000x000x000x000x100x00
frame name: train
symbol name: bestT
symbol filename: lreg.cpp
symbol line: 115
value: std::vector of length 4, capacity 4 = {-0.062153148240477227, -0.2214282192064719, -1.9484397341572373, -4.0459795808852146}
value address: 0x7fffffffd860
Type: The type is a structure.
Type sizeof: 24
Field name: std::_Vector_base<double, std::allocator<double> >
Field Type: The type is a structure.
Field Type sizeof: 24

[INFO -- 2018-11-22 17:52:56]
Fault Injection Successful after 3.190666913986206s
[INFO -- 2018-11-22 17:52:58]
event type: exit
[INFO -- 2018-11-22 17:52:58]
exit code: 0
