[INFO -- 2018-11-25 14:50:25]
Starting GDB script
[INFO -- 2018-11-25 14:50:25]
initSignal:0.0
[INFO -- 2018-11-25 14:50:25]
endSignal:6.0
[INFO -- 2018-11-25 14:50:26]
sending 5 signals using command: 'killall -2 lreg' after 0.342216516167s
[INFO -- 2018-11-25 14:50:27]
sending 5 signals using command: 'killall -2 lreg' after 1.83674635406s
[INFO -- 2018-11-25 14:50:28]
sending 5 signals using command: 'killall -2 lreg' after 2.54411356766s
[INFO -- 2018-11-25 14:50:31]
Execution finished before waitTime
