[INFO -- 2018-11-23 17:24:32]
Starting flip_value script
version: 1.1
[INFO -- 2018-11-23 17:24:32]
Initialization strings:
[INFO -- 2018-11-23 17:24:32]
(1) file /tmp/lreg/lreg
[INFO -- 2018-11-23 17:24:32]
(2) set args /tmp/lreg/randInput /tmp/lreg/output
[INFO -- 2018-11-23 17:24:32]
initSignal:0
[INFO -- 2018-11-23 17:24:32]
endSignal:3
[INFO -- 2018-11-23 17:24:32]
faultModel:0
[INFO -- 2018-11-23 17:24:33]
Backtrace BEGIN:
#0  __ieee754_pow_sse2 (x=29, y=3) at ../sysdeps/ieee754/dbl-64/e_pow.c:110
#1  0x00007ffff76bcb14 in __pow (x=29, y=3) at w_pow_compat.c:30
#2  0x0000555555555d5f in std::pow<double, int> (__x=29, __y=3) at /usr/include/c++/7/cmath:418
#3  0x00005555555551e7 in predict (v=29) at lreg.cpp:50
#4  0x00005555555553ac in partialDerivate (pos=2) at lreg.cpp:74
#5  0x00005555555554b3 in adjust (alpha=2.2222199999999999e-05) at lreg.cpp:87
#6  0x000055555555565c in train (iterations=30000, alpha=2.2222199999999999e-05, N=4, stopsWhenStable=true) at lreg.cpp:120
#7  0x0000555555555ab7 in main (argc=3, argv=0x7fffffffde58) at lreg.cpp:174

105	../sysdeps/ieee754/dbl-64/e_pow.c: No such file or directory.

Backtrace END
Memory content before bitflip:0x020x000x000x00
Fault Model: Single bit-flip
base address to flip value: 0x7fffffffd930
address max offset: 4
Memory content after  bitflip:0x060x000x000x00
frame name: main
symbol name: i
symbol filename: lreg.cpp
symbol line: 159
value: 6
value address: 0x7fffffffd930
Type: The type is an integer type.
Type sizeof: 4

[INFO -- 2018-11-23 17:24:33]
Fault Injection Successful after 1.6505298614501953s
[INFO -- 2018-11-23 17:24:34]
event type: exit
[INFO -- 2018-11-23 17:24:34]
exit code: 0
