[INFO -- 2018-11-23 18:23:24]
Starting GDB script
[INFO -- 2018-11-23 18:23:24]
initSignal:0.0
[INFO -- 2018-11-23 18:23:24]
endSignal:3.0
[INFO -- 2018-11-23 18:23:24]
sending 5 signals using command: 'killall -2 lreg' after 0.0724734741383s
[INFO -- 2018-11-23 18:23:24]
sending 5 signals using command: 'killall -2 lreg' after 0.523375755668s
[INFO -- 2018-11-23 18:23:25]
sending 5 signals using command: 'killall -2 lreg' after 1.36364357336s
[INFO -- 2018-11-23 18:23:26]
Execution finished before waitTime
