[INFO -- 2018-11-29 15:28:28]
Starting GDB script
[INFO -- 2018-11-29 15:28:28]
initSignal:0.0
[INFO -- 2018-11-29 15:28:28]
endSignal:6.0
[INFO -- 2018-11-29 15:28:29]
sending 5 signals using command: 'killall -2 lreg' after 0.8313630344s
[INFO -- 2018-11-29 15:28:30]
Execution finished before waitTime
