[INFO -- 2018-11-26 21:09:23]
Starting flip_value script
version: 1.1
[INFO -- 2018-11-26 21:09:23]
Initialization strings:
[INFO -- 2018-11-26 21:09:23]
(1) file /tmp/lreg/lreg
[INFO -- 2018-11-26 21:09:23]
(2) set args /tmp/lreg/randInput /tmp/lreg/output
[INFO -- 2018-11-26 21:09:23]
initSignal:0
[INFO -- 2018-11-26 21:09:23]
endSignal:3
[INFO -- 2018-11-26 21:09:23]
faultModel:2
[INFO -- 2018-11-26 21:09:23]
Backtrace BEGIN:
#0  0x00007ffff76daa31 in __ieee754_pow_sse2 (x=<optimized out>, y=<optimized out>) at ../sysdeps/ieee754/dbl-64/e_pow.c:215
#1  0x00007ffff76bcb14 in __pow (x=13, y=1) at w_pow_compat.c:30
#2  0x0000555555556826 in std::pow<double, unsigned int> (__x=13, __y=1) at /usr/include/c++/7/cmath:418
#3  0x0000555555555814 in predict (v=13) at lreg.cpp:116
#4  0x00005555555558c0 in meanSquaredError () at lreg.cpp:128
#5  0x0000555555555ee5 in train (iter1=20000, iter2=20000, N=3, alpha1=5.0000000000000002e-05, alpha2=5.0000000000000002e-05, stopsWhenStable=true) at lreg.cpp:194
#6  0x0000555555556467 in main (argc=3, argv=0x7fffffffde58) at lreg.cpp:253

210	../sysdeps/ieee754/dbl-64/e_pow.c: No such file or directory.

Backtrace END
Fliping value of field: std::_Vector_base<double, std::allocator<double> >
Fliping value of field: _M_impl
Fliping value of field: _M_end_of_storage
Fliping a bit of the value pointed by a pointer
Memory content before bitflip:0x210x000x000x000x000x000x000x00
Fault Model: Random bit-flip
base address to flip value: 0x555555772538
address max offset: 8
Memory content after  bitflip:0x600x580x6e0x810xf30x3a0xfe0x47
frame name: predict
symbol name: T1
symbol filename: lreg.cpp
symbol line: 36
value: std::vector of length 3, capacity 3 = {-0.071843753820088355, -0.010903408743123538, -2.9897189271088793}
value address: 0x55555575b180 <T1>
Type: The type is a structure.
Type sizeof: 24
Field name: std::_Vector_base<double, std::allocator<double> >
Field Type: The type is a structure.
Field Type sizeof: 24

[INFO -- 2018-11-26 21:09:23]
Fault Injection Successful after 0.8714079856872559s
[INFO -- 2018-11-26 21:09:24]
event type: exit
[EXCEPTION -- 2018-11-26 21:09:24]
exit code: no exit code available
