[INFO -- 2018-11-23 19:09:40]
Starting GDB script
[INFO -- 2018-11-23 19:09:40]
initSignal:0.0
[INFO -- 2018-11-23 19:09:40]
endSignal:3.0
[INFO -- 2018-11-23 19:09:41]
sending 5 signals using command: 'killall -2 lreg' after 0.933683940065s
[INFO -- 2018-11-23 19:09:42]
sending 5 signals using command: 'killall -2 lreg' after 2.54460192139s
[INFO -- 2018-11-23 19:09:42]
sending 5 signals using command: 'killall -2 lreg' after 2.70579540082s
[INFO -- 2018-11-23 19:09:45]
Execution finished before waitTime
