[INFO -- 2018-11-25 13:45:45]
Starting flip_value script
version: 1.1
[INFO -- 2018-11-25 13:45:45]
Initialization strings:
[INFO -- 2018-11-25 13:45:45]
(1) file /tmp/lreg/lreg
[INFO -- 2018-11-25 13:45:45]
(2) set args /tmp/lreg/randInput /tmp/lreg/output /tmp/lreg/detected.log
[INFO -- 2018-11-25 13:45:45]
initSignal:0
[INFO -- 2018-11-25 13:45:45]
endSignal:6
[INFO -- 2018-11-25 13:45:45]
faultModel:2
[INFO -- 2018-11-25 13:45:46]
Backtrace BEGIN:
#0  0x00007ffff76bcb41 in __pow (x=25, y=0) at w_pow_compat.c:55
#1  0x000055555555621b in std::pow<double, int> (__x=25, __y=0) at /usr/include/c++/7/cmath:418
#2  0x0000555555555237 in predict (v=25) at lreg.cpp:50
#3  0x000055555555530a in meanSquaredError () at lreg.cpp:61
#4  0x00005555555556b1 in train (iterations=30000, alpha=2.2222199999999999e-05, N=4, stopsWhenStable=true) at lreg.cpp:121
#5  0x0000555555555a1c in execute (input=0x7fffffffe1f1 "/tmp/lreg/randInput") at lreg.cpp:157
#6  0x0000555555555c78 in main (argc=4, argv=0x7fffffffde48) at lreg.cpp:193

50	w_pow_compat.c: No such file or directory.

Backtrace END
Memory content before bitflip:0x300x750x000x00
Fault Model: Random bit-flip
base address to flip value: 0x7fffffffd56c
address max offset: 4
Memory content after  bitflip:0x760xa70xe60xc8
frame name: train
symbol name: iterations
symbol filename: lreg.cpp
symbol line: 105
value: -924407946
value address: 0x7fffffffd56c
Type: The type is an integer type.
Type sizeof: 4

[INFO -- 2018-11-25 13:45:46]
Fault Injection Successful after 1.5487537384033203s
[INFO -- 2018-11-25 13:45:47]
event type: exit
[INFO -- 2018-11-25 13:45:47]
exit code: 0
