[INFO -- 2018-11-25 15:20:32]
Starting flip_value script
version: 1.1
[INFO -- 2018-11-25 15:20:32]
Initialization strings:
[INFO -- 2018-11-25 15:20:32]
(1) file /tmp/lreg/lreg
[INFO -- 2018-11-25 15:20:32]
(2) set args /tmp/lreg/randInput /tmp/lreg/output /tmp/lreg/detected.log
[INFO -- 2018-11-25 15:20:32]
initSignal:0
[INFO -- 2018-11-25 15:20:32]
endSignal:6
[INFO -- 2018-11-25 15:20:32]
faultModel:1
[EXCEPTION -- 2018-11-25 15:20:34]
gdbException: Attempt to dereference a generic pointer.
[INFO -- 2018-11-25 15:20:34]
Backtrace BEGIN:
#0  dl_main (phdr=<optimized out>, phnum=<optimized out>, user_entry=<optimized out>, auxv=<optimized out>) at rtld.c:2289
#1  0x00007ffff7defdd0 in _dl_sysdep_start (start_argptr=start_argptr@entry=0x7fffffffde40, dl_main=dl_main@entry=0x7ffff7dd7660 <dl_main>) at ../elf/dl-sysdep.c:253
#2  0x00007ffff7dd7128 in _dl_start_final (arg=0x7fffffffde40) at rtld.c:414
#3  _dl_start (arg=0x7fffffffde40) at rtld.c:521
#4  0x00007ffff7dd6098 in _start () from /lib64/ld-linux-x86-64.so.2
#5  0x0000000000000004 in ?? ()
#6  0x00007fffffffe1e2 in ?? ()
#7  0x00007fffffffe1f1 in ?? ()
#8  0x00007fffffffe205 in ?? ()
#9  0x00007fffffffe216 in ?? ()
#10 0x0000000000000000 in ?? ()

2284	in rtld.c

Backtrace END
Memory content before bitflip:0x7f0xcd0x0d0x670x810x8b0x6a0xe6
Fault Model: Double bit-flip
base address to flip value: 0x7ffff7ffc730 
address max offset: 8
Memory content after  bitflip:0x7f0xcd0x0d0x670x810x810x6a0xe6
frame name: _dl_start_final
symbol name: __pointer_chk_guard_local
symbol filename: rtld.c
symbol line: 96
value: 16603225369034476927
value address: 0x7ffff7ffc730 <__pointer_chk_guard_local>
Type: The type is an integer type.
Type sizeof: 8

[INFO -- 2018-11-25 15:20:34]
Fault Injection Successful after 2.2088136672973633s
[INFO -- 2018-11-25 15:20:39]
event type: exit
[INFO -- 2018-11-25 15:20:39]
exit code: 0
