[INFO -- 2018-11-24 09:51:14]
Starting GDB script
[INFO -- 2018-11-24 09:51:14]
initSignal:0.0
[INFO -- 2018-11-24 09:51:14]
endSignal:2.0
[INFO -- 2018-11-24 09:51:15]
sending 5 signals using command: 'killall -2 lreg' after 0.117604980351s
[INFO -- 2018-11-24 09:51:15]
sending 5 signals using command: 'killall -2 lreg' after 0.679173361267s
[INFO -- 2018-11-24 09:51:15]
sending 5 signals using command: 'killall -2 lreg' after 0.822365809501s
[INFO -- 2018-11-24 09:51:19]
Execution finished before waitTime
