[INFO -- 2018-11-24 11:59:11]
Starting GDB script
[INFO -- 2018-11-24 11:59:11]
initSignal:0.0
[INFO -- 2018-11-24 11:59:11]
endSignal:2.0
[INFO -- 2018-11-24 11:59:12]
sending 5 signals using command: 'killall -2 lreg' after 1.14210076718s
[INFO -- 2018-11-24 11:59:12]
sending 5 signals using command: 'killall -2 lreg' after 1.3539131879s
[INFO -- 2018-11-24 11:59:12]
sending 5 signals using command: 'killall -2 lreg' after 1.76963133069s
[INFO -- 2018-11-24 11:59:16]
Execution finished before waitTime
