[INFO -- 2018-11-23 21:40:38]
Starting GDB script
[INFO -- 2018-11-23 21:40:38]
initSignal:0.0
[INFO -- 2018-11-23 21:40:38]
endSignal:3.0
[INFO -- 2018-11-23 21:40:38]
sending 5 signals using command: 'killall -2 lreg' after 0.713784833635s
[INFO -- 2018-11-23 21:40:41]
sending 5 signals using command: 'killall -2 lreg' after 1.58938646573s
[INFO -- 2018-11-23 21:40:41]
sending 5 signals using command: 'killall -2 lreg' after 1.65506721406s
[INFO -- 2018-11-23 21:40:43]
Execution finished before waitTime
