[INFO -- 2018-11-23 21:48:12]
Starting flip_value script
version: 1.1
[INFO -- 2018-11-23 21:48:12]
Initialization strings:
[INFO -- 2018-11-23 21:48:12]
(1) file /tmp/lreg/lreg
[INFO -- 2018-11-23 21:48:12]
(2) set args /tmp/lreg/randInput /tmp/lreg/output
[INFO -- 2018-11-23 21:48:12]
initSignal:0
[INFO -- 2018-11-23 21:48:12]
endSignal:3
[INFO -- 2018-11-23 21:48:12]
faultModel:2
[INFO -- 2018-11-23 21:48:13]
Backtrace BEGIN:
#0  std::pow<double, int> (__x=4.6355706431331074e-310, __y=0) at /usr/include/c++/7/cmath:415
#1  0x00005555555551e7 in predict (v=13) at lreg.cpp:50
#2  0x00005555555553ac in partialDerivate (pos=1) at lreg.cpp:74
#3  0x00005555555554b3 in adjust (alpha=5.0000000000000002e-05) at lreg.cpp:87
#4  0x000055555555565c in train (iterations=20000, alpha=5.0000000000000002e-05, N=3, stopsWhenStable=true) at lreg.cpp:120
#5  0x0000555555555ab7 in main (argc=3, argv=0x7fffffffde58) at lreg.cpp:174

410	#endif
411	
412	  template<typename _Tp, typename _Up>
413	    inline _GLIBCXX_CONSTEXPR
414	    typename __gnu_cxx::__promote_2<_Tp, _Up>::__type
415	    pow(_Tp __x, _Up __y)
416	    {
417	      typedef typename __gnu_cxx::__promote_2<_Tp, _Up>::__type __type;
418	      return pow(__type(__x), __type(__y));
419	    }

Backtrace END
Fliping value of field: std::_Vector_base<double, std::allocator<double> >
Fliping value of field: _M_impl
Fliping value of field: _M_start
Fliping a bit of the value pointed by a pointer
Memory content before bitflip:0x000x000x000x000x000x000x100xc0
Fault Model: Random bit-flip
base address to flip value: 0x5555557714b0
address max offset: 8
Memory content after  bitflip:0xae0x920x400xc20xb80x370xd80xa8
frame name: train
symbol name: x
symbol filename: lreg.cpp
symbol line: 32
value: std::vector of length 12, capacity 16 = {-6.2938132471246997e-112, -3, -7, -2, -1, -1, -21, -3, -19, 13, 6, 23}
value address: 0x55555575a140 <x>
Type: The type is a structure.
Type sizeof: 24
Field name: std::_Vector_base<double, std::allocator<double> >
Field Type: The type is a structure.
Field Type sizeof: 24

[INFO -- 2018-11-23 21:48:13]
Fault Injection Successful after 1.225996494293213s
[INFO -- 2018-11-23 21:48:14]
event type: exit
[INFO -- 2018-11-23 21:48:14]
exit code: 0
