[INFO -- 2018-11-26 18:17:57]
Starting GDB script
[INFO -- 2018-11-26 18:17:57]
initSignal:0.0
[INFO -- 2018-11-26 18:17:57]
endSignal:3.0
[INFO -- 2018-11-26 18:18:00]
sending 5 signals using command: 'killall -2 lreg' after 2.43156197084s
[INFO -- 2018-11-26 18:18:00]
sending 5 signals using command: 'killall -2 lreg' after 2.48736844036s
[INFO -- 2018-11-26 18:18:00]
sending 5 signals using command: 'killall -2 lreg' after 2.90795150501s
[INFO -- 2018-11-26 18:18:01]
Execution finished before waitTime
