[INFO -- 2018-11-26 19:31:52]
Starting flip_value script
version: 1.1
[INFO -- 2018-11-26 19:31:52]
Initialization strings:
[INFO -- 2018-11-26 19:31:52]
(1) file /tmp/lreg/lreg
[INFO -- 2018-11-26 19:31:52]
(2) set args /tmp/lreg/randInput /tmp/lreg/output
[INFO -- 2018-11-26 19:31:52]
initSignal:0
[INFO -- 2018-11-26 19:31:52]
endSignal:3
[INFO -- 2018-11-26 19:31:52]
faultModel:2
[INFO -- 2018-11-26 19:31:53]
Backtrace BEGIN:
#0  verifyUintDup (a=1, b=1) at lreg.cpp:68
#1  0x00005555555557c3 in predict (v=-4) at lreg.cpp:116
#2  0x0000555555555a53 in partialDerivate (pos1=1, pos2=1) at lreg.cpp:142
#3  0x0000555555555bbe in adjust (alpha1=5.0000000000000002e-05, alpha2=5.0000000000000002e-05) at lreg.cpp:156
#4  0x0000555555555ee0 in train (iter1=20000, iter2=20000, N=3, alpha1=5.0000000000000002e-05, alpha2=5.0000000000000002e-05, stopsWhenStable=true) at lreg.cpp:193
#5  0x0000555555556467 in main (argc=3, argv=0x7fffffffde58) at lreg.cpp:253

63			//gerar entrada no log
64			ofstream fp ("/tmp/lreg/detected.log", std::ofstream::app);
65			fp << "verifyUint: a = "<<a<<"; b = "<<b<<endl;
66	        detected = 1;	
67		}
68		return a;
69	}
70	double verifyDoubleDup(double a, double b){
71		if (a != b && detected != 1){
72			//gerar entrada no log

Backtrace END
Fliping value of field: std::_Vector_base<double, std::allocator<double> >
Fliping value of field: _M_impl
Fliping value of field: _M_end_of_storage
Fliping a bit of the pointer
Memory content before bitflip:0x580x230x770x550x550x550x000x00
Fault Model: Random bit-flip
base address to flip value: 0x55555575b1b0 
address max offset: 8
Memory content after  bitflip:0xce0x280x210x570x0f0xfe0x4f0xea
frame name: adjust
symbol name: T2
symbol filename: lreg.cpp
symbol line: 37
value: std::vector of length 3, capacity -195355628603621198 = {0.42890166703723459, -0.030622476637359248, -2.9910576108025313}
value address: 0x55555575b1a0 <T2>
Type: The type is a structure.
Type sizeof: 24
Field name: std::_Vector_base<double, std::allocator<double> >
Field Type: The type is a structure.
Field Type sizeof: 24

[INFO -- 2018-11-26 19:31:53]
Fault Injection Successful after 1.9494316577911377s
[INFO -- 2018-11-26 19:31:56]
event type: exit
[INFO -- 2018-11-26 19:31:56]
exit code: 0
