[INFO -- 2018-11-26 17:40:19]
Starting GDB script
[INFO -- 2018-11-26 17:40:19]
initSignal:0.0
[INFO -- 2018-11-26 17:40:19]
endSignal:3.0
[INFO -- 2018-11-26 17:40:20]
sending 5 signals using command: 'killall -2 lreg' after 1.51944049279s
[INFO -- 2018-11-26 17:40:21]
sending 5 signals using command: 'killall -2 lreg' after 1.9957285991s
[INFO -- 2018-11-26 17:40:21]
sending 5 signals using command: 'killall -2 lreg' after 2.2518536696s
[INFO -- 2018-11-26 17:40:23]
Execution finished before waitTime
