[INFO -- 2018-11-26 18:20:42]
sending 5 signals using command: 'killall -2 lreg' after 2.750475043s
[INFO -- 2018-11-26 18:20:43]
Starting GDB script
[INFO -- 2018-11-26 18:20:43]
initSignal:0.0
[INFO -- 2018-11-26 18:20:43]
endSignal:3.0
[INFO -- 2018-11-26 18:20:43]
sending 5 signals using command: 'killall -2 lreg' after 0.0634360484067s
[INFO -- 2018-11-26 18:20:44]
sending 5 signals using command: 'killall -2 lreg' after 1.78788943113s
[INFO -- 2018-11-26 18:20:45]
sending 5 signals using command: 'killall -2 lreg' after 2.34146019983s
[INFO -- 2018-11-26 18:20:46]
Execution finished before waitTime
