[INFO -- 2018-11-29 14:16:31]
Starting flip_value script
version: 1.1
[INFO -- 2018-11-29 14:16:31]
Initialization strings:
[INFO -- 2018-11-29 14:16:32]
(1) file /tmp/lreg/lreg
[INFO -- 2018-11-29 14:16:32]
(2) set args /tmp/lreg/randInput /tmp/lreg/output /tmp/lreg/detected.log
[INFO -- 2018-11-29 14:16:32]
initSignal:0
[INFO -- 2018-11-29 14:16:32]
endSignal:6
[INFO -- 2018-11-29 14:16:32]
faultModel:2
[EXCEPTION -- 2018-11-29 14:16:35]
pythonException: Unable to exit loop in struct fields; Exiting wihtout making a bit flip
[INFO -- 2018-11-29 14:16:35]
Backtrace BEGIN:
#0  __exp1 (x=<optimized out>, xx=<optimized out>, error=<optimized out>) at ../sysdeps/ieee754/dbl-64/e_exp.c:273
#1  0x00007ffff76da8dc in __ieee754_pow_sse2 (x=25, y=3) at ../sysdeps/ieee754/dbl-64/e_pow.c:115
#2  0x00007ffff76bcb14 in __pow (x=25, y=3) at w_pow_compat.c:30
#3  0x000055555555621b in std::pow<double, int> (__x=25, __y=3) at /usr/include/c++/7/cmath:418
#4  0x0000555555555237 in predict (v=25) at lreg.cpp:50
#5  0x00005555555552ba in meanSquaredError () at lreg.cpp:61
#6  0x00005555555556b1 in train (iterations=30000, alpha=2.2222199999999999e-05, N=4, stopsWhenStable=true) at lreg.cpp:121
#7  0x0000555555555a1c in execute (input=0x7fffffffe1f1 "/tmp/lreg/randInput") at lreg.cpp:157
#8  0x0000555555555cb0 in main (argc=4, argv=0x7fffffffde48) at lreg.cpp:196

268	in ../sysdeps/ieee754/dbl-64/e_exp.c

Backtrace END
Fliping value of field name: x
Memory content before bitflip:0x000x000x000x000x000x000xf00x4f
Fault Model: Random bit-flip
base address to flip value: 0x7ffff7791818 
address max offset: 8
Memory content after  bitflip:0xda0x250xfb0x180xce0xa00xa20x86
frame name: __exp1
symbol name: t256
symbol filename: ../sysdeps/ieee754/dbl-64/uexp.h
symbol line: 55
value: {i = {419112410, -2036162354}, x = -1.0508569445285352e-276}
value address: 0x7ffff7791818 <t256>
Type: The type is a union.
Type sizeof: 8
Field name: i
Field Type: The type is an array.
Field Type sizeof: 8
Field name: x
Field Type: A floating point type.
Field Type sizeof: 8

[INFO -- 2018-11-29 14:16:35]
Fault Injection Successful after 3.3357205390930176s
[INFO -- 2018-11-29 14:16:35]
event type: exit
[INFO -- 2018-11-29 14:16:35]
exit code: 0
