[INFO -- 2018-11-27 18:07:35]
Starting flip_value script
version: 1.1
[INFO -- 2018-11-27 18:07:35]
Initialization strings:
[INFO -- 2018-11-27 18:07:35]
(1) file /tmp/lreg/lreg
[INFO -- 2018-11-27 18:07:35]
(2) set args /tmp/lreg/randInput /tmp/lreg/output
[INFO -- 2018-11-27 18:07:35]
initSignal:0
[INFO -- 2018-11-27 18:07:35]
endSignal:3
[INFO -- 2018-11-27 18:07:35]
faultModel:1
[INFO -- 2018-11-27 18:07:36]
Backtrace BEGIN:
#0  0x000055555555512d in verifyUintDup (a=4, b=4) at lreg.cpp:62
#1  0x00005555555558d4 in meanSquaredError () at lreg.cpp:128
#2  0x0000555555555ee5 in train (iter1=30000, iter2=30000, N=4, alpha1=2.2222199999999999e-05, alpha2=2.2222199999999999e-05, stopsWhenStable=true) at lreg.cpp:194
#3  0x0000555555556467 in main (argc=3, argv=0x7fffffffde58) at lreg.cpp:253

57	
58	int detected = 0;
59	
60	
61	UINT verifyUintDup(UINT a, UINT b){
62		if (a != b && detected != 1){
63			//gerar entrada no log
64			ofstream fp ("/tmp/lreg/detected.log", std::ofstream::app);
65			fp << "verifyUint: a = "<<a<<"; b = "<<b<<endl;
66	        detected = 1;	

Backtrace END
Memory content before bitflip:0x070x280x000x00
Fault Model: Double bit-flip
base address to flip value: 0x7fffffffd7ec
address max offset: 4
Memory content after  bitflip:0x070x280x000x84
frame name: train
symbol name: i2
symbol filename: lreg.cpp
symbol line: 191
value: 2214602759
value address: 0x7fffffffd7ec
Type: The type is an integer type.
Type sizeof: 4

[INFO -- 2018-11-27 18:07:36]
Fault Injection Successful after 1.6673142910003662s
[INFO -- 2018-11-27 18:07:37]
event type: exit
[INFO -- 2018-11-27 18:07:37]
exit code: 0
