[INFO -- 2018-11-26 18:04:22]
Starting GDB script
[INFO -- 2018-11-26 18:04:22]
initSignal:0.0
[INFO -- 2018-11-26 18:04:22]
endSignal:3.0
[INFO -- 2018-11-26 18:04:23]
sending 5 signals using command: 'killall -2 lreg' after 1.38314414875s
[INFO -- 2018-11-26 18:04:23]
sending 5 signals using command: 'killall -2 lreg' after 1.87576189209s
[INFO -- 2018-11-26 18:04:24]
sending 5 signals using command: 'killall -2 lreg' after 2.15945481785s
[INFO -- 2018-11-26 18:04:25]
Execution finished before waitTime
