[INFO -- 2018-11-25 13:38:02]
Starting GDB script
[INFO -- 2018-11-25 13:38:02]
initSignal:0.0
[INFO -- 2018-11-25 13:38:02]
endSignal:6.0
[INFO -- 2018-11-25 13:38:03]
sending 5 signals using command: 'killall -2 lreg' after 0.819398186174s
[INFO -- 2018-11-25 13:38:04]
sending 5 signals using command: 'killall -2 lreg' after 1.72296384294s
[INFO -- 2018-11-25 13:38:05]
sending 5 signals using command: 'killall -2 lreg' after 2.84848647369s
[INFO -- 2018-11-25 13:38:06]
Execution finished before waitTime
