[INFO -- 2018-11-25 12:45:08]
Starting flip_value script
version: 1.1
[INFO -- 2018-11-25 12:45:08]
Initialization strings:
[INFO -- 2018-11-25 12:45:08]
(1) file /tmp/lreg/lreg
[INFO -- 2018-11-25 12:45:08]
(2) set args /tmp/lreg/randInput /tmp/lreg/output /tmp/lreg/detected.log
[INFO -- 2018-11-25 12:45:08]
initSignal:0
[INFO -- 2018-11-25 12:45:08]
endSignal:6
[INFO -- 2018-11-25 12:45:08]
faultModel:0
[INFO -- 2018-11-25 12:45:10]
Backtrace BEGIN:
#0  libc_feholdsetround_sse_ctx (r=0, ctx=<synthetic pointer>) at ../sysdeps/i386/fpu/fenv_private.h:447
#1  __ieee754_pow_sse2 (x=29, y=3) at ../sysdeps/ieee754/dbl-64/e_pow.c:97
#2  0x00007ffff76bcb14 in __pow (x=29, y=3) at w_pow_compat.c:30
#3  0x000055555555621b in std::pow<double, int> (__x=29, __y=3) at /usr/include/c++/7/cmath:418
#4  0x0000555555555237 in predict (v=29) at lreg.cpp:50
#5  0x00005555555552ba in meanSquaredError () at lreg.cpp:61
#6  0x00005555555556b1 in train (iterations=30000, alpha=2.2222199999999999e-05, N=4, stopsWhenStable=true) at lreg.cpp:121
#7  0x0000555555555a1c in execute (input=0x7fffffffe1f1 "/tmp/lreg/randInput") at lreg.cpp:157
#8  0x0000555555555cb0 in main (argc=4, argv=0x7fffffffde48) at lreg.cpp:196

442	../sysdeps/i386/fpu/fenv_private.h: No such file or directory.

Backtrace END
Fliping value of field name: x
Memory content before bitflip:0x000x000x000x000x000x000x000x80
Fault Model: Single bit-flip
base address to flip value: 0x7ffff779f5e0 
address max offset: 8
Memory content after  bitflip:0x000x000x000x000x000x100x000x80
frame name: libc_feholdsetround_sse_ctx
symbol name: nZERO
symbol filename: ../sysdeps/ieee754/dbl-64/upow.h
symbol line: 47
value: {i = {0, -2147479552}, x = -8.6916947597937554e-311}
value address: 0x7ffff779f5e0 <nZERO>
Type: The type is a union.
Type sizeof: 8
Field name: i
Field Type: The type is an array.
Field Type sizeof: 8
Field name: x
Field Type: A floating point type.
Field Type sizeof: 8

[INFO -- 2018-11-25 12:45:10]
Fault Injection Successful after 2.6278040409088135s
[INFO -- 2018-11-25 12:45:11]
event type: exit
[INFO -- 2018-11-25 12:45:11]
exit code: 0
