[INFO -- 2018-11-26 19:54:46]
Starting GDB script
[INFO -- 2018-11-26 19:54:46]
initSignal:0.0
[INFO -- 2018-11-26 19:54:46]
endSignal:3.0
[INFO -- 2018-11-26 19:54:48]
sending 5 signals using command: 'killall -2 lreg' after 1.97229244781s
[INFO -- 2018-11-26 19:54:49]
sending 5 signals using command: 'killall -2 lreg' after 2.89851510531s
[INFO -- 2018-11-26 19:54:49]
sending 5 signals using command: 'killall -2 lreg' after 2.9918409759s
[INFO -- 2018-11-26 19:54:49]
Execution finished before waitTime
