[INFO -- 2018-11-27 19:58:49]
Starting GDB script
[INFO -- 2018-11-27 19:58:49]
initSignal:0.0
[INFO -- 2018-11-27 19:58:49]
endSignal:3.0
[INFO -- 2018-11-27 19:58:50]
sending 5 signals using command: 'killall -2 lreg' after 1.23945223645s
[INFO -- 2018-11-27 19:58:50]
sending 5 signals using command: 'killall -2 lreg' after 1.58467782003s
[INFO -- 2018-11-27 19:58:51]
sending 5 signals using command: 'killall -2 lreg' after 2.14101542558s
[INFO -- 2018-11-27 19:58:52]
Execution finished before waitTime
