[INFO -- 2018-11-27 20:54:47]
Starting flip_value script
version: 1.1
[INFO -- 2018-11-27 20:54:47]
Initialization strings:
[INFO -- 2018-11-27 20:54:47]
(1) file /tmp/lreg/lreg
[INFO -- 2018-11-27 20:54:47]
(2) set args /tmp/lreg/randInput /tmp/lreg/output
[INFO -- 2018-11-27 20:54:47]
initSignal:0
[INFO -- 2018-11-27 20:54:47]
endSignal:3
[INFO -- 2018-11-27 20:54:47]
faultModel:2
[INFO -- 2018-11-27 20:54:49]
Backtrace BEGIN:
#0  verifyUintDup (a=15, b=15) at lreg.cpp:61
#1  0x000055555555589e in meanSquaredError () at lreg.cpp:128
#2  0x0000555555555ee5 in train (iter1=30000, iter2=30000, N=4, alpha1=2.2222199999999999e-05, alpha2=2.2222199999999999e-05, stopsWhenStable=true) at lreg.cpp:194
#3  0x0000555555556467 in main (argc=3, argv=0x7fffffffde58) at lreg.cpp:253

56	*/
57	
58	int detected = 0;
59	
60	
61	UINT verifyUintDup(UINT a, UINT b){
62		if (a != b && detected != 1){
63			//gerar entrada no log
64			ofstream fp ("/tmp/lreg/detected.log", std::ofstream::app);
65			fp << "verifyUint: a = "<<a<<"; b = "<<b<<endl;

Backtrace END
Memory content before bitflip:0x030x000x000x00
Fault Model: Random bit-flip
base address to flip value: 0x7fffffffd8cc
address max offset: 4
Memory content after  bitflip:0xf00xbe0x9e0x06
frame name: main
symbol name: argc
symbol filename: lreg.cpp
symbol line: 217
value: 111066864
value address: 0x7fffffffd8cc
Type: The type is an integer type.
Type sizeof: 4

[INFO -- 2018-11-27 20:54:49]
Fault Injection Successful after 2.441728353500366s
[INFO -- 2018-11-27 20:54:50]
event type: exit
[INFO -- 2018-11-27 20:54:50]
exit code: 0
