[INFO -- 2018-11-24 15:55:10]
sending 5 signals using command: 'killall -2 lreg' after 5.12792634483s
[INFO -- 2018-11-24 15:55:10]
Starting GDB script
[INFO -- 2018-11-24 15:55:10]
initSignal:0.0
[INFO -- 2018-11-24 15:55:10]
endSignal:6.0
[INFO -- 2018-11-24 15:55:10]
sending 5 signals using command: 'killall -2 lreg' after 0.481399416266s
[INFO -- 2018-11-24 15:55:14]
Execution finished before waitTime
