[INFO -- 2018-11-22 20:24:33]
Starting GDB script
[INFO -- 2018-11-22 20:24:33]
initSignal:0.0
[INFO -- 2018-11-22 20:24:33]
endSignal:3.0
[INFO -- 2018-11-22 20:24:35]
sending 5 signals using command: 'killall -2 lreg' after 1.96340157465s
[INFO -- 2018-11-22 20:24:35]
sending 5 signals using command: 'killall -2 lreg' after 2.13931367926s
[INFO -- 2018-11-22 20:24:35]
sending 5 signals using command: 'killall -2 lreg' after 2.36934271277s
[INFO -- 2018-11-22 20:24:38]
Execution finished before waitTime
