[INFO -- 2018-11-26 16:47:56]
Starting GDB script
[INFO -- 2018-11-26 16:47:56]
initSignal:0.0
[INFO -- 2018-11-26 16:47:56]
endSignal:3.0
[INFO -- 2018-11-26 16:47:57]
sending 5 signals using command: 'killall -2 lreg' after 0.78012591172s
[INFO -- 2018-11-26 16:47:58]
sending 5 signals using command: 'killall -2 lreg' after 1.86565291032s
[INFO -- 2018-11-26 16:47:58]
Execution finished before waitTime
