[INFO -- 2018-11-24 16:32:09]
Starting flip_value script
version: 1.1
[INFO -- 2018-11-24 16:32:09]
Initialization strings:
[INFO -- 2018-11-24 16:32:09]
(1) file /tmp/lreg/lreg
[INFO -- 2018-11-24 16:32:09]
(2) set args /tmp/lreg/randInput /tmp/lreg/output /tmp/lreg/detected.log
[INFO -- 2018-11-24 16:32:09]
initSignal:0
[INFO -- 2018-11-24 16:32:09]
endSignal:6
[INFO -- 2018-11-24 16:32:09]
faultModel:1
[INFO -- 2018-11-24 16:32:10]
Backtrace BEGIN:
#0  0x00007ffff76daa2d in __ieee754_pow_sse2 (x=<optimized out>, y=<optimized out>) at ../sysdeps/ieee754/dbl-64/e_pow.c:215
#1  0x00007ffff76bcb14 in __pow (x=7, y=1) at w_pow_compat.c:30
#2  0x0000555555556149 in std::pow<double, int> (__x=7, __y=1) at /usr/include/c++/7/cmath:418
#3  0x0000555555555237 in predict (v=7) at lreg.cpp:50
#4  0x00005555555553fc in partialDerivate (pos=0) at lreg.cpp:74
#5  0x0000555555555503 in adjust (alpha=0.00020000000000000001) at lreg.cpp:87
#6  0x00005555555556ac in train (iterations=10000, alpha=0.00020000000000000001, N=2, stopsWhenStable=true) at lreg.cpp:120
#7  0x0000555555555a1c in execute (input=0x7fffffffe1f2 "/tmp/lreg/randInput") at lreg.cpp:157
#8  0x0000555555555c78 in main (argc=4, argv=0x7fffffffde48) at lreg.cpp:193

210	../sysdeps/ieee754/dbl-64/e_pow.c: No such file or directory.

Backtrace END
Fliping value of field: std::_Vector_base<double, std::allocator<double> >
Fliping value of field: _M_impl
Fliping value of field: _M_end_of_storage
Fliping a bit of the pointer
Memory content before bitflip:0x500x230x770x550x550x550x000x00
Fault Model: Double bit-flip
base address to flip value: 0x55555575b190 
address max offset: 8
Memory content after  bitflip:0x500x230x650x550x550x550x000x00
frame name: train
symbol name: T
symbol filename: lreg.cpp
symbol line: 34
value: std::vector of length 2, capacity -147454 = {1.6222767492732111, -1.0097779686266928}
value address: 0x55555575b180 <T>
Type: The type is a structure.
Type sizeof: 24
Field name: std::_Vector_base<double, std::allocator<double> >
Field Type: The type is a structure.
Field Type sizeof: 24

[INFO -- 2018-11-24 16:32:10]
Fault Injection Successful after 1.0914859771728516s
[INFO -- 2018-11-24 16:32:12]
event type: exit
[INFO -- 2018-11-24 16:32:12]
exit code: 0
