[INFO -- 2018-11-27 19:11:40]
Starting flip_value script
version: 1.1
[INFO -- 2018-11-27 19:11:40]
Initialization strings:
[INFO -- 2018-11-27 19:11:40]
(1) file /tmp/lreg/lreg
[INFO -- 2018-11-27 19:11:40]
(2) set args /tmp/lreg/randInput /tmp/lreg/output
[INFO -- 2018-11-27 19:11:40]
initSignal:0
[INFO -- 2018-11-27 19:11:40]
endSignal:3
[INFO -- 2018-11-27 19:11:40]
faultModel:0
[INFO -- 2018-11-27 19:11:41]
Backtrace BEGIN:
#0  0x00007ffff76dabc0 in __ieee754_pow_sse2 (x=<optimized out>, y=2) at ../sysdeps/ieee754/dbl-64/e_pow.c:82
#1  0x00007ffff76bcb14 in __pow (x=-3, y=2) at w_pow_compat.c:30
#2  0x0000555555556826 in std::pow<double, unsigned int> (__x=-3, __y=2) at /usr/include/c++/7/cmath:418
#3  0x0000555555555814 in predict (v=-3) at lreg.cpp:116
#4  0x00005555555558c0 in meanSquaredError () at lreg.cpp:128
#5  0x0000555555555ee5 in train (iter1=20000, iter2=20000, N=3, alpha1=5.0000000000000002e-05, alpha2=5.0000000000000002e-05, stopsWhenStable=true) at lreg.cpp:194
#6  0x0000555555556467 in main (argc=3, argv=0x7fffffffde58) at lreg.cpp:253

77	../sysdeps/ieee754/dbl-64/e_pow.c: No such file or directory.

Backtrace END
Fliping value of field name: i
Fliping array at pos: 2816
Memory content before bitflip:0x000x000x000x00
Fault Model: Single bit-flip
base address to flip value: 0x7ffff779c700 
address max offset: 4
Memory content after  bitflip:0x000x000x000x08
frame name: __ieee754_pow_sse2
symbol name: ui
symbol filename: ../sysdeps/ieee754/dbl-64/upow.tbl
symbol line: 5108
value: {i = {0, 1073127424, 925434942, 1060359445, 188395520, -1076482045, -416174592, 1026405923, 0, 1073125376, -864917552, 1060369225, -844091392, -1076487835, 1614563470, 1026492589, 0, 1073123328, -1928594130, 1060402088, -1963945984, -1076493616, 1994342245, -1122058607, 0, 1073121280, 957062864, 1060457938, 1029451776, -1076499389, 304730495, -1120487654, 0, 1073119232, 377579543, 1060536680, -547790848, -1076505155, 144991708, 1024068394, 0, 1073117184, -259229851, 1060638219, 1800683520, -1076510912, -345466852, 1025667107, 0, 1073115136, 376545078, 1060762464, -608247808, -1076516662, 184020216, 1022871451, 0, 1073113088, 1521746279, 1060909319, 722546688, -1076522403, -1482330316, 1026989045, 0, 1073111040, 305106966, 1061078693, 1405669376, -1076528137, -295878417, -1121997331, 0, 1073110016, -322269033, -1086436318, 1349079040, -1076533863, 732809076, -1122712067, 0, 1073107968, 1263914082, -1086650452, 461103104, -1076539581, -1064236718, -1122334380, 0, 1073105920, 853149966, -1086886830, -1349554176, -1076545292, -464173106, -1121457150, 0, 1073103872, 1307163960, -1087145361, 121151488, -1076550994, -2124101799, -1121010064, 0, 1073101824, -1841532789, -1087478597, 487702528, -1076556689, 2122480684, 1027214955, 0, 1073099776, -1478213676, -1088083730, -340090880, -1076562377, -885971783, 1027588440, 0, 1073097728, -2039964169, -1089043372, 1842921472, -1076568056, -1578875000, 1026872978, 0, 1073095680, 1996579392, -1093262342, -1642647552, -1076573728, 453695652, 1026433161, 0, 1073093632, 1483821360, 1058345728, 1999011840, -1076579392, -2130367585, 1024875334, 0, 1073091584, 902985038, 1059482886, -205733888, -1076585049, 1303333786, -1120896205, 0, 1073089536, -635863261, 1060207713, 244678656, -1076590697, 1180496479, -1120026184, 0, 1073087488, -2124392426, 1060640261, -1032732672, -1076596339, -78900027, -1120900072, 0, 1073085440, -1245252263, 1061094167, 169336832, -1076601972, -405755821, 1024299296, 0, 1073084416, 1830830563, -1086735171, -531390464, -1076607599, -1835909752, 1023863128, 0, 1073082368, 1443155008, -1087231537, 1073094656, -1076613217, 259863380, -1120336316, 0, 1073080320, -45935479, -1088124699, 601223168, -1076618828, 577627116, 1027400569...}, x = {1.4140625, 0.00030214088397790054, -0.34668041321378951, 5.2778200188642693e-14, 1.412109375, 0.00030441810344827586, -0.34530015074483345, 5.5127272536363026e-14, 1.41015625, 0.00031206955922865015, -0.3439217907746297, -2.7306518921347088e-14, 1.408203125, 0.00032507307427785421, -0.34254532806585303, -8.0700749411504883e-14, 1.40625, 0.00034340659340659343, -0.34117075740277869, 1.156568624616423e-14, 1.404296875, 0.00036704818244170093, -0.3397980735908277, 3.2752552828195006e-14, 1.40234375, 0.00039597602739726027, -0.33842727145702156, 5.2801562047290642e-15, 1.400390625, 0.0004301684336525308, -0.33705834584975491, 8.0324075020904874e-14, 1.3984375, 0.000469603825136612, -0.3356912916381134, -2.8136969901227338e-14, 1.3974609375, -0.00046230175648021829, -0.33432610371278315, -1.8450480545245576e-14, 1.3955078125, -0.00041244465258855588, -0.33296277698491394, -2.3569101751290204e-14, 1.3935546875, -0.00035740858843537413, -0.33160130638657392, -4.249386465334667e-14, 1.3916015625, -0.0002972146739130435, -0.33024168687052224, -5.4612144489920215e-14, 1.3896484375, -0.00023188390434192673, -0.32888391341020906, 9.2570671949217763e-14, 1.3876953125, -0.00016143716124661248, -0.32752798099909342, 1.1281735060685524e-13, 1.3857421875, -8.5895213125845738e-05, -0.32617388465132535, 7.4032069124645893e-14, 1.3837890625, -5.2787162162162165e-06, -0.32482161940129117, 5.351646604259541e-14, 1.3818359375, 8.0391784750337382e-05, -0.32347118030338606, 1.9856600413203809e-14, 1.3798828125, 0.00017109585579514825, -0.32212256243201409, -5.8553167927094155e-14, 1.3779296875, 0.00026681317294751007, -0.32077576088158821, -1.0571709929206992e-13, 1.3759765625, 0.00036752352150537634, -0.31943077076630289, -5.8343574200909236e-14, 1.3740234375, 0.00047320679530201342, -0.31808758721990671, 1.313034496619672e-14, 1.373046875, -0.00039271950402144771, -0.31674620539570242, 1.0174753377507561e-14, 1.37109375, -0.00027715026773761711, -0.31540662046654688, -8.890479826418284e-14, 1.369140625, -0.0001566677807486631, -0.31406882762507848, 1.0263280755261064e-13, 1.3671875, -3.1291722296395196e-05, -0.31273282208212549, -1.0812127312337173e-13, 1.365234375, 9.8958333333333331e-05, -0.31139859906920719, 1.1022412161041444e-13, 1.36328125, 0.00023406291611185087, -0.31006615383535063, 3.2283099979657675e-14, 1.361328125, 0.00037400265957446808, -0.30873548164959175, -2.1522127491642888e-14, 1.3603515625, -0.0004578041998671979, -0.30740657779961111, 5.1597174189939714e-14, 1.3583984375, -0.00030825182360742705, -0.30607943759150658, 9.5541815660011496e-15, 1.3564453125, -0.00015392177152317882, -0.30475405635047537, 4.6975568418517268e-14, 1.3544921875, 5.1669973544973542e-06, -0.30343042941990461, -1.5483459934980831e-14, 1.3525390625, 0.00016899562417437252, -0.30210855216205346, 4.9138523564172923e-14, 1.3505859375, 0.00033754534960422162, -0.30078841995714356, 6.2123230480842141e-14, 1.349609375, -0.00046576498682476944, -0.29947002820381385, -9.3140019120109302e-15, 1.34765625, -0.00028782894736842103, -0.29815337231912054, 4.4204083338755686e-14, 1.345703125, -0.00010522749671484889, -0.29683844773785495, 8.7691265305446156e-14, 1.34375, 8.2020997375328083e-05, -0.29552524991277096, -3.5860530920232743e-14, 1.341796875, 0.00027389826343381389, -0.2942137743150397, 4.3611323933369733e-14, 1.33984375, 0.00047038612565445027, -0.29290401643288533, -4.7274529405144063e-14, 1.3388671875, -0.00030509599673202614, -0.29159597177294927, 3.2012975543526907e-14, 1.3369140625, -9.9441090078328977e-05, -0.29028963585892598, 6.4181446376601164e-14, 1.3349609375, 0.00011077045306388526, -0.28898500423224505, 4.8138793373543549e-14, 1.3330078125, 0.00032552083333333332, -0.28768207245184385, 6.292357389008195e-14, 1.33203125, -0.00043177015604681403, -0.28638083609371279, -9.6332379662957505e-14, 1.330078125, -0.00020799512987012986, -0.28508129075180477, 8.1211311749625399e-14, 1.328125, 2.0265888456549934e-05, -0.28378343203621625, 9.2649920791010902e-14, 1.326171875, 0.0002529954663212435, -0.28248725557477883, 1.0190482133505088e-13, 1.3251953125, -0.00048638623868046569, -0.28119275701192237, -1.0876517337503418e-13...}}
value address: 0x7ffff7799b00 <ui>
Type: The type is a union.
Type sizeof: 23200
Field name: i
Field Type: The type is an array.
Field Type sizeof: 23200
Field name: x
Field Type: The type is an array.
Field Type sizeof: 23200

[INFO -- 2018-11-27 19:11:41]
Fault Injection Successful after 1.7832558155059814s
[INFO -- 2018-11-27 19:11:44]
event type: exit
[INFO -- 2018-11-27 19:11:44]
exit code: 0
