[INFO -- 2018-11-24 19:03:59]
Starting GDB script
[INFO -- 2018-11-24 19:03:59]
initSignal:0.0
[INFO -- 2018-11-24 19:03:59]
endSignal:6.0
[INFO -- 2018-11-24 19:04:01]
sending 5 signals using command: 'killall -2 lreg' after 1.56918858174s
[INFO -- 2018-11-24 19:04:01]
sending 5 signals using command: 'killall -2 lreg' after 2.05152537323s
[INFO -- 2018-11-24 19:04:02]
Execution finished before waitTime
