numberIterationErrors;maxRelativeError;minRelativeError;averageRelativeError;numberErrorsLessThan0.1;numberErrorsLessThan0.2;numberErrorsLessThan0.3;numberErrorsLessThan0.4;numberErrorsLessThan0.5;numberErrorsLessThan1;numberErrorsLessThan2;numberErrorsLessThan3;numberErrorsLessThan4;numberErrorsLessThan5;numberErrorsLessThan8;numberErrorsLessThan10;numberErrorsLessThan12;numberErrorsLessThan15
8;55.4920094102377;4.522785012341992;15.336929453470152;0;0;0;0;0;0;0;0;0;1;2;4;5;7
8;1099.183364430383;20.12492546504921;295.3825438491923;0;0;0;0;0;0;0;0;0;0;0;0;0;0
17;0;0;0.0;17;17;17;17;17;17;17;17;17;17;17;17;17;17
8;1099.183364430383;20.12492546504921;295.3825438491923;0;0;0;0;0;0;0;0;0;0;0;0;0;0
8;1099.183364430383;20.12492546504921;295.3825438491923;0;0;0;0;0;0;0;0;0;0;0;0;0;0
8;1099.183364430383;20.12492546504921;295.3825438491923;0;0;0;0;0;0;0;0;0;0;0;0;0;0
17;0;0;0.0;17;17;17;17;17;17;17;17;17;17;17;17;17;17
