[INFO -- 2018-11-24 18:43:26]
Starting flip_value script
version: 1.1
[INFO -- 2018-11-24 18:43:26]
Initialization strings:
[INFO -- 2018-11-24 18:43:26]
(1) file /tmp/lreg/lreg
[INFO -- 2018-11-24 18:43:26]
(2) set args /tmp/lreg/randInput /tmp/lreg/output /tmp/lreg/detected.log
[INFO -- 2018-11-24 18:43:26]
initSignal:0
[INFO -- 2018-11-24 18:43:26]
endSignal:6
[INFO -- 2018-11-24 18:43:26]
faultModel:1
[EXCEPTION -- 2018-11-24 18:43:27]
gdbException: Cannot access memory at address 0xd75555772380
[INFO -- 2018-11-24 18:43:28]
Backtrace BEGIN:
#0  __exp1 (x=<optimized out>, xx=<optimized out>, error=<optimized out>) at ../sysdeps/ieee754/dbl-64/e_exp.c:278
#1  0x00007ffff76da8dc in __ieee754_pow_sse2 (x=28, y=3) at ../sysdeps/ieee754/dbl-64/e_pow.c:115
#2  0x00007ffff76db6be in __ieee754_pow_sse2 (x=<optimized out>, y=<optimized out>) at ../sysdeps/ieee754/dbl-64/e_pow.c:184
#3  0x00007ffff76bcb14 in __pow (x=-28, y=3) at w_pow_compat.c:30
#4  0x0000555555556149 in std::pow<double, int> (__x=-28, __y=3) at /usr/include/c++/7/cmath:418
#5  0x0000555555555237 in predict (v=-28) at lreg.cpp:50
#6  0x000055555555530a in meanSquaredError () at lreg.cpp:61
#7  0x00005555555556b1 in train (iterations=30000, alpha=2.2222199999999999e-05, N=4, stopsWhenStable=true) at lreg.cpp:121
#8  0x0000555555555a1c in execute (input=0x7fffffffe1f2 "/tmp/lreg/randInput") at lreg.cpp:157
#9  0x0000555555555c78 in main (argc=4, argv=0x7fffffffde48) at lreg.cpp:193

273	in ../sysdeps/ieee754/dbl-64/e_exp.c

Backtrace END
Memory content before bitflip:0x080x000x000x00
Fault Model: Double bit-flip
base address to flip value: 0x7fffffffd674
address max offset: 4
Memory content after  bitflip:0x080x600x000x00
frame name: execute
symbol name: predictions
symbol filename: lreg.cpp
symbol line: 144
value: 24584
value address: 0x7fffffffd674
Type: The type is an integer type.
Type sizeof: 4

[INFO -- 2018-11-24 18:43:28]
Fault Injection Successful after 2.0165977478027344s
[INFO -- 2018-11-24 18:43:28]
event type: exit
[EXCEPTION -- 2018-11-24 18:43:28]
exit code: no exit code available
