[INFO -- 2018-11-24 12:40:44]
Starting GDB script
[INFO -- 2018-11-24 12:40:44]
initSignal:0.0
[INFO -- 2018-11-24 12:40:44]
endSignal:2.0
[INFO -- 2018-11-24 12:40:45]
sending 5 signals using command: 'killall -2 lreg' after 1.015024799s
[INFO -- 2018-11-24 12:40:46]
sending 5 signals using command: 'killall -2 lreg' after 1.48135571524s
[INFO -- 2018-11-24 12:40:46]
sending 5 signals using command: 'killall -2 lreg' after 1.94027801254s
[INFO -- 2018-11-24 12:40:50]
Execution finished before waitTime
