[INFO -- 2018-11-26 19:54:18]
Starting flip_value script
version: 1.1
[INFO -- 2018-11-26 19:54:18]
Initialization strings:
[INFO -- 2018-11-26 19:54:18]
(1) file /tmp/lreg/lreg
[INFO -- 2018-11-26 19:54:18]
(2) set args /tmp/lreg/randInput /tmp/lreg/output
[INFO -- 2018-11-26 19:54:18]
initSignal:0
[INFO -- 2018-11-26 19:54:18]
endSignal:3
[INFO -- 2018-11-26 19:54:18]
faultModel:0
[INFO -- 2018-11-26 19:54:19]
Backtrace BEGIN:
#0  verifyUintDup (a=0, b=0) at lreg.cpp:69
#1  0x00005555555557c3 in predict (v=-7) at lreg.cpp:116
#2  0x00005555555558c0 in meanSquaredError () at lreg.cpp:128
#3  0x0000555555555ee5 in train (iter1=20000, iter2=20000, N=3, alpha1=5.0000000000000002e-05, alpha2=5.0000000000000002e-05, stopsWhenStable=true) at lreg.cpp:194
#4  0x0000555555556467 in main (argc=3, argv=0x7fffffffde58) at lreg.cpp:253

64			ofstream fp ("/tmp/lreg/detected.log", std::ofstream::app);
65			fp << "verifyUint: a = "<<a<<"; b = "<<b<<endl;
66	        detected = 1;	
67		}
68		return a;
69	}
70	double verifyDoubleDup(double a, double b){
71		if (a != b && detected != 1){
72			//gerar entrada no log
73			ofstream fp ("/tmp/lreg/detected.log", std::ofstream::app);

Backtrace END
Fliping value of field: std::_Vector_base<double, std::allocator<double> >
Fliping value of field: _M_impl
Fliping value of field: _M_end_of_storage
Fliping a bit of the value pointed by a pointer
Memory content before bitflip:0x000x000x000x000x000x000x000x00
Fault Model: Single bit-flip
base address to flip value: 0x555555772480
address max offset: 8
Memory content after  bitflip:0x000x000x000x000x000x000x000x04
frame name: verifyUintDup
symbol name: x
symbol filename: lreg.cpp
symbol line: 34
value: std::vector of length 13, capacity 16 = {-4, -3, -7, -2, -1, -1, -21, -3, -19, 13, 6, 23, -19}
value address: 0x55555575b140 <x>
Type: The type is a structure.
Type sizeof: 24
Field name: std::_Vector_base<double, std::allocator<double> >
Field Type: The type is a structure.
Field Type sizeof: 24

[INFO -- 2018-11-26 19:54:19]
Fault Injection Successful after 1.1767349243164062s
[INFO -- 2018-11-26 19:54:21]
event type: exit
[INFO -- 2018-11-26 19:54:21]
exit code: 0
