[INFO -- 2018-11-24 15:36:15]
Starting flip_value script
version: 1.1
[INFO -- 2018-11-24 15:36:15]
Initialization strings:
[INFO -- 2018-11-24 15:36:15]
(1) file /tmp/lreg/lreg
[INFO -- 2018-11-24 15:36:15]
(2) set args /tmp/lreg/randInput /tmp/lreg/output /tmp/lreg/detected.log
[INFO -- 2018-11-24 15:36:15]
initSignal:0
[INFO -- 2018-11-24 15:36:15]
endSignal:6
[INFO -- 2018-11-24 15:36:15]
faultModel:1
[INFO -- 2018-11-24 15:36:17]
event type: exit
[INFO -- 2018-11-24 15:36:17]
exit code: 0
