[INFO -- 2018-11-24 19:07:53]
Starting flip_value script
version: 1.1
[INFO -- 2018-11-24 19:07:53]
Initialization strings:
[INFO -- 2018-11-24 19:07:53]
(1) file /tmp/lreg/lreg
[INFO -- 2018-11-24 19:07:53]
(2) set args /tmp/lreg/randInput /tmp/lreg/output /tmp/lreg/detected.log
[INFO -- 2018-11-24 19:07:53]
initSignal:0
[INFO -- 2018-11-24 19:07:53]
endSignal:6
[INFO -- 2018-11-24 19:07:53]
faultModel:2
[INFO -- 2018-11-24 19:07:55]
Backtrace BEGIN:
#0  libc_feholdsetround_sse_ctx (r=0, ctx=<synthetic pointer>) at ../sysdeps/i386/fpu/fenv_private.h:447
#1  __ieee754_pow_sse2 (x=18, y=3) at ../sysdeps/ieee754/dbl-64/e_pow.c:97
#2  0x00007ffff76db6be in __ieee754_pow_sse2 (x=<optimized out>, y=<optimized out>) at ../sysdeps/ieee754/dbl-64/e_pow.c:184
#3  0x00007ffff76bcb14 in __pow (x=-18, y=3) at w_pow_compat.c:30
#4  0x0000555555556149 in std::pow<double, int> (__x=-18, __y=3) at /usr/include/c++/7/cmath:418
#5  0x0000555555555451 in partialDerivate (pos=3) at lreg.cpp:74
#6  0x0000555555555503 in adjust (alpha=2.2222199999999999e-05) at lreg.cpp:87
#7  0x00005555555556ac in train (iterations=30000, alpha=2.2222199999999999e-05, N=4, stopsWhenStable=true) at lreg.cpp:120
#8  0x0000555555555a1c in execute (input=0x7fffffffe1f2 "/tmp/lreg/randInput") at lreg.cpp:157
#9  0x0000555555555c78 in main (argc=4, argv=0x7fffffffde48) at lreg.cpp:193

442	../sysdeps/i386/fpu/fenv_private.h: No such file or directory.

Backtrace END
Fliping value of field name: i
Fliping array at pos: 0
Memory content before bitflip:0x300x670xc70x93
Fault Model: Random bit-flip
base address to flip value: 0x7ffff779f5c0 
address max offset: 4
Memory content after  bitflip:0x280xaa0xea0x06
frame name: __ieee754_pow_sse2
symbol name: ln2b
symbol filename: ../sysdeps/ieee754/dbl-64/upow.h
symbol line: 51
value: {i = {116042280, 1026487127}, x = 5.4979215272711871e-14}
value address: 0x7ffff779f5c0 <ln2b>
Type: The type is a union.
Type sizeof: 8
Field name: i
Field Type: The type is an array.
Field Type sizeof: 8
Field name: x
Field Type: A floating point type.
Field Type sizeof: 8

[INFO -- 2018-11-24 19:07:55]
Fault Injection Successful after 2.1778855323791504s
[INFO -- 2018-11-24 19:07:56]
event type: exit
[INFO -- 2018-11-24 19:07:56]
exit code: 0
