[INFO -- 2018-11-24 15:51:49]
sending 5 signals using command: 'killall -2 lreg' after 4.76151395194s
[INFO -- 2018-11-24 15:51:49]
Starting GDB script
[INFO -- 2018-11-24 15:51:49]
initSignal:0.0
[INFO -- 2018-11-24 15:51:49]
endSignal:6.0
[INFO -- 2018-11-24 15:51:49]
sending 5 signals using command: 'killall -2 lreg' after 0.158759732159s
[INFO -- 2018-11-24 15:51:50]
sending 5 signals using command: 'killall -2 lreg' after 0.971435617697s
[INFO -- 2018-11-24 15:51:53]
sending 5 signals using command: 'killall -2 lreg' after 3.60033445011s
[INFO -- 2018-11-24 15:51:53]
Execution finished before waitTime
