[INFO -- 2018-11-25 13:10:10]
Starting flip_value script
version: 1.1
[INFO -- 2018-11-25 13:10:10]
Initialization strings:
[INFO -- 2018-11-25 13:10:11]
(1) file /tmp/lreg/lreg
[INFO -- 2018-11-25 13:10:11]
(2) set args /tmp/lreg/randInput /tmp/lreg/output /tmp/lreg/detected.log
[INFO -- 2018-11-25 13:10:11]
initSignal:0
[INFO -- 2018-11-25 13:10:11]
endSignal:6
[INFO -- 2018-11-25 13:10:11]
faultModel:2
[EXCEPTION -- 2018-11-25 13:10:12]
pythonException: Unable to exit loop in struct fields; Exiting wihtout making a bit flip
[INFO -- 2018-11-25 13:10:13]
Backtrace BEGIN:
#0  0x00005555555551fc in predict (v=-4) at lreg.cpp:49
#1  0x000055555555530a in meanSquaredError () at lreg.cpp:61
#2  0x00005555555556b1 in train (iterations=20000, alpha=5.0000000000000002e-05, N=3, stopsWhenStable=true) at lreg.cpp:121
#3  0x0000555555555a1c in execute (input=0x7fffffffe1f1 "/tmp/lreg/randInput") at lreg.cpp:157
#4  0x0000555555555c78 in main (argc=4, argv=0x7fffffffde48) at lreg.cpp:193

44	/**
45		Predicts the value related to v using the Ts variables
46	*/
47	double predict(double v){
48		double val = 0;
49		for(int i = 0; i<T.size(); i++){
50			val+= (T[i] * pow(v, i));
51		}
52		return val;
53		

Backtrace END
Memory content before bitflip:0xa70x090x210xf00x1c0x350x0a0x40
Fault Model: Random bit-flip
base address to flip value: 0x7fffffffd580
address max offset: 8
Memory content after  bitflip:0x700xf30x0a0x8e0xd20x7f0xea0x9b
frame name: train
symbol name: bestMSE
symbol filename: lreg.cpp
symbol line: 116
value: -3.3481663601959698e-174
value address: 0x7fffffffd580
Type: A floating point type.
Type sizeof: 8

[INFO -- 2018-11-25 13:10:13]
Fault Injection Successful after 2.14589786529541s
[INFO -- 2018-11-25 13:10:16]
event type: exit
[INFO -- 2018-11-25 13:10:16]
exit code: 0
