[INFO -- 2018-11-27 20:29:27]
sending 5 signals using command: 'killall -2 lreg' after 2.63391869959s
[INFO -- 2018-11-27 20:29:27]
Starting GDB script
[INFO -- 2018-11-27 20:29:27]
initSignal:0.0
[INFO -- 2018-11-27 20:29:27]
endSignal:3.0
[INFO -- 2018-11-27 20:29:29]
sending 5 signals using command: 'killall -2 lreg' after 2.16935625023s
[INFO -- 2018-11-27 20:29:29]
Execution finished before waitTime
