[INFO -- 2018-11-25 14:18:20]
sending 5 signals using command: 'killall -2 lreg' after 4.28313561687s
[INFO -- 2018-11-25 14:18:20]
Starting GDB script
[INFO -- 2018-11-25 14:18:20]
initSignal:0.0
[INFO -- 2018-11-25 14:18:20]
endSignal:6.0
[INFO -- 2018-11-25 14:18:22]
sending 5 signals using command: 'killall -2 lreg' after 1.52425895304s
[INFO -- 2018-11-25 14:18:23]
Execution finished before waitTime
