[INFO -- 2018-11-22 16:07:50]
Starting GDB script
[INFO -- 2018-11-22 16:07:50]
initSignal:0.0
[INFO -- 2018-11-22 16:07:50]
endSignal:3.0
[INFO -- 2018-11-22 16:07:50]
sending 5 signals using command: 'killall -2 lreg' after 0.237239015978s
[INFO -- 2018-11-22 16:07:50]
sending 5 signals using command: 'killall -2 lreg' after 0.233391956829s
[INFO -- 2018-11-22 16:07:51]
sending 5 signals using command: 'killall -2 lreg' after 1.0287245198s
[INFO -- 2018-11-22 16:07:56]
Execution finished before waitTime
