[INFO -- 2018-11-27 16:18:08]
Starting GDB script
[INFO -- 2018-11-27 16:18:08]
initSignal:0.0
[INFO -- 2018-11-27 16:18:08]
endSignal:3.0
[INFO -- 2018-11-27 16:18:10]
sending 5 signals using command: 'killall -2 lreg' after 2.5251339681s
[INFO -- 2018-11-27 16:18:11]
sending 5 signals using command: 'killall -2 lreg' after 2.56542485194s
[INFO -- 2018-11-27 16:18:11]
sending 5 signals using command: 'killall -2 lreg' after 2.81873428124s
[INFO -- 2018-11-27 16:18:12]
Execution finished before waitTime
