[INFO -- 2018-11-25 15:44:53]
Starting GDB script
[INFO -- 2018-11-25 15:44:53]
initSignal:0.0
[INFO -- 2018-11-25 15:44:53]
endSignal:6.0
[INFO -- 2018-11-25 15:44:54]
sending 5 signals using command: 'killall -2 lreg' after 0.809257191849s
[INFO -- 2018-11-25 15:44:56]
sending 5 signals using command: 'killall -2 lreg' after 2.65451278313s
[INFO -- 2018-11-25 15:44:57]
Execution finished before waitTime
