[INFO -- 2018-11-25 12:35:52]
Starting GDB script
[INFO -- 2018-11-25 12:35:52]
initSignal:0.0
[INFO -- 2018-11-25 12:35:52]
endSignal:6.0
[INFO -- 2018-11-25 12:35:55]
sending 5 signals using command: 'killall -2 lreg' after 3.16422968273s
[INFO -- 2018-11-25 12:35:56]
sending 5 signals using command: 'killall -2 lreg' after 3.85232480838s
[INFO -- 2018-11-25 12:35:56]
sending 5 signals using command: 'killall -2 lreg' after 4.4350546511s
[INFO -- 2018-11-25 12:36:00]
Execution finished before waitTime
