[INFO -- 2018-11-29 13:22:38]
Starting GDB script
[INFO -- 2018-11-29 13:22:38]
initSignal:0.0
[INFO -- 2018-11-29 13:22:38]
endSignal:6.0
[INFO -- 2018-11-29 13:22:38]
sending 5 signals using command: 'killall -2 lreg' after 0.204034492614s
[INFO -- 2018-11-29 13:22:40]
sending 5 signals using command: 'killall -2 lreg' after 1.8724495594s
[INFO -- 2018-11-29 13:22:42]
sending 5 signals using command: 'killall -2 lreg' after 3.58017285913s
[INFO -- 2018-11-29 13:22:42]
Execution finished before waitTime
