[INFO -- 2018-11-29 13:34:30]
sending 5 signals using command: 'killall -2 lreg' after 5.49810678771s
[INFO -- 2018-11-29 13:34:30]
Starting GDB script
[INFO -- 2018-11-29 13:34:30]
initSignal:0.0
[INFO -- 2018-11-29 13:34:30]
endSignal:6.0
[INFO -- 2018-11-29 13:34:31]
sending 5 signals using command: 'killall -2 lreg' after 0.599186742857s
[INFO -- 2018-11-29 13:34:32]
sending 5 signals using command: 'killall -2 lreg' after 1.65548601762s
[INFO -- 2018-11-29 13:34:34]
Execution finished before waitTime
