[INFO -- 2018-11-24 16:06:01]
Starting GDB script
[INFO -- 2018-11-24 16:06:01]
initSignal:0.0
[INFO -- 2018-11-24 16:06:01]
endSignal:6.0
[INFO -- 2018-11-24 16:06:03]
sending 5 signals using command: 'killall -2 lreg' after 2.55424979633s
[INFO -- 2018-11-24 16:06:04]
sending 5 signals using command: 'killall -2 lreg' after 2.11623362223s
[INFO -- 2018-11-24 16:06:04]
sending 5 signals using command: 'killall -2 lreg' after 3.18292964379s
[INFO -- 2018-11-24 16:06:05]
Execution finished before waitTime
