[INFO -- 2018-11-27 17:27:30]
Starting GDB script
[INFO -- 2018-11-27 17:27:30]
initSignal:0.0
[INFO -- 2018-11-27 17:27:30]
endSignal:3.0
[INFO -- 2018-11-27 17:27:30]
sending 5 signals using command: 'killall -2 lreg' after 0.27009604759s
[INFO -- 2018-11-27 17:27:30]
sending 5 signals using command: 'killall -2 lreg' after 0.304278121911s
[INFO -- 2018-11-27 17:27:31]
sending 5 signals using command: 'killall -2 lreg' after 1.11869563247s
[INFO -- 2018-11-27 17:27:36]
Execution finished before waitTime
