[INFO -- 2018-11-24 17:38:46]
Starting flip_value script
version: 1.1
[INFO -- 2018-11-24 17:38:46]
Initialization strings:
[INFO -- 2018-11-24 17:38:46]
(1) file /tmp/lreg/lreg
[INFO -- 2018-11-24 17:38:46]
(2) set args /tmp/lreg/randInput /tmp/lreg/output /tmp/lreg/detected.log
[INFO -- 2018-11-24 17:38:46]
initSignal:0
[INFO -- 2018-11-24 17:38:46]
endSignal:6
[INFO -- 2018-11-24 17:38:46]
faultModel:2
[INFO -- 2018-11-24 17:38:49]
Backtrace BEGIN:
#0  std::vector<double, std::allocator<double> >::size (this=0x0) at /usr/include/c++/7/bits/stl_vector.h:670
#1  0x00005555555551f9 in predict (v=-1) at lreg.cpp:49
#2  0x00005555555553fc in partialDerivate (pos=0) at lreg.cpp:74
#3  0x0000555555555503 in adjust (alpha=2.2222199999999999e-05) at lreg.cpp:87
#4  0x00005555555556ac in train (iterations=30000, alpha=2.2222199999999999e-05, N=4, stopsWhenStable=true) at lreg.cpp:120
#5  0x0000555555555a1c in execute (input=0x7fffffffe1f2 "/tmp/lreg/randInput") at lreg.cpp:157
#6  0x0000555555555cb0 in main (argc=4, argv=0x7fffffffde48) at lreg.cpp:196

665	#endif
666	
667	      // [23.2.4.2] capacity
668	      /**  Returns the number of elements in the %vector.  */
669	      size_type
670	      size() const _GLIBCXX_NOEXCEPT
671	      { return size_type(this->_M_impl._M_finish - this->_M_impl._M_start); }
672	
673	      /**  Returns the size() of the largest possible %vector.  */
674	      size_type

Backtrace END
Memory content before bitflip:0x000x000x000x000x000x000x000x00
Fault Model: Random bit-flip
base address to flip value: 0x7fffffffd488
address max offset: 8
Memory content after  bitflip:0x370x5b0x2f0x070xe70x260x5c0xc0
frame name: predict
symbol name: val
symbol filename: lreg.cpp
symbol line: 48
value: -112.6078508341278
value address: 0x7fffffffd488
Type: A floating point type.
Type sizeof: 8

[INFO -- 2018-11-24 17:38:49]
Fault Injection Successful after 3.251232862472534s
[INFO -- 2018-11-24 17:38:50]
event type: exit
[INFO -- 2018-11-24 17:38:50]
exit code: 0
