[INFO -- 2018-11-25 12:26:59]
Starting flip_value script
version: 1.1
[INFO -- 2018-11-25 12:26:59]
Initialization strings:
[INFO -- 2018-11-25 12:26:59]
(1) file /tmp/lreg/lreg
[INFO -- 2018-11-25 12:26:59]
(2) set args /tmp/lreg/randInput /tmp/lreg/output /tmp/lreg/detected.log
[INFO -- 2018-11-25 12:26:59]
initSignal:0
[INFO -- 2018-11-25 12:26:59]
endSignal:6
[INFO -- 2018-11-25 12:26:59]
faultModel:0
[INFO -- 2018-11-25 12:26:59]
Backtrace BEGIN:
#0  0x000055555555532c in meanSquaredError () at lreg.cpp:61
#1  0x00005555555556b1 in train (iterations=20000, alpha=5.0000000000000002e-05, N=3, stopsWhenStable=true) at lreg.cpp:121
#2  0x0000555555555a1c in execute (input=0x7fffffffe1f1 "/tmp/lreg/randInput") at lreg.cpp:157
#3  0x0000555555555c78 in main (argc=4, argv=0x7fffffffde48) at lreg.cpp:193

56		Calculates the mean squared error of T
57	*/
58	double meanSquaredError(){
59		double error = 0;
60		for(int i = 0; i<x.size(); i++){
61			error+= ((predict(x[i]) - y[i]) * (predict(x[i]) - y[i]));	
62		}
63		error /= x.size();
64		return error;
65	

Backtrace END
Memory content before bitflip:0x060x000x000x00
Fault Model: Single bit-flip
base address to flip value: 0x7fffffffd674
address max offset: 4
Memory content after  bitflip:0x060x000x000x04
frame name: execute
symbol name: predictions
symbol filename: lreg.cpp
symbol line: 144
value: 67108870
value address: 0x7fffffffd674
Type: The type is an integer type.
Type sizeof: 4

[INFO -- 2018-11-25 12:26:59]
Fault Injection Successful after 0.5680243968963623s
