[INFO -- 2018-11-25 11:55:43]
sending 5 signals using command: 'killall -2 lreg' after 4.46405857304s
[INFO -- 2018-11-25 11:55:43]
Starting GDB script
[INFO -- 2018-11-25 11:55:43]
initSignal:0.0
[INFO -- 2018-11-25 11:55:43]
endSignal:6.0
[INFO -- 2018-11-25 11:55:44]
sending 5 signals using command: 'killall -2 lreg' after 0.593785449817s
[INFO -- 2018-11-25 11:55:45]
Execution finished before waitTime
