[INFO -- 2018-11-25 11:17:04]
sending 5 signals using command: 'killall -2 lreg' after 2.77727779926s
[INFO -- 2018-11-25 11:17:04]
Starting GDB script
[INFO -- 2018-11-25 11:17:04]
initSignal:0.0
[INFO -- 2018-11-25 11:17:04]
endSignal:6.0
[INFO -- 2018-11-25 11:17:06]
sending 5 signals using command: 'killall -2 lreg' after 1.10545751759s
[INFO -- 2018-11-25 11:17:06]
sending 5 signals using command: 'killall -2 lreg' after 2.21254504147s
[INFO -- 2018-11-25 11:17:07]
Execution finished before waitTime
