[INFO -- 2018-11-23 16:48:58]
Starting GDB script
[INFO -- 2018-11-23 16:48:58]
initSignal:0.0
[INFO -- 2018-11-23 16:48:58]
endSignal:3.0
[INFO -- 2018-11-23 16:48:59]
sending 5 signals using command: 'killall -2 lreg' after 0.656364153969s
[INFO -- 2018-11-23 16:49:00]
sending 5 signals using command: 'killall -2 lreg' after 1.14396808319s
[INFO -- 2018-11-23 16:49:00]
sending 5 signals using command: 'killall -2 lreg' after 1.73290312446s
[INFO -- 2018-11-23 16:49:04]
Execution finished before waitTime
