[INFO -- 2018-11-26 17:31:17]
Starting GDB script
[INFO -- 2018-11-26 17:31:17]
initSignal:0.0
[INFO -- 2018-11-26 17:31:17]
endSignal:3.0
[INFO -- 2018-11-26 17:31:17]
sending 5 signals using command: 'killall -2 lreg' after 0.0964082478117s
[INFO -- 2018-11-26 17:31:17]
sending 5 signals using command: 'killall -2 lreg' after 0.154083827143s
[INFO -- 2018-11-26 17:31:19]
sending 5 signals using command: 'killall -2 lreg' after 2.58818619705s
[INFO -- 2018-11-26 17:31:21]
Execution finished before waitTime
