[INFO -- 2018-11-26 17:31:17]
Starting flip_value script
version: 1.1
[INFO -- 2018-11-26 17:31:17]
Initialization strings:
[INFO -- 2018-11-26 17:31:17]
(1) file /tmp/lreg/lreg
[INFO -- 2018-11-26 17:31:17]
(2) set args /tmp/lreg/randInput /tmp/lreg/output
[INFO -- 2018-11-26 17:31:17]
initSignal:0
[INFO -- 2018-11-26 17:31:17]
endSignal:3
[INFO -- 2018-11-26 17:31:17]
faultModel:2
[EXCEPTION -- 2018-11-26 17:31:17]
gdbException: Attempt to dereference a generic pointer.
[INFO -- 2018-11-26 17:31:19]
event type: exit
[INFO -- 2018-11-26 17:31:19]
exit code: 0
