[INFO -- 2018-11-25 19:08:49]
sending 5 signals using command: 'killall -2 lreg' after 5.380081556s
[INFO -- 2018-11-25 19:08:49]
Starting GDB script
[INFO -- 2018-11-25 19:08:49]
initSignal:0.0
[INFO -- 2018-11-25 19:08:49]
endSignal:6.0
[INFO -- 2018-11-25 19:08:50]
sending 5 signals using command: 'killall -2 lreg' after 0.239018438123s
[INFO -- 2018-11-25 19:08:50]
sending 5 signals using command: 'killall -2 lreg' after 0.376151843227s
[INFO -- 2018-11-25 19:08:53]
Execution finished before waitTime
