[INFO -- 2018-11-24 15:44:14]
sending 5 signals using command: 'killall -2 lreg' after 5.20811527973s
[INFO -- 2018-11-24 15:44:15]
sending 5 signals using command: 'killall -2 lreg' after 5.92104669613s
[INFO -- 2018-11-24 15:44:15]
Starting GDB script
[INFO -- 2018-11-24 15:44:15]
initSignal:0.0
[INFO -- 2018-11-24 15:44:15]
endSignal:6.0
[INFO -- 2018-11-24 15:44:17]
sending 5 signals using command: 'killall -2 lreg' after 1.54876137185s
[INFO -- 2018-11-24 15:44:17]
sending 5 signals using command: 'killall -2 lreg' after 1.20067420478s
[INFO -- 2018-11-24 15:44:19]
Execution finished before waitTime
