[INFO -- 2018-11-27 20:06:37]
Starting GDB script
[INFO -- 2018-11-27 20:06:37]
initSignal:0.0
[INFO -- 2018-11-27 20:06:37]
endSignal:3.0
[INFO -- 2018-11-27 20:06:37]
sending 5 signals using command: 'killall -2 lreg' after 0.0101114638048s
[INFO -- 2018-11-27 20:06:37]
sending 5 signals using command: 'killall -2 lreg' after 0.560580864313s
[INFO -- 2018-11-27 20:06:39]
sending 5 signals using command: 'killall -2 lreg' after 2.731224299s
[INFO -- 2018-11-27 20:06:41]
Execution finished before waitTime
