[INFO -- 2018-11-25 17:57:39]
sending 5 signals using command: 'killall -2 lreg' after 4.90595059641s
[INFO -- 2018-11-25 17:57:39]
sending 5 signals using command: 'killall -2 lreg' after 5.500814458s
[INFO -- 2018-11-25 17:57:40]
sending 5 signals using command: 'killall -2 lreg' after 5.76642832305s
[INFO -- 2018-11-25 17:57:40]
Starting GDB script
[INFO -- 2018-11-25 17:57:40]
initSignal:0.0
[INFO -- 2018-11-25 17:57:40]
endSignal:6.0
[INFO -- 2018-11-25 17:57:40]
sending 5 signals using command: 'killall -2 lreg' after 0.43772370975s
[INFO -- 2018-11-25 17:57:43]
sending 5 signals using command: 'killall -2 lreg' after 2.88147776585s
[INFO -- 2018-11-25 17:57:43]
sending 5 signals using command: 'killall -2 lreg' after 2.81931241371s
[INFO -- 2018-11-25 17:57:44]
Execution finished before waitTime
