[INFO -- 2018-11-22 17:56:12]
Starting GDB script
[INFO -- 2018-11-22 17:56:12]
initSignal:0.0
[INFO -- 2018-11-22 17:56:12]
endSignal:3.0
[INFO -- 2018-11-22 17:56:13]
sending 5 signals using command: 'killall -2 lreg' after 0.824583618876s
[INFO -- 2018-11-22 17:56:14]
sending 5 signals using command: 'killall -2 lreg' after 1.55696941096s
[INFO -- 2018-11-22 17:56:15]
sending 5 signals using command: 'killall -2 lreg' after 2.18101438006s
[INFO -- 2018-11-22 17:56:18]
Execution finished before waitTime
