[INFO -- 2018-11-26 16:26:33]
Starting GDB script
[INFO -- 2018-11-26 16:26:33]
initSignal:0.0
[INFO -- 2018-11-26 16:26:33]
endSignal:3.0
[INFO -- 2018-11-26 16:26:33]
sending 5 signals using command: 'killall -2 lreg' after 0.00544879455566s
[INFO -- 2018-11-26 16:26:34]
sending 5 signals using command: 'killall -2 lreg' after 1.61185752721s
[INFO -- 2018-11-26 16:26:35]
sending 5 signals using command: 'killall -2 lreg' after 2.69976892003s
[INFO -- 2018-11-26 16:26:35]
Execution finished before waitTime
