[INFO -- 2018-11-23 16:25:50]
sending 5 signals using command: 'killall -2 lreg' after 2.8094042079s
[INFO -- 2018-11-23 16:25:50]
Starting GDB script
[INFO -- 2018-11-23 16:25:50]
initSignal:0.0
[INFO -- 2018-11-23 16:25:50]
endSignal:3.0
[INFO -- 2018-11-23 16:25:51]
sending 5 signals using command: 'killall -2 lreg' after 0.847194663457s
[INFO -- 2018-11-23 16:25:52]
sending 5 signals using command: 'killall -2 lreg' after 1.63139542572s
[INFO -- 2018-11-23 16:25:53]
sending 5 signals using command: 'killall -2 lreg' after 2.55318873463s
[INFO -- 2018-11-23 16:25:53]
Execution finished before waitTime
