[INFO -- 2018-11-26 20:47:24]
Starting flip_value script
version: 1.1
[INFO -- 2018-11-26 20:47:24]
Initialization strings:
[INFO -- 2018-11-26 20:47:24]
(1) file /tmp/lreg/lreg
[INFO -- 2018-11-26 20:47:24]
(2) set args /tmp/lreg/randInput /tmp/lreg/output
[INFO -- 2018-11-26 20:47:24]
initSignal:0
[INFO -- 2018-11-26 20:47:24]
endSignal:3
[INFO -- 2018-11-26 20:47:24]
faultModel:1
[INFO -- 2018-11-26 20:47:26]
Backtrace BEGIN:
#0  0x00005555555567f4 in std::pow<double, unsigned int> (__x=5, __y=1) at /usr/include/c++/7/cmath:418
#1  0x0000555555555814 in predict (v=5) at lreg.cpp:116
#2  0x0000555555555a53 in partialDerivate (pos1=1, pos2=1) at lreg.cpp:142
#3  0x0000555555555bbe in adjust (alpha1=2.2222199999999999e-05, alpha2=2.2222199999999999e-05) at lreg.cpp:156
#4  0x0000555555555ee0 in train (iter1=30000, iter2=30000, N=4, alpha1=2.2222199999999999e-05, alpha2=2.2222199999999999e-05, stopsWhenStable=true) at lreg.cpp:193
#5  0x0000555555556467 in main (argc=3, argv=0x7fffffffde58) at lreg.cpp:253

413	    inline _GLIBCXX_CONSTEXPR
414	    typename __gnu_cxx::__promote_2<_Tp, _Up>::__type
415	    pow(_Tp __x, _Up __y)
416	    {
417	      typedef typename __gnu_cxx::__promote_2<_Tp, _Up>::__type __type;
418	      return pow(__type(__x), __type(__y));
419	    }
420	
421	  using ::sin;
422	

Backtrace END
Memory content before bitflip:0x010x000x000x00
Fault Model: Double bit-flip
base address to flip value: 0x7fffffffd6d4
address max offset: 4
Memory content after  bitflip:0x010x900x000x00
frame name: predict
symbol name: i2
symbol filename: lreg.cpp
symbol line: 115
value: 36865
value address: 0x7fffffffd6d4
Type: The type is an integer type.
Type sizeof: 4

[INFO -- 2018-11-26 20:47:26]
Fault Injection Successful after 2.0687546730041504s
[INFO -- 2018-11-26 20:47:27]
event type: exit
[INFO -- 2018-11-26 20:47:27]
exit code: 0
