[INFO -- 2018-11-23 16:19:45]
Starting GDB script
[INFO -- 2018-11-23 16:19:45]
initSignal:0.0
[INFO -- 2018-11-23 16:19:45]
endSignal:3.0
[INFO -- 2018-11-23 16:19:46]
sending 5 signals using command: 'killall -2 lreg' after 1.03667573444s
[INFO -- 2018-11-23 16:19:46]
sending 5 signals using command: 'killall -2 lreg' after 1.78152915305s
[INFO -- 2018-11-23 16:19:46]
sending 5 signals using command: 'killall -2 lreg' after 1.8658971568s
[INFO -- 2018-11-23 16:19:47]
Execution finished before waitTime
