[INFO -- 2018-11-23 19:10:57]
Starting flip_value script
version: 1.1
[INFO -- 2018-11-23 19:10:57]
Initialization strings:
[INFO -- 2018-11-23 19:10:57]
(1) file /tmp/lreg/lreg
[INFO -- 2018-11-23 19:10:57]
(2) set args /tmp/lreg/randInput /tmp/lreg/output
[INFO -- 2018-11-23 19:10:57]
initSignal:0
[INFO -- 2018-11-23 19:10:57]
endSignal:3
[INFO -- 2018-11-23 19:10:57]
faultModel:1
[INFO -- 2018-11-23 19:10:59]
event type: exit
[INFO -- 2018-11-23 19:10:59]
exit code: 0
