[INFO -- 2018-11-24 14:56:10]
Starting GDB script
[INFO -- 2018-11-24 14:56:10]
initSignal:0.0
[INFO -- 2018-11-24 14:56:10]
endSignal:6.0
[INFO -- 2018-11-24 14:56:10]
sending 5 signals using command: 'killall -2 lreg' after 0.691242384302s
[INFO -- 2018-11-24 14:56:12]
sending 5 signals using command: 'killall -2 lreg' after 1.9201433584s
[INFO -- 2018-11-24 14:56:13]
sending 5 signals using command: 'killall -2 lreg' after 2.753873435s
[INFO -- 2018-11-24 14:56:15]
Execution finished before waitTime
