[INFO -- 2018-11-27 21:39:35]
Starting flip_value script
version: 1.1
[INFO -- 2018-11-27 21:39:35]
Initialization strings:
[INFO -- 2018-11-27 21:39:35]
(1) file /tmp/lreg/lreg
[INFO -- 2018-11-27 21:39:35]
(2) set args /tmp/lreg/randInput /tmp/lreg/output
[INFO -- 2018-11-27 21:39:35]
initSignal:0
[INFO -- 2018-11-27 21:39:35]
endSignal:3
[INFO -- 2018-11-27 21:39:35]
faultModel:0
[INFO -- 2018-11-27 21:39:37]
Backtrace BEGIN:
#0  0x0000555555556821 in std::pow<double, unsigned int> (__x=-7, __y=2) at /usr/include/c++/7/cmath:418
#1  0x0000555555555814 in predict (v=-7) at lreg.cpp:116
#2  0x0000555555555a53 in partialDerivate (pos1=2, pos2=2) at lreg.cpp:142
#3  0x0000555555555bbe in adjust (alpha1=5.0000000000000002e-05, alpha2=5.0000000000000002e-05) at lreg.cpp:156
#4  0x0000555555555ee0 in train (iter1=20000, iter2=20000, N=3, alpha1=5.0000000000000002e-05, alpha2=5.0000000000000002e-05, stopsWhenStable=true) at lreg.cpp:193
#5  0x0000555555556467 in main (argc=3, argv=0x7fffffffde58) at lreg.cpp:253

413	    inline _GLIBCXX_CONSTEXPR
414	    typename __gnu_cxx::__promote_2<_Tp, _Up>::__type
415	    pow(_Tp __x, _Up __y)
416	    {
417	      typedef typename __gnu_cxx::__promote_2<_Tp, _Up>::__type __type;
418	      return pow(__type(__x), __type(__y));
419	    }
420	
421	  using ::sin;
422	

Backtrace END
Memory content before bitflip:0x000x000x000x00
Fault Model: Single bit-flip
base address to flip value: 0x55555575b1b8 
address max offset: 4
Memory content after  bitflip:0x000x040x000x00
frame name: predict
symbol name: detected
symbol filename: lreg.cpp
symbol line: 58
value: 1024
value address: 0x55555575b1b8 <detected>
Type: The type is an integer type.
Type sizeof: 4

[INFO -- 2018-11-27 21:39:37]
Fault Injection Successful after 2.3598620891571045s
[INFO -- 2018-11-27 21:39:40]
event type: exit
[INFO -- 2018-11-27 21:39:40]
exit code: 0
