[INFO -- 2018-11-23 19:06:04]
Starting GDB script
[INFO -- 2018-11-23 19:06:04]
initSignal:0.0
[INFO -- 2018-11-23 19:06:04]
endSignal:3.0
[INFO -- 2018-11-23 19:06:06]
sending 5 signals using command: 'killall -2 lreg' after 1.13240187752s
[INFO -- 2018-11-23 19:06:07]
sending 5 signals using command: 'killall -2 lreg' after 2.41574687787s
[INFO -- 2018-11-23 19:06:07]
sending 5 signals using command: 'killall -2 lreg' after 2.63537013403s
[INFO -- 2018-11-23 19:06:10]
Execution finished before waitTime
