[INFO -- 2018-11-25 14:02:41]
sending 5 signals using command: 'killall -2 lreg' after 4.67907758297s
[INFO -- 2018-11-25 14:02:41]
Starting GDB script
[INFO -- 2018-11-25 14:02:41]
initSignal:0.0
[INFO -- 2018-11-25 14:02:41]
endSignal:6.0
[INFO -- 2018-11-25 14:02:43]
sending 5 signals using command: 'killall -2 lreg' after 1.81156400715s
[INFO -- 2018-11-25 14:02:45]
sending 5 signals using command: 'killall -2 lreg' after 3.69907715939s
[INFO -- 2018-11-25 14:02:45]
Execution finished before waitTime
