[INFO -- 2018-11-24 10:01:39]
Starting flip_value script
version: 1.1
[INFO -- 2018-11-24 10:01:39]
Initialization strings:
[INFO -- 2018-11-24 10:01:39]
(1) file /tmp/lreg/lreg
[INFO -- 2018-11-24 10:01:39]
(2) set args /tmp/lreg/randInput /tmp/lreg/output
[INFO -- 2018-11-24 10:01:39]
initSignal:0
[INFO -- 2018-11-24 10:01:39]
endSignal:2
[INFO -- 2018-11-24 10:01:39]
faultModel:2
[INFO -- 2018-11-24 10:01:41]
event type: exit
[INFO -- 2018-11-24 10:01:41]
exit code: 0
