[INFO -- 2018-11-26 15:35:26]
Starting flip_value script
version: 1.1
[INFO -- 2018-11-26 15:35:26]
Initialization strings:
[INFO -- 2018-11-26 15:35:26]
(1) file /tmp/lreg/lreg
[INFO -- 2018-11-26 15:35:26]
(2) set args /tmp/lreg/randInput /tmp/lreg/output
[INFO -- 2018-11-26 15:35:26]
initSignal:0
[INFO -- 2018-11-26 15:35:26]
endSignal:3
[INFO -- 2018-11-26 15:35:26]
faultModel:2
[EXCEPTION -- 2018-11-26 15:35:27]
gdbException: Cannot access memory at address 0x58b57420ff9cc4d7
[INFO -- 2018-11-26 15:35:27]
Backtrace BEGIN:
#0  0x000055555555511b in verifyUintDup (a=1, b=1) at lreg.cpp:61
#1  0x000055555555579a in predict (v=12) at lreg.cpp:116
#2  0x0000555555555928 in meanSquaredError () at lreg.cpp:128
#3  0x0000555555555ee5 in train (iter1=10000, iter2=10000, N=2, alpha1=0.00020000000000000001, alpha2=0.00020000000000000001, stopsWhenStable=true) at lreg.cpp:194
#4  0x0000555555556467 in main (argc=3, argv=0x7fffffffde58) at lreg.cpp:253

56	*/
57	
58	int detected = 0;
59	
60	
61	UINT verifyUintDup(UINT a, UINT b){
62		if (a != b && detected != 1){
63			//gerar entrada no log
64			ofstream fp ("/tmp/lreg/detected.log", std::ofstream::app);
65			fp << "verifyUint: a = "<<a<<"; b = "<<b<<endl;

Backtrace END
Memory content before bitflip:0x030x000x000x00
Fault Model: Random bit-flip
base address to flip value: 0x7fffffffd8cc
address max offset: 4
Memory content after  bitflip:0x0b0x1f0x9f0x0d
frame name: main
symbol name: argc
symbol filename: lreg.cpp
symbol line: 217
value: 228531979
value address: 0x7fffffffd8cc
Type: The type is an integer type.
Type sizeof: 4

[INFO -- 2018-11-26 15:35:27]
Fault Injection Successful after 1.521333932876587s
[INFO -- 2018-11-26 15:35:27]
event type: exit
[EXCEPTION -- 2018-11-26 15:35:27]
exit code: no exit code available
