[INFO -- 2018-11-22 17:55:02]
Starting GDB script
[INFO -- 2018-11-22 17:55:02]
initSignal:0.0
[INFO -- 2018-11-22 17:55:02]
endSignal:3.0
[INFO -- 2018-11-22 17:55:02]
sending 5 signals using command: 'killall -2 lreg' after 0.0745668056508s
[INFO -- 2018-11-22 17:55:04]
sending 5 signals using command: 'killall -2 lreg' after 0.910519364516s
[INFO -- 2018-11-22 17:55:05]
sending 5 signals using command: 'killall -2 lreg' after 2.76311899436s
[INFO -- 2018-11-22 17:55:08]
Execution finished before waitTime
