[INFO -- 2018-11-25 19:39:19]
sending 5 signals using command: 'killall -2 lreg' after 3.55721324177s
[INFO -- 2018-11-25 19:39:20]
sending 5 signals using command: 'killall -2 lreg' after 4.04633908032s
[INFO -- 2018-11-25 19:39:20]
Starting GDB script
[INFO -- 2018-11-25 19:39:20]
initSignal:0.0
[INFO -- 2018-11-25 19:39:20]
endSignal:6.0
[INFO -- 2018-11-25 19:39:20]
sending 5 signals using command: 'killall -2 lreg' after 0.458322990067s
[INFO -- 2018-11-25 19:39:22]
sending 5 signals using command: 'killall -2 lreg' after 2.22162485341s
[INFO -- 2018-11-25 19:39:24]
Execution finished before waitTime
