[INFO -- 2018-11-26 16:16:29]
Starting flip_value script
version: 1.1
[INFO -- 2018-11-26 16:16:29]
Initialization strings:
[INFO -- 2018-11-26 16:16:29]
(1) file /tmp/lreg/lreg
[INFO -- 2018-11-26 16:16:29]
(2) set args /tmp/lreg/randInput /tmp/lreg/output
[INFO -- 2018-11-26 16:16:29]
initSignal:0
[INFO -- 2018-11-26 16:16:29]
endSignal:3
[INFO -- 2018-11-26 16:16:29]
faultModel:0
[INFO -- 2018-11-26 16:16:29]
Backtrace BEGIN:
#0  0x00007ffff76bcb0a in __pow (x=-3, y=2) at w_pow_compat.c:30
#1  0x0000555555556826 in std::pow<double, unsigned int> (__x=-3, __y=2) at /usr/include/c++/7/cmath:418
#2  0x0000555555555ace in partialDerivate (pos1=2, pos2=2) at lreg.cpp:142
#3  0x0000555555555bbe in adjust (alpha1=5.0000000000000002e-05, alpha2=5.0000000000000002e-05) at lreg.cpp:156
#4  0x0000555555555ee0 in train (iter1=20000, iter2=20000, N=3, alpha1=5.0000000000000002e-05, alpha2=5.0000000000000002e-05, stopsWhenStable=true) at lreg.cpp:193
#5  0x0000555555556467 in main (argc=3, argv=0x7fffffffde58) at lreg.cpp:253

25	w_pow_compat.c: No such file or directory.

Backtrace END
Memory content before bitflip:0x030x000x000x00
Fault Model: Single bit-flip
base address to flip value: 0x7fffffffd8d8
address max offset: 4
Memory content after  bitflip:0x030x800x000x00
frame name: main
symbol name: testCases
symbol filename: lreg.cpp
symbol line: 229
value: 32771
value address: 0x7fffffffd8d8
Type: The type is an integer type.
Type sizeof: 4

[INFO -- 2018-11-26 16:16:29]
Fault Injection Successful after 0.8250174522399902s
