[INFO -- 2018-11-27 16:25:56]
Starting flip_value script
version: 1.1
[INFO -- 2018-11-27 16:25:56]
Initialization strings:
[INFO -- 2018-11-27 16:25:56]
(1) file /tmp/lreg/lreg
[INFO -- 2018-11-27 16:25:56]
(2) set args /tmp/lreg/randInput /tmp/lreg/output
[INFO -- 2018-11-27 16:25:56]
initSignal:0
[INFO -- 2018-11-27 16:25:56]
endSignal:3
[INFO -- 2018-11-27 16:25:56]
faultModel:0
[EXCEPTION -- 2018-11-27 16:25:57]
pythonException: empty range for randrange() (0,0, 0)
[INFO -- 2018-11-27 16:25:57]
Backtrace BEGIN:
#0  __exp1 (x=<optimized out>, xx=<optimized out>, error=<optimized out>) at ../sysdeps/ieee754/dbl-64/e_exp.c:280
#1  0x00007ffff76da8dc in __ieee754_pow_sse2 (x=18, y=3) at ../sysdeps/ieee754/dbl-64/e_pow.c:115
#2  0x00007ffff76db6be in __ieee754_pow_sse2 (x=<optimized out>, y=<optimized out>) at ../sysdeps/ieee754/dbl-64/e_pow.c:184
#3  0x00007ffff76bcb14 in __pow (x=-18, y=3) at w_pow_compat.c:30
#4  0x0000555555556826 in std::pow<double, unsigned int> (__x=-18, __y=3) at /usr/include/c++/7/cmath:418
#5  0x0000555555555814 in predict (v=-18) at lreg.cpp:116
#6  0x0000555555555928 in meanSquaredError () at lreg.cpp:128
#7  0x0000555555555ee5 in train (iter1=30000, iter2=30000, N=4, alpha1=2.2222199999999999e-05, alpha2=2.2222199999999999e-05, stopsWhenStable=true) at lreg.cpp:194
#8  0x0000555555556467 in main (argc=3, argv=0x7fffffffde58) at lreg.cpp:253

275	in ../sysdeps/ieee754/dbl-64/e_exp.c

Backtrace END
Memory content before bitflip:0x000x000x000x000x000x000x320xc0
Fault Model: Single bit-flip
base address to flip value: 0x7fffffffd708
address max offset: 8
Memory content after  bitflip:0x000x000x000x000x000x000x3a0xc0
frame name: std::pow<double, unsigned int>
symbol name: __x
symbol filename: /usr/include/c++/7/cmath
symbol line: 415
value: -26
value address: 0x7fffffffd708
Type: A floating point type.
Type sizeof: 8

[INFO -- 2018-11-27 16:25:57]
Fault Injection Successful after 1.8720316886901855s
[INFO -- 2018-11-27 16:25:59]
event type: exit
[EXCEPTION -- 2018-11-27 16:25:59]
exit code: no exit code available
