[INFO -- 2018-11-23 21:13:50]
sending 5 signals using command: 'killall -2 lreg' after 2.49501816528s
[INFO -- 2018-11-23 21:13:50]
Starting GDB script
[INFO -- 2018-11-23 21:13:50]
initSignal:0.0
[INFO -- 2018-11-23 21:13:50]
endSignal:3.0
[INFO -- 2018-11-23 21:13:51]
sending 5 signals using command: 'killall -2 lreg' after 0.284040302889s
[INFO -- 2018-11-23 21:13:52]
sending 5 signals using command: 'killall -2 lreg' after 1.65150159811s
[INFO -- 2018-11-23 21:13:53]
Execution finished before waitTime
