[INFO -- 2018-11-27 20:37:52]
Starting flip_value script
version: 1.1
[INFO -- 2018-11-27 20:37:52]
Initialization strings:
[INFO -- 2018-11-27 20:37:52]
(1) file /tmp/lreg/lreg
[INFO -- 2018-11-27 20:37:52]
(2) set args /tmp/lreg/randInput /tmp/lreg/output
[INFO -- 2018-11-27 20:37:52]
initSignal:0
[INFO -- 2018-11-27 20:37:52]
endSignal:3
[INFO -- 2018-11-27 20:37:52]
faultModel:0
[INFO -- 2018-11-27 20:37:53]
Backtrace BEGIN:
#0  0x00005555555557b4 in predict (v=-2) at lreg.cpp:116
#1  0x0000555555555a53 in partialDerivate (pos1=2, pos2=2) at lreg.cpp:142
#2  0x0000555555555bbe in adjust (alpha1=5.0000000000000002e-05, alpha2=5.0000000000000002e-05) at lreg.cpp:156
#3  0x0000555555555ee0 in train (iter1=20000, iter2=20000, N=3, alpha1=5.0000000000000002e-05, alpha2=5.0000000000000002e-05, stopsWhenStable=true) at lreg.cpp:193
#4  0x0000555555556467 in main (argc=3, argv=0x7fffffffde58) at lreg.cpp:253

111	*/
112	double predict(double v){
113		double val = 0;
114		
115		for(UINT i1 = 0, i2 = 0; verifyUintDup(i1, i2)<T1.size(); i1++, i2++){
116			val+= (verifyDoubleDup(T1[verifyUintDup(i1, i2)], T2[verifyUintDup(i1, i2)]) * pow(v, verifyUintDup(i1, i2)));
117		}
118		return val;
119		
120	}

Backtrace END
Fliping value of field: std::_Vector_base<double, std::allocator<double> >
Fliping value of field: _M_impl
Fliping value of field: _M_start
Fliping a bit of the value pointed by a pointer
Memory content before bitflip:0x000x000x000x000x000x000x100xc0
Fault Model: Single bit-flip
base address to flip value: 0x555555772400
address max offset: 8
Memory content after  bitflip:0x800x000x000x000x000x000x100xc0
frame name: partialDerivate
symbol name: x
symbol filename: lreg.cpp
symbol line: 34
value: std::vector of length 13, capacity 16 = {-4.0000000000001137, -3, -7, -2, -1, -1, -21, -3, -19, 13, 6, 23, -19}
value address: 0x55555575b140 <x>
Type: The type is a structure.
Type sizeof: 24
Field name: std::_Vector_base<double, std::allocator<double> >
Field Type: The type is a structure.
Field Type sizeof: 24

[INFO -- 2018-11-27 20:37:53]
Fault Injection Successful after 1.1732101440429688s
[INFO -- 2018-11-27 20:37:54]
event type: exit
[INFO -- 2018-11-27 20:37:54]
exit code: 0
