[INFO -- 2018-11-24 17:49:19]
Starting flip_value script
version: 1.1
[INFO -- 2018-11-24 17:49:19]
Initialization strings:
[INFO -- 2018-11-24 17:49:19]
(1) file /tmp/lreg/lreg
[INFO -- 2018-11-24 17:49:19]
(2) set args /tmp/lreg/randInput /tmp/lreg/output /tmp/lreg/detected.log
[INFO -- 2018-11-24 17:49:19]
initSignal:0
[INFO -- 2018-11-24 17:49:19]
endSignal:6
[INFO -- 2018-11-24 17:49:19]
faultModel:1
[INFO -- 2018-11-24 17:49:21]
event type: exit
[INFO -- 2018-11-24 17:49:21]
exit code: 0
