[INFO -- 2018-11-25 11:34:50]
sending 5 signals using command: 'killall -2 lreg' after 5.38134273863s
[INFO -- 2018-11-25 11:34:50]
Starting GDB script
[INFO -- 2018-11-25 11:34:50]
initSignal:0.0
[INFO -- 2018-11-25 11:34:50]
endSignal:6.0
[INFO -- 2018-11-25 11:34:50]
sending 5 signals using command: 'killall -2 lreg' after 0.600724292866s
[INFO -- 2018-11-25 11:34:55]
sending 5 signals using command: 'killall -2 lreg' after 4.91106911589s
[INFO -- 2018-11-25 11:34:57]
sending 5 signals using command: 'killall -2 lreg' after 3.891063784s
[INFO -- 2018-11-25 11:34:58]
Execution finished before waitTime
