[INFO -- 2018-11-26 19:05:37]
Starting GDB script
[INFO -- 2018-11-26 19:05:37]
initSignal:0.0
[INFO -- 2018-11-26 19:05:37]
endSignal:3.0
[INFO -- 2018-11-26 19:05:37]
sending 5 signals using command: 'killall -2 lreg' after 0.0135769544879s
[INFO -- 2018-11-26 19:05:40]
sending 5 signals using command: 'killall -2 lreg' after 2.60837839902s
[INFO -- 2018-11-26 19:05:40]
sending 5 signals using command: 'killall -2 lreg' after 2.12049269843s
[INFO -- 2018-11-26 19:05:40]
Execution finished before waitTime
