[INFO -- 2018-11-26 19:05:37]
Starting flip_value script
version: 1.1
[INFO -- 2018-11-26 19:05:37]
Initialization strings:
[INFO -- 2018-11-26 19:05:37]
(1) file /tmp/lreg/lreg
[INFO -- 2018-11-26 19:05:37]
(2) set args /tmp/lreg/randInput /tmp/lreg/output
[INFO -- 2018-11-26 19:05:37]
initSignal:0
[INFO -- 2018-11-26 19:05:37]
endSignal:3
[INFO -- 2018-11-26 19:05:37]
faultModel:0
[INFO -- 2018-11-26 19:05:40]
event type: exit
[INFO -- 2018-11-26 19:05:40]
exit code: 0
