[INFO -- 2018-11-25 15:04:10]
Starting flip_value script
version: 1.1
[INFO -- 2018-11-25 15:04:10]
Initialization strings:
[INFO -- 2018-11-25 15:04:10]
(1) file /tmp/lreg/lreg
[INFO -- 2018-11-25 15:04:10]
(2) set args /tmp/lreg/randInput /tmp/lreg/output /tmp/lreg/detected.log
[INFO -- 2018-11-25 15:04:10]
initSignal:0
[INFO -- 2018-11-25 15:04:10]
endSignal:6
[INFO -- 2018-11-25 15:04:10]
faultModel:0
[EXCEPTION -- 2018-11-25 15:04:11]
pythonException: Unable to exit loop in struct fields; Exiting wihtout making a bit flip
[INFO -- 2018-11-25 15:04:11]
Backtrace BEGIN:
#0  0x00007ffff76da92e in __ieee754_pow_sse2 (x=29, y=<optimized out>) at ../sysdeps/ieee754/dbl-64/e_pow.c:119
#1  0x00007ffff76bcb14 in __pow (x=29, y=3) at w_pow_compat.c:30
#2  0x000055555555621b in std::pow<double, int> (__x=29, __y=3) at /usr/include/c++/7/cmath:418
#3  0x0000555555555237 in predict (v=29) at lreg.cpp:50
#4  0x00005555555553fc in partialDerivate (pos=1) at lreg.cpp:74
#5  0x0000555555555503 in adjust (alpha=2.2222199999999999e-05) at lreg.cpp:87
#6  0x00005555555556ac in train (iterations=30000, alpha=2.2222199999999999e-05, N=4, stopsWhenStable=true) at lreg.cpp:120
#7  0x0000555555555a1c in execute (input=0x7fffffffe1f1 "/tmp/lreg/randInput") at lreg.cpp:157
#8  0x0000555555555c78 in main (argc=4, argv=0x7fffffffde48) at lreg.cpp:193

114	in ../sysdeps/ieee754/dbl-64/e_pow.c

Backtrace END
Memory content before bitflip:0x030x000x000x00
Fault Model: Single bit-flip
base address to flip value: 0x7fffffffd664
address max offset: 4
Memory content after  bitflip:0x030x040x000x00
frame name: execute
symbol name: testCases
symbol filename: lreg.cpp
symbol line: 139
value: 1027
value address: 0x7fffffffd664
Type: The type is an integer type.
Type sizeof: 4

[INFO -- 2018-11-25 15:04:11]
Fault Injection Successful after 1.7889964580535889s
