[INFO -- 2018-11-25 14:28:18]
Starting flip_value script
version: 1.1
[INFO -- 2018-11-25 14:28:18]
Initialization strings:
[INFO -- 2018-11-25 14:28:18]
(1) file /tmp/lreg/lreg
[INFO -- 2018-11-25 14:28:18]
(2) set args /tmp/lreg/randInput /tmp/lreg/output /tmp/lreg/detected.log
[INFO -- 2018-11-25 14:28:18]
initSignal:0
[INFO -- 2018-11-25 14:28:18]
endSignal:6
[INFO -- 2018-11-25 14:28:18]
faultModel:0
[INFO -- 2018-11-25 14:28:19]
Backtrace BEGIN:
#0  0x00007ffff76d5951 in __exp1 (x=<optimized out>, xx=<optimized out>, error=<optimized out>) at ../sysdeps/ieee754/dbl-64/e_exp.c:274
#1  0x00007ffff76da8dc in __ieee754_pow_sse2 (x=17, y=3) at ../sysdeps/ieee754/dbl-64/e_pow.c:115
#2  0x00007ffff76db6be in __ieee754_pow_sse2 (x=<optimized out>, y=<optimized out>) at ../sysdeps/ieee754/dbl-64/e_pow.c:184
#3  0x00007ffff76bcb14 in __pow (x=-17, y=3) at w_pow_compat.c:30
#4  0x000055555555621b in std::pow<double, int> (__x=-17, __y=3) at /usr/include/c++/7/cmath:418
#5  0x0000555555555451 in partialDerivate (pos=3) at lreg.cpp:74
#6  0x0000555555555503 in adjust (alpha=2.2222199999999999e-05) at lreg.cpp:87
#7  0x00005555555556ac in train (iterations=30000, alpha=2.2222199999999999e-05, N=4, stopsWhenStable=true) at lreg.cpp:120
#8  0x0000555555555a1c in execute (input=0x7fffffffe1f1 "/tmp/lreg/randInput") at lreg.cpp:157
#9  0x0000555555555c78 in main (argc=4, argv=0x7fffffffde48) at lreg.cpp:193

269	../sysdeps/ieee754/dbl-64/e_exp.c: No such file or directory.

Backtrace END
Fliping value of field name: x
Memory content before bitflip:0x000x380xfa0xfe0x420x2e0xe60x3f
Fault Model: Single bit-flip
base address to flip value: 0x7ffff7791810 
address max offset: 8
Memory content after  bitflip:0x000x380xfa0xfe0x420x2e0xa60x3f
frame name: __exp1
symbol name: ln_two1
symbol filename: ../sysdeps/ieee754/dbl-64/uexp.h
symbol line: 57
value: {i = {-17156096, 1067855426}, x = 0.043321698784993146}
value address: 0x7ffff7791810 <ln_two1>
Type: The type is a union.
Type sizeof: 8
Field name: i
Field Type: The type is an array.
Field Type sizeof: 8
Field name: x
Field Type: A floating point type.
Field Type sizeof: 8

[INFO -- 2018-11-25 14:28:19]
Fault Injection Successful after 1.8581979274749756s
[INFO -- 2018-11-25 14:28:28]
event type: exit
[INFO -- 2018-11-25 14:28:28]
exit code: 0
