[INFO -- 2018-11-26 18:42:16]
Starting GDB script
[INFO -- 2018-11-26 18:42:16]
initSignal:0.0
[INFO -- 2018-11-26 18:42:16]
endSignal:3.0
[INFO -- 2018-11-26 18:42:17]
sending 5 signals using command: 'killall -2 lreg' after 0.865937304628s
[INFO -- 2018-11-26 18:42:17]
sending 5 signals using command: 'killall -2 lreg' after 1.41316807564s
[INFO -- 2018-11-26 18:42:17]
sending 5 signals using command: 'killall -2 lreg' after 1.20109967763s
[INFO -- 2018-11-26 18:42:20]
Execution finished before waitTime
