[INFO -- 2018-11-25 19:49:02]
Starting flip_value script
version: 1.1
[INFO -- 2018-11-25 19:49:02]
Initialization strings:
[INFO -- 2018-11-25 19:49:02]
(1) file /tmp/lreg/lreg
[INFO -- 2018-11-25 19:49:02]
(2) set args /tmp/lreg/randInput /tmp/lreg/output /tmp/lreg/detected.log
[INFO -- 2018-11-25 19:49:02]
initSignal:0
[INFO -- 2018-11-25 19:49:02]
endSignal:6
[INFO -- 2018-11-25 19:49:02]
faultModel:0
[INFO -- 2018-11-25 19:49:04]
Backtrace BEGIN:
#0  0x00007ffff76d5951 in __exp1 (x=<optimized out>, xx=<optimized out>, error=<optimized out>) at ../sysdeps/ieee754/dbl-64/e_exp.c:274
#1  0x00007ffff76da8dc in __ieee754_pow_sse2 (x=21, y=3) at ../sysdeps/ieee754/dbl-64/e_pow.c:115
#2  0x00007ffff76bcb14 in __pow (x=21, y=3) at w_pow_compat.c:30
#3  0x000055555555621b in std::pow<double, int> (__x=21, __y=3) at /usr/include/c++/7/cmath:418
#4  0x0000555555555451 in partialDerivate (pos=3) at lreg.cpp:74
#5  0x0000555555555503 in adjust (alpha=2.2222199999999999e-05) at lreg.cpp:87
#6  0x00005555555556ac in train (iterations=30000, alpha=2.2222199999999999e-05, N=4, stopsWhenStable=true) at lreg.cpp:120
#7  0x0000555555555a1c in execute (input=0x7fffffffe1f1 "/tmp/lreg/randInput") at lreg.cpp:157
#8  0x0000555555555cb0 in main (argc=4, argv=0x7fffffffde48) at lreg.cpp:196

269	../sysdeps/ieee754/dbl-64/e_exp.c: No such file or directory.

Backtrace END
Fliping value of field: std::_Vector_base<double, std::allocator<double> >
Fliping value of field: _M_impl
Fliping value of field: _M_end_of_storage
Fliping a bit of the value pointed by a pointer
Memory content before bitflip:0x000x000x000x000x000x000x000x00
Fault Model: Single bit-flip
base address to flip value: 0x555555772820
address max offset: 8
Memory content after  bitflip:0x000x000x200x000x000x000x000x00
frame name: main
symbol name: e1
symbol filename: lreg.cpp
symbol line: 193
value: std::vector of length 18, capacity 32 = {9.9997448205173409, 10.999751207252501, 12.999763980722822, -7.0003637539803849, -1078.8160145721722, -1078.8160145721722, -1722.5303976432911, -1319.1177772194476, -1582.6669839552355, -584.82432114594803, 97026.528835098041, -561.68664594912298, -9235.2779191372501, 69793.215647290359, -295.84796972341951, 42146.236069249338, 19328.177037179787, -20460.150394813842}
value address: 0x7fffffffd900
Type: The type is a structure.
Type sizeof: 24
Field name: std::_Vector_base<double, std::allocator<double> >
Field Type: The type is a structure.
Field Type sizeof: 24

[INFO -- 2018-11-25 19:49:04]
Fault Injection Successful after 2.116706371307373s
[INFO -- 2018-11-25 19:49:04]
event type: exit
[INFO -- 2018-11-25 19:49:04]
exit code: 0
