[INFO -- 2018-11-23 18:08:14]
Starting flip_value script
version: 1.1
[INFO -- 2018-11-23 18:08:14]
Initialization strings:
[INFO -- 2018-11-23 18:08:14]
(1) file /tmp/lreg/lreg
[INFO -- 2018-11-23 18:08:14]
(2) set args /tmp/lreg/randInput /tmp/lreg/output
[INFO -- 2018-11-23 18:08:14]
initSignal:0
[INFO -- 2018-11-23 18:08:14]
endSignal:3
[INFO -- 2018-11-23 18:08:14]
faultModel:0
[EXCEPTION -- 2018-11-23 18:08:15]
pythonException: empty range for randrange() (0,0, 0)
[EXCEPTION -- 2018-11-23 18:08:16]
gdbException: Cannot access memory at address 0x8000555555771540
[EXCEPTION -- 2018-11-23 18:08:16]
pythonException: Unable to exit loop in struct fields; Exiting wihtout making a bit flip
[INFO -- 2018-11-23 18:08:16]
event type: exit
[EXCEPTION -- 2018-11-23 18:08:16]
exit code: no exit code available
