[INFO -- 2018-11-25 10:49:42]
sending 5 signals using command: 'killall -2 lreg' after 4.84854067174s
[INFO -- 2018-11-25 10:49:42]
Starting GDB script
[INFO -- 2018-11-25 10:49:42]
initSignal:0.0
[INFO -- 2018-11-25 10:49:42]
endSignal:6.0
[INFO -- 2018-11-25 10:49:43]
sending 5 signals using command: 'killall -2 lreg' after 1.5067199795s
[INFO -- 2018-11-25 10:49:44]
sending 5 signals using command: 'killall -2 lreg' after 1.60070736796s
[INFO -- 2018-11-25 10:49:44]
sending 5 signals using command: 'killall -2 lreg' after 2.00956491055s
[INFO -- 2018-11-25 10:49:47]
Execution finished before waitTime
