[INFO -- 2018-11-25 20:08:58]
Starting GDB script
[INFO -- 2018-11-25 20:08:58]
initSignal:0.0
[INFO -- 2018-11-25 20:08:58]
endSignal:6.0
[INFO -- 2018-11-25 20:09:00]
sending 5 signals using command: 'killall -2 lreg' after 2.22423183874s
[INFO -- 2018-11-25 20:09:00]
sending 5 signals using command: 'killall -2 lreg' after 1.09935506738s
[INFO -- 2018-11-25 20:09:00]
sending 5 signals using command: 'killall -2 lreg' after 2.40794632033s
[INFO -- 2018-11-25 20:09:01]
Execution finished before waitTime
