[INFO -- 2018-11-24 18:40:23]
Starting flip_value script
version: 1.1
[INFO -- 2018-11-24 18:40:23]
Initialization strings:
[INFO -- 2018-11-24 18:40:23]
(1) file /tmp/lreg/lreg
[INFO -- 2018-11-24 18:40:23]
(2) set args /tmp/lreg/randInput /tmp/lreg/output /tmp/lreg/detected.log
[INFO -- 2018-11-24 18:40:23]
initSignal:0
[INFO -- 2018-11-24 18:40:23]
endSignal:6
[INFO -- 2018-11-24 18:40:23]
faultModel:1
[INFO -- 2018-11-24 18:40:24]
Backtrace BEGIN:
#0  __ieee754_pow_sse2 (x=-15, y=3) at ../sysdeps/ieee754/dbl-64/e_pow.c:65
#1  0x00007ffff76bcb14 in __pow (x=-15, y=3) at w_pow_compat.c:30
#2  0x0000555555556149 in std::pow<double, int> (__x=-15, __y=3) at /usr/include/c++/7/cmath:418
#3  0x0000555555555237 in predict (v=-15) at lreg.cpp:50
#4  0x00005555555553fc in partialDerivate (pos=1) at lreg.cpp:74
#5  0x0000555555555503 in adjust (alpha=2.2222199999999999e-05) at lreg.cpp:87
#6  0x00005555555556ac in train (iterations=30000, alpha=2.2222199999999999e-05, N=4, stopsWhenStable=true) at lreg.cpp:120
#7  0x0000555555555a1c in execute (input=0x7fffffffe1f2 "/tmp/lreg/randInput") at lreg.cpp:157
#8  0x0000555555555c78 in main (argc=4, argv=0x7fffffffde48) at lreg.cpp:193

60	../sysdeps/ieee754/dbl-64/e_pow.c: No such file or directory.

Backtrace END
Fliping value of field: std::_Vector_base<double, std::allocator<double> >
Fliping value of field: _M_impl
Fliping value of field: _M_end_of_storage
Fliping a bit of the pointer
Memory content before bitflip:0xb00x260x770x550x550x550x000x00
Fault Model: Double bit-flip
base address to flip value: 0x7fffffffd5c0
address max offset: 8
Memory content after  bitflip:0xb00x260x770x550x550x550x000x42
frame name: train
symbol name: bestT
symbol filename: lreg.cpp
symbol line: 115
value: std::vector of length 4, capacity 594475150812905476 = {0.24051356155342435, -1.1063608070891877, -1.9561846717786322, -4.0446601243266631}
value address: 0x7fffffffd5b0
Type: The type is a structure.
Type sizeof: 24
Field name: std::_Vector_base<double, std::allocator<double> >
Field Type: The type is a structure.
Field Type sizeof: 24

[INFO -- 2018-11-24 18:40:24]
Fault Injection Successful after 1.9994347095489502s
[INFO -- 2018-11-24 18:40:26]
event type: exit
[INFO -- 2018-11-24 18:40:26]
exit code: 0
