[INFO -- 2018-11-24 10:33:02]
Starting GDB script
[INFO -- 2018-11-24 10:33:02]
initSignal:0.0
[INFO -- 2018-11-24 10:33:02]
endSignal:2.0
[INFO -- 2018-11-24 10:33:03]
sending 5 signals using command: 'killall -2 lreg' after 0.3881009044s
[INFO -- 2018-11-24 10:33:03]
sending 5 signals using command: 'killall -2 lreg' after 1.07690512102s
[INFO -- 2018-11-24 10:33:04]
sending 5 signals using command: 'killall -2 lreg' after 1.36682677271s
[INFO -- 2018-11-24 10:33:07]
Execution finished before waitTime
