[INFO -- 2018-11-29 14:00:17]
Starting flip_value script
version: 1.1
[INFO -- 2018-11-29 14:00:17]
Initialization strings:
[INFO -- 2018-11-29 14:00:17]
(1) file /tmp/lreg/lreg
[INFO -- 2018-11-29 14:00:17]
(2) set args /tmp/lreg/randInput /tmp/lreg/output /tmp/lreg/detected.log
[INFO -- 2018-11-29 14:00:17]
initSignal:0
[INFO -- 2018-11-29 14:00:17]
endSignal:6
[INFO -- 2018-11-29 14:00:17]
faultModel:1
[INFO -- 2018-11-29 14:00:20]
Backtrace BEGIN:
#0  0x0000555555556ccf in std::vector<double, std::allocator<double> >::capacity (this=0x7fffffffd590) at /usr/include/c++/7/bits/stl_vector.h:752
#1  0x00005555555565cd in std::vector<double, std::allocator<double> >::operator= (this=0x7fffffffd590, __x=std::vector of length 3, capacity 3 = {...}) at /usr/include/c++/7/bits/vector.tcc:204
#2  0x0000555555555691 in train (iterations=20000, alpha=5.0000000000000002e-05, N=3, stopsWhenStable=true) at lreg.cpp:119
#3  0x0000555555555a1c in execute (input=0x7fffffffe1f1 "/tmp/lreg/randInput") at lreg.cpp:157
#4  0x0000555555555c78 in main (argc=4, argv=0x7fffffffde48) at lreg.cpp:193

747	       *  hold before needing to allocate more memory.
748	       */
749	      size_type
750	      capacity() const _GLIBCXX_NOEXCEPT
751	      { return size_type(this->_M_impl._M_end_of_storage
752				 - this->_M_impl._M_start); }
753	
754	      /**
755	       *  Returns true if the %vector is empty.  (Thus begin() would
756	       *  equal end().)

Backtrace END
Fliping a bit of the value pointed by a pointer
Fliping value of field: std::_Vector_base<double, std::allocator<double> >
Fliping value of field: _M_impl
Fliping value of field: _M_finish
Fliping a bit of the value pointed by a pointer
Memory content before bitflip:0x210x000x000x000x000x000x000x00
Fault Model: Double bit-flip
base address to flip value: 0x555555772358
address max offset: 8
Memory content after  bitflip:0x210x000x000x000x000x000x000x24
frame name: std::vector<double, std::allocator<double> >::operator=
symbol name: this
symbol filename: lreg.cpp
symbol line: 0
value: 0x7fffffffd590
value address: 0x7fffffffd508
Type: The type is a pointer.
Type sizeof: 8

[INFO -- 2018-11-29 14:00:20]
Fault Injection Successful after 3.040774345397949s
[INFO -- 2018-11-29 14:00:20]
event type: exit
[EXCEPTION -- 2018-11-29 14:00:20]
exit code: no exit code available
