[INFO -- 2018-11-22 16:02:31]
Starting GDB script
[INFO -- 2018-11-22 16:02:31]
initSignal:0.0
[INFO -- 2018-11-22 16:02:31]
endSignal:3.0
[INFO -- 2018-11-22 16:02:32]
sending 5 signals using command: 'killall -2 lreg' after 0.182030765361s
[INFO -- 2018-11-22 16:02:32]
sending 5 signals using command: 'killall -2 lreg' after 0.373759369498s
[INFO -- 2018-11-22 16:02:32]
sending 5 signals using command: 'killall -2 lreg' after 0.610314980862s
[INFO -- 2018-11-22 16:02:37]
Execution finished before waitTime
