[INFO -- 2018-11-27 17:51:43]
Starting flip_value script
version: 1.1
[INFO -- 2018-11-27 17:51:43]
Initialization strings:
[INFO -- 2018-11-27 17:51:43]
(1) file /tmp/lreg/lreg
[INFO -- 2018-11-27 17:51:43]
(2) set args /tmp/lreg/randInput /tmp/lreg/output
[INFO -- 2018-11-27 17:51:43]
initSignal:0
[INFO -- 2018-11-27 17:51:43]
endSignal:3
[INFO -- 2018-11-27 17:51:43]
faultModel:1
[INFO -- 2018-11-27 17:51:43]
Backtrace BEGIN:
#0  0x00005555555557dc in predict (v=-12) at lreg.cpp:116
#1  0x0000555555555928 in meanSquaredError () at lreg.cpp:128
#2  0x0000555555555ee5 in train (iter1=10000, iter2=10000, N=2, alpha1=0.00020000000000000001, alpha2=0.00020000000000000001, stopsWhenStable=true) at lreg.cpp:194
#3  0x0000555555556467 in main (argc=3, argv=0x7fffffffde58) at lreg.cpp:253

111	*/
112	double predict(double v){
113		double val = 0;
114		
115		for(UINT i1 = 0, i2 = 0; verifyUintDup(i1, i2)<T1.size(); i1++, i2++){
116			val+= (verifyDoubleDup(T1[verifyUintDup(i1, i2)], T2[verifyUintDup(i1, i2)]) * pow(v, verifyUintDup(i1, i2)));
117		}
118		return val;
119		
120	}

Backtrace END
Memory content before bitflip:0x000x000x000x000x000x000x400x40
Fault Model: Double bit-flip
base address to flip value: 0x7fffffffd928
address max offset: 8
Memory content after  bitflip:0x000x000x000x000x000x000x700x40
frame name: main
symbol name: yChecksum
symbol filename: lreg.cpp
symbol line: 233
value: 256
value address: 0x7fffffffd928
Type: A floating point type.
Type sizeof: 8

[INFO -- 2018-11-27 17:51:43]
Fault Injection Successful after 0.956446647644043s
[INFO -- 2018-11-27 17:51:45]
event type: exit
[INFO -- 2018-11-27 17:51:45]
exit code: 0
