[INFO -- 2018-11-25 14:52:43]
Starting GDB script
[INFO -- 2018-11-25 14:52:43]
initSignal:0.0
[INFO -- 2018-11-25 14:52:43]
endSignal:6.0
[INFO -- 2018-11-25 14:52:45]
sending 5 signals using command: 'killall -2 lreg' after 2.22632679836s
[INFO -- 2018-11-25 14:52:45]
sending 5 signals using command: 'killall -2 lreg' after 2.30038895626s
[INFO -- 2018-11-25 14:52:47]
sending 5 signals using command: 'killall -2 lreg' after 4.74787575722s
[INFO -- 2018-11-25 14:52:48]
Execution finished before waitTime
