[INFO -- 2018-11-25 12:40:48]
Starting flip_value script
version: 1.1
[INFO -- 2018-11-25 12:40:48]
Initialization strings:
[INFO -- 2018-11-25 12:40:48]
(1) file /tmp/lreg/lreg
[INFO -- 2018-11-25 12:40:48]
(2) set args /tmp/lreg/randInput /tmp/lreg/output /tmp/lreg/detected.log
[INFO -- 2018-11-25 12:40:48]
initSignal:0
[INFO -- 2018-11-25 12:40:48]
endSignal:6
[INFO -- 2018-11-25 12:40:48]
faultModel:2
[INFO -- 2018-11-25 12:40:50]
event type: exit
[INFO -- 2018-11-25 12:40:50]
exit code: 0
