[INFO -- 2018-11-27 16:28:39]
Starting GDB script
[INFO -- 2018-11-27 16:28:39]
initSignal:0.0
[INFO -- 2018-11-27 16:28:39]
endSignal:3.0
[INFO -- 2018-11-27 16:28:40]
sending 5 signals using command: 'killall -2 lreg' after 0.256826938306s
[INFO -- 2018-11-27 16:28:42]
sending 5 signals using command: 'killall -2 lreg' after 1.32654500205s
[INFO -- 2018-11-27 16:28:42]
sending 5 signals using command: 'killall -2 lreg' after 1.41004647373s
[INFO -- 2018-11-27 16:28:42]
Execution finished before waitTime
