[INFO -- 2018-11-22 15:56:06]
Starting GDB script
[INFO -- 2018-11-22 15:56:06]
initSignal:0.0
[INFO -- 2018-11-22 15:56:06]
endSignal:3.0
[INFO -- 2018-11-22 15:56:08]
sending 5 signals using command: 'killall -2 lreg' after 1.55543532684s
[INFO -- 2018-11-22 15:56:08]
sending 5 signals using command: 'killall -2 lreg' after 1.632199783s
[INFO -- 2018-11-22 15:56:09]
sending 5 signals using command: 'killall -2 lreg' after 2.84549322238s
[INFO -- 2018-11-22 15:56:12]
Execution finished before waitTime
