[INFO -- 2018-11-25 19:36:59]
Starting GDB script
[INFO -- 2018-11-25 19:36:59]
initSignal:0.0
[INFO -- 2018-11-25 19:36:59]
endSignal:6.0
[INFO -- 2018-11-25 19:37:00]
sending 5 signals using command: 'killall -2 lreg' after 1.29397657884s
[INFO -- 2018-11-25 19:37:03]
sending 5 signals using command: 'killall -2 lreg' after 4.09811853654s
[INFO -- 2018-11-25 19:37:05]
sending 5 signals using command: 'killall -2 lreg' after 3.30277107921s
[INFO -- 2018-11-25 19:37:05]
Execution finished before waitTime
