[INFO -- 2018-11-29 14:40:47]
Starting flip_value script
version: 1.1
[INFO -- 2018-11-29 14:40:47]
Initialization strings:
[INFO -- 2018-11-29 14:40:47]
(1) file /tmp/lreg/lreg
[INFO -- 2018-11-29 14:40:47]
(2) set args /tmp/lreg/randInput /tmp/lreg/output /tmp/lreg/detected.log
[INFO -- 2018-11-29 14:40:47]
initSignal:0
[INFO -- 2018-11-29 14:40:47]
endSignal:6
[INFO -- 2018-11-29 14:40:47]
faultModel:2
[INFO -- 2018-11-29 14:40:49]
event type: exit
[INFO -- 2018-11-29 14:40:49]
exit code: 0
