[INFO -- 2018-11-27 16:20:50]
Starting GDB script
[INFO -- 2018-11-27 16:20:50]
initSignal:0.0
[INFO -- 2018-11-27 16:20:50]
endSignal:3.0
[INFO -- 2018-11-27 16:20:51]
sending 5 signals using command: 'killall -2 lreg' after 0.424432301908s
[INFO -- 2018-11-27 16:20:52]
sending 5 signals using command: 'killall -2 lreg' after 1.80285827192s
[INFO -- 2018-11-27 16:20:52]
sending 5 signals using command: 'killall -2 lreg' after 2.00847996532s
[INFO -- 2018-11-27 16:20:58]
Execution finished before waitTime
