[INFO -- 2018-11-25 18:46:23]
sending 5 signals using command: 'killall -2 lreg' after 3.63993180987s
[INFO -- 2018-11-25 18:46:24]
sending 5 signals using command: 'killall -2 lreg' after 4.7790888324s
[INFO -- 2018-11-25 18:46:24]
Starting GDB script
[INFO -- 2018-11-25 18:46:24]
initSignal:0.0
[INFO -- 2018-11-25 18:46:24]
endSignal:6.0
[INFO -- 2018-11-25 18:46:24]
sending 5 signals using command: 'killall -2 lreg' after 0.179741013524s
[INFO -- 2018-11-25 18:46:24]
sending 5 signals using command: 'killall -2 lreg' after 0.320957605682s
[INFO -- 2018-11-25 18:46:27]
sending 5 signals using command: 'killall -2 lreg' after 1.5607720862s
[INFO -- 2018-11-25 18:46:28]
Execution finished before waitTime
