[INFO -- 2018-11-23 21:51:40]
Starting GDB script
[INFO -- 2018-11-23 21:51:40]
initSignal:0.0
[INFO -- 2018-11-23 21:51:40]
endSignal:3.0
[INFO -- 2018-11-23 21:51:40]
sending 5 signals using command: 'killall -2 lreg' after 0.491984372313s
[INFO -- 2018-11-23 21:51:42]
sending 5 signals using command: 'killall -2 lreg' after 1.59244596607s
[INFO -- 2018-11-23 21:51:42]
sending 5 signals using command: 'killall -2 lreg' after 2.46337558994s
[INFO -- 2018-11-23 21:51:42]
Execution finished before waitTime
