[INFO -- 2018-11-22 15:37:25]
Starting GDB script
[INFO -- 2018-11-22 15:37:25]
initSignal:0.0
[INFO -- 2018-11-22 15:37:25]
endSignal:3.0
[INFO -- 2018-11-22 15:37:25]
sending 5 signals using command: 'killall -2 lreg' after 0.483542849386s
[INFO -- 2018-11-22 15:37:25]
sending 5 signals using command: 'killall -2 lreg' after 0.683230997695s
[INFO -- 2018-11-22 15:37:27]
sending 5 signals using command: 'killall -2 lreg' after 2.42371106459s
[INFO -- 2018-11-22 15:37:31]
Execution finished before waitTime
