[INFO -- 2018-11-23 19:26:15]
sending 5 signals using command: 'killall -2 lreg' after 2.72600159494s
[INFO -- 2018-11-23 19:26:15]
Starting GDB script
[INFO -- 2018-11-23 19:26:15]
initSignal:0.0
[INFO -- 2018-11-23 19:26:15]
endSignal:3.0
[INFO -- 2018-11-23 19:26:15]
sending 5 signals using command: 'killall -2 lreg' after 0.231061427975s
[INFO -- 2018-11-23 19:26:16]
sending 5 signals using command: 'killall -2 lreg' after 1.13455148103s
[INFO -- 2018-11-23 19:26:17]
Execution finished before waitTime
