[INFO -- 2018-11-25 14:10:56]
Starting flip_value script
version: 1.1
[INFO -- 2018-11-25 14:10:56]
Initialization strings:
[INFO -- 2018-11-25 14:10:56]
(1) file /tmp/lreg/lreg
[INFO -- 2018-11-25 14:10:56]
(2) set args /tmp/lreg/randInput /tmp/lreg/output /tmp/lreg/detected.log
[INFO -- 2018-11-25 14:10:56]
initSignal:0
[INFO -- 2018-11-25 14:10:56]
endSignal:6
[INFO -- 2018-11-25 14:10:56]
faultModel:0
[INFO -- 2018-11-25 14:10:57]
Backtrace BEGIN:
#0  0x00007ffff76da65b in __ieee754_pow_sse2 (x=18, y=3) at ../sysdeps/ieee754/dbl-64/e_pow.c:101
#1  0x00007ffff76db6be in __ieee754_pow_sse2 (x=<optimized out>, y=<optimized out>) at ../sysdeps/ieee754/dbl-64/e_pow.c:184
#2  0x00007ffff76bcb14 in __pow (x=-18, y=3) at w_pow_compat.c:30
#3  0x000055555555621b in std::pow<double, int> (__x=-18, __y=3) at /usr/include/c++/7/cmath:418
#4  0x0000555555555451 in partialDerivate (pos=3) at lreg.cpp:74
#5  0x0000555555555503 in adjust (alpha=2.2222199999999999e-05) at lreg.cpp:87
#6  0x00005555555556ac in train (iterations=30000, alpha=2.2222199999999999e-05, N=4, stopsWhenStable=true) at lreg.cpp:120
#7  0x0000555555555a1c in execute (input=0x7fffffffe1f1 "/tmp/lreg/randInput") at lreg.cpp:157
#8  0x0000555555555c78 in main (argc=4, argv=0x7fffffffde48) at lreg.cpp:193

96	../sysdeps/ieee754/dbl-64/e_pow.c: No such file or directory.

Backtrace END
Memory content before bitflip:0x460x5a0xb70xf40x390x4d0xf70x3e
Fault Model: Single bit-flip
base address to flip value: 0x7fffffffd518
address max offset: 8
Memory content after  bitflip:0x460x5a0xb70xf40x390x4d0xf70xbe
frame name: adjust
symbol name: alpha
symbol filename: lreg.cpp
symbol line: 83
value: -2.2222199999999999e-05
value address: 0x7fffffffd518
Type: A floating point type.
Type sizeof: 8

[INFO -- 2018-11-25 14:10:57]
Fault Injection Successful after 1.2369587421417236s
[INFO -- 2018-11-25 14:10:59]
event type: exit
[INFO -- 2018-11-25 14:10:59]
exit code: 0
