[INFO -- 2018-11-26 17:11:22]
Starting GDB script
[INFO -- 2018-11-26 17:11:22]
initSignal:0.0
[INFO -- 2018-11-26 17:11:22]
endSignal:3.0
[INFO -- 2018-11-26 17:11:22]
sending 5 signals using command: 'killall -2 lreg' after 0.0726459459119s
[INFO -- 2018-11-26 17:11:23]
sending 5 signals using command: 'killall -2 lreg' after 1.7987992859s
[INFO -- 2018-11-26 17:11:23]
sending 5 signals using command: 'killall -2 lreg' after 1.98088115067s
[INFO -- 2018-11-26 17:11:28]
Execution finished before waitTime
