[INFO -- 2018-11-24 09:35:19]
Starting flip_value script
version: 1.1
[INFO -- 2018-11-24 09:35:19]
Initialization strings:
[INFO -- 2018-11-24 09:35:19]
(1) file /tmp/lreg/lreg
[INFO -- 2018-11-24 09:35:19]
(2) set args /tmp/lreg/randInput /tmp/lreg/output
[INFO -- 2018-11-24 09:35:19]
initSignal:0
[INFO -- 2018-11-24 09:35:19]
endSignal:2
[INFO -- 2018-11-24 09:35:19]
faultModel:1
[INFO -- 2018-11-24 09:35:20]
Backtrace BEGIN:
#0  __gnu_cxx::new_allocator<double>::max_size (this=0x5555555577ad <std::copy<__gnu_cxx::__normal_iterator<double const*, std::vector<double, std::allocator<double> > >, double*>(__gnu_cxx::__normal_iterator<double const*, std::vector<double, std::allocator<double> > >, __gnu_cxx::__normal_iterator<double const*, std::vector<double, std::allocator<double> > >, double*)+69>) at /usr/include/c++/7/ext/new_allocator.h:129
#1  0x00005555555577d4 in __gnu_cxx::new_allocator<double>::allocate (this=0x7fffffffd880, __n=3) at /usr/include/c++/7/ext/new_allocator.h:101
#2  0x000055555555757d in std::allocator_traits<std::allocator<double> >::allocate (__a=..., __n=3) at /usr/include/c++/7/bits/alloc_traits.h:436
#3  0x0000555555557054 in std::_Vector_base<double, std::allocator<double> >::_M_allocate (this=0x7fffffffd880, __n=3) at /usr/include/c++/7/bits/stl_vector.h:172
#4  0x0000555555556db9 in std::_Vector_base<double, std::allocator<double> >::_M_create_storage (this=0x7fffffffd880, __n=3) at /usr/include/c++/7/bits/stl_vector.h:187
#5  0x0000555555556489 in std::_Vector_base<double, std::allocator<double> >::_Vector_base (this=0x7fffffffd880, __n=3, __a=...) at /usr/include/c++/7/bits/stl_vector.h:138
#6  0x0000555555555f35 in std::vector<double, std::allocator<double> >::vector (this=0x7fffffffd880, __x=std::vector of length 3, capacity 3 = {...}) at /usr/include/c++/7/bits/stl_vector.h:328
#7  0x00005555555556db in train (iterations=20000, alpha=5.0000000000000002e-05, N=3, stopsWhenStable=true) at lreg.cpp:126
#8  0x0000555555555ab7 in main (argc=3, argv=0x7fffffffde58) at lreg.cpp:174

124	#endif
125		::operator delete(__p);
126	      }
127	
128	      size_type
129	      max_size() const _GLIBCXX_USE_NOEXCEPT
130	      { return size_t(-1) / sizeof(_Tp); }
131	
132	#if __cplusplus >= 201103L
133	      template<typename _Up, typename... _Args>

Backtrace END
Fliping a bit of the pointer
Memory content before bitflip:0xad0x770x550x550x550x550x000x00
Fault Model: Double bit-flip
base address to flip value: 0x7fffffffd6c8
address max offset: 8
Memory content after  bitflip:0xad0x770x440x550x550x550x000x00
frame name: __gnu_cxx::new_allocator<double>::max_size
symbol name: this
symbol filename: lreg.cpp
symbol line: 0
value: 0x5555555577ad <std::copy<__gnu_cxx::__normal_iterator<double const*, std::vector<double, std::allocator<double> > >, double*>(__gnu_cxx::__normal_iterator<double const*, std::vector<double, std::allocator<double> > >, __gnu_cxx::__normal_iterator<double const*, std::vector<double, std::allocator<double> > >, double*)+69>
value address: 0x7fffffffd6c8
Type: The type is a pointer.
Type sizeof: 8

[INFO -- 2018-11-24 09:35:20]
Fault Injection Successful after 1.2931385040283203s
[INFO -- 2018-11-24 09:35:21]
event type: exit
[INFO -- 2018-11-24 09:35:21]
exit code: 0
