[INFO -- 2018-11-23 18:32:46]
Starting GDB script
[INFO -- 2018-11-23 18:32:46]
initSignal:0.0
[INFO -- 2018-11-23 18:32:46]
endSignal:3.0
[INFO -- 2018-11-23 18:32:46]
sending 5 signals using command: 'killall -2 lreg' after 0.703443341335s
[INFO -- 2018-11-23 18:32:47]
sending 5 signals using command: 'killall -2 lreg' after 0.962358082667s
[INFO -- 2018-11-23 18:32:47]
sending 5 signals using command: 'killall -2 lreg' after 1.0801038954s
[INFO -- 2018-11-23 18:32:50]
Execution finished before waitTime
