[INFO -- 2018-11-24 18:26:33]
Starting flip_value script
version: 1.1
[INFO -- 2018-11-24 18:26:33]
Initialization strings:
[INFO -- 2018-11-24 18:26:33]
(1) file /tmp/lreg/lreg
[INFO -- 2018-11-24 18:26:33]
(2) set args /tmp/lreg/randInput /tmp/lreg/output /tmp/lreg/detected.log
[INFO -- 2018-11-24 18:26:33]
initSignal:0
[INFO -- 2018-11-24 18:26:33]
endSignal:6
[INFO -- 2018-11-24 18:26:33]
faultModel:1
[EXCEPTION -- 2018-11-24 18:26:34]
pythonException: Unable to exit loop in struct fields; Exiting wihtout making a bit flip
[EXCEPTION -- 2018-11-24 18:26:35]
pythonException: Unable to exit loop in struct fields; Exiting wihtout making a bit flip
[INFO -- 2018-11-24 18:26:38]
Backtrace BEGIN:
#0  0x0000555555555419 in partialDerivate (pos=1) at lreg.cpp:74
#1  0x0000555555555503 in adjust (alpha=2.2222199999999999e-05) at lreg.cpp:87
#2  0x00005555555556ac in train (iterations=30000, alpha=2.2222199999999999e-05, N=4, stopsWhenStable=true) at lreg.cpp:120
#3  0x0000555555555a1c in execute (input=0x7fffffffe1f2 "/tmp/lreg/randInput") at lreg.cpp:157
#4  0x0000555555555cb0 in main (argc=4, argv=0x7fffffffde48) at lreg.cpp:196

69		to the adjustment variable whose position in T is passed in pos
70	*/
71	double partialDerivate(int pos){
72		double pD = 0;
73		for(int i = 0; i<x.size(); i++){
74			pD += ((predict(x[i]) - y[i])*pow(x[i], pos));	
75		}
76		pD *= (2.0/x.size());
77		return pD;
78	}

Backtrace END
Fliping value of field: std::_Vector_base<double, std::allocator<double> >
Fliping value of field: _M_impl
Fliping value of field: _M_end_of_storage
Fliping a bit of the pointer
Memory content before bitflip:0xc00x250x770x550x550x550x000x00
Fault Model: Double bit-flip
base address to flip value: 0x55555575b170 
address max offset: 8
Memory content after  bitflip:0xc00x250x770x1d0x550x550x000x00
frame name: execute
symbol name: y
symbol filename: lreg.cpp
symbol line: 33
value: std::vector of length 16, capacity -117440496 = {13145, 2813, 13, -99407, -575, 22793, -121267, 15973, 22793, 86413, -63895, 10673, -1507, 41, 19181, -38047}
value address: 0x55555575b160 <y>
Type: The type is a structure.
Type sizeof: 24
Field name: std::_Vector_base<double, std::allocator<double> >
Field Type: The type is a structure.
Field Type sizeof: 24

[INFO -- 2018-11-24 18:26:38]
Fault Injection Successful after 5.095992803573608s
[INFO -- 2018-11-24 18:26:38]
event type: exit
[INFO -- 2018-11-24 18:26:38]
exit code: 0
